%!PS-Adobe-3.0 EPSF-3.0
%%Creator: (MATLAB, The Mathworks, Inc. Version 9.3.0.713579 \(R2017b\). Operating System: Mac OS X)
%%Title: ./Output/individual_regret_evolution_TS.eps
%%CreationDate: 2018-03-15T12:29:19
%%Pages: (atend)
%%BoundingBox:    11    14   475   335
%%LanguageLevel: 3
%%EndComments
%%BeginProlog
%%BeginResource: procset (Apache XML Graphics Std ProcSet) 1.2 0
%%Version: 1.2 0
%%Copyright: (Copyright 2001-2003,2010 The Apache Software Foundation. License terms: http://www.apache.org/licenses/LICENSE-2.0)
/bd{bind def}bind def
/ld{load def}bd
/GR/grestore ld
/GS/gsave ld
/RM/rmoveto ld
/C/curveto ld
/t/show ld
/L/lineto ld
/ML/setmiterlimit ld
/CT/concat ld
/f/fill ld
/N/newpath ld
/S/stroke ld
/CC/setcmykcolor ld
/A/ashow ld
/cp/closepath ld
/RC/setrgbcolor ld
/LJ/setlinejoin ld
/GC/setgray ld
/LW/setlinewidth ld
/M/moveto ld
/re {4 2 roll M
1 index 0 rlineto
0 exch rlineto
neg 0 rlineto
cp } bd
/_ctm matrix def
/_tm matrix def
/BT { _ctm currentmatrix pop matrix _tm copy pop 0 0 moveto } bd
/ET { _ctm setmatrix } bd
/iTm { _ctm setmatrix _tm concat } bd
/Tm { _tm astore pop iTm 0 0 moveto } bd
/ux 0.0 def
/uy 0.0 def
/F {
  /Tp exch def
  /Tf exch def
  Tf findfont Tp scalefont setfont
  /cf Tf def  /cs Tp def
} bd
/ULS {currentpoint /uy exch def /ux exch def} bd
/ULE {
  /Tcx currentpoint pop def
  gsave
  newpath
  cf findfont cs scalefont dup
  /FontMatrix get 0 get /Ts exch def /FontInfo get dup
  /UnderlinePosition get Ts mul /To exch def
  /UnderlineThickness get Ts mul /Tt exch def
  ux uy To add moveto  Tcx uy To add lineto
  Tt setlinewidth stroke
  grestore
} bd
/OLE {
  /Tcx currentpoint pop def
  gsave
  newpath
  cf findfont cs scalefont dup
  /FontMatrix get 0 get /Ts exch def /FontInfo get dup
  /UnderlinePosition get Ts mul /To exch def
  /UnderlineThickness get Ts mul /Tt exch def
  ux uy To add cs add moveto Tcx uy To add cs add lineto
  Tt setlinewidth stroke
  grestore
} bd
/SOE {
  /Tcx currentpoint pop def
  gsave
  newpath
  cf findfont cs scalefont dup
  /FontMatrix get 0 get /Ts exch def /FontInfo get dup
  /UnderlinePosition get Ts mul /To exch def
  /UnderlineThickness get Ts mul /Tt exch def
  ux uy To add cs 10 mul 26 idiv add moveto Tcx uy To add cs 10 mul 26 idiv add lineto
  Tt setlinewidth stroke
  grestore
} bd
/QT {
/Y22 exch store
/X22 exch store
/Y21 exch store
/X21 exch store
currentpoint
/Y21 load 2 mul add 3 div exch
/X21 load 2 mul add 3 div exch
/X21 load 2 mul /X22 load add 3 div
/Y21 load 2 mul /Y22 load add 3 div
/X22 load /Y22 load curveto
} bd
/SSPD {
dup length /d exch dict def
{
/v exch def
/k exch def
currentpagedevice k known {
/cpdv currentpagedevice k get def
v cpdv ne {
/upd false def
/nullv v type /nulltype eq def
/nullcpdv cpdv type /nulltype eq def
nullv nullcpdv or
{
/upd true def
} {
/sametype v type cpdv type eq def
sametype {
v type /arraytype eq {
/vlen v length def
/cpdvlen cpdv length def
vlen cpdvlen eq {
0 1 vlen 1 sub {
/i exch def
/obj v i get def
/cpdobj cpdv i get def
obj cpdobj ne {
/upd true def
exit
} if
} for
} {
/upd true def
} ifelse
} {
v type /dicttype eq {
v {
/dv exch def
/dk exch def
/cpddv cpdv dk get def
dv cpddv ne {
/upd true def
exit
} if
} forall
} {
/upd true def
} ifelse
} ifelse
} if
} ifelse
upd true eq {
d k v put
} if
} if
} if
} forall
d length 0 gt {
d setpagedevice
} if
} bd
/RE { % /NewFontName [NewEncodingArray] /FontName RE -
  findfont dup length dict begin
  {
    1 index /FID ne
    {def} {pop pop} ifelse
  } forall
  /Encoding exch def
  /FontName 1 index def
  currentdict definefont pop
  end
} bind def
%%EndResource
%%BeginResource: procset (Apache XML Graphics EPS ProcSet) 1.0 0
%%Version: 1.0 0
%%Copyright: (Copyright 2002-2003 The Apache Software Foundation. License terms: http://www.apache.org/licenses/LICENSE-2.0)
/BeginEPSF { %def
/b4_Inc_state save def         % Save state for cleanup
/dict_count countdictstack def % Count objects on dict stack
/op_count count 1 sub def      % Count objects on operand stack
userdict begin                 % Push userdict on dict stack
/showpage { } def              % Redefine showpage, { } = null proc
0 setgray 0 setlinecap         % Prepare graphics state
1 setlinewidth 0 setlinejoin
10 setmiterlimit [ ] 0 setdash newpath
/languagelevel where           % If level not equal to 1 then
{pop languagelevel             % set strokeadjust and
1 ne                           % overprint to their defaults.
{false setstrokeadjust false setoverprint
} if
} if
} bd
/EndEPSF { %def
count op_count sub {pop} repeat            % Clean up stacks
countdictstack dict_count sub {end} repeat
b4_Inc_state restore
} bd
%%EndResource
%FOPBeginFontDict
%%IncludeResource: font Courier-Oblique
%%IncludeResource: font Courier-BoldOblique
%%IncludeResource: font Courier-Bold
%%IncludeResource: font ZapfDingbats
%%IncludeResource: font Symbol
%%IncludeResource: font Helvetica
%%IncludeResource: font Helvetica-Oblique
%%IncludeResource: font Helvetica-Bold
%%IncludeResource: font Helvetica-BoldOblique
%%IncludeResource: font Times-Roman
%%IncludeResource: font Times-Italic
%%IncludeResource: font Times-Bold
%%IncludeResource: font Times-BoldItalic
%%IncludeResource: font Courier
%FOPEndFontDict
%%BeginResource: encoding WinAnsiEncoding
/WinAnsiEncoding [
/.notdef /.notdef /.notdef /.notdef /.notdef
/.notdef /.notdef /.notdef /.notdef /.notdef
/.notdef /.notdef /.notdef /.notdef /.notdef
/.notdef /.notdef /.notdef /.notdef /.notdef
/.notdef /.notdef /.notdef /.notdef /.notdef
/.notdef /.notdef /.notdef /.notdef /.notdef
/.notdef /.notdef /space /exclam /quotedbl
/numbersign /dollar /percent /ampersand /quotesingle
/parenleft /parenright /asterisk /plus /comma
/hyphen /period /slash /zero /one
/two /three /four /five /six
/seven /eight /nine /colon /semicolon
/less /equal /greater /question /at
/A /B /C /D /E
/F /G /H /I /J
/K /L /M /N /O
/P /Q /R /S /T
/U /V /W /X /Y
/Z /bracketleft /backslash /bracketright /asciicircum
/underscore /quoteleft /a /b /c
/d /e /f /g /h
/i /j /k /l /m
/n /o /p /q /r
/s /t /u /v /w
/x /y /z /braceleft /bar
/braceright /asciitilde /bullet /Euro /bullet
/quotesinglbase /florin /quotedblbase /ellipsis /dagger
/daggerdbl /circumflex /perthousand /Scaron /guilsinglleft
/OE /bullet /Zcaron /bullet /bullet
/quoteleft /quoteright /quotedblleft /quotedblright /bullet
/endash /emdash /asciitilde /trademark /scaron
/guilsinglright /oe /bullet /zcaron /Ydieresis
/space /exclamdown /cent /sterling /currency
/yen /brokenbar /section /dieresis /copyright
/ordfeminine /guillemotleft /logicalnot /sfthyphen /registered
/macron /degree /plusminus /twosuperior /threesuperior
/acute /mu /paragraph /middot /cedilla
/onesuperior /ordmasculine /guillemotright /onequarter /onehalf
/threequarters /questiondown /Agrave /Aacute /Acircumflex
/Atilde /Adieresis /Aring /AE /Ccedilla
/Egrave /Eacute /Ecircumflex /Edieresis /Igrave
/Iacute /Icircumflex /Idieresis /Eth /Ntilde
/Ograve /Oacute /Ocircumflex /Otilde /Odieresis
/multiply /Oslash /Ugrave /Uacute /Ucircumflex
/Udieresis /Yacute /Thorn /germandbls /agrave
/aacute /acircumflex /atilde /adieresis /aring
/ae /ccedilla /egrave /eacute /ecircumflex
/edieresis /igrave /iacute /icircumflex /idieresis
/eth /ntilde /ograve /oacute /ocircumflex
/otilde /odieresis /divide /oslash /ugrave
/uacute /ucircumflex /udieresis /yacute /thorn
/ydieresis
] def
%%EndResource
%FOPBeginFontReencode
/Courier-Oblique findfont
dup length dict begin
  {1 index /FID ne {def} {pop pop} ifelse} forall
  /Encoding WinAnsiEncoding def
  currentdict
end
/Courier-Oblique exch definefont pop
/Courier-BoldOblique findfont
dup length dict begin
  {1 index /FID ne {def} {pop pop} ifelse} forall
  /Encoding WinAnsiEncoding def
  currentdict
end
/Courier-BoldOblique exch definefont pop
/Courier-Bold findfont
dup length dict begin
  {1 index /FID ne {def} {pop pop} ifelse} forall
  /Encoding WinAnsiEncoding def
  currentdict
end
/Courier-Bold exch definefont pop
/Helvetica findfont
dup length dict begin
  {1 index /FID ne {def} {pop pop} ifelse} forall
  /Encoding WinAnsiEncoding def
  currentdict
end
/Helvetica exch definefont pop
/Helvetica-Oblique findfont
dup length dict begin
  {1 index /FID ne {def} {pop pop} ifelse} forall
  /Encoding WinAnsiEncoding def
  currentdict
end
/Helvetica-Oblique exch definefont pop
/Helvetica-Bold findfont
dup length dict begin
  {1 index /FID ne {def} {pop pop} ifelse} forall
  /Encoding WinAnsiEncoding def
  currentdict
end
/Helvetica-Bold exch definefont pop
/Helvetica-BoldOblique findfont
dup length dict begin
  {1 index /FID ne {def} {pop pop} ifelse} forall
  /Encoding WinAnsiEncoding def
  currentdict
end
/Helvetica-BoldOblique exch definefont pop
/Times-Roman findfont
dup length dict begin
  {1 index /FID ne {def} {pop pop} ifelse} forall
  /Encoding WinAnsiEncoding def
  currentdict
end
/Times-Roman exch definefont pop
/Times-Italic findfont
dup length dict begin
  {1 index /FID ne {def} {pop pop} ifelse} forall
  /Encoding WinAnsiEncoding def
  currentdict
end
/Times-Italic exch definefont pop
/Times-Bold findfont
dup length dict begin
  {1 index /FID ne {def} {pop pop} ifelse} forall
  /Encoding WinAnsiEncoding def
  currentdict
end
/Times-Bold exch definefont pop
/Times-BoldItalic findfont
dup length dict begin
  {1 index /FID ne {def} {pop pop} ifelse} forall
  /Encoding WinAnsiEncoding def
  currentdict
end
/Times-BoldItalic exch definefont pop
/Courier findfont
dup length dict begin
  {1 index /FID ne {def} {pop pop} ifelse} forall
  /Encoding WinAnsiEncoding def
  currentdict
end
/Courier exch definefont pop
%FOPEndFontReencode
%%EndProlog
%%Page: 1 1
%%PageBoundingBox: 0 0 500 350
%%BeginPageSetup
[1 0 0 -1 0 350] CT
%%EndPageSetup
GS
1 GC
N
0 0 500 350 re
f
GR
GS
1 GC
N
0 0 500 350 re
f
GR
GS
1 GC
N
65 115 M
453 115 L
453 44 L
65 44 L
cp
f
GR
GS
0.149 GC
2 setlinecap
1 LJ
0.5 LW
N
65 115 M
453 115 L
S
GR
GS
0.149 GC
2 setlinecap
1 LJ
0.5 LW
N
65 44 M
453 44 L
S
GR
GS
0.149 GC
2 setlinecap
1 LJ
0.5 LW
N
65 115 M
65 111.12 L
S
GR
GS
0.149 GC
2 setlinecap
1 LJ
0.5 LW
N
142.6 115 M
142.6 111.12 L
S
GR
GS
0.149 GC
2 setlinecap
1 LJ
0.5 LW
N
220.2 115 M
220.2 111.12 L
S
GR
GS
0.149 GC
2 setlinecap
1 LJ
0.5 LW
N
297.8 115 M
297.8 111.12 L
S
GR
GS
0.149 GC
2 setlinecap
1 LJ
0.5 LW
N
375.4 115 M
375.4 111.12 L
S
GR
GS
0.149 GC
2 setlinecap
1 LJ
0.5 LW
N
453 115 M
453 111.12 L
S
GR
GS
0.149 GC
2 setlinecap
1 LJ
0.5 LW
N
65 44 M
65 47.88 L
S
GR
GS
0.149 GC
2 setlinecap
1 LJ
0.5 LW
N
142.6 44 M
142.6 47.88 L
S
GR
GS
0.149 GC
2 setlinecap
1 LJ
0.5 LW
N
220.2 44 M
220.2 47.88 L
S
GR
GS
0.149 GC
2 setlinecap
1 LJ
0.5 LW
N
297.8 44 M
297.8 47.88 L
S
GR
GS
0.149 GC
2 setlinecap
1 LJ
0.5 LW
N
375.4 44 M
375.4 47.88 L
S
GR
GS
0.149 GC
2 setlinecap
1 LJ
0.5 LW
N
453 44 M
453 47.88 L
S
GR
GS
[1 0 0 1 65 121.4] CT
0.149 GC
/Times-Roman 22 F
GS
[1 0 0 1 0 0] CT
-5.5 20 moveto 
1 -1 scale
(0) t 
GR
GR
GS
[1 0 0 1 142.60001 121.4] CT
0.149 GC
/Times-Roman 22 F
GS
[1 0 0 1 0 0] CT
-16.5 20 moveto 
1 -1 scale
(200) t 
GR
GR
GS
[1 0 0 1 220.2 121.4] CT
0.149 GC
/Times-Roman 22 F
GS
[1 0 0 1 0 0] CT
-16.5 20 moveto 
1 -1 scale
(400) t 
GR
GR
GS
[1 0 0 1 297.79999 121.4] CT
0.149 GC
/Times-Roman 22 F
GS
[1 0 0 1 0 0] CT
-16.5 20 moveto 
1 -1 scale
(600) t 
GR
GR
GS
[1 0 0 1 375.39999 121.4] CT
0.149 GC
/Times-Roman 22 F
GS
[1 0 0 1 0 0] CT
-16.5 20 moveto 
1 -1 scale
(800) t 
GR
GR
GS
[1 0 0 1 453 121.4] CT
0.149 GC
/Times-Roman 22 F
GS
[1 0 0 1 0 0] CT
-22 20 moveto 
1 -1 scale
(1000) t 
GR
GR
GS
[1 0 0 1 259.00018 147.39999] CT
0.149 GC
/Times-Roman 24 F
GS
[1 0 0 1 0 0] CT
-57 22 moveto 
1 -1 scale
(TS iteration) t 
GR
GR
GS
0.149 GC
2 setlinecap
1 LJ
0.5 LW
N
65 115 M
65 44 L
S
GR
GS
0.149 GC
2 setlinecap
1 LJ
0.5 LW
N
453 115 M
453 44 L
S
GR
GS
0.149 GC
2 setlinecap
1 LJ
0.5 LW
N
65 115 M
68.88 115 L
S
GR
GS
0.149 GC
2 setlinecap
1 LJ
0.5 LW
N
65 79.5 M
68.88 79.5 L
S
GR
GS
0.149 GC
2 setlinecap
1 LJ
0.5 LW
N
65 44 M
68.88 44 L
S
GR
GS
0.149 GC
2 setlinecap
1 LJ
0.5 LW
N
453 115 M
449.12 115 L
S
GR
GS
0.149 GC
2 setlinecap
1 LJ
0.5 LW
N
453 79.5 M
449.12 79.5 L
S
GR
GS
0.149 GC
2 setlinecap
1 LJ
0.5 LW
N
453 44 M
449.12 44 L
S
GR
GS
[1 0 0 1 58.6 115] CT
0.149 GC
/Times-Roman 22 F
GS
[1 0 0 1 0 0] CT
-11 7.5 moveto 
1 -1 scale
(0) t 
GR
GR
GS
[1 0 0 1 58.6 79.5] CT
0.149 GC
/Times-Roman 22 F
GS
[1 0 0 1 0 0] CT
-22 7.5 moveto 
1 -1 scale
(20) t 
GR
GR
GS
[1 0 0 1 58.6 44] CT
0.149 GC
/Times-Roman 22 F
GS
[1 0 0 1 0 0] CT
-22 7.5 moveto 
1 -1 scale
(40) t 
GR
GR
GS
[0 -1 1 0 33.6 79.49997] CT
0.149 GC
/Times-Roman 24 F
GS
[1 0 0 1 0 0] CT
-32 -6 moveto 
1 -1 scale
(Regret) t 
GR
GR
GS
[1 0 0 1 259.00024 37.95] CT
/Times-Bold 24.2 F
GS
[1 0 0 1 0 0] CT
-47 -6 moveto 
1 -1 scale
(WLAN 1) t 
GR
GR
GS
0 0.447 0.741 RC
1 LJ
0.5 LW
N
65.388 115 M
65.776 115 L
66.164 115 L
66.552 113.91 L
66.94 112.821 L
67.328 111.951 L
67.716 110.884 L
68.104 109.818 L
68.492 108.751 L
68.88 107.583 L
69.268 106.57 L
69.656 105.481 L
70.044 104.391 L
70.432 103.603 L
70.82 102.637 L
71.208 101.972 L
71.596 101.972 L
71.984 101.972 L
72.372 101.972 L
72.76 101.972 L
73.148 101.972 L
73.536 101.972 L
73.924 101.972 L
74.312 101.972 L
74.7 101.972 L
75.088 100.96 L
75.476 99.947 L
75.864 99.947 L
76.252 99.947 L
76.64 99.947 L
77.028 99.947 L
77.416 99.947 L
77.804 99.947 L
78.192 99.947 L
78.58 99.067 L
78.968 98.188 L
79.356 97.308 L
79.744 97.308 L
80.132 97.308 L
80.52 97.308 L
80.908 96.438 L
81.296 95.568 L
81.684 94.689 L
82.072 93.809 L
82.46 92.844 L
82.848 91.974 L
83.236 91.104 L
83.624 90.234 L
84.012 90.234 L
84.4 90.234 L
84.788 90.234 L
85.176 90.234 L
85.564 90.234 L
85.952 89.355 L
86.34 89.355 L
86.728 89.355 L
87.116 89.355 L
87.504 89.355 L
87.892 88.342 L
88.28 87.329 L
88.668 87.329 L
89.056 87.329 L
89.444 87.329 L
89.832 87.329 L
90.22 86.364 L
90.608 85.494 L
90.996 85.494 L
91.384 85.494 L
91.772 85.494 L
92.16 85.494 L
92.548 85.494 L
92.936 85.494 L
93.324 85.494 L
93.712 85.494 L
94.1 85.494 L
94.488 85.494 L
94.876 85.494 L
95.264 85.494 L
95.652 85.494 L
96.04 85.494 L
96.428 85.494 L
96.816 85.494 L
97.204 85.494 L
97.592 85.494 L
97.98 84.34 L
98.368 84.34 L
98.756 84.34 L
99.144 84.34 L
99.532 84.34 L
99.92 84.34 L
100.308 84.34 L
100.696 84.34 L
101.084 84.34 L
101.472 84.34 L
101.86 83.186 L
102.248 82.032 L
102.636 80.878 L
103.024 79.666 L
103.412 79.666 L
103.8 79.666 L
104.188 79.666 L
104.576 79.666 L
104.964 79.666 L
105.352 78.787 L
105.74 78.787 L
106.128 78.787 L
106.516 78.787 L
106.904 78.787 L
107.292 78.787 L
107.68 78.787 L
108.068 78.787 L
108.456 77.774 L
108.844 77.774 L
109.232 77.774 L
109.62 77.774 L
110.008 77.774 L
110.396 77.774 L
110.784 76.894 L
111.172 76.894 L
111.56 76.894 L
111.948 76.894 L
112.336 76.894 L
112.724 76.894 L
113.112 76.894 L
113.5 76.894 L
113.888 76.894 L
114.276 76.894 L
114.664 76.894 L
115.052 76.894 L
115.44 76.894 L
115.828 76.894 L
116.216 76.894 L
116.604 76.894 L
116.992 76.894 L
117.38 76.894 L
117.768 76.894 L
118.156 76.894 L
118.544 76.894 L
118.932 76.894 L
119.32 76.894 L
119.708 76.894 L
120.096 76.894 L
120.484 76.894 L
120.872 76.894 L
121.26 76.894 L
121.648 76.894 L
122.036 76.894 L
122.424 76.894 L
122.812 76.894 L
123.2 76.894 L
123.588 76.894 L
123.976 76.894 L
124.364 76.894 L
124.752 76.894 L
125.14 76.894 L
125.528 76.894 L
125.916 76.894 L
126.304 76.894 L
126.692 76.894 L
127.08 76.894 L
127.468 76.894 L
127.856 76.894 L
128.244 76.894 L
128.632 76.894 L
129.02 76.894 L
129.408 76.894 L
129.796 76.894 L
130.184 76.894 L
130.572 76.894 L
130.96 76.894 L
131.348 76.894 L
131.736 76.894 L
132.124 76.894 L
132.512 76.894 L
132.9 76.894 L
133.288 76.894 L
133.676 76.894 L
134.064 76.894 L
134.452 76.894 L
134.84 76.894 L
135.228 76.894 L
135.616 76.894 L
136.004 76.894 L
136.392 76.894 L
136.78 76.894 L
137.168 76.894 L
137.556 76.894 L
137.944 76.894 L
138.332 76.894 L
138.72 76.894 L
139.108 76.894 L
139.496 76.894 L
139.884 76.894 L
140.272 76.894 L
140.66 76.894 L
141.048 76.894 L
141.436 76.894 L
141.824 76.894 L
142.212 76.894 L
142.6 76.894 L
142.988 76.894 L
143.376 76.894 L
143.764 76.894 L
144.152 76.894 L
144.54 76.894 L
144.928 76.894 L
145.316 76.894 L
145.704 76.894 L
146.092 76.894 L
146.48 76.894 L
146.868 76.894 L
147.256 76.894 L
147.644 76.894 L
148.032 76.894 L
148.42 76.894 L
148.808 76.894 L
149.196 76.894 L
149.584 76.894 L
149.972 76.894 L
150.36 76.894 L
150.748 76.894 L
151.136 76.894 L
151.524 76.894 L
151.912 76.894 L
152.3 76.894 L
152.688 76.894 L
153.076 76.894 L
153.464 76.894 L
153.852 76.894 L
154.24 76.894 L
154.628 76.894 L
155.016 76.894 L
155.404 76.894 L
155.792 75.882 L
156.18 74.869 L
156.568 73.779 L
156.956 72.69 L
157.344 71.6 L
157.732 70.51 L
158.12 69.545 L
158.508 69.545 L
158.896 69.545 L
159.284 69.545 L
159.672 69.545 L
160.06 69.545 L
160.448 69.545 L
160.836 69.545 L
161.224 69.545 L
161.612 69.545 L
162 69.545 L
162.388 69.545 L
162.776 69.545 L
163.164 69.545 L
163.552 69.545 L
163.94 69.545 L
164.328 69.545 L
164.716 69.545 L
165.104 69.545 L
165.492 69.545 L
165.88 69.545 L
166.268 69.545 L
166.656 69.545 L
167.044 69.545 L
167.432 69.545 L
167.82 69.545 L
168.208 69.545 L
168.596 69.545 L
168.984 69.545 L
169.372 69.545 L
169.76 69.545 L
170.148 69.545 L
170.536 69.545 L
170.924 69.545 L
171.312 69.545 L
171.7 69.545 L
172.088 69.545 L
172.476 69.545 L
172.864 69.545 L
173.252 69.545 L
173.64 69.545 L
174.028 69.545 L
174.416 69.545 L
174.804 69.545 L
175.192 69.545 L
175.58 69.545 L
175.968 69.545 L
176.356 69.545 L
176.744 69.545 L
177.132 69.545 L
177.52 69.545 L
177.908 69.545 L
178.296 69.545 L
178.684 69.545 L
179.072 69.545 L
179.46 69.545 L
179.848 69.545 L
180.236 69.545 L
180.624 69.545 L
181.012 69.545 L
181.4 69.545 L
181.788 69.545 L
182.176 69.545 L
182.564 69.545 L
182.952 68.665 L
183.34 67.786 L
183.728 67.786 L
184.116 67.786 L
184.504 67.786 L
184.892 67.786 L
185.28 67.786 L
185.668 67.786 L
186.056 67.786 L
186.444 67.786 L
186.832 67.786 L
187.22 67.786 L
187.608 67.786 L
187.996 67.786 L
188.384 67.786 L
188.772 67.786 L
189.16 67.786 L
189.548 67.786 L
189.936 67.786 L
190.324 67.786 L
190.712 67.786 L
191.1 67.786 L
191.488 67.786 L
191.876 67.786 L
192.264 67.786 L
192.652 67.786 L
193.04 67.786 L
193.428 67.786 L
193.816 67.786 L
194.204 67.786 L
194.592 67.786 L
194.98 67.786 L
195.368 67.786 L
195.756 67.786 L
196.144 67.786 L
196.532 67.786 L
196.92 67.786 L
197.308 67.786 L
197.696 67.786 L
198.084 67.786 L
198.472 67.786 L
198.86 67.786 L
199.248 67.786 L
199.636 67.786 L
200.024 67.786 L
200.412 67.786 L
200.8 67.786 L
201.188 67.786 L
201.576 67.786 L
201.964 67.786 L
202.352 67.786 L
202.74 67.786 L
203.128 67.786 L
203.516 67.786 L
203.904 67.786 L
204.292 67.786 L
204.68 67.786 L
205.068 67.786 L
205.456 67.786 L
205.844 67.786 L
206.232 67.786 L
206.62 67.786 L
207.008 67.786 L
207.396 67.786 L
207.784 67.786 L
208.172 67.786 L
208.56 67.786 L
208.948 67.786 L
209.336 67.786 L
209.724 67.786 L
210.112 67.786 L
210.5 67.786 L
210.888 67.786 L
211.276 67.786 L
211.664 67.786 L
212.052 67.786 L
212.44 67.786 L
212.828 67.786 L
213.216 67.786 L
213.604 67.786 L
213.992 67.786 L
214.38 67.786 L
214.768 67.786 L
215.156 67.786 L
215.544 67.786 L
215.932 67.786 L
216.32 67.786 L
216.708 67.786 L
217.096 67.786 L
217.484 67.786 L
217.872 67.786 L
218.26 67.786 L
218.648 67.786 L
219.036 67.786 L
219.424 67.786 L
219.812 67.786 L
220.2 67.786 L
220.588 67.786 L
220.976 67.786 L
221.364 67.786 L
221.752 67.786 L
222.14 67.786 L
222.528 67.786 L
222.916 67.786 L
223.304 67.786 L
223.692 67.786 L
224.08 67.786 L
224.468 67.786 L
224.856 67.786 L
225.244 67.786 L
225.632 67.786 L
226.02 67.786 L
226.408 67.786 L
226.796 67.786 L
227.184 67.786 L
227.572 67.786 L
227.96 67.786 L
228.348 67.786 L
228.736 67.786 L
229.124 67.786 L
229.512 67.786 L
229.9 67.786 L
230.288 67.786 L
230.676 67.786 L
231.064 67.786 L
231.452 67.786 L
231.84 67.786 L
232.228 67.786 L
232.616 67.786 L
233.004 67.786 L
233.392 67.786 L
233.78 67.786 L
234.168 67.786 L
234.556 67.786 L
234.944 67.786 L
235.332 67.786 L
235.72 67.786 L
236.108 67.786 L
236.496 67.786 L
236.884 67.786 L
237.272 67.786 L
237.66 67.786 L
238.048 67.786 L
238.436 67.786 L
238.824 67.786 L
239.212 67.786 L
239.6 67.786 L
239.988 67.786 L
240.376 67.786 L
240.764 67.786 L
241.152 67.786 L
241.54 67.786 L
241.928 67.786 L
242.316 67.786 L
242.704 67.786 L
243.092 67.786 L
243.48 67.786 L
243.868 67.786 L
244.256 67.786 L
244.644 67.786 L
245.032 67.786 L
245.42 67.786 L
245.808 67.786 L
246.196 67.786 L
246.584 67.786 L
246.972 67.786 L
247.36 67.786 L
247.748 67.786 L
248.136 67.786 L
248.524 67.786 L
248.912 67.786 L
249.3 67.786 L
249.688 67.786 L
250.076 67.786 L
250.464 67.786 L
250.852 67.786 L
251.24 67.786 L
251.628 67.786 L
252.016 67.786 L
252.404 67.786 L
252.792 67.786 L
253.18 67.786 L
253.568 67.786 L
253.956 67.786 L
254.344 67.786 L
254.732 67.786 L
255.12 67.786 L
255.508 67.786 L
255.896 67.786 L
256.284 67.786 L
256.672 67.786 L
257.06 67.786 L
257.448 67.786 L
257.836 67.786 L
258.224 67.786 L
258.612 67.786 L
259 67.786 L
259.388 67.786 L
259.776 67.786 L
260.164 67.786 L
260.552 67.786 L
260.94 67.786 L
261.328 67.786 L
261.716 67.786 L
262.104 67.786 L
262.492 67.786 L
262.88 67.786 L
263.268 67.786 L
263.656 67.786 L
264.044 67.786 L
264.432 67.786 L
264.82 67.786 L
265.208 67.786 L
265.596 67.786 L
265.984 67.786 L
266.372 67.786 L
266.76 67.786 L
267.148 67.786 L
267.536 67.786 L
267.924 67.786 L
268.312 67.786 L
268.7 67.786 L
269.088 67.786 L
269.476 67.786 L
269.864 67.786 L
270.252 67.786 L
270.64 67.786 L
271.028 67.786 L
271.416 67.786 L
271.804 67.786 L
272.192 67.786 L
272.58 67.786 L
272.968 67.786 L
273.356 67.786 L
273.744 67.786 L
274.132 67.786 L
274.52 67.786 L
274.908 67.786 L
275.296 67.786 L
275.684 67.786 L
276.072 67.786 L
276.46 67.786 L
276.848 67.786 L
277.236 67.786 L
277.624 67.786 L
278.012 67.786 L
278.4 67.786 L
278.788 67.786 L
279.176 67.786 L
279.564 67.786 L
279.952 67.786 L
280.34 67.786 L
280.728 67.786 L
281.116 67.786 L
281.504 67.786 L
281.892 67.786 L
282.28 67.786 L
282.668 67.786 L
283.056 67.786 L
283.444 67.786 L
283.832 67.786 L
284.22 67.786 L
284.608 67.786 L
284.996 67.786 L
285.384 67.786 L
285.772 67.786 L
286.16 67.786 L
286.548 67.786 L
286.936 67.786 L
287.324 67.786 L
287.712 67.786 L
288.1 67.786 L
288.488 67.786 L
288.876 67.786 L
289.264 67.786 L
289.652 67.786 L
290.04 67.786 L
290.428 67.786 L
290.816 67.786 L
291.204 67.786 L
291.592 67.786 L
291.98 67.786 L
292.368 67.786 L
292.756 67.786 L
293.144 67.786 L
293.532 67.786 L
293.92 67.786 L
294.308 67.786 L
294.696 67.786 L
295.084 67.786 L
295.472 67.786 L
295.86 67.786 L
296.248 67.786 L
296.636 67.786 L
297.024 67.786 L
297.412 67.786 L
297.8 67.786 L
298.188 67.786 L
298.576 67.786 L
298.964 67.786 L
299.352 67.786 L
299.74 67.786 L
300.128 67.786 L
300.516 67.786 L
300.904 67.786 L
301.292 67.786 L
301.68 67.786 L
302.068 67.786 L
302.456 67.786 L
302.844 67.786 L
303.232 67.786 L
303.62 67.786 L
304.008 67.786 L
304.396 67.786 L
304.784 67.786 L
305.172 67.786 L
305.56 67.786 L
305.948 67.786 L
306.336 67.786 L
306.724 67.786 L
307.112 67.786 L
307.5 67.786 L
307.888 67.786 L
308.276 67.786 L
308.664 67.786 L
309.052 67.786 L
309.44 67.786 L
309.828 67.786 L
310.216 67.786 L
310.604 67.786 L
310.992 67.786 L
311.38 67.786 L
311.768 67.786 L
312.156 67.786 L
312.544 67.786 L
312.932 67.786 L
313.32 67.786 L
313.708 67.786 L
314.096 67.786 L
314.484 67.786 L
314.872 67.786 L
315.26 67.786 L
315.648 67.786 L
316.036 67.786 L
316.424 67.786 L
316.812 67.786 L
317.2 67.786 L
317.588 67.786 L
317.976 67.786 L
318.364 67.786 L
318.752 67.786 L
319.14 67.786 L
319.528 67.786 L
319.916 67.786 L
320.304 67.786 L
320.692 67.786 L
321.08 67.786 L
321.468 67.786 L
321.856 67.786 L
322.244 67.786 L
322.632 67.786 L
323.02 67.786 L
323.408 67.786 L
323.796 67.786 L
324.184 67.786 L
324.572 67.786 L
324.96 67.786 L
325.348 67.786 L
325.736 67.786 L
326.124 67.786 L
326.512 67.786 L
326.9 67.786 L
327.288 67.786 L
327.676 67.786 L
328.064 67.786 L
328.452 67.786 L
328.84 67.786 L
329.228 67.786 L
329.616 67.786 L
330.004 67.786 L
330.392 67.786 L
330.78 67.786 L
331.168 67.786 L
331.556 67.786 L
331.944 67.786 L
332.332 67.786 L
332.72 67.786 L
333.108 67.786 L
333.496 67.786 L
333.884 67.786 L
334.272 67.786 L
334.66 67.786 L
335.048 67.786 L
335.436 67.786 L
335.824 67.786 L
336.212 67.786 L
336.6 67.786 L
336.988 67.786 L
337.376 67.786 L
337.764 67.786 L
338.152 67.786 L
338.54 67.786 L
338.928 67.786 L
339.316 67.786 L
339.704 67.786 L
340.092 67.786 L
340.48 67.786 L
340.868 67.786 L
341.256 67.786 L
341.644 67.786 L
342.032 67.786 L
342.42 67.786 L
342.808 67.786 L
343.196 67.786 L
343.584 67.786 L
343.972 67.786 L
344.36 67.786 L
344.748 67.786 L
345.136 67.786 L
345.524 67.786 L
345.912 67.786 L
346.3 67.786 L
346.688 67.786 L
347.076 67.786 L
347.464 67.786 L
347.852 67.786 L
348.24 67.786 L
348.628 67.786 L
349.016 67.786 L
349.404 67.786 L
349.792 67.786 L
350.18 67.786 L
350.568 67.786 L
350.956 67.786 L
351.344 67.786 L
351.732 67.786 L
352.12 67.786 L
352.508 67.786 L
352.896 67.786 L
353.284 67.786 L
353.672 67.786 L
354.06 67.786 L
354.448 67.786 L
354.836 67.786 L
355.224 67.786 L
355.612 67.786 L
356 67.786 L
356.388 67.786 L
356.776 67.786 L
357.164 67.786 L
357.552 67.786 L
357.94 67.786 L
358.328 67.786 L
358.716 67.786 L
359.104 67.786 L
359.492 67.786 L
359.88 67.786 L
360.268 67.786 L
360.656 67.786 L
361.044 67.786 L
361.432 67.786 L
361.82 67.786 L
362.208 67.786 L
362.596 67.786 L
362.984 67.786 L
363.372 67.786 L
363.76 67.786 L
364.148 67.786 L
364.536 67.786 L
364.924 67.786 L
365.312 67.786 L
365.7 67.786 L
366.088 67.786 L
366.476 67.786 L
366.864 67.786 L
367.252 67.786 L
367.64 67.786 L
368.028 67.786 L
368.416 67.786 L
368.804 67.786 L
369.192 67.786 L
369.58 67.786 L
369.968 67.786 L
370.356 67.786 L
370.744 67.786 L
371.132 67.786 L
371.52 67.786 L
371.908 67.786 L
372.296 67.786 L
372.684 67.786 L
373.072 67.786 L
373.46 67.786 L
373.848 67.786 L
374.236 67.786 L
374.624 67.786 L
375.012 67.786 L
375.4 67.786 L
375.788 67.786 L
376.176 67.786 L
376.564 67.786 L
376.952 67.786 L
377.34 67.786 L
377.728 67.786 L
378.116 67.786 L
378.504 67.786 L
378.892 67.786 L
379.28 67.786 L
379.668 67.786 L
380.056 67.786 L
380.444 67.786 L
380.832 67.786 L
381.22 67.786 L
381.608 67.786 L
381.996 67.786 L
382.384 67.786 L
382.772 67.786 L
383.16 67.786 L
383.548 67.786 L
383.936 67.786 L
384.324 67.786 L
384.712 67.786 L
385.1 67.786 L
385.488 67.786 L
385.876 67.786 L
386.264 67.786 L
386.652 67.786 L
387.04 67.786 L
387.428 67.786 L
387.816 67.786 L
388.204 67.786 L
388.592 67.786 L
388.98 67.786 L
389.368 67.786 L
389.756 67.786 L
390.144 67.786 L
390.532 67.786 L
390.92 67.786 L
391.308 67.786 L
391.696 67.786 L
392.084 67.786 L
392.472 67.786 L
392.86 67.786 L
393.248 67.786 L
393.636 67.786 L
394.024 67.786 L
394.412 67.786 L
394.8 67.786 L
395.188 67.786 L
395.576 67.786 L
395.964 67.786 L
396.352 67.786 L
396.74 67.786 L
397.128 67.786 L
397.516 67.786 L
397.904 67.786 L
398.292 67.786 L
398.68 67.786 L
399.068 67.786 L
399.456 67.786 L
399.844 67.786 L
400.232 67.786 L
400.62 67.786 L
401.008 67.786 L
401.396 67.786 L
401.784 67.786 L
402.172 67.786 L
402.56 67.786 L
402.948 67.786 L
403.336 67.786 L
403.724 67.786 L
404.112 67.786 L
404.5 67.786 L
404.888 67.786 L
405.276 67.786 L
405.664 67.786 L
406.052 67.786 L
406.44 67.786 L
406.828 67.786 L
407.216 67.786 L
407.604 67.786 L
407.992 67.786 L
408.38 67.786 L
408.768 67.786 L
409.156 67.786 L
409.544 67.786 L
409.932 67.786 L
410.32 67.786 L
410.708 67.786 L
411.096 67.786 L
411.484 67.786 L
411.872 67.786 L
412.26 67.786 L
412.648 67.786 L
413.036 67.786 L
413.424 67.786 L
413.812 67.786 L
414.2 67.786 L
414.588 67.786 L
414.976 67.786 L
415.364 67.786 L
415.752 67.786 L
416.14 67.786 L
416.528 67.786 L
416.916 67.786 L
417.304 67.786 L
417.692 67.786 L
418.08 67.786 L
418.468 67.786 L
418.856 67.786 L
419.244 67.786 L
419.632 67.786 L
420.02 67.786 L
420.408 67.786 L
420.796 67.786 L
421.184 67.786 L
421.572 67.786 L
421.96 67.786 L
422.348 67.786 L
422.736 67.786 L
423.124 67.786 L
423.512 67.786 L
423.9 67.786 L
424.288 67.786 L
424.676 67.786 L
425.064 67.786 L
425.452 67.786 L
425.84 67.786 L
426.228 67.786 L
426.616 67.786 L
427.004 67.786 L
427.392 67.786 L
427.78 67.786 L
428.168 67.786 L
428.556 67.786 L
428.944 67.786 L
429.332 67.786 L
429.72 67.786 L
430.108 67.786 L
430.496 67.786 L
430.884 67.786 L
431.272 67.786 L
431.66 67.786 L
432.048 67.786 L
432.436 67.786 L
432.824 67.786 L
433.212 67.786 L
433.6 67.786 L
433.988 67.786 L
434.376 67.786 L
434.764 67.786 L
435.152 67.786 L
435.54 67.786 L
435.928 67.786 L
436.316 67.786 L
436.704 67.786 L
437.092 67.786 L
437.48 67.786 L
437.868 67.786 L
438.256 67.786 L
438.644 67.786 L
439.032 67.786 L
439.42 67.786 L
439.808 67.786 L
440.196 67.786 L
440.584 67.786 L
440.972 67.786 L
441.36 67.786 L
441.748 67.786 L
442.136 67.786 L
442.524 67.786 L
442.912 67.786 L
443.3 67.786 L
443.688 67.786 L
444.076 67.786 L
444.464 67.786 L
444.852 67.786 L
445.24 67.786 L
445.628 67.786 L
446.016 67.786 L
446.404 67.786 L
446.792 67.786 L
447.18 67.786 L
447.568 67.786 L
447.956 67.786 L
448.344 67.786 L
448.732 67.786 L
449.12 67.786 L
449.508 67.786 L
449.896 67.786 L
450.284 67.786 L
450.672 67.786 L
451.06 67.786 L
451.448 67.786 L
451.836 67.786 L
452.224 67.786 L
452.612 67.786 L
453 67.786 L
S
GR
GS
1 GC
N
65 281 M
453 281 L
453 210 L
65 210 L
cp
f
GR
GS
0.149 GC
2 setlinecap
1 LJ
0.5 LW
N
65 281 M
453 281 L
S
GR
GS
0.149 GC
2 setlinecap
1 LJ
0.5 LW
N
65 210 M
453 210 L
S
GR
GS
0.149 GC
2 setlinecap
1 LJ
0.5 LW
N
65 281 M
65 277.12 L
S
GR
GS
0.149 GC
2 setlinecap
1 LJ
0.5 LW
N
142.6 281 M
142.6 277.12 L
S
GR
GS
0.149 GC
2 setlinecap
1 LJ
0.5 LW
N
220.2 281 M
220.2 277.12 L
S
GR
GS
0.149 GC
2 setlinecap
1 LJ
0.5 LW
N
297.8 281 M
297.8 277.12 L
S
GR
GS
0.149 GC
2 setlinecap
1 LJ
0.5 LW
N
375.4 281 M
375.4 277.12 L
S
GR
GS
0.149 GC
2 setlinecap
1 LJ
0.5 LW
N
453 281 M
453 277.12 L
S
GR
GS
0.149 GC
2 setlinecap
1 LJ
0.5 LW
N
65 210 M
65 213.88 L
S
GR
GS
0.149 GC
2 setlinecap
1 LJ
0.5 LW
N
142.6 210 M
142.6 213.88 L
S
GR
GS
0.149 GC
2 setlinecap
1 LJ
0.5 LW
N
220.2 210 M
220.2 213.88 L
S
GR
GS
0.149 GC
2 setlinecap
1 LJ
0.5 LW
N
297.8 210 M
297.8 213.88 L
S
GR
GS
0.149 GC
2 setlinecap
1 LJ
0.5 LW
N
375.4 210 M
375.4 213.88 L
S
GR
GS
0.149 GC
2 setlinecap
1 LJ
0.5 LW
N
453 210 M
453 213.88 L
S
GR
GS
[1 0 0 1 65 287.39999] CT
0.149 GC
/Times-Roman 22 F
GS
[1 0 0 1 0 0] CT
-5.5 20 moveto 
1 -1 scale
(0) t 
GR
GR
GS
[1 0 0 1 142.60001 287.39999] CT
0.149 GC
/Times-Roman 22 F
GS
[1 0 0 1 0 0] CT
-16.5 20 moveto 
1 -1 scale
(200) t 
GR
GR
GS
[1 0 0 1 220.2 287.39999] CT
0.149 GC
/Times-Roman 22 F
GS
[1 0 0 1 0 0] CT
-16.5 20 moveto 
1 -1 scale
(400) t 
GR
GR
GS
[1 0 0 1 297.79999 287.39999] CT
0.149 GC
/Times-Roman 22 F
GS
[1 0 0 1 0 0] CT
-16.5 20 moveto 
1 -1 scale
(600) t 
GR
GR
GS
[1 0 0 1 375.39999 287.39999] CT
0.149 GC
/Times-Roman 22 F
GS
[1 0 0 1 0 0] CT
-16.5 20 moveto 
1 -1 scale
(800) t 
GR
GR
GS
[1 0 0 1 453 287.39999] CT
0.149 GC
/Times-Roman 22 F
GS
[1 0 0 1 0 0] CT
-22 20 moveto 
1 -1 scale
(1000) t 
GR
GR
GS
[1 0 0 1 259.00018 313.39999] CT
0.149 GC
/Times-Roman 24 F
GS
[1 0 0 1 0 0] CT
-57 22 moveto 
1 -1 scale
(TS iteration) t 
GR
GR
GS
0.149 GC
2 setlinecap
1 LJ
0.5 LW
N
65 281 M
65 210 L
S
GR
GS
0.149 GC
2 setlinecap
1 LJ
0.5 LW
N
453 281 M
453 210 L
S
GR
GS
0.149 GC
2 setlinecap
1 LJ
0.5 LW
N
65 281 M
68.88 281 L
S
GR
GS
0.149 GC
2 setlinecap
1 LJ
0.5 LW
N
65 245.5 M
68.88 245.5 L
S
GR
GS
0.149 GC
2 setlinecap
1 LJ
0.5 LW
N
65 210 M
68.88 210 L
S
GR
GS
0.149 GC
2 setlinecap
1 LJ
0.5 LW
N
453 281 M
449.12 281 L
S
GR
GS
0.149 GC
2 setlinecap
1 LJ
0.5 LW
N
453 245.5 M
449.12 245.5 L
S
GR
GS
0.149 GC
2 setlinecap
1 LJ
0.5 LW
N
453 210 M
449.12 210 L
S
GR
GS
[1 0 0 1 58.6 281] CT
0.149 GC
/Times-Roman 22 F
GS
[1 0 0 1 0 0] CT
-11 7.5 moveto 
1 -1 scale
(0) t 
GR
GR
GS
[1 0 0 1 58.6 245.5] CT
0.149 GC
/Times-Roman 22 F
GS
[1 0 0 1 0 0] CT
-22 7.5 moveto 
1 -1 scale
(20) t 
GR
GR
GS
[1 0 0 1 58.6 210] CT
0.149 GC
/Times-Roman 22 F
GS
[1 0 0 1 0 0] CT
-22 7.5 moveto 
1 -1 scale
(40) t 
GR
GR
GS
[0 -1 1 0 33.6 245.49997] CT
0.149 GC
/Times-Roman 24 F
GS
[1 0 0 1 0 0] CT
-32 -6 moveto 
1 -1 scale
(Regret) t 
GR
GR
GS
[1 0 0 1 259.00024 203.95] CT
/Times-Bold 24.2 F
GS
[1 0 0 1 0 0] CT
-47 -6 moveto 
1 -1 scale
(WLAN 2) t 
GR
GR
GS
0 0.447 0.741 RC
1 LJ
0.5 LW
N
65.388 281 M
65.776 281 L
66.164 281 L
66.552 279.91 L
66.94 278.821 L
67.328 277.951 L
67.716 276.884 L
68.104 275.818 L
68.492 274.751 L
68.88 273.583 L
69.268 272.57 L
69.656 271.481 L
70.044 270.391 L
70.432 269.603 L
70.82 268.637 L
71.208 267.972 L
71.596 267.972 L
71.984 267.972 L
72.372 267.972 L
72.76 267.972 L
73.148 267.972 L
73.536 267.972 L
73.924 267.972 L
74.312 267.972 L
74.7 267.972 L
75.088 266.96 L
75.476 265.947 L
75.864 265.947 L
76.252 265.947 L
76.64 265.947 L
77.028 265.947 L
77.416 265.947 L
77.804 265.947 L
78.192 265.947 L
78.58 265.067 L
78.968 264.188 L
79.356 263.308 L
79.744 263.308 L
80.132 263.308 L
80.52 263.308 L
80.908 262.438 L
81.296 261.568 L
81.684 260.689 L
82.072 259.809 L
82.46 258.844 L
82.848 257.974 L
83.236 257.104 L
83.624 256.234 L
84.012 256.234 L
84.4 256.234 L
84.788 256.234 L
85.176 256.234 L
85.564 256.234 L
85.952 255.355 L
86.34 255.355 L
86.728 255.355 L
87.116 255.355 L
87.504 255.355 L
87.892 254.342 L
88.28 253.329 L
88.668 253.329 L
89.056 253.329 L
89.444 253.329 L
89.832 253.329 L
90.22 252.364 L
90.608 251.494 L
90.996 251.494 L
91.384 251.494 L
91.772 251.494 L
92.16 251.494 L
92.548 251.494 L
92.936 251.494 L
93.324 251.494 L
93.712 251.494 L
94.1 251.494 L
94.488 251.494 L
94.876 251.494 L
95.264 251.494 L
95.652 251.494 L
96.04 251.494 L
96.428 251.494 L
96.816 251.494 L
97.204 251.494 L
97.592 251.494 L
97.98 250.34 L
98.368 250.34 L
98.756 250.34 L
99.144 250.34 L
99.532 250.34 L
99.92 250.34 L
100.308 250.34 L
100.696 250.34 L
101.084 250.34 L
101.472 250.34 L
101.86 249.186 L
102.248 248.032 L
102.636 246.878 L
103.024 245.666 L
103.412 245.666 L
103.8 245.666 L
104.188 245.666 L
104.576 245.666 L
104.964 245.666 L
105.352 244.787 L
105.74 244.787 L
106.128 244.787 L
106.516 244.787 L
106.904 244.787 L
107.292 244.787 L
107.68 244.787 L
108.068 244.787 L
108.456 243.774 L
108.844 243.774 L
109.232 243.774 L
109.62 243.774 L
110.008 243.774 L
110.396 243.774 L
110.784 242.894 L
111.172 242.894 L
111.56 242.894 L
111.948 242.894 L
112.336 242.894 L
112.724 242.894 L
113.112 242.894 L
113.5 242.894 L
113.888 242.894 L
114.276 242.894 L
114.664 242.894 L
115.052 242.894 L
115.44 242.894 L
115.828 242.894 L
116.216 242.894 L
116.604 242.894 L
116.992 242.894 L
117.38 242.894 L
117.768 242.894 L
118.156 242.894 L
118.544 242.894 L
118.932 242.894 L
119.32 242.894 L
119.708 242.894 L
120.096 242.894 L
120.484 242.894 L
120.872 242.894 L
121.26 242.894 L
121.648 242.894 L
122.036 242.894 L
122.424 242.894 L
122.812 242.894 L
123.2 242.894 L
123.588 242.894 L
123.976 242.894 L
124.364 242.894 L
124.752 242.894 L
125.14 242.894 L
125.528 242.894 L
125.916 242.894 L
126.304 242.894 L
126.692 242.894 L
127.08 242.894 L
127.468 242.894 L
127.856 242.894 L
128.244 242.894 L
128.632 242.894 L
129.02 242.894 L
129.408 242.894 L
129.796 242.894 L
130.184 242.894 L
130.572 242.894 L
130.96 242.894 L
131.348 242.894 L
131.736 242.894 L
132.124 242.894 L
132.512 242.894 L
132.9 242.894 L
133.288 242.894 L
133.676 242.894 L
134.064 242.894 L
134.452 242.894 L
134.84 242.894 L
135.228 242.894 L
135.616 242.894 L
136.004 242.894 L
136.392 242.894 L
136.78 242.894 L
137.168 242.894 L
137.556 242.894 L
137.944 242.894 L
138.332 242.894 L
138.72 242.894 L
139.108 242.894 L
139.496 242.894 L
139.884 242.894 L
140.272 242.894 L
140.66 242.894 L
141.048 242.894 L
141.436 242.894 L
141.824 242.894 L
142.212 242.894 L
142.6 242.894 L
142.988 242.894 L
143.376 242.894 L
143.764 242.894 L
144.152 242.894 L
144.54 242.894 L
144.928 242.894 L
145.316 242.894 L
145.704 242.894 L
146.092 242.894 L
146.48 242.894 L
146.868 242.894 L
147.256 242.894 L
147.644 242.894 L
148.032 242.894 L
148.42 242.894 L
148.808 242.894 L
149.196 242.894 L
149.584 242.894 L
149.972 242.894 L
150.36 242.894 L
150.748 242.894 L
151.136 242.894 L
151.524 242.894 L
151.912 242.894 L
152.3 242.894 L
152.688 242.894 L
153.076 242.894 L
153.464 242.894 L
153.852 242.894 L
154.24 242.894 L
154.628 242.894 L
155.016 242.894 L
155.404 242.894 L
155.792 241.882 L
156.18 240.869 L
156.568 239.779 L
156.956 238.69 L
157.344 237.6 L
157.732 236.51 L
158.12 235.545 L
158.508 235.545 L
158.896 235.545 L
159.284 235.545 L
159.672 235.545 L
160.06 235.545 L
160.448 235.545 L
160.836 235.545 L
161.224 235.545 L
161.612 235.545 L
162 235.545 L
162.388 235.545 L
162.776 235.545 L
163.164 235.545 L
163.552 235.545 L
163.94 235.545 L
164.328 235.545 L
164.716 235.545 L
165.104 235.545 L
165.492 235.545 L
165.88 235.545 L
166.268 235.545 L
166.656 235.545 L
167.044 235.545 L
167.432 235.545 L
167.82 235.545 L
168.208 235.545 L
168.596 235.545 L
168.984 235.545 L
169.372 235.545 L
169.76 235.545 L
170.148 235.545 L
170.536 235.545 L
170.924 235.545 L
171.312 235.545 L
171.7 235.545 L
172.088 235.545 L
172.476 235.545 L
172.864 235.545 L
173.252 235.545 L
173.64 235.545 L
174.028 235.545 L
174.416 235.545 L
174.804 235.545 L
175.192 235.545 L
175.58 235.545 L
175.968 235.545 L
176.356 235.545 L
176.744 235.545 L
177.132 235.545 L
177.52 235.545 L
177.908 235.545 L
178.296 235.545 L
178.684 235.545 L
179.072 235.545 L
179.46 235.545 L
179.848 235.545 L
180.236 235.545 L
180.624 235.545 L
181.012 235.545 L
181.4 235.545 L
181.788 235.545 L
182.176 235.545 L
182.564 235.545 L
182.952 234.665 L
183.34 233.786 L
183.728 233.786 L
184.116 233.786 L
184.504 233.786 L
184.892 233.786 L
185.28 233.786 L
185.668 233.786 L
186.056 233.786 L
186.444 233.786 L
186.832 233.786 L
187.22 233.786 L
187.608 233.786 L
187.996 233.786 L
188.384 233.786 L
188.772 233.786 L
189.16 233.786 L
189.548 233.786 L
189.936 233.786 L
190.324 233.786 L
190.712 233.786 L
191.1 233.786 L
191.488 233.786 L
191.876 233.786 L
192.264 233.786 L
192.652 233.786 L
193.04 233.786 L
193.428 233.786 L
193.816 233.786 L
194.204 233.786 L
194.592 233.786 L
194.98 233.786 L
195.368 233.786 L
195.756 233.786 L
196.144 233.786 L
196.532 233.786 L
196.92 233.786 L
197.308 233.786 L
197.696 233.786 L
198.084 233.786 L
198.472 233.786 L
198.86 233.786 L
199.248 233.786 L
199.636 233.786 L
200.024 233.786 L
200.412 233.786 L
200.8 233.786 L
201.188 233.786 L
201.576 233.786 L
201.964 233.786 L
202.352 233.786 L
202.74 233.786 L
203.128 233.786 L
203.516 233.786 L
203.904 233.786 L
204.292 233.786 L
204.68 233.786 L
205.068 233.786 L
205.456 233.786 L
205.844 233.786 L
206.232 233.786 L
206.62 233.786 L
207.008 233.786 L
207.396 233.786 L
207.784 233.786 L
208.172 233.786 L
208.56 233.786 L
208.948 233.786 L
209.336 233.786 L
209.724 233.786 L
210.112 233.786 L
210.5 233.786 L
210.888 233.786 L
211.276 233.786 L
211.664 233.786 L
212.052 233.786 L
212.44 233.786 L
212.828 233.786 L
213.216 233.786 L
213.604 233.786 L
213.992 233.786 L
214.38 233.786 L
214.768 233.786 L
215.156 233.786 L
215.544 233.786 L
215.932 233.786 L
216.32 233.786 L
216.708 233.786 L
217.096 233.786 L
217.484 233.786 L
217.872 233.786 L
218.26 233.786 L
218.648 233.786 L
219.036 233.786 L
219.424 233.786 L
219.812 233.786 L
220.2 233.786 L
220.588 233.786 L
220.976 233.786 L
221.364 233.786 L
221.752 233.786 L
222.14 233.786 L
222.528 233.786 L
222.916 233.786 L
223.304 233.786 L
223.692 233.786 L
224.08 233.786 L
224.468 233.786 L
224.856 233.786 L
225.244 233.786 L
225.632 233.786 L
226.02 233.786 L
226.408 233.786 L
226.796 233.786 L
227.184 233.786 L
227.572 233.786 L
227.96 233.786 L
228.348 233.786 L
228.736 233.786 L
229.124 233.786 L
229.512 233.786 L
229.9 233.786 L
230.288 233.786 L
230.676 233.786 L
231.064 233.786 L
231.452 233.786 L
231.84 233.786 L
232.228 233.786 L
232.616 233.786 L
233.004 233.786 L
233.392 233.786 L
233.78 233.786 L
234.168 233.786 L
234.556 233.786 L
234.944 233.786 L
235.332 233.786 L
235.72 233.786 L
236.108 233.786 L
236.496 233.786 L
236.884 233.786 L
237.272 233.786 L
237.66 233.786 L
238.048 233.786 L
238.436 233.786 L
238.824 233.786 L
239.212 233.786 L
239.6 233.786 L
239.988 233.786 L
240.376 233.786 L
240.764 233.786 L
241.152 233.786 L
241.54 233.786 L
241.928 233.786 L
242.316 233.786 L
242.704 233.786 L
243.092 233.786 L
243.48 233.786 L
243.868 233.786 L
244.256 233.786 L
244.644 233.786 L
245.032 233.786 L
245.42 233.786 L
245.808 233.786 L
246.196 233.786 L
246.584 233.786 L
246.972 233.786 L
247.36 233.786 L
247.748 233.786 L
248.136 233.786 L
248.524 233.786 L
248.912 233.786 L
249.3 233.786 L
249.688 233.786 L
250.076 233.786 L
250.464 233.786 L
250.852 233.786 L
251.24 233.786 L
251.628 233.786 L
252.016 233.786 L
252.404 233.786 L
252.792 233.786 L
253.18 233.786 L
253.568 233.786 L
253.956 233.786 L
254.344 233.786 L
254.732 233.786 L
255.12 233.786 L
255.508 233.786 L
255.896 233.786 L
256.284 233.786 L
256.672 233.786 L
257.06 233.786 L
257.448 233.786 L
257.836 233.786 L
258.224 233.786 L
258.612 233.786 L
259 233.786 L
259.388 233.786 L
259.776 233.786 L
260.164 233.786 L
260.552 233.786 L
260.94 233.786 L
261.328 233.786 L
261.716 233.786 L
262.104 233.786 L
262.492 233.786 L
262.88 233.786 L
263.268 233.786 L
263.656 233.786 L
264.044 233.786 L
264.432 233.786 L
264.82 233.786 L
265.208 233.786 L
265.596 233.786 L
265.984 233.786 L
266.372 233.786 L
266.76 233.786 L
267.148 233.786 L
267.536 233.786 L
267.924 233.786 L
268.312 233.786 L
268.7 233.786 L
269.088 233.786 L
269.476 233.786 L
269.864 233.786 L
270.252 233.786 L
270.64 233.786 L
271.028 233.786 L
271.416 233.786 L
271.804 233.786 L
272.192 233.786 L
272.58 233.786 L
272.968 233.786 L
273.356 233.786 L
273.744 233.786 L
274.132 233.786 L
274.52 233.786 L
274.908 233.786 L
275.296 233.786 L
275.684 233.786 L
276.072 233.786 L
276.46 233.786 L
276.848 233.786 L
277.236 233.786 L
277.624 233.786 L
278.012 233.786 L
278.4 233.786 L
278.788 233.786 L
279.176 233.786 L
279.564 233.786 L
279.952 233.786 L
280.34 233.786 L
280.728 233.786 L
281.116 233.786 L
281.504 233.786 L
281.892 233.786 L
282.28 233.786 L
282.668 233.786 L
283.056 233.786 L
283.444 233.786 L
283.832 233.786 L
284.22 233.786 L
284.608 233.786 L
284.996 233.786 L
285.384 233.786 L
285.772 233.786 L
286.16 233.786 L
286.548 233.786 L
286.936 233.786 L
287.324 233.786 L
287.712 233.786 L
288.1 233.786 L
288.488 233.786 L
288.876 233.786 L
289.264 233.786 L
289.652 233.786 L
290.04 233.786 L
290.428 233.786 L
290.816 233.786 L
291.204 233.786 L
291.592 233.786 L
291.98 233.786 L
292.368 233.786 L
292.756 233.786 L
293.144 233.786 L
293.532 233.786 L
293.92 233.786 L
294.308 233.786 L
294.696 233.786 L
295.084 233.786 L
295.472 233.786 L
295.86 233.786 L
296.248 233.786 L
296.636 233.786 L
297.024 233.786 L
297.412 233.786 L
297.8 233.786 L
298.188 233.786 L
298.576 233.786 L
298.964 233.786 L
299.352 233.786 L
299.74 233.786 L
300.128 233.786 L
300.516 233.786 L
300.904 233.786 L
301.292 233.786 L
301.68 233.786 L
302.068 233.786 L
302.456 233.786 L
302.844 233.786 L
303.232 233.786 L
303.62 233.786 L
304.008 233.786 L
304.396 233.786 L
304.784 233.786 L
305.172 233.786 L
305.56 233.786 L
305.948 233.786 L
306.336 233.786 L
306.724 233.786 L
307.112 233.786 L
307.5 233.786 L
307.888 233.786 L
308.276 233.786 L
308.664 233.786 L
309.052 233.786 L
309.44 233.786 L
309.828 233.786 L
310.216 233.786 L
310.604 233.786 L
310.992 233.786 L
311.38 233.786 L
311.768 233.786 L
312.156 233.786 L
312.544 233.786 L
312.932 233.786 L
313.32 233.786 L
313.708 233.786 L
314.096 233.786 L
314.484 233.786 L
314.872 233.786 L
315.26 233.786 L
315.648 233.786 L
316.036 233.786 L
316.424 233.786 L
316.812 233.786 L
317.2 233.786 L
317.588 233.786 L
317.976 233.786 L
318.364 233.786 L
318.752 233.786 L
319.14 233.786 L
319.528 233.786 L
319.916 233.786 L
320.304 233.786 L
320.692 233.786 L
321.08 233.786 L
321.468 233.786 L
321.856 233.786 L
322.244 233.786 L
322.632 233.786 L
323.02 233.786 L
323.408 233.786 L
323.796 233.786 L
324.184 233.786 L
324.572 233.786 L
324.96 233.786 L
325.348 233.786 L
325.736 233.786 L
326.124 233.786 L
326.512 233.786 L
326.9 233.786 L
327.288 233.786 L
327.676 233.786 L
328.064 233.786 L
328.452 233.786 L
328.84 233.786 L
329.228 233.786 L
329.616 233.786 L
330.004 233.786 L
330.392 233.786 L
330.78 233.786 L
331.168 233.786 L
331.556 233.786 L
331.944 233.786 L
332.332 233.786 L
332.72 233.786 L
333.108 233.786 L
333.496 233.786 L
333.884 233.786 L
334.272 233.786 L
334.66 233.786 L
335.048 233.786 L
335.436 233.786 L
335.824 233.786 L
336.212 233.786 L
336.6 233.786 L
336.988 233.786 L
337.376 233.786 L
337.764 233.786 L
338.152 233.786 L
338.54 233.786 L
338.928 233.786 L
339.316 233.786 L
339.704 233.786 L
340.092 233.786 L
340.48 233.786 L
340.868 233.786 L
341.256 233.786 L
341.644 233.786 L
342.032 233.786 L
342.42 233.786 L
342.808 233.786 L
343.196 233.786 L
343.584 233.786 L
343.972 233.786 L
344.36 233.786 L
344.748 233.786 L
345.136 233.786 L
345.524 233.786 L
345.912 233.786 L
346.3 233.786 L
346.688 233.786 L
347.076 233.786 L
347.464 233.786 L
347.852 233.786 L
348.24 233.786 L
348.628 233.786 L
349.016 233.786 L
349.404 233.786 L
349.792 233.786 L
350.18 233.786 L
350.568 233.786 L
350.956 233.786 L
351.344 233.786 L
351.732 233.786 L
352.12 233.786 L
352.508 233.786 L
352.896 233.786 L
353.284 233.786 L
353.672 233.786 L
354.06 233.786 L
354.448 233.786 L
354.836 233.786 L
355.224 233.786 L
355.612 233.786 L
356 233.786 L
356.388 233.786 L
356.776 233.786 L
357.164 233.786 L
357.552 233.786 L
357.94 233.786 L
358.328 233.786 L
358.716 233.786 L
359.104 233.786 L
359.492 233.786 L
359.88 233.786 L
360.268 233.786 L
360.656 233.786 L
361.044 233.786 L
361.432 233.786 L
361.82 233.786 L
362.208 233.786 L
362.596 233.786 L
362.984 233.786 L
363.372 233.786 L
363.76 233.786 L
364.148 233.786 L
364.536 233.786 L
364.924 233.786 L
365.312 233.786 L
365.7 233.786 L
366.088 233.786 L
366.476 233.786 L
366.864 233.786 L
367.252 233.786 L
367.64 233.786 L
368.028 233.786 L
368.416 233.786 L
368.804 233.786 L
369.192 233.786 L
369.58 233.786 L
369.968 233.786 L
370.356 233.786 L
370.744 233.786 L
371.132 233.786 L
371.52 233.786 L
371.908 233.786 L
372.296 233.786 L
372.684 233.786 L
373.072 233.786 L
373.46 233.786 L
373.848 233.786 L
374.236 233.786 L
374.624 233.786 L
375.012 233.786 L
375.4 233.786 L
375.788 233.786 L
376.176 233.786 L
376.564 233.786 L
376.952 233.786 L
377.34 233.786 L
377.728 233.786 L
378.116 233.786 L
378.504 233.786 L
378.892 233.786 L
379.28 233.786 L
379.668 233.786 L
380.056 233.786 L
380.444 233.786 L
380.832 233.786 L
381.22 233.786 L
381.608 233.786 L
381.996 233.786 L
382.384 233.786 L
382.772 233.786 L
383.16 233.786 L
383.548 233.786 L
383.936 233.786 L
384.324 233.786 L
384.712 233.786 L
385.1 233.786 L
385.488 233.786 L
385.876 233.786 L
386.264 233.786 L
386.652 233.786 L
387.04 233.786 L
387.428 233.786 L
387.816 233.786 L
388.204 233.786 L
388.592 233.786 L
388.98 233.786 L
389.368 233.786 L
389.756 233.786 L
390.144 233.786 L
390.532 233.786 L
390.92 233.786 L
391.308 233.786 L
391.696 233.786 L
392.084 233.786 L
392.472 233.786 L
392.86 233.786 L
393.248 233.786 L
393.636 233.786 L
394.024 233.786 L
394.412 233.786 L
394.8 233.786 L
395.188 233.786 L
395.576 233.786 L
395.964 233.786 L
396.352 233.786 L
396.74 233.786 L
397.128 233.786 L
397.516 233.786 L
397.904 233.786 L
398.292 233.786 L
398.68 233.786 L
399.068 233.786 L
399.456 233.786 L
399.844 233.786 L
400.232 233.786 L
400.62 233.786 L
401.008 233.786 L
401.396 233.786 L
401.784 233.786 L
402.172 233.786 L
402.56 233.786 L
402.948 233.786 L
403.336 233.786 L
403.724 233.786 L
404.112 233.786 L
404.5 233.786 L
404.888 233.786 L
405.276 233.786 L
405.664 233.786 L
406.052 233.786 L
406.44 233.786 L
406.828 233.786 L
407.216 233.786 L
407.604 233.786 L
407.992 233.786 L
408.38 233.786 L
408.768 233.786 L
409.156 233.786 L
409.544 233.786 L
409.932 233.786 L
410.32 233.786 L
410.708 233.786 L
411.096 233.786 L
411.484 233.786 L
411.872 233.786 L
412.26 233.786 L
412.648 233.786 L
413.036 233.786 L
413.424 233.786 L
413.812 233.786 L
414.2 233.786 L
414.588 233.786 L
414.976 233.786 L
415.364 233.786 L
415.752 233.786 L
416.14 233.786 L
416.528 233.786 L
416.916 233.786 L
417.304 233.786 L
417.692 233.786 L
418.08 233.786 L
418.468 233.786 L
418.856 233.786 L
419.244 233.786 L
419.632 233.786 L
420.02 233.786 L
420.408 233.786 L
420.796 233.786 L
421.184 233.786 L
421.572 233.786 L
421.96 233.786 L
422.348 233.786 L
422.736 233.786 L
423.124 233.786 L
423.512 233.786 L
423.9 233.786 L
424.288 233.786 L
424.676 233.786 L
425.064 233.786 L
425.452 233.786 L
425.84 233.786 L
426.228 233.786 L
426.616 233.786 L
427.004 233.786 L
427.392 233.786 L
427.78 233.786 L
428.168 233.786 L
428.556 233.786 L
428.944 233.786 L
429.332 233.786 L
429.72 233.786 L
430.108 233.786 L
430.496 233.786 L
430.884 233.786 L
431.272 233.786 L
431.66 233.786 L
432.048 233.786 L
432.436 233.786 L
432.824 233.786 L
433.212 233.786 L
433.6 233.786 L
433.988 233.786 L
434.376 233.786 L
434.764 233.786 L
435.152 233.786 L
435.54 233.786 L
435.928 233.786 L
436.316 233.786 L
436.704 233.786 L
437.092 233.786 L
437.48 233.786 L
437.868 233.786 L
438.256 233.786 L
438.644 233.786 L
439.032 233.786 L
439.42 233.786 L
439.808 233.786 L
440.196 233.786 L
440.584 233.786 L
440.972 233.786 L
441.36 233.786 L
441.748 233.786 L
442.136 233.786 L
442.524 233.786 L
442.912 233.786 L
443.3 233.786 L
443.688 233.786 L
444.076 233.786 L
444.464 233.786 L
444.852 233.786 L
445.24 233.786 L
445.628 233.786 L
446.016 233.786 L
446.404 233.786 L
446.792 233.786 L
447.18 233.786 L
447.568 233.786 L
447.956 233.786 L
448.344 233.786 L
448.732 233.786 L
449.12 233.786 L
449.508 233.786 L
449.896 233.786 L
450.284 233.786 L
450.672 233.786 L
451.06 233.786 L
451.448 233.786 L
451.836 233.786 L
452.224 233.786 L
452.612 233.786 L
453 233.786 L
S
GR
%%Trailer
%%Pages: 1
%%EOF
