%!PS-Adobe-3.0 EPSF-3.0
%%Creator: (MATLAB, The Mathworks, Inc. Version 9.3.0.713579 \(R2017b\). Operating System: Mac OS X)
%%Title: ./Output/individual_regret_evolution_TS.eps
%%CreationDate: 2018-03-15T12:14:45
%%Pages: (atend)
%%BoundingBox:     5    14   475   335
%%LanguageLevel: 3
%%EndComments
%%BeginProlog
%%BeginResource: procset (Apache XML Graphics Std ProcSet) 1.2 0
%%Version: 1.2 0
%%Copyright: (Copyright 2001-2003,2010 The Apache Software Foundation. License terms: http://www.apache.org/licenses/LICENSE-2.0)
/bd{bind def}bind def
/ld{load def}bd
/GR/grestore ld
/GS/gsave ld
/RM/rmoveto ld
/C/curveto ld
/t/show ld
/L/lineto ld
/ML/setmiterlimit ld
/CT/concat ld
/f/fill ld
/N/newpath ld
/S/stroke ld
/CC/setcmykcolor ld
/A/ashow ld
/cp/closepath ld
/RC/setrgbcolor ld
/LJ/setlinejoin ld
/GC/setgray ld
/LW/setlinewidth ld
/M/moveto ld
/re {4 2 roll M
1 index 0 rlineto
0 exch rlineto
neg 0 rlineto
cp } bd
/_ctm matrix def
/_tm matrix def
/BT { _ctm currentmatrix pop matrix _tm copy pop 0 0 moveto } bd
/ET { _ctm setmatrix } bd
/iTm { _ctm setmatrix _tm concat } bd
/Tm { _tm astore pop iTm 0 0 moveto } bd
/ux 0.0 def
/uy 0.0 def
/F {
  /Tp exch def
  /Tf exch def
  Tf findfont Tp scalefont setfont
  /cf Tf def  /cs Tp def
} bd
/ULS {currentpoint /uy exch def /ux exch def} bd
/ULE {
  /Tcx currentpoint pop def
  gsave
  newpath
  cf findfont cs scalefont dup
  /FontMatrix get 0 get /Ts exch def /FontInfo get dup
  /UnderlinePosition get Ts mul /To exch def
  /UnderlineThickness get Ts mul /Tt exch def
  ux uy To add moveto  Tcx uy To add lineto
  Tt setlinewidth stroke
  grestore
} bd
/OLE {
  /Tcx currentpoint pop def
  gsave
  newpath
  cf findfont cs scalefont dup
  /FontMatrix get 0 get /Ts exch def /FontInfo get dup
  /UnderlinePosition get Ts mul /To exch def
  /UnderlineThickness get Ts mul /Tt exch def
  ux uy To add cs add moveto Tcx uy To add cs add lineto
  Tt setlinewidth stroke
  grestore
} bd
/SOE {
  /Tcx currentpoint pop def
  gsave
  newpath
  cf findfont cs scalefont dup
  /FontMatrix get 0 get /Ts exch def /FontInfo get dup
  /UnderlinePosition get Ts mul /To exch def
  /UnderlineThickness get Ts mul /Tt exch def
  ux uy To add cs 10 mul 26 idiv add moveto Tcx uy To add cs 10 mul 26 idiv add lineto
  Tt setlinewidth stroke
  grestore
} bd
/QT {
/Y22 exch store
/X22 exch store
/Y21 exch store
/X21 exch store
currentpoint
/Y21 load 2 mul add 3 div exch
/X21 load 2 mul add 3 div exch
/X21 load 2 mul /X22 load add 3 div
/Y21 load 2 mul /Y22 load add 3 div
/X22 load /Y22 load curveto
} bd
/SSPD {
dup length /d exch dict def
{
/v exch def
/k exch def
currentpagedevice k known {
/cpdv currentpagedevice k get def
v cpdv ne {
/upd false def
/nullv v type /nulltype eq def
/nullcpdv cpdv type /nulltype eq def
nullv nullcpdv or
{
/upd true def
} {
/sametype v type cpdv type eq def
sametype {
v type /arraytype eq {
/vlen v length def
/cpdvlen cpdv length def
vlen cpdvlen eq {
0 1 vlen 1 sub {
/i exch def
/obj v i get def
/cpdobj cpdv i get def
obj cpdobj ne {
/upd true def
exit
} if
} for
} {
/upd true def
} ifelse
} {
v type /dicttype eq {
v {
/dv exch def
/dk exch def
/cpddv cpdv dk get def
dv cpddv ne {
/upd true def
exit
} if
} forall
} {
/upd true def
} ifelse
} ifelse
} if
} ifelse
upd true eq {
d k v put
} if
} if
} if
} forall
d length 0 gt {
d setpagedevice
} if
} bd
/RE { % /NewFontName [NewEncodingArray] /FontName RE -
  findfont dup length dict begin
  {
    1 index /FID ne
    {def} {pop pop} ifelse
  } forall
  /Encoding exch def
  /FontName 1 index def
  currentdict definefont pop
  end
} bind def
%%EndResource
%%BeginResource: procset (Apache XML Graphics EPS ProcSet) 1.0 0
%%Version: 1.0 0
%%Copyright: (Copyright 2002-2003 The Apache Software Foundation. License terms: http://www.apache.org/licenses/LICENSE-2.0)
/BeginEPSF { %def
/b4_Inc_state save def         % Save state for cleanup
/dict_count countdictstack def % Count objects on dict stack
/op_count count 1 sub def      % Count objects on operand stack
userdict begin                 % Push userdict on dict stack
/showpage { } def              % Redefine showpage, { } = null proc
0 setgray 0 setlinecap         % Prepare graphics state
1 setlinewidth 0 setlinejoin
10 setmiterlimit [ ] 0 setdash newpath
/languagelevel where           % If level not equal to 1 then
{pop languagelevel             % set strokeadjust and
1 ne                           % overprint to their defaults.
{false setstrokeadjust false setoverprint
} if
} if
} bd
/EndEPSF { %def
count op_count sub {pop} repeat            % Clean up stacks
countdictstack dict_count sub {end} repeat
b4_Inc_state restore
} bd
%%EndResource
%FOPBeginFontDict
%%IncludeResource: font Courier-Oblique
%%IncludeResource: font Courier-BoldOblique
%%IncludeResource: font Courier-Bold
%%IncludeResource: font ZapfDingbats
%%IncludeResource: font Symbol
%%IncludeResource: font Helvetica
%%IncludeResource: font Helvetica-Oblique
%%IncludeResource: font Helvetica-Bold
%%IncludeResource: font Helvetica-BoldOblique
%%IncludeResource: font Times-Roman
%%IncludeResource: font Times-Italic
%%IncludeResource: font Times-Bold
%%IncludeResource: font Times-BoldItalic
%%IncludeResource: font Courier
%FOPEndFontDict
%%BeginResource: encoding WinAnsiEncoding
/WinAnsiEncoding [
/.notdef /.notdef /.notdef /.notdef /.notdef
/.notdef /.notdef /.notdef /.notdef /.notdef
/.notdef /.notdef /.notdef /.notdef /.notdef
/.notdef /.notdef /.notdef /.notdef /.notdef
/.notdef /.notdef /.notdef /.notdef /.notdef
/.notdef /.notdef /.notdef /.notdef /.notdef
/.notdef /.notdef /space /exclam /quotedbl
/numbersign /dollar /percent /ampersand /quotesingle
/parenleft /parenright /asterisk /plus /comma
/hyphen /period /slash /zero /one
/two /three /four /five /six
/seven /eight /nine /colon /semicolon
/less /equal /greater /question /at
/A /B /C /D /E
/F /G /H /I /J
/K /L /M /N /O
/P /Q /R /S /T
/U /V /W /X /Y
/Z /bracketleft /backslash /bracketright /asciicircum
/underscore /quoteleft /a /b /c
/d /e /f /g /h
/i /j /k /l /m
/n /o /p /q /r
/s /t /u /v /w
/x /y /z /braceleft /bar
/braceright /asciitilde /bullet /Euro /bullet
/quotesinglbase /florin /quotedblbase /ellipsis /dagger
/daggerdbl /circumflex /perthousand /Scaron /guilsinglleft
/OE /bullet /Zcaron /bullet /bullet
/quoteleft /quoteright /quotedblleft /quotedblright /bullet
/endash /emdash /asciitilde /trademark /scaron
/guilsinglright /oe /bullet /zcaron /Ydieresis
/space /exclamdown /cent /sterling /currency
/yen /brokenbar /section /dieresis /copyright
/ordfeminine /guillemotleft /logicalnot /sfthyphen /registered
/macron /degree /plusminus /twosuperior /threesuperior
/acute /mu /paragraph /middot /cedilla
/onesuperior /ordmasculine /guillemotright /onequarter /onehalf
/threequarters /questiondown /Agrave /Aacute /Acircumflex
/Atilde /Adieresis /Aring /AE /Ccedilla
/Egrave /Eacute /Ecircumflex /Edieresis /Igrave
/Iacute /Icircumflex /Idieresis /Eth /Ntilde
/Ograve /Oacute /Ocircumflex /Otilde /Odieresis
/multiply /Oslash /Ugrave /Uacute /Ucircumflex
/Udieresis /Yacute /Thorn /germandbls /agrave
/aacute /acircumflex /atilde /adieresis /aring
/ae /ccedilla /egrave /eacute /ecircumflex
/edieresis /igrave /iacute /icircumflex /idieresis
/eth /ntilde /ograve /oacute /ocircumflex
/otilde /odieresis /divide /oslash /ugrave
/uacute /ucircumflex /udieresis /yacute /thorn
/ydieresis
] def
%%EndResource
%FOPBeginFontReencode
/Courier-Oblique findfont
dup length dict begin
  {1 index /FID ne {def} {pop pop} ifelse} forall
  /Encoding WinAnsiEncoding def
  currentdict
end
/Courier-Oblique exch definefont pop
/Courier-BoldOblique findfont
dup length dict begin
  {1 index /FID ne {def} {pop pop} ifelse} forall
  /Encoding WinAnsiEncoding def
  currentdict
end
/Courier-BoldOblique exch definefont pop
/Courier-Bold findfont
dup length dict begin
  {1 index /FID ne {def} {pop pop} ifelse} forall
  /Encoding WinAnsiEncoding def
  currentdict
end
/Courier-Bold exch definefont pop
/Helvetica findfont
dup length dict begin
  {1 index /FID ne {def} {pop pop} ifelse} forall
  /Encoding WinAnsiEncoding def
  currentdict
end
/Helvetica exch definefont pop
/Helvetica-Oblique findfont
dup length dict begin
  {1 index /FID ne {def} {pop pop} ifelse} forall
  /Encoding WinAnsiEncoding def
  currentdict
end
/Helvetica-Oblique exch definefont pop
/Helvetica-Bold findfont
dup length dict begin
  {1 index /FID ne {def} {pop pop} ifelse} forall
  /Encoding WinAnsiEncoding def
  currentdict
end
/Helvetica-Bold exch definefont pop
/Helvetica-BoldOblique findfont
dup length dict begin
  {1 index /FID ne {def} {pop pop} ifelse} forall
  /Encoding WinAnsiEncoding def
  currentdict
end
/Helvetica-BoldOblique exch definefont pop
/Times-Roman findfont
dup length dict begin
  {1 index /FID ne {def} {pop pop} ifelse} forall
  /Encoding WinAnsiEncoding def
  currentdict
end
/Times-Roman exch definefont pop
/Times-Italic findfont
dup length dict begin
  {1 index /FID ne {def} {pop pop} ifelse} forall
  /Encoding WinAnsiEncoding def
  currentdict
end
/Times-Italic exch definefont pop
/Times-Bold findfont
dup length dict begin
  {1 index /FID ne {def} {pop pop} ifelse} forall
  /Encoding WinAnsiEncoding def
  currentdict
end
/Times-Bold exch definefont pop
/Times-BoldItalic findfont
dup length dict begin
  {1 index /FID ne {def} {pop pop} ifelse} forall
  /Encoding WinAnsiEncoding def
  currentdict
end
/Times-BoldItalic exch definefont pop
/Courier findfont
dup length dict begin
  {1 index /FID ne {def} {pop pop} ifelse} forall
  /Encoding WinAnsiEncoding def
  currentdict
end
/Courier exch definefont pop
%FOPEndFontReencode
%%EndProlog
%%Page: 1 1
%%PageBoundingBox: 0 0 500 350
%%BeginPageSetup
[1 0 0 -1 0 350] CT
%%EndPageSetup
GS
1 GC
N
0 0 500 350 re
f
GR
GS
1 GC
N
0 0 500 350 re
f
GR
GS
1 GC
N
81 115 M
453 115 L
453 44 L
81 44 L
cp
f
GR
GS
0.149 GC
2 setlinecap
1 LJ
0.5 LW
N
81 115 M
453 115 L
S
GR
GS
0.149 GC
2 setlinecap
1 LJ
0.5 LW
N
81 44 M
453 44 L
S
GR
GS
0.149 GC
2 setlinecap
1 LJ
0.5 LW
N
81 115 M
81 111.28 L
S
GR
GS
0.149 GC
2 setlinecap
1 LJ
0.5 LW
N
155.4 115 M
155.4 111.28 L
S
GR
GS
0.149 GC
2 setlinecap
1 LJ
0.5 LW
N
229.8 115 M
229.8 111.28 L
S
GR
GS
0.149 GC
2 setlinecap
1 LJ
0.5 LW
N
304.2 115 M
304.2 111.28 L
S
GR
GS
0.149 GC
2 setlinecap
1 LJ
0.5 LW
N
378.6 115 M
378.6 111.28 L
S
GR
GS
0.149 GC
2 setlinecap
1 LJ
0.5 LW
N
453 115 M
453 111.28 L
S
GR
GS
0.149 GC
2 setlinecap
1 LJ
0.5 LW
N
81 44 M
81 47.72 L
S
GR
GS
0.149 GC
2 setlinecap
1 LJ
0.5 LW
N
155.4 44 M
155.4 47.72 L
S
GR
GS
0.149 GC
2 setlinecap
1 LJ
0.5 LW
N
229.8 44 M
229.8 47.72 L
S
GR
GS
0.149 GC
2 setlinecap
1 LJ
0.5 LW
N
304.2 44 M
304.2 47.72 L
S
GR
GS
0.149 GC
2 setlinecap
1 LJ
0.5 LW
N
378.6 44 M
378.6 47.72 L
S
GR
GS
0.149 GC
2 setlinecap
1 LJ
0.5 LW
N
453 44 M
453 47.72 L
S
GR
GS
[1 0 0 1 81 121.4] CT
0.149 GC
/Times-Roman 22 F
GS
[1 0 0 1 0 0] CT
-5.5 20 moveto 
1 -1 scale
(0) t 
GR
GR
GS
[1 0 0 1 155.39999 121.4] CT
0.149 GC
/Times-Roman 22 F
GS
[1 0 0 1 0 0] CT
-16.5 20 moveto 
1 -1 scale
(200) t 
GR
GR
GS
[1 0 0 1 229.8 121.4] CT
0.149 GC
/Times-Roman 22 F
GS
[1 0 0 1 0 0] CT
-16.5 20 moveto 
1 -1 scale
(400) t 
GR
GR
GS
[1 0 0 1 304.20001 121.4] CT
0.149 GC
/Times-Roman 22 F
GS
[1 0 0 1 0 0] CT
-16.5 20 moveto 
1 -1 scale
(600) t 
GR
GR
GS
[1 0 0 1 378.60001 121.4] CT
0.149 GC
/Times-Roman 22 F
GS
[1 0 0 1 0 0] CT
-16.5 20 moveto 
1 -1 scale
(800) t 
GR
GR
GS
[1 0 0 1 453 121.4] CT
0.149 GC
/Times-Roman 22 F
GS
[1 0 0 1 0 0] CT
-22 20 moveto 
1 -1 scale
(1000) t 
GR
GR
GS
[1 0 0 1 267.00018 147.39999] CT
0.149 GC
/Times-Roman 24 F
GS
[1 0 0 1 0 0] CT
-57 22 moveto 
1 -1 scale
(TS iteration) t 
GR
GR
GS
0.149 GC
2 setlinecap
1 LJ
0.5 LW
N
81 115 M
81 44 L
S
GR
GS
0.149 GC
2 setlinecap
1 LJ
0.5 LW
N
453 115 M
453 44 L
S
GR
GS
0.149 GC
2 setlinecap
1 LJ
0.5 LW
N
81 115 M
84.72 115 L
S
GR
GS
0.149 GC
2 setlinecap
1 LJ
0.5 LW
N
81 79.5 M
84.72 79.5 L
S
GR
GS
0.149 GC
2 setlinecap
1 LJ
0.5 LW
N
81 44 M
84.72 44 L
S
GR
GS
0.149 GC
2 setlinecap
1 LJ
0.5 LW
N
453 115 M
449.28 115 L
S
GR
GS
0.149 GC
2 setlinecap
1 LJ
0.5 LW
N
453 79.5 M
449.28 79.5 L
S
GR
GS
0.149 GC
2 setlinecap
1 LJ
0.5 LW
N
453 44 M
449.28 44 L
S
GR
GS
[1 0 0 1 74.6 115] CT
0.149 GC
/Times-Roman 22 F
GS
[1 0 0 1 0 0] CT
-11 7.5 moveto 
1 -1 scale
(0) t 
GR
GR
GS
[1 0 0 1 74.6 79.5] CT
0.149 GC
/Times-Roman 22 F
GS
[1 0 0 1 0 0] CT
-33 7.5 moveto 
1 -1 scale
(500) t 
GR
GR
GS
[1 0 0 1 74.6 44] CT
0.149 GC
/Times-Roman 22 F
GS
[1 0 0 1 0 0] CT
-44 7.5 moveto 
1 -1 scale
(1000) t 
GR
GR
GS
[0 -1 1 0 27.6 79.49996] CT
0.149 GC
/Times-Roman 24 F
GS
[1 0 0 1 0 0] CT
-32 -6 moveto 
1 -1 scale
(Regret) t 
GR
GR
GS
[1 0 0 1 267.00027 37.95] CT
/Times-Bold 24.2 F
GS
[1 0 0 1 0 0] CT
-47 -6 moveto 
1 -1 scale
(WLAN 1) t 
GR
GR
GS
0 0.447 0.741 RC
1 LJ
0.5 LW
N
81.372 114.958 M
81.744 114.901 L
82.116 114.842 L
82.488 114.781 L
82.86 114.72 L
83.232 114.661 L
83.604 114.596 L
83.976 114.53 L
84.348 114.475 L
84.72 114.417 L
85.092 114.357 L
85.464 114.297 L
85.836 114.235 L
86.208 114.178 L
86.58 114.122 L
86.952 114.057 L
87.324 114.001 L
87.696 113.936 L
88.068 113.876 L
88.44 113.823 L
88.812 113.77 L
89.184 113.717 L
89.556 113.664 L
89.928 113.604 L
90.3 113.562 L
90.672 113.502 L
91.044 113.446 L
91.416 113.393 L
91.788 113.34 L
92.16 113.28 L
92.532 113.221 L
92.904 113.161 L
93.276 113.099 L
93.648 113.04 L
94.02 112.983 L
94.392 112.927 L
94.764 112.884 L
95.136 112.842 L
95.508 112.78 L
95.88 112.738 L
96.252 112.681 L
96.624 112.625 L
96.996 112.582 L
97.368 112.54 L
97.74 112.498 L
98.112 112.442 L
98.484 112.376 L
98.856 112.311 L
99.228 112.245 L
99.6 112.203 L
99.972 112.161 L
100.344 112.118 L
100.716 112.076 L
101.088 112.018 L
101.46 111.96 L
101.832 111.918 L
102.204 111.876 L
102.576 111.815 L
102.948 111.754 L
103.32 111.712 L
103.692 111.669 L
104.064 111.613 L
104.436 111.57 L
104.808 111.528 L
105.18 111.486 L
105.552 111.444 L
105.924 111.401 L
106.296 111.343 L
106.668 111.284 L
107.04 111.242 L
107.412 111.199 L
107.784 111.157 L
108.156 111.115 L
108.528 111.073 L
108.9 111.03 L
109.272 110.988 L
109.644 110.946 L
110.016 110.903 L
110.388 110.861 L
110.76 110.819 L
111.132 110.777 L
111.504 110.734 L
111.876 110.692 L
112.248 110.65 L
112.62 110.607 L
112.992 110.565 L
113.364 110.523 L
113.736 110.481 L
114.108 110.438 L
114.48 110.396 L
114.852 110.354 L
115.224 110.293 L
115.596 110.232 L
115.968 110.17 L
116.34 110.128 L
116.712 110.085 L
117.084 110.043 L
117.456 110.001 L
117.828 109.958 L
118.2 109.916 L
118.572 109.86 L
118.944 109.803 L
119.316 109.747 L
119.688 109.681 L
120.06 109.625 L
120.432 109.568 L
120.804 109.512 L
121.176 109.455 L
121.548 109.413 L
121.92 109.371 L
122.292 109.328 L
122.664 109.286 L
123.036 109.244 L
123.408 109.201 L
123.78 109.145 L
124.152 109.088 L
124.524 109.032 L
124.896 108.974 L
125.268 108.913 L
125.64 108.851 L
126.012 108.789 L
126.384 108.747 L
126.756 108.705 L
127.128 108.662 L
127.5 108.62 L
127.872 108.578 L
128.244 108.536 L
128.616 108.493 L
128.988 108.451 L
129.36 108.409 L
129.732 108.366 L
130.104 108.324 L
130.476 108.282 L
130.848 108.24 L
131.22 108.197 L
131.592 108.155 L
131.964 108.113 L
132.336 108.07 L
132.708 108.028 L
133.08 107.986 L
133.452 107.944 L
133.824 107.901 L
134.196 107.859 L
134.568 107.817 L
134.94 107.774 L
135.312 107.732 L
135.684 107.69 L
136.056 107.648 L
136.428 107.605 L
136.8 107.563 L
137.172 107.521 L
137.544 107.478 L
137.916 107.436 L
138.288 107.394 L
138.66 107.352 L
139.032 107.309 L
139.404 107.267 L
139.776 107.225 L
140.148 107.182 L
140.52 107.14 L
140.892 107.098 L
141.264 107.056 L
141.636 107.013 L
142.008 106.971 L
142.38 106.929 L
142.752 106.886 L
143.124 106.844 L
143.496 106.802 L
143.868 106.76 L
144.24 106.717 L
144.612 106.675 L
144.984 106.633 L
145.356 106.59 L
145.728 106.534 L
146.1 106.478 L
146.472 106.421 L
146.844 106.379 L
147.216 106.337 L
147.588 106.295 L
147.96 106.252 L
148.332 106.21 L
148.704 106.168 L
149.076 106.125 L
149.448 106.083 L
149.82 106.041 L
150.192 105.999 L
150.564 105.956 L
150.936 105.914 L
151.308 105.872 L
151.68 105.829 L
152.052 105.787 L
152.424 105.745 L
152.796 105.703 L
153.168 105.66 L
153.54 105.618 L
153.912 105.576 L
154.284 105.533 L
154.656 105.475 L
155.028 105.432 L
155.4 105.39 L
155.772 105.348 L
156.144 105.306 L
156.516 105.263 L
156.888 105.221 L
157.26 105.179 L
157.632 105.136 L
158.004 105.094 L
158.376 105.052 L
158.748 105.01 L
159.12 104.967 L
159.492 104.925 L
159.864 104.883 L
160.236 104.84 L
160.608 104.798 L
160.98 104.756 L
161.352 104.714 L
161.724 104.654 L
162.096 104.594 L
162.468 104.552 L
162.84 104.492 L
163.212 104.449 L
163.584 104.407 L
163.956 104.365 L
164.328 104.322 L
164.7 104.28 L
165.072 104.238 L
165.444 104.196 L
165.816 104.153 L
166.188 104.111 L
166.56 104.069 L
166.932 104.026 L
167.304 103.984 L
167.676 103.942 L
168.048 103.9 L
168.42 103.857 L
168.792 103.815 L
169.164 103.773 L
169.536 103.73 L
169.908 103.688 L
170.28 103.646 L
170.652 103.604 L
171.024 103.561 L
171.396 103.519 L
171.768 103.477 L
172.14 103.435 L
172.512 103.392 L
172.884 103.35 L
173.256 103.308 L
173.628 103.265 L
174 103.223 L
174.372 103.181 L
174.744 103.139 L
175.116 103.096 L
175.488 103.054 L
175.86 103.012 L
176.232 102.969 L
176.604 102.927 L
176.976 102.885 L
177.348 102.843 L
177.72 102.8 L
178.092 102.758 L
178.464 102.716 L
178.836 102.673 L
179.208 102.613 L
179.58 102.554 L
179.952 102.511 L
180.324 102.469 L
180.696 102.427 L
181.068 102.384 L
181.44 102.342 L
181.812 102.3 L
182.184 102.258 L
182.556 102.215 L
182.928 102.173 L
183.3 102.131 L
183.672 102.088 L
184.044 102.046 L
184.416 102.004 L
184.788 101.962 L
185.16 101.919 L
185.532 101.877 L
185.904 101.835 L
186.276 101.792 L
186.648 101.75 L
187.02 101.708 L
187.392 101.666 L
187.764 101.623 L
188.136 101.581 L
188.508 101.539 L
188.88 101.496 L
189.252 101.454 L
189.624 101.412 L
189.996 101.37 L
190.368 101.327 L
190.74 101.285 L
191.112 101.243 L
191.484 101.2 L
191.856 101.158 L
192.228 101.116 L
192.6 101.074 L
192.972 101.031 L
193.344 100.989 L
193.716 100.947 L
194.088 100.904 L
194.46 100.862 L
194.832 100.82 L
195.204 100.778 L
195.576 100.735 L
195.948 100.693 L
196.32 100.651 L
196.692 100.608 L
197.064 100.566 L
197.436 100.524 L
197.808 100.482 L
198.18 100.439 L
198.552 100.397 L
198.924 100.355 L
199.296 100.312 L
199.668 100.27 L
200.04 100.228 L
200.412 100.186 L
200.784 100.143 L
201.156 100.101 L
201.528 100.059 L
201.9 100.017 L
202.272 99.974 L
202.644 99.932 L
203.016 99.89 L
203.388 99.847 L
203.76 99.805 L
204.132 99.763 L
204.504 99.721 L
204.876 99.662 L
205.248 99.62 L
205.62 99.577 L
205.992 99.535 L
206.364 99.493 L
206.736 99.45 L
207.108 99.408 L
207.48 99.366 L
207.852 99.324 L
208.224 99.281 L
208.596 99.239 L
208.968 99.197 L
209.34 99.154 L
209.712 99.112 L
210.084 99.07 L
210.456 99.011 L
210.828 98.969 L
211.2 98.927 L
211.572 98.884 L
211.944 98.842 L
212.316 98.8 L
212.688 98.757 L
213.06 98.715 L
213.432 98.673 L
213.804 98.631 L
214.176 98.588 L
214.548 98.546 L
214.92 98.504 L
215.292 98.461 L
215.664 98.419 L
216.036 98.377 L
216.408 98.335 L
216.78 98.276 L
217.152 98.234 L
217.524 98.191 L
217.896 98.149 L
218.268 98.107 L
218.64 98.065 L
219.012 98.022 L
219.384 97.98 L
219.756 97.938 L
220.128 97.895 L
220.5 97.853 L
220.872 97.811 L
221.244 97.769 L
221.616 97.726 L
221.988 97.684 L
222.36 97.642 L
222.732 97.599 L
223.104 97.557 L
223.476 97.515 L
223.848 97.456 L
224.22 97.398 L
224.592 97.355 L
224.964 97.313 L
225.336 97.271 L
225.708 97.228 L
226.08 97.186 L
226.452 97.144 L
226.824 97.102 L
227.196 97.059 L
227.568 97.017 L
227.94 96.975 L
228.312 96.932 L
228.684 96.89 L
229.056 96.848 L
229.428 96.806 L
229.8 96.763 L
230.172 96.721 L
230.544 96.679 L
230.916 96.636 L
231.288 96.594 L
231.66 96.552 L
232.032 96.51 L
232.404 96.467 L
232.776 96.425 L
233.148 96.383 L
233.52 96.34 L
233.892 96.298 L
234.264 96.256 L
234.636 96.214 L
235.008 96.171 L
235.38 96.129 L
235.752 96.087 L
236.124 96.044 L
236.496 96.002 L
236.868 95.96 L
237.24 95.918 L
237.612 95.875 L
237.984 95.833 L
238.356 95.791 L
238.728 95.748 L
239.1 95.706 L
239.472 95.664 L
239.844 95.622 L
240.216 95.579 L
240.588 95.537 L
240.96 95.495 L
241.332 95.452 L
241.704 95.41 L
242.076 95.368 L
242.448 95.326 L
242.82 95.283 L
243.192 95.241 L
243.564 95.199 L
243.936 95.156 L
244.308 95.114 L
244.68 95.072 L
245.052 95.03 L
245.424 94.987 L
245.796 94.945 L
246.168 94.903 L
246.54 94.86 L
246.912 94.818 L
247.284 94.776 L
247.656 94.734 L
248.028 94.691 L
248.4 94.649 L
248.772 94.607 L
249.144 94.564 L
249.516 94.522 L
249.888 94.48 L
250.26 94.438 L
250.632 94.395 L
251.004 94.353 L
251.376 94.311 L
251.748 94.268 L
252.12 94.226 L
252.492 94.184 L
252.864 94.142 L
253.236 94.099 L
253.608 94.057 L
253.98 94.015 L
254.352 93.972 L
254.724 93.93 L
255.096 93.888 L
255.468 93.846 L
255.84 93.803 L
256.212 93.761 L
256.584 93.719 L
256.956 93.676 L
257.328 93.634 L
257.7 93.592 L
258.072 93.55 L
258.444 93.507 L
258.816 93.465 L
259.188 93.423 L
259.56 93.381 L
259.932 93.338 L
260.304 93.296 L
260.676 93.254 L
261.048 93.211 L
261.42 93.155 L
261.792 93.113 L
262.164 93.07 L
262.536 93.028 L
262.908 92.986 L
263.28 92.944 L
263.652 92.901 L
264.024 92.859 L
264.396 92.817 L
264.768 92.774 L
265.14 92.732 L
265.512 92.69 L
265.884 92.648 L
266.256 92.605 L
266.628 92.563 L
267 92.521 L
267.372 92.478 L
267.744 92.436 L
268.116 92.394 L
268.488 92.352 L
268.86 92.309 L
269.232 92.267 L
269.604 92.225 L
269.976 92.182 L
270.348 92.14 L
270.72 92.098 L
271.092 92.056 L
271.464 92.013 L
271.836 91.971 L
272.208 91.929 L
272.58 91.886 L
272.952 91.844 L
273.324 91.802 L
273.696 91.76 L
274.068 91.717 L
274.44 91.675 L
274.812 91.633 L
275.184 91.59 L
275.556 91.548 L
275.928 91.506 L
276.3 91.464 L
276.672 91.421 L
277.044 91.379 L
277.416 91.337 L
277.788 91.294 L
278.16 91.252 L
278.532 91.21 L
278.904 91.168 L
279.276 91.125 L
279.648 91.083 L
280.02 91.041 L
280.392 90.998 L
280.764 90.956 L
281.136 90.914 L
281.508 90.872 L
281.88 90.829 L
282.252 90.787 L
282.624 90.745 L
282.996 90.703 L
283.368 90.66 L
283.74 90.618 L
284.112 90.576 L
284.484 90.533 L
284.856 90.491 L
285.228 90.449 L
285.6 90.407 L
285.972 90.364 L
286.344 90.322 L
286.716 90.28 L
287.088 90.237 L
287.46 90.195 L
287.832 90.153 L
288.204 90.111 L
288.576 90.068 L
288.948 90.026 L
289.32 89.984 L
289.692 89.941 L
290.064 89.899 L
290.436 89.857 L
290.808 89.815 L
291.18 89.772 L
291.552 89.73 L
291.924 89.688 L
292.296 89.645 L
292.668 89.603 L
293.04 89.561 L
293.412 89.519 L
293.784 89.476 L
294.156 89.434 L
294.528 89.392 L
294.9 89.349 L
295.272 89.307 L
295.644 89.265 L
296.016 89.223 L
296.388 89.18 L
296.76 89.138 L
297.132 89.082 L
297.504 89.025 L
297.876 88.969 L
298.248 88.913 L
298.62 88.87 L
298.992 88.828 L
299.364 88.786 L
299.736 88.743 L
300.108 88.701 L
300.48 88.659 L
300.852 88.617 L
301.224 88.574 L
301.596 88.532 L
301.968 88.49 L
302.34 88.447 L
302.712 88.405 L
303.084 88.363 L
303.456 88.321 L
303.828 88.278 L
304.2 88.216 L
304.572 88.174 L
304.944 88.132 L
305.316 88.09 L
305.688 88.047 L
306.06 88.005 L
306.432 87.963 L
306.804 87.92 L
307.176 87.878 L
307.548 87.836 L
307.92 87.794 L
308.292 87.751 L
308.664 87.709 L
309.036 87.667 L
309.408 87.624 L
309.78 87.582 L
310.152 87.54 L
310.524 87.498 L
310.896 87.455 L
311.268 87.413 L
311.64 87.371 L
312.012 87.328 L
312.384 87.286 L
312.756 87.244 L
313.128 87.202 L
313.5 87.159 L
313.872 87.117 L
314.244 87.075 L
314.616 87.032 L
314.988 86.99 L
315.36 86.948 L
315.732 86.906 L
316.104 86.863 L
316.476 86.821 L
316.848 86.779 L
317.22 86.736 L
317.592 86.694 L
317.964 86.652 L
318.336 86.61 L
318.708 86.567 L
319.08 86.525 L
319.452 86.483 L
319.824 86.44 L
320.196 86.398 L
320.568 86.356 L
320.94 86.314 L
321.312 86.271 L
321.684 86.229 L
322.056 86.187 L
322.428 86.144 L
322.8 86.102 L
323.172 86.046 L
323.544 85.989 L
323.916 85.947 L
324.288 85.905 L
324.66 85.863 L
325.032 85.82 L
325.404 85.778 L
325.776 85.736 L
326.148 85.677 L
326.52 85.618 L
326.892 85.576 L
327.264 85.534 L
327.636 85.492 L
328.008 85.449 L
328.38 85.407 L
328.752 85.365 L
329.124 85.322 L
329.496 85.28 L
329.868 85.238 L
330.24 85.196 L
330.612 85.153 L
330.984 85.111 L
331.356 85.069 L
331.728 85.026 L
332.1 84.984 L
332.472 84.942 L
332.844 84.9 L
333.216 84.857 L
333.588 84.815 L
333.96 84.773 L
334.332 84.73 L
334.704 84.688 L
335.076 84.646 L
335.448 84.604 L
335.82 84.561 L
336.192 84.519 L
336.564 84.477 L
336.936 84.434 L
337.308 84.392 L
337.68 84.35 L
338.052 84.308 L
338.424 84.249 L
338.796 84.207 L
339.168 84.164 L
339.54 84.122 L
339.912 84.08 L
340.284 84.038 L
340.656 83.995 L
341.028 83.953 L
341.4 83.911 L
341.772 83.868 L
342.144 83.826 L
342.516 83.784 L
342.888 83.742 L
343.26 83.699 L
343.632 83.657 L
344.004 83.615 L
344.376 83.572 L
344.748 83.53 L
345.12 83.488 L
345.492 83.446 L
345.864 83.403 L
346.236 83.361 L
346.608 83.319 L
346.98 83.276 L
347.352 83.234 L
347.724 83.192 L
348.096 83.15 L
348.468 83.107 L
348.84 83.065 L
349.212 83.023 L
349.584 82.98 L
349.956 82.938 L
350.328 82.896 L
350.7 82.854 L
351.072 82.811 L
351.444 82.769 L
351.816 82.727 L
352.188 82.684 L
352.56 82.642 L
352.932 82.6 L
353.304 82.558 L
353.676 82.515 L
354.048 82.473 L
354.42 82.431 L
354.792 82.388 L
355.164 82.346 L
355.536 82.304 L
355.908 82.262 L
356.28 82.219 L
356.652 82.177 L
357.024 82.135 L
357.396 82.092 L
357.768 82.05 L
358.14 82.008 L
358.512 81.966 L
358.884 81.923 L
359.256 81.881 L
359.628 81.839 L
360 81.796 L
360.372 81.754 L
360.744 81.712 L
361.116 81.67 L
361.488 81.627 L
361.86 81.585 L
362.232 81.543 L
362.604 81.5 L
362.976 81.458 L
363.348 81.416 L
363.72 81.374 L
364.092 81.331 L
364.464 81.289 L
364.836 81.247 L
365.208 81.204 L
365.58 81.162 L
365.952 81.12 L
366.324 81.078 L
366.696 81.035 L
367.068 80.993 L
367.44 80.951 L
367.812 80.908 L
368.184 80.866 L
368.556 80.824 L
368.928 80.782 L
369.3 80.739 L
369.672 80.679 L
370.044 80.637 L
370.416 80.595 L
370.788 80.553 L
371.16 80.51 L
371.532 80.468 L
371.904 80.426 L
372.276 80.383 L
372.648 80.341 L
373.02 80.299 L
373.392 80.257 L
373.764 80.214 L
374.136 80.172 L
374.508 80.13 L
374.88 80.087 L
375.252 80.045 L
375.624 80.003 L
375.996 79.961 L
376.368 79.918 L
376.74 79.876 L
377.112 79.834 L
377.484 79.791 L
377.856 79.749 L
378.228 79.707 L
378.6 79.665 L
378.972 79.622 L
379.344 79.58 L
379.716 79.538 L
380.088 79.495 L
380.46 79.453 L
380.832 79.411 L
381.204 79.369 L
381.576 79.326 L
381.948 79.284 L
382.32 79.242 L
382.692 79.199 L
383.064 79.157 L
383.436 79.115 L
383.808 79.073 L
384.18 79.03 L
384.552 78.988 L
384.924 78.946 L
385.296 78.903 L
385.668 78.861 L
386.04 78.819 L
386.412 78.777 L
386.784 78.734 L
387.156 78.692 L
387.528 78.65 L
387.9 78.607 L
388.272 78.565 L
388.644 78.523 L
389.016 78.481 L
389.388 78.438 L
389.76 78.396 L
390.132 78.354 L
390.504 78.311 L
390.876 78.269 L
391.248 78.227 L
391.62 78.185 L
391.992 78.142 L
392.364 78.1 L
392.736 78.058 L
393.108 78.016 L
393.48 77.973 L
393.852 77.931 L
394.224 77.889 L
394.596 77.846 L
394.968 77.804 L
395.34 77.762 L
395.712 77.72 L
396.084 77.677 L
396.456 77.635 L
396.828 77.593 L
397.2 77.55 L
397.572 77.508 L
397.944 77.466 L
398.316 77.424 L
398.688 77.381 L
399.06 77.339 L
399.432 77.297 L
399.804 77.254 L
400.176 77.212 L
400.548 77.17 L
400.92 77.128 L
401.292 77.085 L
401.664 77.043 L
402.036 77.001 L
402.408 76.958 L
402.78 76.916 L
403.152 76.874 L
403.524 76.832 L
403.896 76.789 L
404.268 76.747 L
404.64 76.705 L
405.012 76.662 L
405.384 76.62 L
405.756 76.578 L
406.128 76.536 L
406.5 76.493 L
406.872 76.451 L
407.244 76.409 L
407.616 76.366 L
407.988 76.324 L
408.36 76.282 L
408.732 76.24 L
409.104 76.197 L
409.476 76.155 L
409.848 76.113 L
410.22 76.07 L
410.592 76.028 L
410.964 75.986 L
411.336 75.944 L
411.708 75.901 L
412.08 75.859 L
412.452 75.817 L
412.824 75.774 L
413.196 75.732 L
413.568 75.69 L
413.94 75.648 L
414.312 75.605 L
414.684 75.563 L
415.056 75.521 L
415.428 75.478 L
415.8 75.436 L
416.172 75.394 L
416.544 75.352 L
416.916 75.309 L
417.288 75.267 L
417.66 75.225 L
418.032 75.182 L
418.404 75.14 L
418.776 75.098 L
419.148 75.056 L
419.52 75.013 L
419.892 74.971 L
420.264 74.929 L
420.636 74.886 L
421.008 74.844 L
421.38 74.802 L
421.752 74.76 L
422.124 74.717 L
422.496 74.675 L
422.868 74.633 L
423.24 74.59 L
423.612 74.548 L
423.984 74.506 L
424.356 74.464 L
424.728 74.421 L
425.1 74.379 L
425.472 74.337 L
425.844 74.294 L
426.216 74.252 L
426.588 74.21 L
426.96 74.168 L
427.332 74.125 L
427.704 74.083 L
428.076 74.041 L
428.448 73.998 L
428.82 73.956 L
429.192 73.914 L
429.564 73.872 L
429.936 73.829 L
430.308 73.787 L
430.68 73.745 L
431.052 73.702 L
431.424 73.66 L
431.796 73.618 L
432.168 73.576 L
432.54 73.533 L
432.912 73.491 L
433.284 73.449 L
433.656 73.406 L
434.028 73.364 L
434.4 73.322 L
434.772 73.28 L
435.144 73.237 L
435.516 73.195 L
435.888 73.153 L
436.26 73.111 L
436.632 73.068 L
437.004 73.026 L
437.376 72.984 L
437.748 72.941 L
438.12 72.899 L
438.492 72.857 L
438.864 72.815 L
439.236 72.772 L
439.608 72.73 L
439.98 72.688 L
440.352 72.645 L
440.724 72.603 L
441.096 72.561 L
441.468 72.519 L
441.84 72.476 L
442.212 72.434 L
442.584 72.392 L
442.956 72.349 L
443.328 72.307 L
443.7 72.265 L
444.072 72.223 L
444.444 72.18 L
444.816 72.138 L
445.188 72.096 L
445.56 72.053 L
445.932 72.011 L
446.304 71.969 L
446.676 71.927 L
447.048 71.884 L
447.42 71.842 L
447.792 71.8 L
448.164 71.757 L
448.536 71.715 L
448.908 71.673 L
449.28 71.631 L
449.652 71.588 L
450.024 71.546 L
450.396 71.504 L
450.768 71.461 L
451.14 71.419 L
451.512 71.377 L
451.884 71.335 L
452.256 71.292 L
452.628 71.25 L
453 71.208 L
S
GR
GS
1 GC
N
81 281 M
453 281 L
453 210 L
81 210 L
cp
f
GR
GS
0.149 GC
2 setlinecap
1 LJ
0.5 LW
N
81 281 M
453 281 L
S
GR
GS
0.149 GC
2 setlinecap
1 LJ
0.5 LW
N
81 210 M
453 210 L
S
GR
GS
0.149 GC
2 setlinecap
1 LJ
0.5 LW
N
81 281 M
81 277.28 L
S
GR
GS
0.149 GC
2 setlinecap
1 LJ
0.5 LW
N
155.4 281 M
155.4 277.28 L
S
GR
GS
0.149 GC
2 setlinecap
1 LJ
0.5 LW
N
229.8 281 M
229.8 277.28 L
S
GR
GS
0.149 GC
2 setlinecap
1 LJ
0.5 LW
N
304.2 281 M
304.2 277.28 L
S
GR
GS
0.149 GC
2 setlinecap
1 LJ
0.5 LW
N
378.6 281 M
378.6 277.28 L
S
GR
GS
0.149 GC
2 setlinecap
1 LJ
0.5 LW
N
453 281 M
453 277.28 L
S
GR
GS
0.149 GC
2 setlinecap
1 LJ
0.5 LW
N
81 210 M
81 213.72 L
S
GR
GS
0.149 GC
2 setlinecap
1 LJ
0.5 LW
N
155.4 210 M
155.4 213.72 L
S
GR
GS
0.149 GC
2 setlinecap
1 LJ
0.5 LW
N
229.8 210 M
229.8 213.72 L
S
GR
GS
0.149 GC
2 setlinecap
1 LJ
0.5 LW
N
304.2 210 M
304.2 213.72 L
S
GR
GS
0.149 GC
2 setlinecap
1 LJ
0.5 LW
N
378.6 210 M
378.6 213.72 L
S
GR
GS
0.149 GC
2 setlinecap
1 LJ
0.5 LW
N
453 210 M
453 213.72 L
S
GR
GS
[1 0 0 1 81 287.39999] CT
0.149 GC
/Times-Roman 22 F
GS
[1 0 0 1 0 0] CT
-5.5 20 moveto 
1 -1 scale
(0) t 
GR
GR
GS
[1 0 0 1 155.39999 287.39999] CT
0.149 GC
/Times-Roman 22 F
GS
[1 0 0 1 0 0] CT
-16.5 20 moveto 
1 -1 scale
(200) t 
GR
GR
GS
[1 0 0 1 229.8 287.39999] CT
0.149 GC
/Times-Roman 22 F
GS
[1 0 0 1 0 0] CT
-16.5 20 moveto 
1 -1 scale
(400) t 
GR
GR
GS
[1 0 0 1 304.20001 287.39999] CT
0.149 GC
/Times-Roman 22 F
GS
[1 0 0 1 0 0] CT
-16.5 20 moveto 
1 -1 scale
(600) t 
GR
GR
GS
[1 0 0 1 378.60001 287.39999] CT
0.149 GC
/Times-Roman 22 F
GS
[1 0 0 1 0 0] CT
-16.5 20 moveto 
1 -1 scale
(800) t 
GR
GR
GS
[1 0 0 1 453 287.39999] CT
0.149 GC
/Times-Roman 22 F
GS
[1 0 0 1 0 0] CT
-22 20 moveto 
1 -1 scale
(1000) t 
GR
GR
GS
[1 0 0 1 267.00018 313.39999] CT
0.149 GC
/Times-Roman 24 F
GS
[1 0 0 1 0 0] CT
-57 22 moveto 
1 -1 scale
(TS iteration) t 
GR
GR
GS
0.149 GC
2 setlinecap
1 LJ
0.5 LW
N
81 281 M
81 210 L
S
GR
GS
0.149 GC
2 setlinecap
1 LJ
0.5 LW
N
453 281 M
453 210 L
S
GR
GS
0.149 GC
2 setlinecap
1 LJ
0.5 LW
N
81 281 M
84.72 281 L
S
GR
GS
0.149 GC
2 setlinecap
1 LJ
0.5 LW
N
81 245.5 M
84.72 245.5 L
S
GR
GS
0.149 GC
2 setlinecap
1 LJ
0.5 LW
N
81 210 M
84.72 210 L
S
GR
GS
0.149 GC
2 setlinecap
1 LJ
0.5 LW
N
453 281 M
449.28 281 L
S
GR
GS
0.149 GC
2 setlinecap
1 LJ
0.5 LW
N
453 245.5 M
449.28 245.5 L
S
GR
GS
0.149 GC
2 setlinecap
1 LJ
0.5 LW
N
453 210 M
449.28 210 L
S
GR
GS
[1 0 0 1 74.6 281] CT
0.149 GC
/Times-Roman 22 F
GS
[1 0 0 1 0 0] CT
-11 7.5 moveto 
1 -1 scale
(0) t 
GR
GR
GS
[1 0 0 1 74.6 245.5] CT
0.149 GC
/Times-Roman 22 F
GS
[1 0 0 1 0 0] CT
-33 7.5 moveto 
1 -1 scale
(500) t 
GR
GR
GS
[1 0 0 1 74.6 210] CT
0.149 GC
/Times-Roman 22 F
GS
[1 0 0 1 0 0] CT
-44 7.5 moveto 
1 -1 scale
(1000) t 
GR
GR
GS
[0 -1 1 0 27.6 245.49997] CT
0.149 GC
/Times-Roman 24 F
GS
[1 0 0 1 0 0] CT
-32 -6 moveto 
1 -1 scale
(Regret) t 
GR
GR
GS
[1 0 0 1 267.00027 203.95] CT
/Times-Bold 24.2 F
GS
[1 0 0 1 0 0] CT
-47 -6 moveto 
1 -1 scale
(WLAN 2) t 
GR
GR
GS
0 0.447 0.741 RC
1 LJ
0.5 LW
N
81.372 280.958 M
81.744 280.901 L
82.116 280.842 L
82.488 280.781 L
82.86 280.72 L
83.232 280.661 L
83.604 280.596 L
83.976 280.53 L
84.348 280.475 L
84.72 280.417 L
85.092 280.357 L
85.464 280.297 L
85.836 280.235 L
86.208 280.178 L
86.58 280.122 L
86.952 280.057 L
87.324 280.001 L
87.696 279.936 L
88.068 279.876 L
88.44 279.823 L
88.812 279.77 L
89.184 279.717 L
89.556 279.664 L
89.928 279.604 L
90.3 279.562 L
90.672 279.502 L
91.044 279.446 L
91.416 279.393 L
91.788 279.34 L
92.16 279.28 L
92.532 279.221 L
92.904 279.161 L
93.276 279.099 L
93.648 279.04 L
94.02 278.983 L
94.392 278.927 L
94.764 278.884 L
95.136 278.842 L
95.508 278.78 L
95.88 278.738 L
96.252 278.681 L
96.624 278.625 L
96.996 278.582 L
97.368 278.54 L
97.74 278.498 L
98.112 278.442 L
98.484 278.376 L
98.856 278.311 L
99.228 278.245 L
99.6 278.203 L
99.972 278.161 L
100.344 278.118 L
100.716 278.076 L
101.088 278.018 L
101.46 277.96 L
101.832 277.918 L
102.204 277.876 L
102.576 277.815 L
102.948 277.754 L
103.32 277.712 L
103.692 277.669 L
104.064 277.613 L
104.436 277.57 L
104.808 277.528 L
105.18 277.486 L
105.552 277.444 L
105.924 277.401 L
106.296 277.343 L
106.668 277.284 L
107.04 277.242 L
107.412 277.199 L
107.784 277.157 L
108.156 277.115 L
108.528 277.073 L
108.9 277.03 L
109.272 276.988 L
109.644 276.946 L
110.016 276.903 L
110.388 276.861 L
110.76 276.819 L
111.132 276.777 L
111.504 276.734 L
111.876 276.692 L
112.248 276.65 L
112.62 276.607 L
112.992 276.565 L
113.364 276.523 L
113.736 276.481 L
114.108 276.438 L
114.48 276.396 L
114.852 276.354 L
115.224 276.293 L
115.596 276.232 L
115.968 276.17 L
116.34 276.128 L
116.712 276.085 L
117.084 276.043 L
117.456 276.001 L
117.828 275.958 L
118.2 275.916 L
118.572 275.86 L
118.944 275.803 L
119.316 275.747 L
119.688 275.681 L
120.06 275.625 L
120.432 275.568 L
120.804 275.512 L
121.176 275.455 L
121.548 275.413 L
121.92 275.371 L
122.292 275.328 L
122.664 275.286 L
123.036 275.244 L
123.408 275.201 L
123.78 275.145 L
124.152 275.088 L
124.524 275.032 L
124.896 274.974 L
125.268 274.913 L
125.64 274.851 L
126.012 274.789 L
126.384 274.747 L
126.756 274.705 L
127.128 274.662 L
127.5 274.62 L
127.872 274.578 L
128.244 274.536 L
128.616 274.493 L
128.988 274.451 L
129.36 274.409 L
129.732 274.366 L
130.104 274.324 L
130.476 274.282 L
130.848 274.24 L
131.22 274.197 L
131.592 274.155 L
131.964 274.113 L
132.336 274.07 L
132.708 274.028 L
133.08 273.986 L
133.452 273.944 L
133.824 273.901 L
134.196 273.859 L
134.568 273.817 L
134.94 273.774 L
135.312 273.732 L
135.684 273.69 L
136.056 273.648 L
136.428 273.605 L
136.8 273.563 L
137.172 273.521 L
137.544 273.478 L
137.916 273.436 L
138.288 273.394 L
138.66 273.352 L
139.032 273.309 L
139.404 273.267 L
139.776 273.225 L
140.148 273.182 L
140.52 273.14 L
140.892 273.098 L
141.264 273.056 L
141.636 273.013 L
142.008 272.971 L
142.38 272.929 L
142.752 272.886 L
143.124 272.844 L
143.496 272.802 L
143.868 272.76 L
144.24 272.717 L
144.612 272.675 L
144.984 272.633 L
145.356 272.59 L
145.728 272.534 L
146.1 272.478 L
146.472 272.421 L
146.844 272.379 L
147.216 272.337 L
147.588 272.295 L
147.96 272.252 L
148.332 272.21 L
148.704 272.168 L
149.076 272.125 L
149.448 272.083 L
149.82 272.041 L
150.192 271.999 L
150.564 271.956 L
150.936 271.914 L
151.308 271.872 L
151.68 271.829 L
152.052 271.787 L
152.424 271.745 L
152.796 271.703 L
153.168 271.66 L
153.54 271.618 L
153.912 271.576 L
154.284 271.533 L
154.656 271.475 L
155.028 271.432 L
155.4 271.39 L
155.772 271.348 L
156.144 271.306 L
156.516 271.263 L
156.888 271.221 L
157.26 271.179 L
157.632 271.137 L
158.004 271.094 L
158.376 271.052 L
158.748 271.01 L
159.12 270.967 L
159.492 270.925 L
159.864 270.883 L
160.236 270.841 L
160.608 270.798 L
160.98 270.756 L
161.352 270.714 L
161.724 270.654 L
162.096 270.594 L
162.468 270.552 L
162.84 270.492 L
163.212 270.449 L
163.584 270.407 L
163.956 270.365 L
164.328 270.322 L
164.7 270.28 L
165.072 270.238 L
165.444 270.196 L
165.816 270.153 L
166.188 270.111 L
166.56 270.069 L
166.932 270.026 L
167.304 269.984 L
167.676 269.942 L
168.048 269.9 L
168.42 269.857 L
168.792 269.815 L
169.164 269.773 L
169.536 269.73 L
169.908 269.688 L
170.28 269.646 L
170.652 269.604 L
171.024 269.561 L
171.396 269.519 L
171.768 269.477 L
172.14 269.435 L
172.512 269.392 L
172.884 269.35 L
173.256 269.308 L
173.628 269.265 L
174 269.223 L
174.372 269.181 L
174.744 269.139 L
175.116 269.096 L
175.488 269.054 L
175.86 269.012 L
176.232 268.969 L
176.604 268.927 L
176.976 268.885 L
177.348 268.843 L
177.72 268.8 L
178.092 268.758 L
178.464 268.716 L
178.836 268.673 L
179.208 268.613 L
179.58 268.554 L
179.952 268.511 L
180.324 268.469 L
180.696 268.427 L
181.068 268.384 L
181.44 268.342 L
181.812 268.3 L
182.184 268.258 L
182.556 268.215 L
182.928 268.173 L
183.3 268.131 L
183.672 268.088 L
184.044 268.046 L
184.416 268.004 L
184.788 267.962 L
185.16 267.919 L
185.532 267.877 L
185.904 267.835 L
186.276 267.792 L
186.648 267.75 L
187.02 267.708 L
187.392 267.666 L
187.764 267.623 L
188.136 267.581 L
188.508 267.539 L
188.88 267.496 L
189.252 267.454 L
189.624 267.412 L
189.996 267.37 L
190.368 267.327 L
190.74 267.285 L
191.112 267.243 L
191.484 267.2 L
191.856 267.158 L
192.228 267.116 L
192.6 267.074 L
192.972 267.031 L
193.344 266.989 L
193.716 266.947 L
194.088 266.904 L
194.46 266.862 L
194.832 266.82 L
195.204 266.778 L
195.576 266.735 L
195.948 266.693 L
196.32 266.651 L
196.692 266.608 L
197.064 266.566 L
197.436 266.524 L
197.808 266.482 L
198.18 266.439 L
198.552 266.397 L
198.924 266.355 L
199.296 266.313 L
199.668 266.27 L
200.04 266.228 L
200.412 266.186 L
200.784 266.143 L
201.156 266.101 L
201.528 266.059 L
201.9 266.017 L
202.272 265.974 L
202.644 265.932 L
203.016 265.89 L
203.388 265.847 L
203.76 265.805 L
204.132 265.763 L
204.504 265.721 L
204.876 265.662 L
205.248 265.62 L
205.62 265.577 L
205.992 265.535 L
206.364 265.493 L
206.736 265.45 L
207.108 265.408 L
207.48 265.366 L
207.852 265.324 L
208.224 265.281 L
208.596 265.239 L
208.968 265.197 L
209.34 265.154 L
209.712 265.112 L
210.084 265.07 L
210.456 265.011 L
210.828 264.969 L
211.2 264.927 L
211.572 264.884 L
211.944 264.842 L
212.316 264.8 L
212.688 264.757 L
213.06 264.715 L
213.432 264.673 L
213.804 264.631 L
214.176 264.588 L
214.548 264.546 L
214.92 264.504 L
215.292 264.461 L
215.664 264.419 L
216.036 264.377 L
216.408 264.335 L
216.78 264.276 L
217.152 264.234 L
217.524 264.191 L
217.896 264.149 L
218.268 264.107 L
218.64 264.065 L
219.012 264.022 L
219.384 263.98 L
219.756 263.938 L
220.128 263.895 L
220.5 263.853 L
220.872 263.811 L
221.244 263.769 L
221.616 263.726 L
221.988 263.684 L
222.36 263.642 L
222.732 263.599 L
223.104 263.557 L
223.476 263.515 L
223.848 263.456 L
224.22 263.398 L
224.592 263.355 L
224.964 263.313 L
225.336 263.271 L
225.708 263.228 L
226.08 263.186 L
226.452 263.144 L
226.824 263.102 L
227.196 263.059 L
227.568 263.017 L
227.94 262.975 L
228.312 262.932 L
228.684 262.89 L
229.056 262.848 L
229.428 262.806 L
229.8 262.763 L
230.172 262.721 L
230.544 262.679 L
230.916 262.636 L
231.288 262.594 L
231.66 262.552 L
232.032 262.51 L
232.404 262.467 L
232.776 262.425 L
233.148 262.383 L
233.52 262.34 L
233.892 262.298 L
234.264 262.256 L
234.636 262.214 L
235.008 262.171 L
235.38 262.129 L
235.752 262.087 L
236.124 262.044 L
236.496 262.002 L
236.868 261.96 L
237.24 261.918 L
237.612 261.875 L
237.984 261.833 L
238.356 261.791 L
238.728 261.748 L
239.1 261.706 L
239.472 261.664 L
239.844 261.622 L
240.216 261.579 L
240.588 261.537 L
240.96 261.495 L
241.332 261.452 L
241.704 261.41 L
242.076 261.368 L
242.448 261.326 L
242.82 261.283 L
243.192 261.241 L
243.564 261.199 L
243.936 261.156 L
244.308 261.114 L
244.68 261.072 L
245.052 261.03 L
245.424 260.987 L
245.796 260.945 L
246.168 260.903 L
246.54 260.86 L
246.912 260.818 L
247.284 260.776 L
247.656 260.734 L
248.028 260.691 L
248.4 260.649 L
248.772 260.607 L
249.144 260.564 L
249.516 260.522 L
249.888 260.48 L
250.26 260.438 L
250.632 260.395 L
251.004 260.353 L
251.376 260.311 L
251.748 260.268 L
252.12 260.226 L
252.492 260.184 L
252.864 260.142 L
253.236 260.099 L
253.608 260.057 L
253.98 260.015 L
254.352 259.972 L
254.724 259.93 L
255.096 259.888 L
255.468 259.846 L
255.84 259.803 L
256.212 259.761 L
256.584 259.719 L
256.956 259.676 L
257.328 259.634 L
257.7 259.592 L
258.072 259.55 L
258.444 259.507 L
258.816 259.465 L
259.188 259.423 L
259.56 259.38 L
259.932 259.338 L
260.304 259.296 L
260.676 259.254 L
261.048 259.211 L
261.42 259.155 L
261.792 259.113 L
262.164 259.07 L
262.536 259.028 L
262.908 258.986 L
263.28 258.944 L
263.652 258.901 L
264.024 258.859 L
264.396 258.817 L
264.768 258.774 L
265.14 258.732 L
265.512 258.69 L
265.884 258.648 L
266.256 258.605 L
266.628 258.563 L
267 258.521 L
267.372 258.478 L
267.744 258.436 L
268.116 258.394 L
268.488 258.352 L
268.86 258.309 L
269.232 258.267 L
269.604 258.225 L
269.976 258.182 L
270.348 258.14 L
270.72 258.098 L
271.092 258.056 L
271.464 258.013 L
271.836 257.971 L
272.208 257.929 L
272.58 257.886 L
272.952 257.844 L
273.324 257.802 L
273.696 257.76 L
274.068 257.717 L
274.44 257.675 L
274.812 257.633 L
275.184 257.59 L
275.556 257.548 L
275.928 257.506 L
276.3 257.464 L
276.672 257.421 L
277.044 257.379 L
277.416 257.337 L
277.788 257.294 L
278.16 257.252 L
278.532 257.21 L
278.904 257.168 L
279.276 257.125 L
279.648 257.083 L
280.02 257.041 L
280.392 256.999 L
280.764 256.956 L
281.136 256.914 L
281.508 256.872 L
281.88 256.829 L
282.252 256.787 L
282.624 256.745 L
282.996 256.703 L
283.368 256.66 L
283.74 256.618 L
284.112 256.576 L
284.484 256.533 L
284.856 256.491 L
285.228 256.449 L
285.6 256.407 L
285.972 256.364 L
286.344 256.322 L
286.716 256.28 L
287.088 256.237 L
287.46 256.195 L
287.832 256.153 L
288.204 256.111 L
288.576 256.068 L
288.948 256.026 L
289.32 255.984 L
289.692 255.941 L
290.064 255.899 L
290.436 255.857 L
290.808 255.815 L
291.18 255.772 L
291.552 255.73 L
291.924 255.688 L
292.296 255.645 L
292.668 255.603 L
293.04 255.561 L
293.412 255.519 L
293.784 255.476 L
294.156 255.434 L
294.528 255.392 L
294.9 255.349 L
295.272 255.307 L
295.644 255.265 L
296.016 255.223 L
296.388 255.18 L
296.76 255.138 L
297.132 255.082 L
297.504 255.025 L
297.876 254.969 L
298.248 254.913 L
298.62 254.87 L
298.992 254.828 L
299.364 254.786 L
299.736 254.743 L
300.108 254.701 L
300.48 254.659 L
300.852 254.617 L
301.224 254.574 L
301.596 254.532 L
301.968 254.49 L
302.34 254.447 L
302.712 254.405 L
303.084 254.363 L
303.456 254.321 L
303.828 254.278 L
304.2 254.216 L
304.572 254.174 L
304.944 254.132 L
305.316 254.09 L
305.688 254.047 L
306.06 254.005 L
306.432 253.963 L
306.804 253.92 L
307.176 253.878 L
307.548 253.836 L
307.92 253.794 L
308.292 253.751 L
308.664 253.709 L
309.036 253.667 L
309.408 253.624 L
309.78 253.582 L
310.152 253.54 L
310.524 253.498 L
310.896 253.455 L
311.268 253.413 L
311.64 253.371 L
312.012 253.328 L
312.384 253.286 L
312.756 253.244 L
313.128 253.202 L
313.5 253.159 L
313.872 253.117 L
314.244 253.075 L
314.616 253.032 L
314.988 252.99 L
315.36 252.948 L
315.732 252.906 L
316.104 252.863 L
316.476 252.821 L
316.848 252.779 L
317.22 252.736 L
317.592 252.694 L
317.964 252.652 L
318.336 252.61 L
318.708 252.567 L
319.08 252.525 L
319.452 252.483 L
319.824 252.44 L
320.196 252.398 L
320.568 252.356 L
320.94 252.314 L
321.312 252.271 L
321.684 252.229 L
322.056 252.187 L
322.428 252.144 L
322.8 252.102 L
323.172 252.046 L
323.544 251.989 L
323.916 251.947 L
324.288 251.905 L
324.66 251.863 L
325.032 251.82 L
325.404 251.778 L
325.776 251.736 L
326.148 251.677 L
326.52 251.618 L
326.892 251.576 L
327.264 251.534 L
327.636 251.492 L
328.008 251.449 L
328.38 251.407 L
328.752 251.365 L
329.124 251.322 L
329.496 251.28 L
329.868 251.238 L
330.24 251.196 L
330.612 251.153 L
330.984 251.111 L
331.356 251.069 L
331.728 251.026 L
332.1 250.984 L
332.472 250.942 L
332.844 250.9 L
333.216 250.857 L
333.588 250.815 L
333.96 250.773 L
334.332 250.73 L
334.704 250.688 L
335.076 250.646 L
335.448 250.604 L
335.82 250.561 L
336.192 250.519 L
336.564 250.477 L
336.936 250.434 L
337.308 250.392 L
337.68 250.35 L
338.052 250.308 L
338.424 250.249 L
338.796 250.207 L
339.168 250.164 L
339.54 250.122 L
339.912 250.08 L
340.284 250.038 L
340.656 249.995 L
341.028 249.953 L
341.4 249.911 L
341.772 249.868 L
342.144 249.826 L
342.516 249.784 L
342.888 249.742 L
343.26 249.699 L
343.632 249.657 L
344.004 249.615 L
344.376 249.572 L
344.748 249.53 L
345.12 249.488 L
345.492 249.446 L
345.864 249.403 L
346.236 249.361 L
346.608 249.319 L
346.98 249.276 L
347.352 249.234 L
347.724 249.192 L
348.096 249.15 L
348.468 249.107 L
348.84 249.065 L
349.212 249.023 L
349.584 248.98 L
349.956 248.938 L
350.328 248.896 L
350.7 248.854 L
351.072 248.811 L
351.444 248.769 L
351.816 248.727 L
352.188 248.684 L
352.56 248.642 L
352.932 248.6 L
353.304 248.558 L
353.676 248.515 L
354.048 248.473 L
354.42 248.431 L
354.792 248.388 L
355.164 248.346 L
355.536 248.304 L
355.908 248.262 L
356.28 248.219 L
356.652 248.177 L
357.024 248.135 L
357.396 248.092 L
357.768 248.05 L
358.14 248.008 L
358.512 247.966 L
358.884 247.923 L
359.256 247.881 L
359.628 247.839 L
360 247.796 L
360.372 247.754 L
360.744 247.712 L
361.116 247.67 L
361.488 247.627 L
361.86 247.585 L
362.232 247.543 L
362.604 247.5 L
362.976 247.458 L
363.348 247.416 L
363.72 247.374 L
364.092 247.331 L
364.464 247.289 L
364.836 247.247 L
365.208 247.204 L
365.58 247.162 L
365.952 247.12 L
366.324 247.078 L
366.696 247.035 L
367.068 246.993 L
367.44 246.951 L
367.812 246.908 L
368.184 246.866 L
368.556 246.824 L
368.928 246.782 L
369.3 246.739 L
369.672 246.679 L
370.044 246.637 L
370.416 246.595 L
370.788 246.553 L
371.16 246.51 L
371.532 246.468 L
371.904 246.426 L
372.276 246.383 L
372.648 246.341 L
373.02 246.299 L
373.392 246.257 L
373.764 246.214 L
374.136 246.172 L
374.508 246.13 L
374.88 246.087 L
375.252 246.045 L
375.624 246.003 L
375.996 245.961 L
376.368 245.918 L
376.74 245.876 L
377.112 245.834 L
377.484 245.791 L
377.856 245.749 L
378.228 245.707 L
378.6 245.665 L
378.972 245.622 L
379.344 245.58 L
379.716 245.538 L
380.088 245.495 L
380.46 245.453 L
380.832 245.411 L
381.204 245.369 L
381.576 245.326 L
381.948 245.284 L
382.32 245.242 L
382.692 245.199 L
383.064 245.157 L
383.436 245.115 L
383.808 245.073 L
384.18 245.03 L
384.552 244.988 L
384.924 244.946 L
385.296 244.903 L
385.668 244.861 L
386.04 244.819 L
386.412 244.777 L
386.784 244.734 L
387.156 244.692 L
387.528 244.65 L
387.9 244.607 L
388.272 244.565 L
388.644 244.523 L
389.016 244.481 L
389.388 244.438 L
389.76 244.396 L
390.132 244.354 L
390.504 244.311 L
390.876 244.269 L
391.248 244.227 L
391.62 244.185 L
391.992 244.142 L
392.364 244.1 L
392.736 244.058 L
393.108 244.016 L
393.48 243.973 L
393.852 243.931 L
394.224 243.889 L
394.596 243.846 L
394.968 243.804 L
395.34 243.762 L
395.712 243.72 L
396.084 243.677 L
396.456 243.635 L
396.828 243.593 L
397.2 243.55 L
397.572 243.508 L
397.944 243.466 L
398.316 243.424 L
398.688 243.381 L
399.06 243.339 L
399.432 243.297 L
399.804 243.254 L
400.176 243.212 L
400.548 243.17 L
400.92 243.128 L
401.292 243.085 L
401.664 243.043 L
402.036 243.001 L
402.408 242.958 L
402.78 242.916 L
403.152 242.874 L
403.524 242.832 L
403.896 242.789 L
404.268 242.747 L
404.64 242.705 L
405.012 242.662 L
405.384 242.62 L
405.756 242.578 L
406.128 242.536 L
406.5 242.493 L
406.872 242.451 L
407.244 242.409 L
407.616 242.366 L
407.988 242.324 L
408.36 242.282 L
408.732 242.24 L
409.104 242.197 L
409.476 242.155 L
409.848 242.113 L
410.22 242.07 L
410.592 242.028 L
410.964 241.986 L
411.336 241.944 L
411.708 241.901 L
412.08 241.859 L
412.452 241.817 L
412.824 241.774 L
413.196 241.732 L
413.568 241.69 L
413.94 241.648 L
414.312 241.605 L
414.684 241.563 L
415.056 241.521 L
415.428 241.478 L
415.8 241.436 L
416.172 241.394 L
416.544 241.352 L
416.916 241.309 L
417.288 241.267 L
417.66 241.225 L
418.032 241.182 L
418.404 241.14 L
418.776 241.098 L
419.148 241.056 L
419.52 241.013 L
419.892 240.971 L
420.264 240.929 L
420.636 240.886 L
421.008 240.844 L
421.38 240.802 L
421.752 240.76 L
422.124 240.717 L
422.496 240.675 L
422.868 240.633 L
423.24 240.59 L
423.612 240.548 L
423.984 240.506 L
424.356 240.464 L
424.728 240.421 L
425.1 240.379 L
425.472 240.337 L
425.844 240.294 L
426.216 240.252 L
426.588 240.21 L
426.96 240.168 L
427.332 240.125 L
427.704 240.083 L
428.076 240.041 L
428.448 239.998 L
428.82 239.956 L
429.192 239.914 L
429.564 239.872 L
429.936 239.829 L
430.308 239.787 L
430.68 239.745 L
431.052 239.702 L
431.424 239.66 L
431.796 239.618 L
432.168 239.576 L
432.54 239.533 L
432.912 239.491 L
433.284 239.449 L
433.656 239.406 L
434.028 239.364 L
434.4 239.322 L
434.772 239.28 L
435.144 239.237 L
435.516 239.195 L
435.888 239.153 L
436.26 239.111 L
436.632 239.068 L
437.004 239.026 L
437.376 238.984 L
437.748 238.941 L
438.12 238.899 L
438.492 238.857 L
438.864 238.815 L
439.236 238.772 L
439.608 238.73 L
439.98 238.688 L
440.352 238.645 L
440.724 238.603 L
441.096 238.561 L
441.468 238.519 L
441.84 238.476 L
442.212 238.434 L
442.584 238.392 L
442.956 238.349 L
443.328 238.307 L
443.7 238.265 L
444.072 238.223 L
444.444 238.18 L
444.816 238.138 L
445.188 238.096 L
445.56 238.053 L
445.932 238.011 L
446.304 237.969 L
446.676 237.927 L
447.048 237.884 L
447.42 237.842 L
447.792 237.8 L
448.164 237.757 L
448.536 237.715 L
448.908 237.673 L
449.28 237.631 L
449.652 237.588 L
450.024 237.546 L
450.396 237.504 L
450.768 237.461 L
451.14 237.419 L
451.512 237.377 L
451.884 237.335 L
452.256 237.292 L
452.628 237.25 L
453 237.208 L
S
GR
%%Trailer
%%Pages: 1
%%EOF
