%!PS-Adobe-3.0 EPSF-3.0
%%Creator: (MATLAB, The Mathworks, Inc. Version 9.3.0.713579 \(R2017b\). Operating System: Mac OS X)
%%Title: (/Users/franciscowilhelmi/workspace/papers/selfish_vs_informed_spatial_reuse/Results/Part 1 - Learning implications/1.1 Upper Bound Reward/approx_vs_actual_regret.eps)
%%CreationDate: 2018-05-24T15:39:02
%%Pages: (atend)
%%BoundingBox: 0 0 500 350
%%LanguageLevel: 3
%%EndComments
%%BeginProlog
%%BeginResource: procset (Apache XML Graphics Std ProcSet) 1.2 0
%%Version: 1.2 0
%%Copyright: (Copyright 2001-2003,2010 The Apache Software Foundation. License terms: http://www.apache.org/licenses/LICENSE-2.0)
/bd{bind def}bind def
/ld{load def}bd
/GR/grestore ld
/GS/gsave ld
/RM/rmoveto ld
/C/curveto ld
/t/show ld
/L/lineto ld
/ML/setmiterlimit ld
/CT/concat ld
/f/fill ld
/N/newpath ld
/S/stroke ld
/CC/setcmykcolor ld
/A/ashow ld
/cp/closepath ld
/RC/setrgbcolor ld
/LJ/setlinejoin ld
/GC/setgray ld
/LW/setlinewidth ld
/M/moveto ld
/re {4 2 roll M
1 index 0 rlineto
0 exch rlineto
neg 0 rlineto
cp } bd
/_ctm matrix def
/_tm matrix def
/BT { _ctm currentmatrix pop matrix _tm copy pop 0 0 moveto } bd
/ET { _ctm setmatrix } bd
/iTm { _ctm setmatrix _tm concat } bd
/Tm { _tm astore pop iTm 0 0 moveto } bd
/ux 0.0 def
/uy 0.0 def
/F {
  /Tp exch def
  /Tf exch def
  Tf findfont Tp scalefont setfont
  /cf Tf def  /cs Tp def
} bd
/ULS {currentpoint /uy exch def /ux exch def} bd
/ULE {
  /Tcx currentpoint pop def
  gsave
  newpath
  cf findfont cs scalefont dup
  /FontMatrix get 0 get /Ts exch def /FontInfo get dup
  /UnderlinePosition get Ts mul /To exch def
  /UnderlineThickness get Ts mul /Tt exch def
  ux uy To add moveto  Tcx uy To add lineto
  Tt setlinewidth stroke
  grestore
} bd
/OLE {
  /Tcx currentpoint pop def
  gsave
  newpath
  cf findfont cs scalefont dup
  /FontMatrix get 0 get /Ts exch def /FontInfo get dup
  /UnderlinePosition get Ts mul /To exch def
  /UnderlineThickness get Ts mul /Tt exch def
  ux uy To add cs add moveto Tcx uy To add cs add lineto
  Tt setlinewidth stroke
  grestore
} bd
/SOE {
  /Tcx currentpoint pop def
  gsave
  newpath
  cf findfont cs scalefont dup
  /FontMatrix get 0 get /Ts exch def /FontInfo get dup
  /UnderlinePosition get Ts mul /To exch def
  /UnderlineThickness get Ts mul /Tt exch def
  ux uy To add cs 10 mul 26 idiv add moveto Tcx uy To add cs 10 mul 26 idiv add lineto
  Tt setlinewidth stroke
  grestore
} bd
/QT {
/Y22 exch store
/X22 exch store
/Y21 exch store
/X21 exch store
currentpoint
/Y21 load 2 mul add 3 div exch
/X21 load 2 mul add 3 div exch
/X21 load 2 mul /X22 load add 3 div
/Y21 load 2 mul /Y22 load add 3 div
/X22 load /Y22 load curveto
} bd
/SSPD {
dup length /d exch dict def
{
/v exch def
/k exch def
currentpagedevice k known {
/cpdv currentpagedevice k get def
v cpdv ne {
/upd false def
/nullv v type /nulltype eq def
/nullcpdv cpdv type /nulltype eq def
nullv nullcpdv or
{
/upd true def
} {
/sametype v type cpdv type eq def
sametype {
v type /arraytype eq {
/vlen v length def
/cpdvlen cpdv length def
vlen cpdvlen eq {
0 1 vlen 1 sub {
/i exch def
/obj v i get def
/cpdobj cpdv i get def
obj cpdobj ne {
/upd true def
exit
} if
} for
} {
/upd true def
} ifelse
} {
v type /dicttype eq {
v {
/dv exch def
/dk exch def
/cpddv cpdv dk get def
dv cpddv ne {
/upd true def
exit
} if
} forall
} {
/upd true def
} ifelse
} ifelse
} if
} ifelse
upd true eq {
d k v put
} if
} if
} if
} forall
d length 0 gt {
d setpagedevice
} if
} bd
/RE { % /NewFontName [NewEncodingArray] /FontName RE -
  findfont dup length dict begin
  {
    1 index /FID ne
    {def} {pop pop} ifelse
  } forall
  /Encoding exch def
  /FontName 1 index def
  currentdict definefont pop
  end
} bind def
%%EndResource
%%BeginResource: procset (Apache XML Graphics EPS ProcSet) 1.0 0
%%Version: 1.0 0
%%Copyright: (Copyright 2002-2003 The Apache Software Foundation. License terms: http://www.apache.org/licenses/LICENSE-2.0)
/BeginEPSF { %def
/b4_Inc_state save def         % Save state for cleanup
/dict_count countdictstack def % Count objects on dict stack
/op_count count 1 sub def      % Count objects on operand stack
userdict begin                 % Push userdict on dict stack
/showpage { } def              % Redefine showpage, { } = null proc
0 setgray 0 setlinecap         % Prepare graphics state
1 setlinewidth 0 setlinejoin
10 setmiterlimit [ ] 0 setdash newpath
/languagelevel where           % If level not equal to 1 then
{pop languagelevel             % set strokeadjust and
1 ne                           % overprint to their defaults.
{false setstrokeadjust false setoverprint
} if
} if
} bd
/EndEPSF { %def
count op_count sub {pop} repeat            % Clean up stacks
countdictstack dict_count sub {end} repeat
b4_Inc_state restore
} bd
%%EndResource
%FOPBeginFontDict
%%IncludeResource: font Courier-Oblique
%%IncludeResource: font Courier-BoldOblique
%%IncludeResource: font Courier-Bold
%%IncludeResource: font ZapfDingbats
%%IncludeResource: font Symbol
%%IncludeResource: font Helvetica
%%IncludeResource: font Helvetica-Oblique
%%IncludeResource: font Helvetica-Bold
%%IncludeResource: font Helvetica-BoldOblique
%%IncludeResource: font Times-Roman
%%IncludeResource: font Times-Italic
%%IncludeResource: font Times-Bold
%%IncludeResource: font Times-BoldItalic
%%IncludeResource: font Courier
%FOPEndFontDict
%%BeginResource: encoding WinAnsiEncoding
/WinAnsiEncoding [
/.notdef /.notdef /.notdef /.notdef /.notdef
/.notdef /.notdef /.notdef /.notdef /.notdef
/.notdef /.notdef /.notdef /.notdef /.notdef
/.notdef /.notdef /.notdef /.notdef /.notdef
/.notdef /.notdef /.notdef /.notdef /.notdef
/.notdef /.notdef /.notdef /.notdef /.notdef
/.notdef /.notdef /space /exclam /quotedbl
/numbersign /dollar /percent /ampersand /quotesingle
/parenleft /parenright /asterisk /plus /comma
/hyphen /period /slash /zero /one
/two /three /four /five /six
/seven /eight /nine /colon /semicolon
/less /equal /greater /question /at
/A /B /C /D /E
/F /G /H /I /J
/K /L /M /N /O
/P /Q /R /S /T
/U /V /W /X /Y
/Z /bracketleft /backslash /bracketright /asciicircum
/underscore /quoteleft /a /b /c
/d /e /f /g /h
/i /j /k /l /m
/n /o /p /q /r
/s /t /u /v /w
/x /y /z /braceleft /bar
/braceright /asciitilde /bullet /Euro /bullet
/quotesinglbase /florin /quotedblbase /ellipsis /dagger
/daggerdbl /circumflex /perthousand /Scaron /guilsinglleft
/OE /bullet /Zcaron /bullet /bullet
/quoteleft /quoteright /quotedblleft /quotedblright /bullet
/endash /emdash /asciitilde /trademark /scaron
/guilsinglright /oe /bullet /zcaron /Ydieresis
/space /exclamdown /cent /sterling /currency
/yen /brokenbar /section /dieresis /copyright
/ordfeminine /guillemotleft /logicalnot /sfthyphen /registered
/macron /degree /plusminus /twosuperior /threesuperior
/acute /mu /paragraph /middot /cedilla
/onesuperior /ordmasculine /guillemotright /onequarter /onehalf
/threequarters /questiondown /Agrave /Aacute /Acircumflex
/Atilde /Adieresis /Aring /AE /Ccedilla
/Egrave /Eacute /Ecircumflex /Edieresis /Igrave
/Iacute /Icircumflex /Idieresis /Eth /Ntilde
/Ograve /Oacute /Ocircumflex /Otilde /Odieresis
/multiply /Oslash /Ugrave /Uacute /Ucircumflex
/Udieresis /Yacute /Thorn /germandbls /agrave
/aacute /acircumflex /atilde /adieresis /aring
/ae /ccedilla /egrave /eacute /ecircumflex
/edieresis /igrave /iacute /icircumflex /idieresis
/eth /ntilde /ograve /oacute /ocircumflex
/otilde /odieresis /divide /oslash /ugrave
/uacute /ucircumflex /udieresis /yacute /thorn
/ydieresis
] def
%%EndResource
%FOPBeginFontReencode
/Courier-Oblique findfont
dup length dict begin
  {1 index /FID ne {def} {pop pop} ifelse} forall
  /Encoding WinAnsiEncoding def
  currentdict
end
/Courier-Oblique exch definefont pop
/Courier-BoldOblique findfont
dup length dict begin
  {1 index /FID ne {def} {pop pop} ifelse} forall
  /Encoding WinAnsiEncoding def
  currentdict
end
/Courier-BoldOblique exch definefont pop
/Courier-Bold findfont
dup length dict begin
  {1 index /FID ne {def} {pop pop} ifelse} forall
  /Encoding WinAnsiEncoding def
  currentdict
end
/Courier-Bold exch definefont pop
/Helvetica findfont
dup length dict begin
  {1 index /FID ne {def} {pop pop} ifelse} forall
  /Encoding WinAnsiEncoding def
  currentdict
end
/Helvetica exch definefont pop
/Helvetica-Oblique findfont
dup length dict begin
  {1 index /FID ne {def} {pop pop} ifelse} forall
  /Encoding WinAnsiEncoding def
  currentdict
end
/Helvetica-Oblique exch definefont pop
/Helvetica-Bold findfont
dup length dict begin
  {1 index /FID ne {def} {pop pop} ifelse} forall
  /Encoding WinAnsiEncoding def
  currentdict
end
/Helvetica-Bold exch definefont pop
/Helvetica-BoldOblique findfont
dup length dict begin
  {1 index /FID ne {def} {pop pop} ifelse} forall
  /Encoding WinAnsiEncoding def
  currentdict
end
/Helvetica-BoldOblique exch definefont pop
/Times-Roman findfont
dup length dict begin
  {1 index /FID ne {def} {pop pop} ifelse} forall
  /Encoding WinAnsiEncoding def
  currentdict
end
/Times-Roman exch definefont pop
/Times-Italic findfont
dup length dict begin
  {1 index /FID ne {def} {pop pop} ifelse} forall
  /Encoding WinAnsiEncoding def
  currentdict
end
/Times-Italic exch definefont pop
/Times-Bold findfont
dup length dict begin
  {1 index /FID ne {def} {pop pop} ifelse} forall
  /Encoding WinAnsiEncoding def
  currentdict
end
/Times-Bold exch definefont pop
/Times-BoldItalic findfont
dup length dict begin
  {1 index /FID ne {def} {pop pop} ifelse} forall
  /Encoding WinAnsiEncoding def
  currentdict
end
/Times-BoldItalic exch definefont pop
/Courier findfont
dup length dict begin
  {1 index /FID ne {def} {pop pop} ifelse} forall
  /Encoding WinAnsiEncoding def
  currentdict
end
/Courier exch definefont pop
%FOPEndFontReencode
%%EndProlog
%%Page: 1 1
%%PageBoundingBox: 0 0 500 350
%%BeginPageSetup
[1 0 0 -1 0 350] CT
%%EndPageSetup
GS
1 GC
N
0 0 500 350 re
f
GR
GS
1 GC
N
0 0 500 350 re
f
GR
GS
1 GC
N
65 115 M
453 115 L
453 44 L
65 44 L
cp
f
GR
GS
0.873 GC
1 LJ
0.5 LW
N
65 115 M
65 44 L
S
GR
GS
0.873 GC
1 LJ
0.5 LW
N
142.6 115 M
142.6 44 L
S
GR
GS
0.873 GC
1 LJ
0.5 LW
N
220.2 115 M
220.2 44 L
S
GR
GS
0.873 GC
1 LJ
0.5 LW
N
297.8 115 M
297.8 44 L
S
GR
GS
0.873 GC
1 LJ
0.5 LW
N
375.4 115 M
375.4 44 L
S
GR
GS
0.873 GC
1 LJ
0.5 LW
N
453 115 M
453 44 L
S
GR
GS
0.873 GC
1 LJ
0.5 LW
N
453 115 M
65 115 L
S
GR
GS
0.873 GC
1 LJ
0.5 LW
N
453 55.833 M
65 55.833 L
S
GR
GS
0.149 GC
2 setlinecap
1 LJ
0.5 LW
N
65 115 M
453 115 L
S
GR
GS
0.149 GC
2 setlinecap
1 LJ
0.5 LW
N
65 44 M
453 44 L
S
GR
GS
0.149 GC
2 setlinecap
1 LJ
0.5 LW
N
65 115 M
65 111.12 L
S
GR
GS
0.149 GC
2 setlinecap
1 LJ
0.5 LW
N
142.6 115 M
142.6 111.12 L
S
GR
GS
0.149 GC
2 setlinecap
1 LJ
0.5 LW
N
220.2 115 M
220.2 111.12 L
S
GR
GS
0.149 GC
2 setlinecap
1 LJ
0.5 LW
N
297.8 115 M
297.8 111.12 L
S
GR
GS
0.149 GC
2 setlinecap
1 LJ
0.5 LW
N
375.4 115 M
375.4 111.12 L
S
GR
GS
0.149 GC
2 setlinecap
1 LJ
0.5 LW
N
453 115 M
453 111.12 L
S
GR
GS
0.149 GC
2 setlinecap
1 LJ
0.5 LW
N
65 44 M
65 47.88 L
S
GR
GS
0.149 GC
2 setlinecap
1 LJ
0.5 LW
N
142.6 44 M
142.6 47.88 L
S
GR
GS
0.149 GC
2 setlinecap
1 LJ
0.5 LW
N
220.2 44 M
220.2 47.88 L
S
GR
GS
0.149 GC
2 setlinecap
1 LJ
0.5 LW
N
297.8 44 M
297.8 47.88 L
S
GR
GS
0.149 GC
2 setlinecap
1 LJ
0.5 LW
N
375.4 44 M
375.4 47.88 L
S
GR
GS
0.149 GC
2 setlinecap
1 LJ
0.5 LW
N
453 44 M
453 47.88 L
S
GR
GS
[1 0 0 1 65 121.4] CT
0.149 GC
/Times-Roman 22 F
GS
[1 0 0 1 0 0] CT
-5.5 20 moveto 
1 -1 scale
(0) t 
GR
GR
GS
[1 0 0 1 142.60001 121.4] CT
0.149 GC
/Times-Roman 22 F
GS
[1 0 0 1 0 0] CT
-11 20 moveto 
1 -1 scale
(20) t 
GR
GR
GS
[1 0 0 1 220.2 121.4] CT
0.149 GC
/Times-Roman 22 F
GS
[1 0 0 1 0 0] CT
-11 20 moveto 
1 -1 scale
(40) t 
GR
GR
GS
[1 0 0 1 297.79999 121.4] CT
0.149 GC
/Times-Roman 22 F
GS
[1 0 0 1 0 0] CT
-11 20 moveto 
1 -1 scale
(60) t 
GR
GR
GS
[1 0 0 1 375.39999 121.4] CT
0.149 GC
/Times-Roman 22 F
GS
[1 0 0 1 0 0] CT
-11 20 moveto 
1 -1 scale
(80) t 
GR
GR
GS
[1 0 0 1 453 121.4] CT
0.149 GC
/Times-Roman 22 F
GS
[1 0 0 1 0 0] CT
-16.5 20 moveto 
1 -1 scale
(100) t 
GR
GR
GS
[1 0 0 1 259.00018 147.39999] CT
0.149 GC
/Times-Roman 24.2 F
GS
[1 0 0 1 0 0] CT
-57.5 22 moveto 
1 -1 scale
(TS iteration) t 
GR
GR
GS
0.149 GC
2 setlinecap
1 LJ
0.5 LW
N
65 115 M
65 44 L
S
GR
GS
0.149 GC
2 setlinecap
1 LJ
0.5 LW
N
453 115 M
453 44 L
S
GR
GS
0.149 GC
2 setlinecap
1 LJ
0.5 LW
N
65 115 M
68.88 115 L
S
GR
GS
0.149 GC
2 setlinecap
1 LJ
0.5 LW
N
65 55.833 M
68.88 55.833 L
S
GR
GS
0.149 GC
2 setlinecap
1 LJ
0.5 LW
N
453 115 M
449.12 115 L
S
GR
GS
0.149 GC
2 setlinecap
1 LJ
0.5 LW
N
453 55.833 M
449.12 55.833 L
S
GR
GS
[1 0 0 1 58.6 115] CT
0.149 GC
/Times-Roman 22 F
GS
[1 0 0 1 0 0] CT
-11 7.5 moveto 
1 -1 scale
(0) t 
GR
GR
GS
[1 0 0 1 58.6 55.83333] CT
0.149 GC
/Times-Roman 22 F
GS
[1 0 0 1 0 0] CT
-22 7.5 moveto 
1 -1 scale
(50) t 
GR
GR
GS
[0 -1 1 0 33.6 79.49997] CT
0.149 GC
/Times-Roman 24.2 F
GS
[1 0 0 1 0 0] CT
-32.5 -6 moveto 
1 -1 scale
(Regret) t 
GR
GR
GS
[1 0 0 1 260.00024 36.95] CT
/Times-Bold 24.2 F
GS
[1 0 0 1 0 0] CT
-49.5 -6 moveto 
1 -1 scale
(WLAN A) t 
GR
GR
GS
0 0 1 RC
1 LJ
0.5 LW
N
68.88 114.208 M
72.76 113.416 L
76.64 112.623 L
80.52 111.476 L
84.4 110.329 L
88.28 109.182 L
92.16 108.234 L
96.04 107.286 L
99.92 106.339 L
103.8 106.339 L
107.68 106.339 L
111.56 106.339 L
115.44 106.339 L
119.32 106.339 L
123.2 106.339 L
127.08 106.339 L
130.96 106.339 L
134.84 106.339 L
138.72 106.339 L
142.6 106.339 L
146.48 106.339 L
150.36 106.339 L
154.24 106.339 L
158.12 106.339 L
162 106.339 L
165.88 106.339 L
169.76 106.339 L
173.64 106.339 L
177.52 106.339 L
181.4 106.339 L
185.28 106.339 L
189.16 106.339 L
193.04 106.339 L
196.92 106.339 L
200.8 106.339 L
204.68 106.339 L
208.56 106.339 L
212.44 106.339 L
216.32 106.339 L
220.2 106.339 L
224.08 106.339 L
227.96 106.339 L
231.84 106.339 L
235.72 106.339 L
239.6 106.339 L
243.48 106.339 L
247.36 106.339 L
251.24 106.339 L
255.12 106.339 L
259 106.339 L
262.88 106.339 L
266.76 106.339 L
270.64 106.339 L
274.52 106.339 L
278.4 106.339 L
282.28 106.339 L
286.16 106.339 L
290.04 106.339 L
293.92 106.339 L
297.8 106.339 L
301.68 106.339 L
305.56 106.339 L
309.44 106.339 L
313.32 106.339 L
317.2 106.339 L
321.08 106.339 L
324.96 106.339 L
328.84 106.339 L
332.72 106.339 L
336.6 106.339 L
340.48 106.339 L
344.36 106.339 L
348.24 106.339 L
352.12 106.339 L
356 106.339 L
359.88 106.339 L
363.76 106.339 L
367.64 106.339 L
371.52 106.339 L
375.4 106.339 L
379.28 106.339 L
383.16 106.339 L
387.04 106.339 L
390.92 106.339 L
394.8 106.339 L
398.68 106.339 L
402.56 106.339 L
406.44 106.339 L
410.32 106.339 L
414.2 106.339 L
418.08 106.339 L
421.96 106.339 L
425.84 106.339 L
429.72 106.339 L
433.6 106.339 L
437.48 106.339 L
441.36 106.339 L
445.24 106.339 L
449.12 106.339 L
453 106.339 L
S
GR
GS
1 0 0 RC
1 LJ
0.5 LW
N
68.88 114.204 M
72.76 113.09 L
76.64 111.975 L
80.52 110.861 L
84.4 109.713 L
88.28 109.702 L
92.16 108.554 L
96.04 107.758 L
99.92 107.746 L
103.8 107.734 L
107.68 107.723 L
111.56 107.711 L
115.44 107.699 L
119.32 107.687 L
123.2 107.676 L
127.08 107.664 L
130.96 107.652 L
134.84 107.64 L
138.72 107.628 L
142.6 107.617 L
146.48 107.605 L
150.36 107.593 L
154.24 107.581 L
158.12 107.57 L
162 106.62 L
165.88 106.608 L
169.76 106.596 L
173.64 106.584 L
177.52 106.572 L
181.4 106.561 L
185.28 106.549 L
189.16 106.537 L
193.04 106.525 L
196.92 106.514 L
200.8 106.502 L
204.68 106.49 L
208.56 106.478 L
212.44 106.466 L
216.32 106.455 L
220.2 106.443 L
224.08 106.431 L
227.96 106.419 L
231.84 106.408 L
235.72 106.396 L
239.6 106.384 L
243.48 106.372 L
247.36 106.36 L
251.24 106.349 L
255.12 106.337 L
259 106.325 L
262.88 106.313 L
266.76 106.302 L
270.64 106.29 L
274.52 106.278 L
278.4 106.266 L
282.28 106.254 L
286.16 106.243 L
290.04 106.231 L
293.92 106.219 L
297.8 106.207 L
301.68 106.196 L
305.56 106.184 L
309.44 105.234 L
313.32 104.284 L
317.2 104.272 L
321.08 104.26 L
324.96 104.248 L
328.84 104.237 L
332.72 104.225 L
336.6 104.213 L
340.48 104.201 L
344.36 104.19 L
348.24 104.178 L
352.12 104.166 L
356 104.154 L
359.88 104.142 L
363.76 104.131 L
367.64 104.119 L
371.52 104.107 L
375.4 104.095 L
379.28 104.084 L
383.16 104.072 L
387.04 104.06 L
390.92 104.048 L
394.8 104.036 L
398.68 104.025 L
402.56 104.013 L
406.44 104.001 L
410.32 103.989 L
414.2 103.978 L
418.08 103.966 L
421.96 103.954 L
425.84 103.942 L
429.72 103.93 L
433.6 103.919 L
437.48 103.907 L
441.36 103.895 L
445.24 103.883 L
449.12 103.872 L
453 103.86 L
S
GR
GS
0 0 1 RC
1 LJ
0.5 LW
N
68.88 114.208 M
72.76 113.416 L
76.64 112.623 L
80.52 111.476 L
84.4 110.329 L
88.28 109.182 L
92.16 108.234 L
96.04 107.286 L
99.92 106.339 L
103.8 106.339 L
107.68 106.339 L
111.56 106.339 L
115.44 106.339 L
119.32 106.339 L
123.2 106.339 L
127.08 106.339 L
130.96 106.339 L
134.84 106.339 L
138.72 106.339 L
142.6 106.339 L
146.48 106.339 L
150.36 106.339 L
154.24 106.339 L
158.12 106.339 L
162 106.339 L
165.88 106.339 L
169.76 106.339 L
173.64 106.339 L
177.52 106.339 L
181.4 106.339 L
185.28 106.339 L
189.16 106.339 L
193.04 106.339 L
196.92 106.339 L
200.8 106.339 L
204.68 106.339 L
208.56 106.339 L
212.44 106.339 L
216.32 106.339 L
220.2 106.339 L
224.08 106.339 L
227.96 106.339 L
231.84 106.339 L
235.72 106.339 L
239.6 106.339 L
243.48 106.339 L
247.36 106.339 L
251.24 106.339 L
255.12 106.339 L
259 106.339 L
262.88 106.339 L
266.76 106.339 L
270.64 106.339 L
274.52 106.339 L
278.4 106.339 L
282.28 106.339 L
286.16 106.339 L
290.04 106.339 L
293.92 106.339 L
297.8 106.339 L
301.68 106.339 L
305.56 106.339 L
309.44 106.339 L
313.32 106.339 L
317.2 106.339 L
321.08 106.339 L
324.96 106.339 L
328.84 106.339 L
332.72 106.339 L
336.6 106.339 L
340.48 106.339 L
344.36 106.339 L
348.24 106.339 L
352.12 106.339 L
356 106.339 L
359.88 106.339 L
363.76 106.339 L
367.64 106.339 L
371.52 106.339 L
375.4 106.339 L
379.28 106.339 L
383.16 106.339 L
387.04 106.339 L
390.92 106.339 L
394.8 106.339 L
398.68 106.339 L
402.56 106.339 L
406.44 106.339 L
410.32 106.339 L
414.2 106.339 L
418.08 106.339 L
421.96 106.339 L
425.84 106.339 L
429.72 106.339 L
433.6 106.339 L
437.48 106.339 L
441.36 106.339 L
445.24 106.339 L
449.12 106.339 L
453 106.339 L
S
GR
GS
1 0 0 RC
1 LJ
0.5 LW
N
68.88 114.204 M
72.76 113.09 L
76.64 111.975 L
80.52 110.861 L
84.4 109.713 L
88.28 109.702 L
92.16 108.554 L
96.04 107.758 L
99.92 107.746 L
103.8 107.734 L
107.68 107.723 L
111.56 107.711 L
115.44 107.699 L
119.32 107.687 L
123.2 107.676 L
127.08 107.664 L
130.96 107.652 L
134.84 107.64 L
138.72 107.628 L
142.6 107.617 L
146.48 107.605 L
150.36 107.593 L
154.24 107.581 L
158.12 107.57 L
162 106.62 L
165.88 106.608 L
169.76 106.596 L
173.64 106.584 L
177.52 106.572 L
181.4 106.561 L
185.28 106.549 L
189.16 106.537 L
193.04 106.525 L
196.92 106.514 L
200.8 106.502 L
204.68 106.49 L
208.56 106.478 L
212.44 106.466 L
216.32 106.455 L
220.2 106.443 L
224.08 106.431 L
227.96 106.419 L
231.84 106.408 L
235.72 106.396 L
239.6 106.384 L
243.48 106.372 L
247.36 106.36 L
251.24 106.349 L
255.12 106.337 L
259 106.325 L
262.88 106.313 L
266.76 106.302 L
270.64 106.29 L
274.52 106.278 L
278.4 106.266 L
282.28 106.254 L
286.16 106.243 L
290.04 106.231 L
293.92 106.219 L
297.8 106.207 L
301.68 106.196 L
305.56 106.184 L
309.44 105.234 L
313.32 104.284 L
317.2 104.272 L
321.08 104.26 L
324.96 104.248 L
328.84 104.237 L
332.72 104.225 L
336.6 104.213 L
340.48 104.201 L
344.36 104.19 L
348.24 104.178 L
352.12 104.166 L
356 104.154 L
359.88 104.142 L
363.76 104.131 L
367.64 104.119 L
371.52 104.107 L
375.4 104.095 L
379.28 104.084 L
383.16 104.072 L
387.04 104.06 L
390.92 104.048 L
394.8 104.036 L
398.68 104.025 L
402.56 104.013 L
406.44 104.001 L
410.32 103.989 L
414.2 103.978 L
418.08 103.966 L
421.96 103.954 L
425.84 103.942 L
429.72 103.93 L
433.6 103.919 L
437.48 103.907 L
441.36 103.895 L
445.24 103.883 L
449.12 103.872 L
453 103.86 L
S
GR
GS
1 GC
N
65 281 M
453 281 L
453 210 L
65 210 L
cp
f
GR
GS
0.873 GC
1 LJ
0.5 LW
N
65 281 M
65 210 L
S
GR
GS
0.873 GC
1 LJ
0.5 LW
N
142.6 281 M
142.6 210 L
S
GR
GS
0.873 GC
1 LJ
0.5 LW
N
220.2 281 M
220.2 210 L
S
GR
GS
0.873 GC
1 LJ
0.5 LW
N
297.8 281 M
297.8 210 L
S
GR
GS
0.873 GC
1 LJ
0.5 LW
N
375.4 281 M
375.4 210 L
S
GR
GS
0.873 GC
1 LJ
0.5 LW
N
453 281 M
453 210 L
S
GR
GS
0.873 GC
1 LJ
0.5 LW
N
453 281 M
65 281 L
S
GR
GS
0.873 GC
1 LJ
0.5 LW
N
453 221.833 M
65 221.833 L
S
GR
GS
0.149 GC
2 setlinecap
1 LJ
0.5 LW
N
65 281 M
453 281 L
S
GR
GS
0.149 GC
2 setlinecap
1 LJ
0.5 LW
N
65 210 M
453 210 L
S
GR
GS
0.149 GC
2 setlinecap
1 LJ
0.5 LW
N
65 281 M
65 277.12 L
S
GR
GS
0.149 GC
2 setlinecap
1 LJ
0.5 LW
N
142.6 281 M
142.6 277.12 L
S
GR
GS
0.149 GC
2 setlinecap
1 LJ
0.5 LW
N
220.2 281 M
220.2 277.12 L
S
GR
GS
0.149 GC
2 setlinecap
1 LJ
0.5 LW
N
297.8 281 M
297.8 277.12 L
S
GR
GS
0.149 GC
2 setlinecap
1 LJ
0.5 LW
N
375.4 281 M
375.4 277.12 L
S
GR
GS
0.149 GC
2 setlinecap
1 LJ
0.5 LW
N
453 281 M
453 277.12 L
S
GR
GS
0.149 GC
2 setlinecap
1 LJ
0.5 LW
N
65 210 M
65 213.88 L
S
GR
GS
0.149 GC
2 setlinecap
1 LJ
0.5 LW
N
142.6 210 M
142.6 213.88 L
S
GR
GS
0.149 GC
2 setlinecap
1 LJ
0.5 LW
N
220.2 210 M
220.2 213.88 L
S
GR
GS
0.149 GC
2 setlinecap
1 LJ
0.5 LW
N
297.8 210 M
297.8 213.88 L
S
GR
GS
0.149 GC
2 setlinecap
1 LJ
0.5 LW
N
375.4 210 M
375.4 213.88 L
S
GR
GS
0.149 GC
2 setlinecap
1 LJ
0.5 LW
N
453 210 M
453 213.88 L
S
GR
GS
[1 0 0 1 65 287.39999] CT
0.149 GC
/Times-Roman 22 F
GS
[1 0 0 1 0 0] CT
-5.5 20 moveto 
1 -1 scale
(0) t 
GR
GR
GS
[1 0 0 1 142.60001 287.39999] CT
0.149 GC
/Times-Roman 22 F
GS
[1 0 0 1 0 0] CT
-11 20 moveto 
1 -1 scale
(20) t 
GR
GR
GS
[1 0 0 1 220.2 287.39999] CT
0.149 GC
/Times-Roman 22 F
GS
[1 0 0 1 0 0] CT
-11 20 moveto 
1 -1 scale
(40) t 
GR
GR
GS
[1 0 0 1 297.79999 287.39999] CT
0.149 GC
/Times-Roman 22 F
GS
[1 0 0 1 0 0] CT
-11 20 moveto 
1 -1 scale
(60) t 
GR
GR
GS
[1 0 0 1 375.39999 287.39999] CT
0.149 GC
/Times-Roman 22 F
GS
[1 0 0 1 0 0] CT
-11 20 moveto 
1 -1 scale
(80) t 
GR
GR
GS
[1 0 0 1 453 287.39999] CT
0.149 GC
/Times-Roman 22 F
GS
[1 0 0 1 0 0] CT
-16.5 20 moveto 
1 -1 scale
(100) t 
GR
GR
GS
[1 0 0 1 259.00018 313.39999] CT
0.149 GC
/Times-Roman 24.2 F
GS
[1 0 0 1 0 0] CT
-57.5 22 moveto 
1 -1 scale
(TS iteration) t 
GR
GR
GS
0.149 GC
2 setlinecap
1 LJ
0.5 LW
N
65 281 M
65 210 L
S
GR
GS
0.149 GC
2 setlinecap
1 LJ
0.5 LW
N
453 281 M
453 210 L
S
GR
GS
0.149 GC
2 setlinecap
1 LJ
0.5 LW
N
65 281 M
68.88 281 L
S
GR
GS
0.149 GC
2 setlinecap
1 LJ
0.5 LW
N
65 221.833 M
68.88 221.833 L
S
GR
GS
0.149 GC
2 setlinecap
1 LJ
0.5 LW
N
453 281 M
449.12 281 L
S
GR
GS
0.149 GC
2 setlinecap
1 LJ
0.5 LW
N
453 221.833 M
449.12 221.833 L
S
GR
GS
[1 0 0 1 58.6 281] CT
0.149 GC
/Times-Roman 22 F
GS
[1 0 0 1 0 0] CT
-11 7.5 moveto 
1 -1 scale
(0) t 
GR
GR
GS
[1 0 0 1 58.6 221.83333] CT
0.149 GC
/Times-Roman 22 F
GS
[1 0 0 1 0 0] CT
-22 7.5 moveto 
1 -1 scale
(50) t 
GR
GR
GS
[0 -1 1 0 33.6 245.49997] CT
0.149 GC
/Times-Roman 24.2 F
GS
[1 0 0 1 0 0] CT
-32.5 -6 moveto 
1 -1 scale
(Regret) t 
GR
GR
GS
[1 0 0 1 259.00024 203.95] CT
/Times-Bold 24.2 F
GS
[1 0 0 1 0 0] CT
-49 -6 moveto 
1 -1 scale
(WLAN B) t 
GR
GR
GS
0 0 1 RC
1 LJ
0.5 LW
N
68.88 280.613 M
72.76 280.226 L
76.64 279.838 L
80.52 278.655 L
84.4 277.472 L
88.28 276.288 L
92.16 276.288 L
96.04 276.288 L
99.92 276.288 L
103.8 276.288 L
107.68 276.288 L
111.56 276.288 L
115.44 276.288 L
119.32 275.707 L
123.2 275.707 L
127.08 275.707 L
130.96 275.707 L
134.84 275.707 L
138.72 275.707 L
142.6 275.707 L
146.48 275.707 L
150.36 275.707 L
154.24 275.707 L
158.12 275.707 L
162 275.707 L
165.88 275.707 L
169.76 275.707 L
173.64 275.126 L
177.52 274.544 L
181.4 274.544 L
185.28 274.544 L
189.16 274.544 L
193.04 274.544 L
196.92 274.544 L
200.8 274.544 L
204.68 274.544 L
208.56 274.544 L
212.44 274.544 L
216.32 274.544 L
220.2 274.544 L
224.08 274.544 L
227.96 274.544 L
231.84 273.363 L
235.72 272.181 L
239.6 271.132 L
243.48 270.082 L
247.36 269.033 L
251.24 269.033 L
255.12 269.033 L
259 269.033 L
262.88 269.033 L
266.76 269.033 L
270.64 269.033 L
274.52 269.033 L
278.4 269.033 L
282.28 269.033 L
286.16 269.033 L
290.04 269.033 L
293.92 269.033 L
297.8 269.033 L
301.68 269.033 L
305.56 269.033 L
309.44 269.033 L
313.32 269.033 L
317.2 269.033 L
321.08 269.033 L
324.96 269.033 L
328.84 269.033 L
332.72 269.033 L
336.6 269.033 L
340.48 269.033 L
344.36 269.033 L
348.24 269.033 L
352.12 269.033 L
356 269.033 L
359.88 269.033 L
363.76 269.033 L
367.64 269.033 L
371.52 269.033 L
375.4 269.033 L
379.28 269.033 L
383.16 269.033 L
387.04 269.033 L
390.92 269.033 L
394.8 269.033 L
398.68 268.452 L
402.56 267.871 L
406.44 267.871 L
410.32 267.871 L
414.2 267.871 L
418.08 267.871 L
421.96 267.871 L
425.84 267.871 L
429.72 267.871 L
433.6 267.871 L
437.48 267.871 L
441.36 267.289 L
445.24 266.708 L
449.12 266.127 L
453 265.546 L
S
GR
GS
1 0 0 RC
1 LJ
0.5 LW
N
68.88 280.204 M
72.76 279.09 L
76.64 277.975 L
80.52 276.861 L
84.4 275.678 L
88.28 274.494 L
92.16 273.311 L
96.04 272.515 L
99.92 271.624 L
103.8 271.017 L
107.68 270.409 L
111.56 269.801 L
115.44 269.193 L
119.32 268.585 L
123.2 267.978 L
127.08 266.86 L
130.96 265.741 L
134.84 264.851 L
138.72 263.96 L
142.6 263.07 L
146.48 262.179 L
150.36 261.289 L
154.24 260.681 L
158.12 260.073 L
162 259.465 L
165.88 258.858 L
169.76 258.25 L
173.64 257.642 L
177.52 257.034 L
181.4 256.426 L
185.28 255.819 L
189.16 255.211 L
193.04 254.603 L
196.92 253.995 L
200.8 253.387 L
204.68 252.78 L
208.56 252.172 L
212.44 251.564 L
216.32 250.956 L
220.2 250.348 L
224.08 249.741 L
227.96 248.85 L
231.84 248.242 L
235.72 247.635 L
239.6 247.027 L
243.48 246.419 L
247.36 245.811 L
251.24 245.203 L
255.12 244.021 L
259 242.837 L
262.88 241.654 L
266.76 240.471 L
270.64 239.58 L
274.52 238.69 L
278.4 237.799 L
282.28 236.681 L
286.16 235.563 L
290.04 234.445 L
293.92 233.554 L
297.8 232.947 L
301.68 232.339 L
305.56 231.731 L
309.44 231.123 L
313.32 230.515 L
317.2 229.908 L
321.08 229.3 L
324.96 228.692 L
328.84 227.509 L
332.72 226.325 L
336.6 225.718 L
340.48 225.11 L
344.36 224.502 L
348.24 223.894 L
352.12 223.286 L
356 222.679 L
359.88 222.071 L
363.76 221.463 L
367.64 220.855 L
371.52 220.247 L
375.4 219.64 L
379.28 219.032 L
383.16 218.424 L
387.04 217.816 L
390.92 217.208 L
394.8 216.601 L
398.68 215.993 L
402.56 215.385 L
406.44 214.777 L
410.32 214.169 L
414.2 213.562 L
418.08 212.954 L
421.96 212.346 L
425.84 211.738 L
429.72 211.13 L
433.6 210.523 L
436.99 209.992 L
S
GR
GS
0 0 1 RC
1 LJ
0.5 LW
N
68.88 280.613 M
72.76 280.226 L
76.64 279.838 L
80.52 278.655 L
84.4 277.472 L
88.28 276.288 L
92.16 276.288 L
96.04 276.288 L
99.92 276.288 L
103.8 276.288 L
107.68 276.288 L
111.56 276.288 L
115.44 276.288 L
119.32 275.707 L
123.2 275.707 L
127.08 275.707 L
130.96 275.707 L
134.84 275.707 L
138.72 275.707 L
142.6 275.707 L
146.48 275.707 L
150.36 275.707 L
154.24 275.707 L
158.12 275.707 L
162 275.707 L
165.88 275.707 L
169.76 275.707 L
173.64 275.126 L
177.52 274.544 L
181.4 274.544 L
185.28 274.544 L
189.16 274.544 L
193.04 274.544 L
196.92 274.544 L
200.8 274.544 L
204.68 274.544 L
208.56 274.544 L
212.44 274.544 L
216.32 274.544 L
220.2 274.544 L
224.08 274.544 L
227.96 274.544 L
231.84 273.363 L
235.72 272.181 L
239.6 271.132 L
243.48 270.082 L
247.36 269.033 L
251.24 269.033 L
255.12 269.033 L
259 269.033 L
262.88 269.033 L
266.76 269.033 L
270.64 269.033 L
274.52 269.033 L
278.4 269.033 L
282.28 269.033 L
286.16 269.033 L
290.04 269.033 L
293.92 269.033 L
297.8 269.033 L
301.68 269.033 L
305.56 269.033 L
309.44 269.033 L
313.32 269.033 L
317.2 269.033 L
321.08 269.033 L
324.96 269.033 L
328.84 269.033 L
332.72 269.033 L
336.6 269.033 L
340.48 269.033 L
344.36 269.033 L
348.24 269.033 L
352.12 269.033 L
356 269.033 L
359.88 269.033 L
363.76 269.033 L
367.64 269.033 L
371.52 269.033 L
375.4 269.033 L
379.28 269.033 L
383.16 269.033 L
387.04 269.033 L
390.92 269.033 L
394.8 269.033 L
398.68 268.452 L
402.56 267.871 L
406.44 267.871 L
410.32 267.871 L
414.2 267.871 L
418.08 267.871 L
421.96 267.871 L
425.84 267.871 L
429.72 267.871 L
433.6 267.871 L
437.48 267.871 L
441.36 267.289 L
445.24 266.708 L
449.12 266.127 L
453 265.546 L
S
GR
GS
1 0 0 RC
1 LJ
0.5 LW
N
68.88 280.204 M
72.76 279.09 L
76.64 277.975 L
80.52 276.861 L
84.4 275.678 L
88.28 274.494 L
92.16 273.311 L
96.04 272.515 L
99.92 271.624 L
103.8 271.017 L
107.68 270.409 L
111.56 269.801 L
115.44 269.193 L
119.32 268.585 L
123.2 267.978 L
127.08 266.86 L
130.96 265.741 L
134.84 264.851 L
138.72 263.96 L
142.6 263.07 L
146.48 262.179 L
150.36 261.289 L
154.24 260.681 L
158.12 260.073 L
162 259.465 L
165.88 258.858 L
169.76 258.25 L
173.64 257.642 L
177.52 257.034 L
181.4 256.426 L
185.28 255.819 L
189.16 255.211 L
193.04 254.603 L
196.92 253.995 L
200.8 253.387 L
204.68 252.78 L
208.56 252.172 L
212.44 251.564 L
216.32 250.956 L
220.2 250.348 L
224.08 249.741 L
227.96 248.85 L
231.84 248.242 L
235.72 247.635 L
239.6 247.027 L
243.48 246.419 L
247.36 245.811 L
251.24 245.203 L
255.12 244.021 L
259 242.837 L
262.88 241.654 L
266.76 240.471 L
270.64 239.58 L
274.52 238.69 L
278.4 237.799 L
282.28 236.681 L
286.16 235.563 L
290.04 234.445 L
293.92 233.554 L
297.8 232.947 L
301.68 232.339 L
305.56 231.731 L
309.44 231.123 L
313.32 230.515 L
317.2 229.908 L
321.08 229.3 L
324.96 228.692 L
328.84 227.509 L
332.72 226.325 L
336.6 225.718 L
340.48 225.11 L
344.36 224.502 L
348.24 223.894 L
352.12 223.286 L
356 222.679 L
359.88 222.071 L
363.76 221.463 L
367.64 220.855 L
371.52 220.247 L
375.4 219.64 L
379.28 219.032 L
383.16 218.424 L
387.04 217.816 L
390.92 217.208 L
394.8 216.601 L
398.68 215.993 L
402.56 215.385 L
406.44 214.777 L
410.32 214.169 L
414.2 213.562 L
418.08 212.954 L
421.96 212.346 L
425.84 211.738 L
429.72 211.13 L
433.6 210.523 L
436.99 209.992 L
S
GR
GS
1 GC
N
488 76 M
488 22 L
329 22 L
329 76 L
cp
f
GR
GS
[1 0 0 1 366 36.36697] CT
/Times-Roman 22 F
GS
[1 0 0 1 0 0] CT
0 7.5 moveto 
1 -1 scale
(UBR known) t 
GR
GR
GS
0 0 1 RC
1 LJ
0.5 LW
N
333 36.367 M
363 36.367 L
S
GR
GS
[1 0 0 1 366 61.63303] CT
/Times-Roman 22 F
GS
[1 0 0 1 0 0] CT
0 7.5 moveto 
1 -1 scale
(UBR approx.) t 
GR
GR
GS
1 0 0 RC
1 LJ
0.5 LW
N
333 61.633 M
363 61.633 L
S
GR
GS
0.149 GC
10.0 ML
0.5 LW
N
329 76 M
329 22 L
488 22 L
488 76 L
cp
S
GR
%%Trailer
%%Pages: 1
%%EOF
