%!PS-Adobe-3.0 EPSF-3.0
%%Creator: (MATLAB, The Mathworks, Inc. Version 9.3.0.713579 \(R2017b\). Operating System: Mac OS X)
%%Title: (/Users/franciscowilhelmi/workspace/papers/selfish_vs_informed_spatial_reuse/Results/Part 1 - Learning implications/1.1 Upper Bound Reward/approx_vs_actual_tpt.eps)
%%CreationDate: 2018-05-24T15:39:19
%%Pages: (atend)
%%BoundingBox: 0 0 500 350
%%LanguageLevel: 3
%%EndComments
%%BeginProlog
%%BeginResource: procset (Apache XML Graphics Std ProcSet) 1.2 0
%%Version: 1.2 0
%%Copyright: (Copyright 2001-2003,2010 The Apache Software Foundation. License terms: http://www.apache.org/licenses/LICENSE-2.0)
/bd{bind def}bind def
/ld{load def}bd
/GR/grestore ld
/GS/gsave ld
/RM/rmoveto ld
/C/curveto ld
/t/show ld
/L/lineto ld
/ML/setmiterlimit ld
/CT/concat ld
/f/fill ld
/N/newpath ld
/S/stroke ld
/CC/setcmykcolor ld
/A/ashow ld
/cp/closepath ld
/RC/setrgbcolor ld
/LJ/setlinejoin ld
/GC/setgray ld
/LW/setlinewidth ld
/M/moveto ld
/re {4 2 roll M
1 index 0 rlineto
0 exch rlineto
neg 0 rlineto
cp } bd
/_ctm matrix def
/_tm matrix def
/BT { _ctm currentmatrix pop matrix _tm copy pop 0 0 moveto } bd
/ET { _ctm setmatrix } bd
/iTm { _ctm setmatrix _tm concat } bd
/Tm { _tm astore pop iTm 0 0 moveto } bd
/ux 0.0 def
/uy 0.0 def
/F {
  /Tp exch def
  /Tf exch def
  Tf findfont Tp scalefont setfont
  /cf Tf def  /cs Tp def
} bd
/ULS {currentpoint /uy exch def /ux exch def} bd
/ULE {
  /Tcx currentpoint pop def
  gsave
  newpath
  cf findfont cs scalefont dup
  /FontMatrix get 0 get /Ts exch def /FontInfo get dup
  /UnderlinePosition get Ts mul /To exch def
  /UnderlineThickness get Ts mul /Tt exch def
  ux uy To add moveto  Tcx uy To add lineto
  Tt setlinewidth stroke
  grestore
} bd
/OLE {
  /Tcx currentpoint pop def
  gsave
  newpath
  cf findfont cs scalefont dup
  /FontMatrix get 0 get /Ts exch def /FontInfo get dup
  /UnderlinePosition get Ts mul /To exch def
  /UnderlineThickness get Ts mul /Tt exch def
  ux uy To add cs add moveto Tcx uy To add cs add lineto
  Tt setlinewidth stroke
  grestore
} bd
/SOE {
  /Tcx currentpoint pop def
  gsave
  newpath
  cf findfont cs scalefont dup
  /FontMatrix get 0 get /Ts exch def /FontInfo get dup
  /UnderlinePosition get Ts mul /To exch def
  /UnderlineThickness get Ts mul /Tt exch def
  ux uy To add cs 10 mul 26 idiv add moveto Tcx uy To add cs 10 mul 26 idiv add lineto
  Tt setlinewidth stroke
  grestore
} bd
/QT {
/Y22 exch store
/X22 exch store
/Y21 exch store
/X21 exch store
currentpoint
/Y21 load 2 mul add 3 div exch
/X21 load 2 mul add 3 div exch
/X21 load 2 mul /X22 load add 3 div
/Y21 load 2 mul /Y22 load add 3 div
/X22 load /Y22 load curveto
} bd
/SSPD {
dup length /d exch dict def
{
/v exch def
/k exch def
currentpagedevice k known {
/cpdv currentpagedevice k get def
v cpdv ne {
/upd false def
/nullv v type /nulltype eq def
/nullcpdv cpdv type /nulltype eq def
nullv nullcpdv or
{
/upd true def
} {
/sametype v type cpdv type eq def
sametype {
v type /arraytype eq {
/vlen v length def
/cpdvlen cpdv length def
vlen cpdvlen eq {
0 1 vlen 1 sub {
/i exch def
/obj v i get def
/cpdobj cpdv i get def
obj cpdobj ne {
/upd true def
exit
} if
} for
} {
/upd true def
} ifelse
} {
v type /dicttype eq {
v {
/dv exch def
/dk exch def
/cpddv cpdv dk get def
dv cpddv ne {
/upd true def
exit
} if
} forall
} {
/upd true def
} ifelse
} ifelse
} if
} ifelse
upd true eq {
d k v put
} if
} if
} if
} forall
d length 0 gt {
d setpagedevice
} if
} bd
/RE { % /NewFontName [NewEncodingArray] /FontName RE -
  findfont dup length dict begin
  {
    1 index /FID ne
    {def} {pop pop} ifelse
  } forall
  /Encoding exch def
  /FontName 1 index def
  currentdict definefont pop
  end
} bind def
%%EndResource
%%BeginResource: procset (Apache XML Graphics EPS ProcSet) 1.0 0
%%Version: 1.0 0
%%Copyright: (Copyright 2002-2003 The Apache Software Foundation. License terms: http://www.apache.org/licenses/LICENSE-2.0)
/BeginEPSF { %def
/b4_Inc_state save def         % Save state for cleanup
/dict_count countdictstack def % Count objects on dict stack
/op_count count 1 sub def      % Count objects on operand stack
userdict begin                 % Push userdict on dict stack
/showpage { } def              % Redefine showpage, { } = null proc
0 setgray 0 setlinecap         % Prepare graphics state
1 setlinewidth 0 setlinejoin
10 setmiterlimit [ ] 0 setdash newpath
/languagelevel where           % If level not equal to 1 then
{pop languagelevel             % set strokeadjust and
1 ne                           % overprint to their defaults.
{false setstrokeadjust false setoverprint
} if
} if
} bd
/EndEPSF { %def
count op_count sub {pop} repeat            % Clean up stacks
countdictstack dict_count sub {end} repeat
b4_Inc_state restore
} bd
%%EndResource
%FOPBeginFontDict
%%IncludeResource: font Courier-Oblique
%%IncludeResource: font Courier-BoldOblique
%%IncludeResource: font Courier-Bold
%%IncludeResource: font ZapfDingbats
%%IncludeResource: font Symbol
%%IncludeResource: font Helvetica
%%IncludeResource: font Helvetica-Oblique
%%IncludeResource: font Helvetica-Bold
%%IncludeResource: font Helvetica-BoldOblique
%%IncludeResource: font Times-Roman
%%IncludeResource: font Times-Italic
%%IncludeResource: font Times-Bold
%%IncludeResource: font Times-BoldItalic
%%IncludeResource: font Courier
%FOPEndFontDict
%%BeginResource: encoding WinAnsiEncoding
/WinAnsiEncoding [
/.notdef /.notdef /.notdef /.notdef /.notdef
/.notdef /.notdef /.notdef /.notdef /.notdef
/.notdef /.notdef /.notdef /.notdef /.notdef
/.notdef /.notdef /.notdef /.notdef /.notdef
/.notdef /.notdef /.notdef /.notdef /.notdef
/.notdef /.notdef /.notdef /.notdef /.notdef
/.notdef /.notdef /space /exclam /quotedbl
/numbersign /dollar /percent /ampersand /quotesingle
/parenleft /parenright /asterisk /plus /comma
/hyphen /period /slash /zero /one
/two /three /four /five /six
/seven /eight /nine /colon /semicolon
/less /equal /greater /question /at
/A /B /C /D /E
/F /G /H /I /J
/K /L /M /N /O
/P /Q /R /S /T
/U /V /W /X /Y
/Z /bracketleft /backslash /bracketright /asciicircum
/underscore /quoteleft /a /b /c
/d /e /f /g /h
/i /j /k /l /m
/n /o /p /q /r
/s /t /u /v /w
/x /y /z /braceleft /bar
/braceright /asciitilde /bullet /Euro /bullet
/quotesinglbase /florin /quotedblbase /ellipsis /dagger
/daggerdbl /circumflex /perthousand /Scaron /guilsinglleft
/OE /bullet /Zcaron /bullet /bullet
/quoteleft /quoteright /quotedblleft /quotedblright /bullet
/endash /emdash /asciitilde /trademark /scaron
/guilsinglright /oe /bullet /zcaron /Ydieresis
/space /exclamdown /cent /sterling /currency
/yen /brokenbar /section /dieresis /copyright
/ordfeminine /guillemotleft /logicalnot /sfthyphen /registered
/macron /degree /plusminus /twosuperior /threesuperior
/acute /mu /paragraph /middot /cedilla
/onesuperior /ordmasculine /guillemotright /onequarter /onehalf
/threequarters /questiondown /Agrave /Aacute /Acircumflex
/Atilde /Adieresis /Aring /AE /Ccedilla
/Egrave /Eacute /Ecircumflex /Edieresis /Igrave
/Iacute /Icircumflex /Idieresis /Eth /Ntilde
/Ograve /Oacute /Ocircumflex /Otilde /Odieresis
/multiply /Oslash /Ugrave /Uacute /Ucircumflex
/Udieresis /Yacute /Thorn /germandbls /agrave
/aacute /acircumflex /atilde /adieresis /aring
/ae /ccedilla /egrave /eacute /ecircumflex
/edieresis /igrave /iacute /icircumflex /idieresis
/eth /ntilde /ograve /oacute /ocircumflex
/otilde /odieresis /divide /oslash /ugrave
/uacute /ucircumflex /udieresis /yacute /thorn
/ydieresis
] def
%%EndResource
%FOPBeginFontReencode
/Courier-Oblique findfont
dup length dict begin
  {1 index /FID ne {def} {pop pop} ifelse} forall
  /Encoding WinAnsiEncoding def
  currentdict
end
/Courier-Oblique exch definefont pop
/Courier-BoldOblique findfont
dup length dict begin
  {1 index /FID ne {def} {pop pop} ifelse} forall
  /Encoding WinAnsiEncoding def
  currentdict
end
/Courier-BoldOblique exch definefont pop
/Courier-Bold findfont
dup length dict begin
  {1 index /FID ne {def} {pop pop} ifelse} forall
  /Encoding WinAnsiEncoding def
  currentdict
end
/Courier-Bold exch definefont pop
/Helvetica findfont
dup length dict begin
  {1 index /FID ne {def} {pop pop} ifelse} forall
  /Encoding WinAnsiEncoding def
  currentdict
end
/Helvetica exch definefont pop
/Helvetica-Oblique findfont
dup length dict begin
  {1 index /FID ne {def} {pop pop} ifelse} forall
  /Encoding WinAnsiEncoding def
  currentdict
end
/Helvetica-Oblique exch definefont pop
/Helvetica-Bold findfont
dup length dict begin
  {1 index /FID ne {def} {pop pop} ifelse} forall
  /Encoding WinAnsiEncoding def
  currentdict
end
/Helvetica-Bold exch definefont pop
/Helvetica-BoldOblique findfont
dup length dict begin
  {1 index /FID ne {def} {pop pop} ifelse} forall
  /Encoding WinAnsiEncoding def
  currentdict
end
/Helvetica-BoldOblique exch definefont pop
/Times-Roman findfont
dup length dict begin
  {1 index /FID ne {def} {pop pop} ifelse} forall
  /Encoding WinAnsiEncoding def
  currentdict
end
/Times-Roman exch definefont pop
/Times-Italic findfont
dup length dict begin
  {1 index /FID ne {def} {pop pop} ifelse} forall
  /Encoding WinAnsiEncoding def
  currentdict
end
/Times-Italic exch definefont pop
/Times-Bold findfont
dup length dict begin
  {1 index /FID ne {def} {pop pop} ifelse} forall
  /Encoding WinAnsiEncoding def
  currentdict
end
/Times-Bold exch definefont pop
/Times-BoldItalic findfont
dup length dict begin
  {1 index /FID ne {def} {pop pop} ifelse} forall
  /Encoding WinAnsiEncoding def
  currentdict
end
/Times-BoldItalic exch definefont pop
/Courier findfont
dup length dict begin
  {1 index /FID ne {def} {pop pop} ifelse} forall
  /Encoding WinAnsiEncoding def
  currentdict
end
/Courier exch definefont pop
%FOPEndFontReencode
%%EndProlog
%%Page: 1 1
%%PageBoundingBox: 0 0 500 350
%%BeginPageSetup
[1 0 0 -1 0 350] CT
%%EndPageSetup
GS
1 GC
N
0 0 500 350 re
f
GR
GS
1 GC
N
0 0 500 350 re
f
GR
GS
1 GC
N
65 125 M
453 125 L
453 38 L
65 38 L
cp
f
GR
GS
0.873 GC
1 LJ
0.5 LW
N
139.465 125 M
139.465 38 L
S
GR
GS
0.873 GC
1 LJ
0.5 LW
N
217.848 125 M
217.848 38 L
S
GR
GS
0.873 GC
1 LJ
0.5 LW
N
296.232 125 M
296.232 38 L
S
GR
GS
0.873 GC
1 LJ
0.5 LW
N
374.616 125 M
374.616 38 L
S
GR
GS
0.873 GC
1 LJ
0.5 LW
N
453 125 M
453 38 L
S
GR
GS
0.873 GC
1 LJ
0.5 LW
N
453 125 M
65 125 L
S
GR
GS
0.873 GC
1 LJ
0.5 LW
N
453 90.076 M
65 90.076 L
S
GR
GS
0.873 GC
1 LJ
0.5 LW
N
453 55.152 M
65 55.152 L
S
GR
GS
0.149 GC
2 setlinecap
1 LJ
0.5 LW
N
65 125 M
453 125 L
S
GR
GS
0.149 GC
2 setlinecap
1 LJ
0.5 LW
N
65 38 M
453 38 L
S
GR
GS
0.149 GC
2 setlinecap
1 LJ
0.5 LW
N
139.465 125 M
139.465 121.12 L
S
GR
GS
0.149 GC
2 setlinecap
1 LJ
0.5 LW
N
217.848 125 M
217.848 121.12 L
S
GR
GS
0.149 GC
2 setlinecap
1 LJ
0.5 LW
N
296.232 125 M
296.232 121.12 L
S
GR
GS
0.149 GC
2 setlinecap
1 LJ
0.5 LW
N
374.616 125 M
374.616 121.12 L
S
GR
GS
0.149 GC
2 setlinecap
1 LJ
0.5 LW
N
453 125 M
453 121.12 L
S
GR
GS
0.149 GC
2 setlinecap
1 LJ
0.5 LW
N
139.465 38 M
139.465 41.88 L
S
GR
GS
0.149 GC
2 setlinecap
1 LJ
0.5 LW
N
217.848 38 M
217.848 41.88 L
S
GR
GS
0.149 GC
2 setlinecap
1 LJ
0.5 LW
N
296.232 38 M
296.232 41.88 L
S
GR
GS
0.149 GC
2 setlinecap
1 LJ
0.5 LW
N
374.616 38 M
374.616 41.88 L
S
GR
GS
0.149 GC
2 setlinecap
1 LJ
0.5 LW
N
453 38 M
453 41.88 L
S
GR
GS
[1 0 0 1 139.46465 131.39999] CT
0.149 GC
/Times-Roman 22 F
GS
[1 0 0 1 0 0] CT
-11 20 moveto 
1 -1 scale
(20) t 
GR
GR
GS
[1 0 0 1 217.84848 131.39999] CT
0.149 GC
/Times-Roman 22 F
GS
[1 0 0 1 0 0] CT
-11 20 moveto 
1 -1 scale
(40) t 
GR
GR
GS
[1 0 0 1 296.23233 131.39999] CT
0.149 GC
/Times-Roman 22 F
GS
[1 0 0 1 0 0] CT
-11 20 moveto 
1 -1 scale
(60) t 
GR
GR
GS
[1 0 0 1 374.61615 131.39999] CT
0.149 GC
/Times-Roman 22 F
GS
[1 0 0 1 0 0] CT
-11 20 moveto 
1 -1 scale
(80) t 
GR
GR
GS
[1 0 0 1 453 131.39999] CT
0.149 GC
/Times-Roman 22 F
GS
[1 0 0 1 0 0] CT
-16.5 20 moveto 
1 -1 scale
(100) t 
GR
GR
GS
0.149 GC
2 setlinecap
1 LJ
0.5 LW
N
65 125 M
65 38 L
S
GR
GS
0.149 GC
2 setlinecap
1 LJ
0.5 LW
N
453 125 M
453 38 L
S
GR
GS
0.149 GC
2 setlinecap
1 LJ
0.5 LW
N
65 125 M
68.88 125 L
S
GR
GS
0.149 GC
2 setlinecap
1 LJ
0.5 LW
N
65 90.076 M
68.88 90.076 L
S
GR
GS
0.149 GC
2 setlinecap
1 LJ
0.5 LW
N
65 55.152 M
68.88 55.152 L
S
GR
GS
0.149 GC
2 setlinecap
1 LJ
0.5 LW
N
453 125 M
449.12 125 L
S
GR
GS
0.149 GC
2 setlinecap
1 LJ
0.5 LW
N
453 90.076 M
449.12 90.076 L
S
GR
GS
0.149 GC
2 setlinecap
1 LJ
0.5 LW
N
453 55.152 M
449.12 55.152 L
S
GR
GS
[1 0 0 1 58.6 125] CT
0.149 GC
/Times-Roman 22 F
GS
[1 0 0 1 0 0] CT
-11 7.5 moveto 
1 -1 scale
(0) t 
GR
GR
GS
[1 0 0 1 58.6 90.07591] CT
0.149 GC
/Times-Roman 22 F
GS
[1 0 0 1 0 0] CT
-22 7.5 moveto 
1 -1 scale
(50) t 
GR
GR
GS
[1 0 0 1 58.6 55.15182] CT
0.149 GC
/Times-Roman 22 F
GS
[1 0 0 1 0 0] CT
-33 7.5 moveto 
1 -1 scale
(100) t 
GR
GR
GS
[1 0 0 1 259.00024 31.95] CT
/Times-Bold 24.2 F
GS
[1 0 0 1 0 0] CT
-49.5 -6 moveto 
1 -1 scale
(WLAN A) t 
GR
GR
GS
0 0.447 0.741 RC
1 LJ
N
65 98.86 M
68.919 98.86 L
72.838 98.86 L
76.758 122.586 L
80.677 122.586 L
84.596 122.586 L
88.515 109.249 L
92.434 109.249 L
96.354 109.249 L
100.273 45.909 L
104.192 45.909 L
108.111 45.909 L
112.03 45.909 L
115.949 45.909 L
119.869 45.909 L
123.788 45.909 L
127.707 45.909 L
131.626 45.909 L
135.545 45.909 L
139.465 45.909 L
143.384 45.909 L
147.303 45.909 L
151.222 45.909 L
155.141 45.909 L
159.061 45.909 L
162.98 45.909 L
166.899 45.909 L
170.818 45.909 L
174.737 45.909 L
178.657 45.909 L
182.576 45.909 L
186.495 45.909 L
190.414 45.909 L
194.333 45.909 L
198.253 45.909 L
202.172 45.909 L
206.091 45.909 L
210.01 45.909 L
213.929 45.909 L
217.848 45.909 L
221.768 45.909 L
225.687 45.909 L
229.606 45.909 L
233.525 45.909 L
237.444 45.909 L
241.364 45.909 L
245.283 45.909 L
249.202 45.909 L
253.121 45.909 L
257.04 45.909 L
260.96 45.909 L
264.879 45.909 L
268.798 45.909 L
272.717 45.909 L
276.636 45.909 L
280.556 45.909 L
284.475 45.909 L
288.394 45.909 L
292.313 45.909 L
296.232 45.909 L
300.152 45.909 L
304.071 45.909 L
307.99 45.909 L
311.909 45.909 L
315.828 45.909 L
319.747 45.909 L
323.667 45.909 L
327.586 45.909 L
331.505 45.909 L
335.424 45.909 L
339.343 45.909 L
343.263 45.909 L
347.182 45.909 L
351.101 45.909 L
355.02 45.909 L
358.939 45.909 L
362.859 45.909 L
366.778 45.909 L
370.697 45.909 L
374.616 45.909 L
378.535 45.909 L
382.455 45.909 L
386.374 45.909 L
390.293 45.909 L
394.212 45.909 L
398.131 45.909 L
402.051 45.909 L
405.97 45.909 L
409.889 45.909 L
413.808 45.909 L
417.727 45.909 L
421.646 45.909 L
425.566 45.909 L
429.485 45.909 L
433.404 45.909 L
437.323 45.909 L
441.242 45.909 L
445.162 45.909 L
449.081 45.909 L
453 45.909 L
S
GR
GS
1 0 0 RC
1 LJ
N
65 98.86 M
68.919 120.338 L
72.838 120.338 L
76.758 120.338 L
80.677 122.586 L
84.596 45.909 L
88.515 122.586 L
92.434 98.86 L
96.354 45.909 L
100.273 45.909 L
104.192 45.909 L
108.111 45.909 L
112.03 45.909 L
115.949 45.909 L
119.869 45.909 L
123.788 45.909 L
127.707 45.909 L
131.626 45.909 L
135.545 45.909 L
139.465 45.909 L
143.384 45.909 L
147.303 45.909 L
151.222 45.909 L
155.141 45.909 L
159.061 109.249 L
162.98 45.909 L
166.899 45.909 L
170.818 45.909 L
174.737 45.909 L
178.657 45.909 L
182.576 45.909 L
186.495 45.909 L
190.414 45.909 L
194.333 45.909 L
198.253 45.909 L
202.172 45.909 L
206.091 45.909 L
210.01 45.909 L
213.929 45.909 L
217.848 45.909 L
221.768 45.909 L
225.687 45.909 L
229.606 45.909 L
233.525 45.909 L
237.444 45.909 L
241.364 45.909 L
245.283 45.909 L
249.202 45.909 L
253.121 45.909 L
257.04 45.909 L
260.96 45.909 L
264.879 45.909 L
268.798 45.909 L
272.717 45.909 L
276.636 45.909 L
280.556 45.909 L
284.475 45.909 L
288.394 45.909 L
292.313 45.909 L
296.232 45.909 L
300.152 45.909 L
304.071 45.909 L
307.99 109.249 L
311.909 109.249 L
315.828 45.909 L
319.747 45.909 L
323.667 45.909 L
327.586 45.909 L
331.505 45.909 L
335.424 45.909 L
339.343 45.909 L
343.263 45.909 L
347.182 45.909 L
351.101 45.909 L
355.02 45.909 L
358.939 45.909 L
362.859 45.909 L
366.778 45.909 L
370.697 45.909 L
374.616 45.909 L
378.535 45.909 L
382.455 45.909 L
386.374 45.909 L
390.293 45.909 L
394.212 45.909 L
398.131 45.909 L
402.051 45.909 L
405.97 45.909 L
409.889 45.909 L
413.808 45.909 L
417.727 45.909 L
421.646 45.909 L
425.566 45.909 L
429.485 45.909 L
433.404 45.909 L
437.323 45.909 L
441.242 45.909 L
445.162 45.909 L
449.081 45.909 L
453 45.909 L
S
GR
GS
1 GC
N
65 291 M
453 291 L
453 203 L
65 203 L
cp
f
GR
GS
0.873 GC
1 LJ
0.5 LW
N
139.465 291 M
139.465 203 L
S
GR
GS
0.873 GC
1 LJ
0.5 LW
N
217.848 291 M
217.848 203 L
S
GR
GS
0.873 GC
1 LJ
0.5 LW
N
296.232 291 M
296.232 203 L
S
GR
GS
0.873 GC
1 LJ
0.5 LW
N
374.616 291 M
374.616 203 L
S
GR
GS
0.873 GC
1 LJ
0.5 LW
N
453 291 M
453 203 L
S
GR
GS
0.873 GC
1 LJ
0.5 LW
N
453 291 M
65 291 L
S
GR
GS
0.873 GC
1 LJ
0.5 LW
N
453 255.674 M
65 255.674 L
S
GR
GS
0.873 GC
1 LJ
0.5 LW
N
453 220.349 M
65 220.349 L
S
GR
GS
0.149 GC
2 setlinecap
1 LJ
0.5 LW
N
65 291 M
453 291 L
S
GR
GS
0.149 GC
2 setlinecap
1 LJ
0.5 LW
N
65 203 M
453 203 L
S
GR
GS
0.149 GC
2 setlinecap
1 LJ
0.5 LW
N
139.465 291 M
139.465 287.12 L
S
GR
GS
0.149 GC
2 setlinecap
1 LJ
0.5 LW
N
217.848 291 M
217.848 287.12 L
S
GR
GS
0.149 GC
2 setlinecap
1 LJ
0.5 LW
N
296.232 291 M
296.232 287.12 L
S
GR
GS
0.149 GC
2 setlinecap
1 LJ
0.5 LW
N
374.616 291 M
374.616 287.12 L
S
GR
GS
0.149 GC
2 setlinecap
1 LJ
0.5 LW
N
453 291 M
453 287.12 L
S
GR
GS
0.149 GC
2 setlinecap
1 LJ
0.5 LW
N
139.465 203 M
139.465 206.88 L
S
GR
GS
0.149 GC
2 setlinecap
1 LJ
0.5 LW
N
217.848 203 M
217.848 206.88 L
S
GR
GS
0.149 GC
2 setlinecap
1 LJ
0.5 LW
N
296.232 203 M
296.232 206.88 L
S
GR
GS
0.149 GC
2 setlinecap
1 LJ
0.5 LW
N
374.616 203 M
374.616 206.88 L
S
GR
GS
0.149 GC
2 setlinecap
1 LJ
0.5 LW
N
453 203 M
453 206.88 L
S
GR
GS
[1 0 0 1 139.46465 297.39999] CT
0.149 GC
/Times-Roman 22 F
GS
[1 0 0 1 0 0] CT
-11 20 moveto 
1 -1 scale
(20) t 
GR
GR
GS
[1 0 0 1 217.84848 297.39999] CT
0.149 GC
/Times-Roman 22 F
GS
[1 0 0 1 0 0] CT
-11 20 moveto 
1 -1 scale
(40) t 
GR
GR
GS
[1 0 0 1 296.23233 297.39999] CT
0.149 GC
/Times-Roman 22 F
GS
[1 0 0 1 0 0] CT
-11 20 moveto 
1 -1 scale
(60) t 
GR
GR
GS
[1 0 0 1 374.61615 297.39999] CT
0.149 GC
/Times-Roman 22 F
GS
[1 0 0 1 0 0] CT
-11 20 moveto 
1 -1 scale
(80) t 
GR
GR
GS
[1 0 0 1 453 297.39999] CT
0.149 GC
/Times-Roman 22 F
GS
[1 0 0 1 0 0] CT
-16.5 20 moveto 
1 -1 scale
(100) t 
GR
GR
GS
[1 0 0 1 259.00018 323.39999] CT
0.149 GC
/Times-Roman 24.2 F
GS
[1 0 0 1 0 0] CT
-57.5 22 moveto 
1 -1 scale
(TS iteration) t 
GR
GR
GS
0.149 GC
2 setlinecap
1 LJ
0.5 LW
N
65 291 M
65 203 L
S
GR
GS
0.149 GC
2 setlinecap
1 LJ
0.5 LW
N
453 291 M
453 203 L
S
GR
GS
0.149 GC
2 setlinecap
1 LJ
0.5 LW
N
65 291 M
68.88 291 L
S
GR
GS
0.149 GC
2 setlinecap
1 LJ
0.5 LW
N
65 255.674 M
68.88 255.674 L
S
GR
GS
0.149 GC
2 setlinecap
1 LJ
0.5 LW
N
65 220.349 M
68.88 220.349 L
S
GR
GS
0.149 GC
2 setlinecap
1 LJ
0.5 LW
N
453 291 M
449.12 291 L
S
GR
GS
0.149 GC
2 setlinecap
1 LJ
0.5 LW
N
453 255.674 M
449.12 255.674 L
S
GR
GS
0.149 GC
2 setlinecap
1 LJ
0.5 LW
N
453 220.349 M
449.12 220.349 L
S
GR
GS
[1 0 0 1 58.6 291] CT
0.149 GC
/Times-Roman 22 F
GS
[1 0 0 1 0 0] CT
-11 7.5 moveto 
1 -1 scale
(0) t 
GR
GR
GS
[1 0 0 1 58.6 255.67448] CT
0.149 GC
/Times-Roman 22 F
GS
[1 0 0 1 0 0] CT
-22 7.5 moveto 
1 -1 scale
(50) t 
GR
GR
GS
[1 0 0 1 58.6 220.34897] CT
0.149 GC
/Times-Roman 22 F
GS
[1 0 0 1 0 0] CT
-33 7.5 moveto 
1 -1 scale
(100) t 
GR
GR
GS
[0 -1 1 0 26.6 178.99995] CT
0.149 GC
/Times-Roman 24.2 F
GS
[1 0 0 1 0 0] CT
-96 -6 moveto 
1 -1 scale
(Throughput \(Mbps\)) t 
GR
GR
GS
[1 0 0 1 259.00024 196.95001] CT
/Times-Bold 24.2 F
GS
[1 0 0 1 0 0] CT
-49 -6 moveto 
1 -1 scale
(WLAN B) t 
GR
GR
GS
0 0.447 0.741 RC
1 LJ
N
65 264.559 M
68.919 264.559 L
72.838 264.559 L
76.758 291 L
80.677 291 L
84.596 291 L
88.515 251.7 L
92.434 251.7 L
96.354 251.7 L
100.273 251.7 L
104.192 251.7 L
108.111 251.7 L
112.03 251.7 L
115.949 271.006 L
119.869 251.7 L
123.788 251.7 L
127.707 251.7 L
131.626 251.7 L
135.545 251.7 L
139.465 251.7 L
143.384 251.7 L
147.303 251.7 L
151.222 251.7 L
155.141 251.7 L
159.061 251.7 L
162.98 251.7 L
166.899 251.7 L
170.818 271.006 L
174.737 271.006 L
178.657 251.7 L
182.576 251.7 L
186.495 251.7 L
190.414 251.7 L
194.333 251.7 L
198.253 251.7 L
202.172 251.7 L
206.091 251.7 L
210.01 251.7 L
213.929 251.7 L
217.848 251.7 L
221.768 251.7 L
225.687 251.7 L
229.606 290.953 L
233.525 290.953 L
237.444 286.542 L
241.364 286.542 L
245.283 286.542 L
249.202 251.7 L
253.121 251.7 L
257.04 251.7 L
260.96 251.7 L
264.879 251.7 L
268.798 251.7 L
272.717 251.7 L
276.636 251.7 L
280.556 251.7 L
284.475 251.7 L
288.394 251.7 L
292.313 251.7 L
296.232 251.7 L
300.152 251.7 L
304.071 251.7 L
307.99 251.7 L
311.909 251.7 L
315.828 251.7 L
319.747 251.7 L
323.667 251.7 L
327.586 251.7 L
331.505 251.7 L
335.424 251.7 L
339.343 251.7 L
343.263 251.7 L
347.182 251.7 L
351.101 251.7 L
355.02 251.7 L
358.939 251.7 L
362.859 251.7 L
366.778 251.7 L
370.697 251.7 L
374.616 251.7 L
378.535 251.7 L
382.455 251.7 L
386.374 251.7 L
390.293 251.7 L
394.212 251.7 L
398.131 271.006 L
402.051 271.006 L
405.97 251.7 L
409.889 251.7 L
413.808 251.7 L
417.727 251.7 L
421.646 251.7 L
425.566 251.7 L
429.485 251.7 L
433.404 251.7 L
437.323 251.7 L
441.242 271.006 L
445.162 271.006 L
449.081 271.006 L
453 271.006 L
S
GR
GS
1 0 0 RC
1 LJ
N
65 264.559 M
68.919 286.284 L
72.838 286.284 L
76.758 286.284 L
80.677 291 L
84.596 291 L
88.515 291 L
92.434 264.559 L
96.354 271.006 L
100.273 251.7 L
104.192 251.7 L
108.111 251.7 L
112.03 251.7 L
115.949 251.7 L
119.869 251.7 L
123.788 286.542 L
127.707 286.542 L
131.626 271.006 L
135.545 271.006 L
139.465 271.006 L
143.384 271.006 L
147.303 271.006 L
151.222 251.7 L
155.141 251.7 L
159.061 251.7 L
162.98 251.7 L
166.899 251.7 L
170.818 251.7 L
174.737 251.7 L
178.657 251.7 L
182.576 251.7 L
186.495 251.7 L
190.414 251.7 L
194.333 251.7 L
198.253 251.7 L
202.172 251.7 L
206.091 251.7 L
210.01 251.7 L
213.929 251.7 L
217.848 251.7 L
221.768 251.7 L
225.687 271.006 L
229.606 251.7 L
233.525 251.7 L
237.444 251.7 L
241.364 251.7 L
245.283 251.7 L
249.202 251.7 L
253.121 290.953 L
257.04 291 L
260.96 291 L
264.879 291 L
268.798 271.006 L
272.717 271.006 L
276.636 271.006 L
280.556 286.542 L
284.475 286.542 L
288.394 286.542 L
292.313 271.006 L
296.232 251.7 L
300.152 251.7 L
304.071 251.7 L
307.99 251.7 L
311.909 251.7 L
315.828 251.7 L
319.747 251.7 L
323.667 251.7 L
327.586 291 L
331.505 291 L
335.424 251.7 L
339.343 251.7 L
343.263 251.7 L
347.182 251.7 L
351.101 251.7 L
355.02 251.7 L
358.939 251.7 L
362.859 251.7 L
366.778 251.7 L
370.697 251.7 L
374.616 251.7 L
378.535 251.7 L
382.455 251.7 L
386.374 251.7 L
390.293 251.7 L
394.212 251.7 L
398.131 251.7 L
402.051 251.7 L
405.97 251.7 L
409.889 251.7 L
413.808 251.7 L
417.727 251.7 L
421.646 251.7 L
425.566 251.7 L
429.485 251.7 L
433.404 251.7 L
437.323 251.7 L
441.242 251.7 L
445.162 251.7 L
449.081 251.7 L
453 251.7 L
S
GR
GS
1 GC
N
485 222 M
485 167 L
326 167 L
326 222 L
cp
f
GR
GS
[1 0 0 1 363 181.63303] CT
/Times-Roman 22 F
GS
[1 0 0 1 0 0] CT
0 7.5 moveto 
1 -1 scale
(UBR known) t 
GR
GR
GS
0 0.447 0.741 RC
1 LJ
N
330 181.633 M
360 181.633 L
S
GR
GS
[1 0 0 1 363 207.36697] CT
/Times-Roman 22 F
GS
[1 0 0 1 0 0] CT
0 7.5 moveto 
1 -1 scale
(UBR approx.) t 
GR
GR
GS
1 0 0 RC
1 LJ
N
330 207.367 M
360 207.367 L
S
GR
GS
0.149 GC
10.0 ML
0.5 LW
N
326 222 M
326 167 L
485 167 L
485 222 L
cp
S
GR
%%Trailer
%%Pages: 1
%%EOF
