%!PS-Adobe-3.0 EPSF-3.0
%%Creator: (MATLAB, The Mathworks, Inc. Version 9.3.0.713579 \(R2017b\). Operating System: Mac OS X)
%%Title: (/Users/franciscowilhelmi/workspace/papers/selfish_vs_informed_spatial_reuse/Results/Part 1 - Learning implications/1.2 Clustering benefits/clustering_benefits_100it.eps)
%%CreationDate: 2018-05-18T11:32:04
%%Pages: (atend)
%%BoundingBox: 0 0 500 350
%%LanguageLevel: 3
%%EndComments
%%BeginProlog
%%BeginResource: procset (Apache XML Graphics Std ProcSet) 1.2 0
%%Version: 1.2 0
%%Copyright: (Copyright 2001-2003,2010 The Apache Software Foundation. License terms: http://www.apache.org/licenses/LICENSE-2.0)
/bd{bind def}bind def
/ld{load def}bd
/GR/grestore ld
/GS/gsave ld
/RM/rmoveto ld
/C/curveto ld
/t/show ld
/L/lineto ld
/ML/setmiterlimit ld
/CT/concat ld
/f/fill ld
/N/newpath ld
/S/stroke ld
/CC/setcmykcolor ld
/A/ashow ld
/cp/closepath ld
/RC/setrgbcolor ld
/LJ/setlinejoin ld
/GC/setgray ld
/LW/setlinewidth ld
/M/moveto ld
/re {4 2 roll M
1 index 0 rlineto
0 exch rlineto
neg 0 rlineto
cp } bd
/_ctm matrix def
/_tm matrix def
/BT { _ctm currentmatrix pop matrix _tm copy pop 0 0 moveto } bd
/ET { _ctm setmatrix } bd
/iTm { _ctm setmatrix _tm concat } bd
/Tm { _tm astore pop iTm 0 0 moveto } bd
/ux 0.0 def
/uy 0.0 def
/F {
  /Tp exch def
  /Tf exch def
  Tf findfont Tp scalefont setfont
  /cf Tf def  /cs Tp def
} bd
/ULS {currentpoint /uy exch def /ux exch def} bd
/ULE {
  /Tcx currentpoint pop def
  gsave
  newpath
  cf findfont cs scalefont dup
  /FontMatrix get 0 get /Ts exch def /FontInfo get dup
  /UnderlinePosition get Ts mul /To exch def
  /UnderlineThickness get Ts mul /Tt exch def
  ux uy To add moveto  Tcx uy To add lineto
  Tt setlinewidth stroke
  grestore
} bd
/OLE {
  /Tcx currentpoint pop def
  gsave
  newpath
  cf findfont cs scalefont dup
  /FontMatrix get 0 get /Ts exch def /FontInfo get dup
  /UnderlinePosition get Ts mul /To exch def
  /UnderlineThickness get Ts mul /Tt exch def
  ux uy To add cs add moveto Tcx uy To add cs add lineto
  Tt setlinewidth stroke
  grestore
} bd
/SOE {
  /Tcx currentpoint pop def
  gsave
  newpath
  cf findfont cs scalefont dup
  /FontMatrix get 0 get /Ts exch def /FontInfo get dup
  /UnderlinePosition get Ts mul /To exch def
  /UnderlineThickness get Ts mul /Tt exch def
  ux uy To add cs 10 mul 26 idiv add moveto Tcx uy To add cs 10 mul 26 idiv add lineto
  Tt setlinewidth stroke
  grestore
} bd
/QT {
/Y22 exch store
/X22 exch store
/Y21 exch store
/X21 exch store
currentpoint
/Y21 load 2 mul add 3 div exch
/X21 load 2 mul add 3 div exch
/X21 load 2 mul /X22 load add 3 div
/Y21 load 2 mul /Y22 load add 3 div
/X22 load /Y22 load curveto
} bd
/SSPD {
dup length /d exch dict def
{
/v exch def
/k exch def
currentpagedevice k known {
/cpdv currentpagedevice k get def
v cpdv ne {
/upd false def
/nullv v type /nulltype eq def
/nullcpdv cpdv type /nulltype eq def
nullv nullcpdv or
{
/upd true def
} {
/sametype v type cpdv type eq def
sametype {
v type /arraytype eq {
/vlen v length def
/cpdvlen cpdv length def
vlen cpdvlen eq {
0 1 vlen 1 sub {
/i exch def
/obj v i get def
/cpdobj cpdv i get def
obj cpdobj ne {
/upd true def
exit
} if
} for
} {
/upd true def
} ifelse
} {
v type /dicttype eq {
v {
/dv exch def
/dk exch def
/cpddv cpdv dk get def
dv cpddv ne {
/upd true def
exit
} if
} forall
} {
/upd true def
} ifelse
} ifelse
} if
} ifelse
upd true eq {
d k v put
} if
} if
} if
} forall
d length 0 gt {
d setpagedevice
} if
} bd
/RE { % /NewFontName [NewEncodingArray] /FontName RE -
  findfont dup length dict begin
  {
    1 index /FID ne
    {def} {pop pop} ifelse
  } forall
  /Encoding exch def
  /FontName 1 index def
  currentdict definefont pop
  end
} bind def
%%EndResource
%%BeginResource: procset (Apache XML Graphics EPS ProcSet) 1.0 0
%%Version: 1.0 0
%%Copyright: (Copyright 2002-2003 The Apache Software Foundation. License terms: http://www.apache.org/licenses/LICENSE-2.0)
/BeginEPSF { %def
/b4_Inc_state save def         % Save state for cleanup
/dict_count countdictstack def % Count objects on dict stack
/op_count count 1 sub def      % Count objects on operand stack
userdict begin                 % Push userdict on dict stack
/showpage { } def              % Redefine showpage, { } = null proc
0 setgray 0 setlinecap         % Prepare graphics state
1 setlinewidth 0 setlinejoin
10 setmiterlimit [ ] 0 setdash newpath
/languagelevel where           % If level not equal to 1 then
{pop languagelevel             % set strokeadjust and
1 ne                           % overprint to their defaults.
{false setstrokeadjust false setoverprint
} if
} if
} bd
/EndEPSF { %def
count op_count sub {pop} repeat            % Clean up stacks
countdictstack dict_count sub {end} repeat
b4_Inc_state restore
} bd
%%EndResource
%FOPBeginFontDict
%%IncludeResource: font Courier-Oblique
%%IncludeResource: font Courier-BoldOblique
%%IncludeResource: font Courier-Bold
%%IncludeResource: font ZapfDingbats
%%IncludeResource: font Symbol
%%IncludeResource: font Helvetica
%%IncludeResource: font Helvetica-Oblique
%%IncludeResource: font Helvetica-Bold
%%IncludeResource: font Helvetica-BoldOblique
%%IncludeResource: font Times-Roman
%%IncludeResource: font Times-Italic
%%IncludeResource: font Times-Bold
%%IncludeResource: font Times-BoldItalic
%%IncludeResource: font Courier
%FOPEndFontDict
%%BeginResource: encoding WinAnsiEncoding
/WinAnsiEncoding [
/.notdef /.notdef /.notdef /.notdef /.notdef
/.notdef /.notdef /.notdef /.notdef /.notdef
/.notdef /.notdef /.notdef /.notdef /.notdef
/.notdef /.notdef /.notdef /.notdef /.notdef
/.notdef /.notdef /.notdef /.notdef /.notdef
/.notdef /.notdef /.notdef /.notdef /.notdef
/.notdef /.notdef /space /exclam /quotedbl
/numbersign /dollar /percent /ampersand /quotesingle
/parenleft /parenright /asterisk /plus /comma
/hyphen /period /slash /zero /one
/two /three /four /five /six
/seven /eight /nine /colon /semicolon
/less /equal /greater /question /at
/A /B /C /D /E
/F /G /H /I /J
/K /L /M /N /O
/P /Q /R /S /T
/U /V /W /X /Y
/Z /bracketleft /backslash /bracketright /asciicircum
/underscore /quoteleft /a /b /c
/d /e /f /g /h
/i /j /k /l /m
/n /o /p /q /r
/s /t /u /v /w
/x /y /z /braceleft /bar
/braceright /asciitilde /bullet /Euro /bullet
/quotesinglbase /florin /quotedblbase /ellipsis /dagger
/daggerdbl /circumflex /perthousand /Scaron /guilsinglleft
/OE /bullet /Zcaron /bullet /bullet
/quoteleft /quoteright /quotedblleft /quotedblright /bullet
/endash /emdash /asciitilde /trademark /scaron
/guilsinglright /oe /bullet /zcaron /Ydieresis
/space /exclamdown /cent /sterling /currency
/yen /brokenbar /section /dieresis /copyright
/ordfeminine /guillemotleft /logicalnot /sfthyphen /registered
/macron /degree /plusminus /twosuperior /threesuperior
/acute /mu /paragraph /middot /cedilla
/onesuperior /ordmasculine /guillemotright /onequarter /onehalf
/threequarters /questiondown /Agrave /Aacute /Acircumflex
/Atilde /Adieresis /Aring /AE /Ccedilla
/Egrave /Eacute /Ecircumflex /Edieresis /Igrave
/Iacute /Icircumflex /Idieresis /Eth /Ntilde
/Ograve /Oacute /Ocircumflex /Otilde /Odieresis
/multiply /Oslash /Ugrave /Uacute /Ucircumflex
/Udieresis /Yacute /Thorn /germandbls /agrave
/aacute /acircumflex /atilde /adieresis /aring
/ae /ccedilla /egrave /eacute /ecircumflex
/edieresis /igrave /iacute /icircumflex /idieresis
/eth /ntilde /ograve /oacute /ocircumflex
/otilde /odieresis /divide /oslash /ugrave
/uacute /ucircumflex /udieresis /yacute /thorn
/ydieresis
] def
%%EndResource
%FOPBeginFontReencode
/Courier-Oblique findfont
dup length dict begin
  {1 index /FID ne {def} {pop pop} ifelse} forall
  /Encoding WinAnsiEncoding def
  currentdict
end
/Courier-Oblique exch definefont pop
/Courier-BoldOblique findfont
dup length dict begin
  {1 index /FID ne {def} {pop pop} ifelse} forall
  /Encoding WinAnsiEncoding def
  currentdict
end
/Courier-BoldOblique exch definefont pop
/Courier-Bold findfont
dup length dict begin
  {1 index /FID ne {def} {pop pop} ifelse} forall
  /Encoding WinAnsiEncoding def
  currentdict
end
/Courier-Bold exch definefont pop
/Helvetica findfont
dup length dict begin
  {1 index /FID ne {def} {pop pop} ifelse} forall
  /Encoding WinAnsiEncoding def
  currentdict
end
/Helvetica exch definefont pop
/Helvetica-Oblique findfont
dup length dict begin
  {1 index /FID ne {def} {pop pop} ifelse} forall
  /Encoding WinAnsiEncoding def
  currentdict
end
/Helvetica-Oblique exch definefont pop
/Helvetica-Bold findfont
dup length dict begin
  {1 index /FID ne {def} {pop pop} ifelse} forall
  /Encoding WinAnsiEncoding def
  currentdict
end
/Helvetica-Bold exch definefont pop
/Helvetica-BoldOblique findfont
dup length dict begin
  {1 index /FID ne {def} {pop pop} ifelse} forall
  /Encoding WinAnsiEncoding def
  currentdict
end
/Helvetica-BoldOblique exch definefont pop
/Times-Roman findfont
dup length dict begin
  {1 index /FID ne {def} {pop pop} ifelse} forall
  /Encoding WinAnsiEncoding def
  currentdict
end
/Times-Roman exch definefont pop
/Times-Italic findfont
dup length dict begin
  {1 index /FID ne {def} {pop pop} ifelse} forall
  /Encoding WinAnsiEncoding def
  currentdict
end
/Times-Italic exch definefont pop
/Times-Bold findfont
dup length dict begin
  {1 index /FID ne {def} {pop pop} ifelse} forall
  /Encoding WinAnsiEncoding def
  currentdict
end
/Times-Bold exch definefont pop
/Times-BoldItalic findfont
dup length dict begin
  {1 index /FID ne {def} {pop pop} ifelse} forall
  /Encoding WinAnsiEncoding def
  currentdict
end
/Times-BoldItalic exch definefont pop
/Courier findfont
dup length dict begin
  {1 index /FID ne {def} {pop pop} ifelse} forall
  /Encoding WinAnsiEncoding def
  currentdict
end
/Courier exch definefont pop
%FOPEndFontReencode
%%EndProlog
%%Page: 1 1
%%PageBoundingBox: 0 0 500 350
%%BeginPageSetup
[1 0 0 -1 0 350] CT
%%EndPageSetup
GS
1 GC
N
0 0 500 350 re
f
GR
GS
1 GC
N
0 0 500 350 re
f
GR
GS
1 GC
N
65 124 M
453 124 L
453 34 L
65 34 L
cp
f
GR
GS
0.873 GC
1 LJ
0.5 LW
N
65 124 M
65 34 L
S
GR
GS
0.873 GC
1 LJ
0.5 LW
N
142.6 124 M
142.6 34 L
S
GR
GS
0.873 GC
1 LJ
0.5 LW
N
220.2 124 M
220.2 34 L
S
GR
GS
0.873 GC
1 LJ
0.5 LW
N
297.8 124 M
297.8 34 L
S
GR
GS
0.873 GC
1 LJ
0.5 LW
N
375.4 124 M
375.4 34 L
S
GR
GS
0.873 GC
1 LJ
0.5 LW
N
453 124 M
453 34 L
S
GR
GS
0.873 GC
1 LJ
0.5 LW
N
453 124 M
65 124 L
S
GR
GS
0.873 GC
1 LJ
0.5 LW
N
453 79 M
65 79 L
S
GR
GS
0.873 GC
1 LJ
0.5 LW
N
453 34 M
65 34 L
S
GR
GS
0.149 GC
2 setlinecap
1 LJ
0.5 LW
N
65 124 M
453 124 L
S
GR
GS
0.149 GC
2 setlinecap
1 LJ
0.5 LW
N
65 34 M
453 34 L
S
GR
GS
0.149 GC
2 setlinecap
1 LJ
0.5 LW
N
65 124 M
65 120.12 L
S
GR
GS
0.149 GC
2 setlinecap
1 LJ
0.5 LW
N
142.6 124 M
142.6 120.12 L
S
GR
GS
0.149 GC
2 setlinecap
1 LJ
0.5 LW
N
220.2 124 M
220.2 120.12 L
S
GR
GS
0.149 GC
2 setlinecap
1 LJ
0.5 LW
N
297.8 124 M
297.8 120.12 L
S
GR
GS
0.149 GC
2 setlinecap
1 LJ
0.5 LW
N
375.4 124 M
375.4 120.12 L
S
GR
GS
0.149 GC
2 setlinecap
1 LJ
0.5 LW
N
453 124 M
453 120.12 L
S
GR
GS
0.149 GC
2 setlinecap
1 LJ
0.5 LW
N
65 34 M
65 37.88 L
S
GR
GS
0.149 GC
2 setlinecap
1 LJ
0.5 LW
N
142.6 34 M
142.6 37.88 L
S
GR
GS
0.149 GC
2 setlinecap
1 LJ
0.5 LW
N
220.2 34 M
220.2 37.88 L
S
GR
GS
0.149 GC
2 setlinecap
1 LJ
0.5 LW
N
297.8 34 M
297.8 37.88 L
S
GR
GS
0.149 GC
2 setlinecap
1 LJ
0.5 LW
N
375.4 34 M
375.4 37.88 L
S
GR
GS
0.149 GC
2 setlinecap
1 LJ
0.5 LW
N
453 34 M
453 37.88 L
S
GR
GS
[1 0 0 1 65 130.39999] CT
0.149 GC
/Times-Roman 22 F
GS
[1 0 0 1 0 0] CT
-5.5 20 moveto 
1 -1 scale
(0) t 
GR
GR
GS
[1 0 0 1 142.60001 130.39999] CT
0.149 GC
/Times-Roman 22 F
GS
[1 0 0 1 0 0] CT
-11 20 moveto 
1 -1 scale
(20) t 
GR
GR
GS
[1 0 0 1 220.2 130.39999] CT
0.149 GC
/Times-Roman 22 F
GS
[1 0 0 1 0 0] CT
-11 20 moveto 
1 -1 scale
(40) t 
GR
GR
GS
[1 0 0 1 297.79999 130.39999] CT
0.149 GC
/Times-Roman 22 F
GS
[1 0 0 1 0 0] CT
-11 20 moveto 
1 -1 scale
(60) t 
GR
GR
GS
[1 0 0 1 375.39999 130.39999] CT
0.149 GC
/Times-Roman 22 F
GS
[1 0 0 1 0 0] CT
-11 20 moveto 
1 -1 scale
(80) t 
GR
GR
GS
[1 0 0 1 453 130.39999] CT
0.149 GC
/Times-Roman 22 F
GS
[1 0 0 1 0 0] CT
-16.5 20 moveto 
1 -1 scale
(100) t 
GR
GR
GS
0.149 GC
2 setlinecap
1 LJ
0.5 LW
N
65 124 M
65 34 L
S
GR
GS
0.149 GC
2 setlinecap
1 LJ
0.5 LW
N
453 124 M
453 34 L
S
GR
GS
0.149 GC
2 setlinecap
1 LJ
0.5 LW
N
65 124 M
68.88 124 L
S
GR
GS
0.149 GC
2 setlinecap
1 LJ
0.5 LW
N
65 79 M
68.88 79 L
S
GR
GS
0.149 GC
2 setlinecap
1 LJ
0.5 LW
N
65 34 M
68.88 34 L
S
GR
GS
0.149 GC
2 setlinecap
1 LJ
0.5 LW
N
453 124 M
449.12 124 L
S
GR
GS
0.149 GC
2 setlinecap
1 LJ
0.5 LW
N
453 79 M
449.12 79 L
S
GR
GS
0.149 GC
2 setlinecap
1 LJ
0.5 LW
N
453 34 M
449.12 34 L
S
GR
GS
[1 0 0 1 58.6 124] CT
0.149 GC
/Times-Roman 22 F
GS
[1 0 0 1 0 0] CT
-22 7.5 moveto 
1 -1 scale
(50) t 
GR
GR
GS
[1 0 0 1 58.6 79] CT
0.149 GC
/Times-Roman 22 F
GS
[1 0 0 1 0 0] CT
-33 7.5 moveto 
1 -1 scale
(100) t 
GR
GR
GS
[1 0 0 1 58.6 34] CT
0.149 GC
/Times-Roman 22 F
GS
[1 0 0 1 0 0] CT
-33 7.5 moveto 
1 -1 scale
(150) t 
GR
GR
GS
[0 -1 1 0 25.13786 177.99995] CT
0.149 GC
/Times-Roman 24.2 F
GS
[1 0 0 1 0 0] CT
-96 -6 moveto 
1 -1 scale
(Throughput \(Mbps\)) t 
GR
GR
GS
[1 0 0 1 259.00024 27.94999] CT
/Times-Bold 24.2 F
GS
[1 0 0 1 0 0] CT
-49.5 -6 moveto 
1 -1 scale
(WLAN A) t 
GR
GR
GS
0 0.447 0.741 RC
1 LJ
0.5 LW
N
68.88 67.091 M
72.76 67.091 L
76.64 112.816 L
80.52 67.091 L
84.4 67.091 L
88.28 112.816 L
92.16 67.091 L
96.04 112.816 L
99.92 112.816 L
103.8 67.091 L
107.68 112.816 L
111.56 112.816 L
115.44 112.816 L
119.32 67.091 L
123.2 112.816 L
127.08 112.816 L
130.96 112.816 L
134.84 112.816 L
138.72 67.091 L
142.6 112.816 L
146.48 112.816 L
150.36 112.816 L
154.24 112.816 L
158.12 67.091 L
162 112.816 L
165.88 112.816 L
169.76 112.816 L
173.64 67.091 L
177.52 67.091 L
181.4 112.816 L
185.28 112.816 L
189.16 112.816 L
193.04 112.816 L
196.92 112.816 L
200.8 112.816 L
204.68 112.816 L
208.56 67.091 L
212.44 112.816 L
216.32 112.816 L
220.2 112.816 L
224.08 112.816 L
227.96 67.091 L
231.84 112.816 L
235.72 67.091 L
239.6 112.816 L
243.48 67.091 L
247.36 112.816 L
251.24 112.816 L
255.12 67.091 L
259 67.091 L
262.88 112.816 L
266.76 112.816 L
270.64 112.816 L
274.52 67.091 L
278.4 67.091 L
282.28 67.091 L
286.16 112.816 L
290.04 67.091 L
293.92 112.816 L
297.8 67.091 L
301.68 112.816 L
305.56 112.816 L
309.44 67.091 L
313.32 112.816 L
317.2 67.091 L
321.08 67.091 L
324.96 67.091 L
328.84 67.091 L
332.72 67.091 L
336.6 67.091 L
340.48 112.816 L
344.36 67.091 L
348.24 67.091 L
352.12 67.091 L
356 67.091 L
359.88 112.816 L
363.76 67.091 L
367.64 67.091 L
371.52 67.091 L
375.4 67.091 L
379.28 67.091 L
383.16 67.091 L
387.04 67.091 L
390.92 67.091 L
394.8 67.091 L
398.68 67.091 L
402.56 67.091 L
406.44 67.091 L
410.32 67.091 L
414.2 67.091 L
418.08 67.091 L
421.96 112.816 L
425.84 67.091 L
429.72 112.816 L
433.6 67.091 L
437.48 112.816 L
441.36 67.091 L
445.24 112.816 L
449.12 67.091 L
453 67.091 L
S
GR
GS
1 0 0 RC
1 LJ
0.5 LW
N
68.88 67.091 M
72.76 112.816 L
76.64 112.816 L
80.52 112.816 L
84.4 112.816 L
88.28 112.816 L
92.16 67.091 L
96.04 67.091 L
99.92 67.091 L
103.8 67.091 L
107.68 67.091 L
111.56 67.091 L
115.44 67.091 L
119.32 67.091 L
123.2 67.091 L
127.08 67.091 L
130.96 67.091 L
134.84 67.091 L
138.72 67.091 L
142.6 67.091 L
146.48 67.091 L
150.36 67.091 L
154.24 67.091 L
158.12 67.091 L
162 67.091 L
165.88 67.091 L
169.76 67.091 L
173.64 67.091 L
177.52 67.091 L
181.4 112.816 L
185.28 112.816 L
189.16 112.816 L
193.04 67.091 L
196.92 67.091 L
200.8 67.091 L
204.68 67.091 L
208.56 67.091 L
212.44 67.091 L
216.32 67.091 L
220.2 67.091 L
224.08 67.091 L
227.96 67.091 L
231.84 67.091 L
235.72 67.091 L
239.6 67.091 L
243.48 67.091 L
247.36 67.091 L
251.24 67.091 L
255.12 67.091 L
259 67.091 L
262.88 67.091 L
266.76 67.091 L
270.64 67.091 L
274.52 67.091 L
278.4 67.091 L
282.28 67.091 L
286.16 67.091 L
290.04 67.091 L
293.92 67.091 L
297.8 67.091 L
301.68 67.091 L
305.56 67.091 L
309.44 67.091 L
313.32 67.091 L
317.2 67.091 L
321.08 67.091 L
324.96 67.091 L
328.84 67.091 L
332.72 67.091 L
336.6 67.091 L
340.48 67.091 L
344.36 67.091 L
348.24 67.091 L
352.12 67.091 L
356 67.091 L
359.88 67.091 L
363.76 67.091 L
367.64 67.091 L
371.52 67.091 L
375.4 67.091 L
379.28 67.091 L
383.16 67.091 L
387.04 67.091 L
390.92 67.091 L
394.8 67.091 L
398.68 67.091 L
402.56 67.091 L
406.44 67.091 L
410.32 67.091 L
414.2 67.091 L
418.08 67.091 L
421.96 67.091 L
425.84 67.091 L
429.72 67.091 L
433.6 67.091 L
437.48 67.091 L
441.36 67.091 L
445.24 67.091 L
449.12 67.091 L
453 67.091 L
S
GR
GS
1 GC
N
65 290 M
453 290 L
453 200 L
65 200 L
cp
f
GR
GS
0.873 GC
1 LJ
0.5 LW
N
65 290 M
65 200 L
S
GR
GS
0.873 GC
1 LJ
0.5 LW
N
142.6 290 M
142.6 200 L
S
GR
GS
0.873 GC
1 LJ
0.5 LW
N
220.2 290 M
220.2 200 L
S
GR
GS
0.873 GC
1 LJ
0.5 LW
N
297.8 290 M
297.8 200 L
S
GR
GS
0.873 GC
1 LJ
0.5 LW
N
375.4 290 M
375.4 200 L
S
GR
GS
0.873 GC
1 LJ
0.5 LW
N
453 290 M
453 200 L
S
GR
GS
0.873 GC
1 LJ
0.5 LW
N
453 290 M
65 290 L
S
GR
GS
0.873 GC
1 LJ
0.5 LW
N
453 245 M
65 245 L
S
GR
GS
0.873 GC
1 LJ
0.5 LW
N
453 200 M
65 200 L
S
GR
GS
0.149 GC
2 setlinecap
1 LJ
0.5 LW
N
65 290 M
453 290 L
S
GR
GS
0.149 GC
2 setlinecap
1 LJ
0.5 LW
N
65 200 M
453 200 L
S
GR
GS
0.149 GC
2 setlinecap
1 LJ
0.5 LW
N
65 290 M
65 286.12 L
S
GR
GS
0.149 GC
2 setlinecap
1 LJ
0.5 LW
N
142.6 290 M
142.6 286.12 L
S
GR
GS
0.149 GC
2 setlinecap
1 LJ
0.5 LW
N
220.2 290 M
220.2 286.12 L
S
GR
GS
0.149 GC
2 setlinecap
1 LJ
0.5 LW
N
297.8 290 M
297.8 286.12 L
S
GR
GS
0.149 GC
2 setlinecap
1 LJ
0.5 LW
N
375.4 290 M
375.4 286.12 L
S
GR
GS
0.149 GC
2 setlinecap
1 LJ
0.5 LW
N
453 290 M
453 286.12 L
S
GR
GS
0.149 GC
2 setlinecap
1 LJ
0.5 LW
N
65 200 M
65 203.88 L
S
GR
GS
0.149 GC
2 setlinecap
1 LJ
0.5 LW
N
142.6 200 M
142.6 203.88 L
S
GR
GS
0.149 GC
2 setlinecap
1 LJ
0.5 LW
N
220.2 200 M
220.2 203.88 L
S
GR
GS
0.149 GC
2 setlinecap
1 LJ
0.5 LW
N
297.8 200 M
297.8 203.88 L
S
GR
GS
0.149 GC
2 setlinecap
1 LJ
0.5 LW
N
375.4 200 M
375.4 203.88 L
S
GR
GS
0.149 GC
2 setlinecap
1 LJ
0.5 LW
N
453 200 M
453 203.88 L
S
GR
GS
[1 0 0 1 65 296.39999] CT
0.149 GC
/Times-Roman 22 F
GS
[1 0 0 1 0 0] CT
-5.5 20 moveto 
1 -1 scale
(0) t 
GR
GR
GS
[1 0 0 1 142.60001 296.39999] CT
0.149 GC
/Times-Roman 22 F
GS
[1 0 0 1 0 0] CT
-11 20 moveto 
1 -1 scale
(20) t 
GR
GR
GS
[1 0 0 1 220.2 296.39999] CT
0.149 GC
/Times-Roman 22 F
GS
[1 0 0 1 0 0] CT
-11 20 moveto 
1 -1 scale
(40) t 
GR
GR
GS
[1 0 0 1 297.79999 296.39999] CT
0.149 GC
/Times-Roman 22 F
GS
[1 0 0 1 0 0] CT
-11 20 moveto 
1 -1 scale
(60) t 
GR
GR
GS
[1 0 0 1 375.39999 296.39999] CT
0.149 GC
/Times-Roman 22 F
GS
[1 0 0 1 0 0] CT
-11 20 moveto 
1 -1 scale
(80) t 
GR
GR
GS
[1 0 0 1 453 296.39999] CT
0.149 GC
/Times-Roman 22 F
GS
[1 0 0 1 0 0] CT
-16.5 20 moveto 
1 -1 scale
(100) t 
GR
GR
GS
[1 0 0 1 259.00018 322.39999] CT
0.149 GC
/Times-Roman 24.2 F
GS
[1 0 0 1 0 0] CT
-57.5 22 moveto 
1 -1 scale
(TS iteration) t 
GR
GR
GS
0.149 GC
2 setlinecap
1 LJ
0.5 LW
N
65 290 M
65 200 L
S
GR
GS
0.149 GC
2 setlinecap
1 LJ
0.5 LW
N
453 290 M
453 200 L
S
GR
GS
0.149 GC
2 setlinecap
1 LJ
0.5 LW
N
65 290 M
68.88 290 L
S
GR
GS
0.149 GC
2 setlinecap
1 LJ
0.5 LW
N
65 245 M
68.88 245 L
S
GR
GS
0.149 GC
2 setlinecap
1 LJ
0.5 LW
N
65 200 M
68.88 200 L
S
GR
GS
0.149 GC
2 setlinecap
1 LJ
0.5 LW
N
453 290 M
449.12 290 L
S
GR
GS
0.149 GC
2 setlinecap
1 LJ
0.5 LW
N
453 245 M
449.12 245 L
S
GR
GS
0.149 GC
2 setlinecap
1 LJ
0.5 LW
N
453 200 M
449.12 200 L
S
GR
GS
[1 0 0 1 58.6 290] CT
0.149 GC
/Times-Roman 22 F
GS
[1 0 0 1 0 0] CT
-11 7.5 moveto 
1 -1 scale
(0) t 
GR
GR
GS
[1 0 0 1 58.6 245] CT
0.149 GC
/Times-Roman 22 F
GS
[1 0 0 1 0 0] CT
-22 7.5 moveto 
1 -1 scale
(50) t 
GR
GR
GS
[1 0 0 1 58.6 200] CT
0.149 GC
/Times-Roman 22 F
GS
[1 0 0 1 0 0] CT
-33 7.5 moveto 
1 -1 scale
(100) t 
GR
GR
GS
[1 0 0 1 261.00024 193.19376] CT
/Times-Bold 24.2 F
GS
[1 0 0 1 0 0] CT
-49 -6 moveto 
1 -1 scale
(WLAN B) t 
GR
GR
GS
0 0.447 0.741 RC
1 LJ
0.5 LW
N
68.88 239.937 M
72.76 283.621 L
76.64 239.937 L
80.52 290 L
84.4 290 L
88.28 239.937 L
92.16 239.937 L
96.04 239.937 L
99.92 239.937 L
103.8 239.937 L
107.68 239.937 L
111.56 239.937 L
115.44 239.937 L
119.32 239.937 L
123.2 239.937 L
127.08 239.937 L
130.96 239.937 L
134.84 239.937 L
138.72 239.937 L
142.6 239.937 L
146.48 239.937 L
150.36 239.937 L
154.24 239.937 L
158.12 239.937 L
162 239.937 L
165.88 283.621 L
169.76 239.937 L
173.64 239.937 L
177.52 239.937 L
181.4 239.937 L
185.28 239.937 L
189.16 239.937 L
193.04 239.937 L
196.92 239.937 L
200.8 239.937 L
204.68 239.937 L
208.56 239.937 L
212.44 239.937 L
216.32 290 L
220.2 283.621 L
224.08 239.937 L
227.96 239.937 L
231.84 239.937 L
235.72 239.937 L
239.6 239.937 L
243.48 239.937 L
247.36 283.621 L
251.24 239.937 L
255.12 239.937 L
259 239.937 L
262.88 239.937 L
266.76 239.937 L
270.64 239.937 L
274.52 239.937 L
278.4 239.937 L
282.28 239.937 L
286.16 239.937 L
290.04 239.937 L
293.92 239.937 L
297.8 239.937 L
301.68 239.937 L
305.56 239.937 L
309.44 239.937 L
313.32 239.937 L
317.2 239.937 L
321.08 239.937 L
324.96 239.937 L
328.84 239.937 L
332.72 239.937 L
336.6 239.937 L
340.48 239.937 L
344.36 239.937 L
348.24 239.937 L
352.12 239.937 L
356 239.937 L
359.88 239.937 L
363.76 239.937 L
367.64 239.937 L
371.52 239.937 L
375.4 239.937 L
379.28 239.937 L
383.16 239.937 L
387.04 239.937 L
390.92 239.937 L
394.8 239.937 L
398.68 239.937 L
402.56 239.937 L
406.44 239.937 L
410.32 239.937 L
414.2 290 L
418.08 283.621 L
421.96 239.937 L
425.84 239.937 L
429.72 239.937 L
433.6 239.937 L
437.48 239.937 L
441.36 239.937 L
445.24 239.937 L
449.12 239.937 L
453 239.937 L
S
GR
GS
1 0 0 RC
1 LJ
0.5 LW
N
68.88 239.937 M
72.76 239.937 L
76.64 239.937 L
80.52 290 L
84.4 290 L
88.28 239.937 L
92.16 239.937 L
96.04 239.937 L
99.92 239.937 L
103.8 239.937 L
107.68 239.937 L
111.56 239.937 L
115.44 239.937 L
119.32 239.937 L
123.2 239.937 L
127.08 239.937 L
130.96 239.937 L
134.84 239.937 L
138.72 283.621 L
142.6 239.937 L
146.48 239.937 L
150.36 239.937 L
154.24 239.937 L
158.12 239.937 L
162 239.937 L
165.88 239.937 L
169.76 239.937 L
173.64 239.937 L
177.52 283.621 L
181.4 283.621 L
185.28 283.621 L
189.16 239.937 L
193.04 239.937 L
196.92 239.937 L
200.8 239.937 L
204.68 239.937 L
208.56 239.937 L
212.44 239.937 L
216.32 239.937 L
220.2 239.937 L
224.08 239.937 L
227.96 239.937 L
231.84 239.937 L
235.72 239.937 L
239.6 239.937 L
243.48 239.937 L
247.36 239.937 L
251.24 239.937 L
255.12 239.937 L
259 239.937 L
262.88 239.937 L
266.76 239.937 L
270.64 239.937 L
274.52 239.937 L
278.4 239.937 L
282.28 239.937 L
286.16 239.937 L
290.04 239.937 L
293.92 239.937 L
297.8 239.937 L
301.68 239.937 L
305.56 290 L
309.44 290 L
313.32 239.937 L
317.2 239.937 L
321.08 239.937 L
324.96 239.937 L
328.84 239.937 L
332.72 239.937 L
336.6 239.937 L
340.48 239.937 L
344.36 239.937 L
348.24 239.937 L
352.12 239.937 L
356 239.937 L
359.88 239.937 L
363.76 239.937 L
367.64 239.937 L
371.52 239.937 L
375.4 239.937 L
379.28 239.937 L
383.16 239.937 L
387.04 239.937 L
390.92 239.937 L
394.8 239.937 L
398.68 239.937 L
402.56 239.937 L
406.44 239.937 L
410.32 239.937 L
414.2 239.937 L
418.08 239.937 L
421.96 239.937 L
425.84 239.937 L
429.72 239.937 L
433.6 239.937 L
437.48 239.937 L
441.36 239.937 L
445.24 239.937 L
449.12 239.937 L
453 239.937 L
S
GR
GS
1 GC
N
478 222 M
478 172 L
329 172 L
329 222 L
cp
f
GR
GS
[1 0 0 1 373 185.36633] CT
/Times-Roman 19.8 F
GS
[1 0 0 1 0 0] CT
0 6.5 moveto 
1 -1 scale
(Long-range) t 
GR
GR
GS
0 0.447 0.741 RC
1 LJ
0.5 LW
N
340 185.366 M
370 185.366 L
S
GR
GS
[1 0 0 1 373 208.63367] CT
/Times-Roman 19.8 F
GS
[1 0 0 1 0 0] CT
0 6.5 moveto 
1 -1 scale
(Short-range) t 
GR
GR
GS
1 0 0 RC
1 LJ
0.5 LW
N
340 208.634 M
370 208.634 L
S
GR
GS
0.149 GC
10.0 ML
0.5 LW
N
329 222 M
329 172 L
478 172 L
478 222 L
cp
S
GR
%%Trailer
%%Pages: 1
%%EOF
