%!PS-Adobe-3.0 EPSF-3.0
%%Creator: (MATLAB, The Mathworks, Inc. Version 9.3.0.713579 \(R2017b\). Operating System: Mac OS X)
%%Title: (/Users/franciscowilhelmi/workspace/papers/selfish_vs_informed_spatial_reuse/Results/Part 1 - Learning implications/1.3 Clustering issues/clustering_additive_interference.eps)
%%CreationDate: 2018-05-18T11:50:36
%%Pages: (atend)
%%BoundingBox: 0 0 500 350
%%LanguageLevel: 3
%%EndComments
%%BeginProlog
%%BeginResource: procset (Apache XML Graphics Std ProcSet) 1.2 0
%%Version: 1.2 0
%%Copyright: (Copyright 2001-2003,2010 The Apache Software Foundation. License terms: http://www.apache.org/licenses/LICENSE-2.0)
/bd{bind def}bind def
/ld{load def}bd
/GR/grestore ld
/GS/gsave ld
/RM/rmoveto ld
/C/curveto ld
/t/show ld
/L/lineto ld
/ML/setmiterlimit ld
/CT/concat ld
/f/fill ld
/N/newpath ld
/S/stroke ld
/CC/setcmykcolor ld
/A/ashow ld
/cp/closepath ld
/RC/setrgbcolor ld
/LJ/setlinejoin ld
/GC/setgray ld
/LW/setlinewidth ld
/M/moveto ld
/re {4 2 roll M
1 index 0 rlineto
0 exch rlineto
neg 0 rlineto
cp } bd
/_ctm matrix def
/_tm matrix def
/BT { _ctm currentmatrix pop matrix _tm copy pop 0 0 moveto } bd
/ET { _ctm setmatrix } bd
/iTm { _ctm setmatrix _tm concat } bd
/Tm { _tm astore pop iTm 0 0 moveto } bd
/ux 0.0 def
/uy 0.0 def
/F {
  /Tp exch def
  /Tf exch def
  Tf findfont Tp scalefont setfont
  /cf Tf def  /cs Tp def
} bd
/ULS {currentpoint /uy exch def /ux exch def} bd
/ULE {
  /Tcx currentpoint pop def
  gsave
  newpath
  cf findfont cs scalefont dup
  /FontMatrix get 0 get /Ts exch def /FontInfo get dup
  /UnderlinePosition get Ts mul /To exch def
  /UnderlineThickness get Ts mul /Tt exch def
  ux uy To add moveto  Tcx uy To add lineto
  Tt setlinewidth stroke
  grestore
} bd
/OLE {
  /Tcx currentpoint pop def
  gsave
  newpath
  cf findfont cs scalefont dup
  /FontMatrix get 0 get /Ts exch def /FontInfo get dup
  /UnderlinePosition get Ts mul /To exch def
  /UnderlineThickness get Ts mul /Tt exch def
  ux uy To add cs add moveto Tcx uy To add cs add lineto
  Tt setlinewidth stroke
  grestore
} bd
/SOE {
  /Tcx currentpoint pop def
  gsave
  newpath
  cf findfont cs scalefont dup
  /FontMatrix get 0 get /Ts exch def /FontInfo get dup
  /UnderlinePosition get Ts mul /To exch def
  /UnderlineThickness get Ts mul /Tt exch def
  ux uy To add cs 10 mul 26 idiv add moveto Tcx uy To add cs 10 mul 26 idiv add lineto
  Tt setlinewidth stroke
  grestore
} bd
/QT {
/Y22 exch store
/X22 exch store
/Y21 exch store
/X21 exch store
currentpoint
/Y21 load 2 mul add 3 div exch
/X21 load 2 mul add 3 div exch
/X21 load 2 mul /X22 load add 3 div
/Y21 load 2 mul /Y22 load add 3 div
/X22 load /Y22 load curveto
} bd
/SSPD {
dup length /d exch dict def
{
/v exch def
/k exch def
currentpagedevice k known {
/cpdv currentpagedevice k get def
v cpdv ne {
/upd false def
/nullv v type /nulltype eq def
/nullcpdv cpdv type /nulltype eq def
nullv nullcpdv or
{
/upd true def
} {
/sametype v type cpdv type eq def
sametype {
v type /arraytype eq {
/vlen v length def
/cpdvlen cpdv length def
vlen cpdvlen eq {
0 1 vlen 1 sub {
/i exch def
/obj v i get def
/cpdobj cpdv i get def
obj cpdobj ne {
/upd true def
exit
} if
} for
} {
/upd true def
} ifelse
} {
v type /dicttype eq {
v {
/dv exch def
/dk exch def
/cpddv cpdv dk get def
dv cpddv ne {
/upd true def
exit
} if
} forall
} {
/upd true def
} ifelse
} ifelse
} if
} ifelse
upd true eq {
d k v put
} if
} if
} if
} forall
d length 0 gt {
d setpagedevice
} if
} bd
/RE { % /NewFontName [NewEncodingArray] /FontName RE -
  findfont dup length dict begin
  {
    1 index /FID ne
    {def} {pop pop} ifelse
  } forall
  /Encoding exch def
  /FontName 1 index def
  currentdict definefont pop
  end
} bind def
%%EndResource
%%BeginResource: procset (Apache XML Graphics EPS ProcSet) 1.0 0
%%Version: 1.0 0
%%Copyright: (Copyright 2002-2003 The Apache Software Foundation. License terms: http://www.apache.org/licenses/LICENSE-2.0)
/BeginEPSF { %def
/b4_Inc_state save def         % Save state for cleanup
/dict_count countdictstack def % Count objects on dict stack
/op_count count 1 sub def      % Count objects on operand stack
userdict begin                 % Push userdict on dict stack
/showpage { } def              % Redefine showpage, { } = null proc
0 setgray 0 setlinecap         % Prepare graphics state
1 setlinewidth 0 setlinejoin
10 setmiterlimit [ ] 0 setdash newpath
/languagelevel where           % If level not equal to 1 then
{pop languagelevel             % set strokeadjust and
1 ne                           % overprint to their defaults.
{false setstrokeadjust false setoverprint
} if
} if
} bd
/EndEPSF { %def
count op_count sub {pop} repeat            % Clean up stacks
countdictstack dict_count sub {end} repeat
b4_Inc_state restore
} bd
%%EndResource
%FOPBeginFontDict
%%IncludeResource: font Courier-Oblique
%%IncludeResource: font Courier-BoldOblique
%%IncludeResource: font Courier-Bold
%%IncludeResource: font ZapfDingbats
%%IncludeResource: font Symbol
%%IncludeResource: font Helvetica
%%IncludeResource: font Helvetica-Oblique
%%IncludeResource: font Helvetica-Bold
%%IncludeResource: font Helvetica-BoldOblique
%%IncludeResource: font Times-Roman
%%IncludeResource: font Times-Italic
%%IncludeResource: font Times-Bold
%%IncludeResource: font Times-BoldItalic
%%IncludeResource: font Courier
%FOPEndFontDict
%%BeginResource: encoding WinAnsiEncoding
/WinAnsiEncoding [
/.notdef /.notdef /.notdef /.notdef /.notdef
/.notdef /.notdef /.notdef /.notdef /.notdef
/.notdef /.notdef /.notdef /.notdef /.notdef
/.notdef /.notdef /.notdef /.notdef /.notdef
/.notdef /.notdef /.notdef /.notdef /.notdef
/.notdef /.notdef /.notdef /.notdef /.notdef
/.notdef /.notdef /space /exclam /quotedbl
/numbersign /dollar /percent /ampersand /quotesingle
/parenleft /parenright /asterisk /plus /comma
/hyphen /period /slash /zero /one
/two /three /four /five /six
/seven /eight /nine /colon /semicolon
/less /equal /greater /question /at
/A /B /C /D /E
/F /G /H /I /J
/K /L /M /N /O
/P /Q /R /S /T
/U /V /W /X /Y
/Z /bracketleft /backslash /bracketright /asciicircum
/underscore /quoteleft /a /b /c
/d /e /f /g /h
/i /j /k /l /m
/n /o /p /q /r
/s /t /u /v /w
/x /y /z /braceleft /bar
/braceright /asciitilde /bullet /Euro /bullet
/quotesinglbase /florin /quotedblbase /ellipsis /dagger
/daggerdbl /circumflex /perthousand /Scaron /guilsinglleft
/OE /bullet /Zcaron /bullet /bullet
/quoteleft /quoteright /quotedblleft /quotedblright /bullet
/endash /emdash /asciitilde /trademark /scaron
/guilsinglright /oe /bullet /zcaron /Ydieresis
/space /exclamdown /cent /sterling /currency
/yen /brokenbar /section /dieresis /copyright
/ordfeminine /guillemotleft /logicalnot /sfthyphen /registered
/macron /degree /plusminus /twosuperior /threesuperior
/acute /mu /paragraph /middot /cedilla
/onesuperior /ordmasculine /guillemotright /onequarter /onehalf
/threequarters /questiondown /Agrave /Aacute /Acircumflex
/Atilde /Adieresis /Aring /AE /Ccedilla
/Egrave /Eacute /Ecircumflex /Edieresis /Igrave
/Iacute /Icircumflex /Idieresis /Eth /Ntilde
/Ograve /Oacute /Ocircumflex /Otilde /Odieresis
/multiply /Oslash /Ugrave /Uacute /Ucircumflex
/Udieresis /Yacute /Thorn /germandbls /agrave
/aacute /acircumflex /atilde /adieresis /aring
/ae /ccedilla /egrave /eacute /ecircumflex
/edieresis /igrave /iacute /icircumflex /idieresis
/eth /ntilde /ograve /oacute /ocircumflex
/otilde /odieresis /divide /oslash /ugrave
/uacute /ucircumflex /udieresis /yacute /thorn
/ydieresis
] def
%%EndResource
%FOPBeginFontReencode
/Courier-Oblique findfont
dup length dict begin
  {1 index /FID ne {def} {pop pop} ifelse} forall
  /Encoding WinAnsiEncoding def
  currentdict
end
/Courier-Oblique exch definefont pop
/Courier-BoldOblique findfont
dup length dict begin
  {1 index /FID ne {def} {pop pop} ifelse} forall
  /Encoding WinAnsiEncoding def
  currentdict
end
/Courier-BoldOblique exch definefont pop
/Courier-Bold findfont
dup length dict begin
  {1 index /FID ne {def} {pop pop} ifelse} forall
  /Encoding WinAnsiEncoding def
  currentdict
end
/Courier-Bold exch definefont pop
/Helvetica findfont
dup length dict begin
  {1 index /FID ne {def} {pop pop} ifelse} forall
  /Encoding WinAnsiEncoding def
  currentdict
end
/Helvetica exch definefont pop
/Helvetica-Oblique findfont
dup length dict begin
  {1 index /FID ne {def} {pop pop} ifelse} forall
  /Encoding WinAnsiEncoding def
  currentdict
end
/Helvetica-Oblique exch definefont pop
/Helvetica-Bold findfont
dup length dict begin
  {1 index /FID ne {def} {pop pop} ifelse} forall
  /Encoding WinAnsiEncoding def
  currentdict
end
/Helvetica-Bold exch definefont pop
/Helvetica-BoldOblique findfont
dup length dict begin
  {1 index /FID ne {def} {pop pop} ifelse} forall
  /Encoding WinAnsiEncoding def
  currentdict
end
/Helvetica-BoldOblique exch definefont pop
/Times-Roman findfont
dup length dict begin
  {1 index /FID ne {def} {pop pop} ifelse} forall
  /Encoding WinAnsiEncoding def
  currentdict
end
/Times-Roman exch definefont pop
/Times-Italic findfont
dup length dict begin
  {1 index /FID ne {def} {pop pop} ifelse} forall
  /Encoding WinAnsiEncoding def
  currentdict
end
/Times-Italic exch definefont pop
/Times-Bold findfont
dup length dict begin
  {1 index /FID ne {def} {pop pop} ifelse} forall
  /Encoding WinAnsiEncoding def
  currentdict
end
/Times-Bold exch definefont pop
/Times-BoldItalic findfont
dup length dict begin
  {1 index /FID ne {def} {pop pop} ifelse} forall
  /Encoding WinAnsiEncoding def
  currentdict
end
/Times-BoldItalic exch definefont pop
/Courier findfont
dup length dict begin
  {1 index /FID ne {def} {pop pop} ifelse} forall
  /Encoding WinAnsiEncoding def
  currentdict
end
/Courier exch definefont pop
%FOPEndFontReencode
%%EndProlog
%%Page: 1 1
%%PageBoundingBox: 0 0 500 350
%%BeginPageSetup
[1 0 0 -1 0 350] CT
%%EndPageSetup
GS
1 GC
N
0 0 500 350 re
f
GR
GS
1 GC
N
0 0 500 350 re
f
GR
GS
1 GC
N
70 290 M
453 290 L
453 26 L
70 26 L
cp
f
GR
GS
0.873 GC
1 LJ
0.5 LW
N
165.75 290 M
165.75 26 L
S
GR
GS
0.873 GC
1 LJ
0.5 LW
N
261.5 290 M
261.5 26 L
S
GR
GS
0.873 GC
1 LJ
0.5 LW
N
357.25 290 M
357.25 26 L
S
GR
GS
0.873 GC
1 LJ
0.5 LW
N
453 290 M
70 290 L
S
GR
GS
0.873 GC
1 LJ
0.5 LW
N
453 192.855 M
70 192.855 L
S
GR
GS
0.873 GC
1 LJ
0.5 LW
N
453 95.71 M
70 95.71 L
S
GR
GS
0.149 GC
1 LJ
0.5 LW
N
70 290 M
453 290 L
S
GR
GS
0.749 0 0.749 RC
N
158.911 290 M
158.911 75.699 L
145.232 75.699 L
145.232 290 L
cp
254.661 290 M
254.661 287.446 L
240.982 287.446 L
240.982 290 L
cp
350.411 290 M
350.411 75.206 L
336.732 75.206 L
336.732 290 L
cp
f
GR
GS
10.0 ML
0.5 LW
N
145.232 290 M
145.232 75.699 L
158.911 75.699 L
158.911 290 L
cp
S
GR
GS
10.0 ML
0.5 LW
N
240.982 290 M
240.982 287.446 L
254.661 287.446 L
254.661 290 L
cp
S
GR
GS
10.0 ML
0.5 LW
N
336.732 290 M
336.732 75.206 L
350.411 75.206 L
350.411 290 L
cp
S
GR
GS
0.976 0.98 0.078 RC
N
186.268 290 M
186.268 249.027 L
172.589 249.027 L
172.589 290 L
cp
282.018 290 M
282.018 217.795 L
268.339 217.795 L
268.339 290 L
cp
377.768 290 M
377.768 216.366 L
364.089 216.366 L
364.089 290 L
cp
f
GR
GS
10.0 ML
0.5 LW
N
172.589 290 M
172.589 249.027 L
186.268 249.027 L
186.268 290 L
cp
S
GR
GS
10.0 ML
0.5 LW
N
268.339 290 M
268.339 217.795 L
282.018 217.795 L
282.018 290 L
cp
S
GR
GS
10.0 ML
0.5 LW
N
364.089 290 M
364.089 216.366 L
377.768 216.366 L
377.768 290 L
cp
S
GR
GS
1 0 0 RC
1 LJ
0.5 LW
N
152.071 75.699 M
152.071 91.911 L
S
GR
GS
1 0 0 RC
1 LJ
0.5 LW
N
179.429 249.027 M
179.429 263.074 L
S
GR
GS
1 0 0 RC
1 LJ
0.5 LW
N
152.071 75.699 M
152.071 59.488 L
S
GR
GS
1 0 0 RC
1 LJ
0.5 LW
N
179.429 249.027 M
179.429 234.979 L
S
GR
GS
[1 0 0 1 152.07143 75.69923] CT
1 0 0 RC
N
1 0 M
1 0.552 0.552 1 0 1 C
-0.552 1 -1 0.552 -1 0 C
-1 -0.552 -0.552 -1 0 -1 C
0.552 -1 1 -0.552 1 0 C
cp
f
GR
GS
[1 0 0 1 179.42857 249.0266] CT
1 0 0 RC
N
/f-891180347{1 0 M
1 0.552 0.552 1 0 1 C
-0.552 1 -1 0.552 -1 0 C
-1 -0.552 -0.552 -1 0 -1 C
0.552 -1 1 -0.552 1 0 C
cp}def
f-891180347
f
GR
GS
[1 0 0 1 152.07143 91.91074] CT
1 0 0 RC
N
-3 0 M
3 0 L
f
GR
GS
[1 0 0 1 152.07143 91.91074] CT
1 0 0 RC
10.0 ML
N
-3 0 M
3 0 L
S
GR
GS
[1 0 0 1 179.42857 263.07391] CT
1 0 0 RC
N
/f1394637256{-3 0 M
3 0 L}def
f1394637256
f
GR
GS
[1 0 0 1 179.42857 263.07391] CT
1 0 0 RC
10.0 ML
N
-3 0 M
3 0 L
S
GR
GS
[1 0 0 1 152.07143 59.48772] CT
1 0 0 RC
N
f1394637256
f
GR
GS
[1 0 0 1 152.07143 59.48772] CT
1 0 0 RC
10.0 ML
N
-3 0 M
3 0 L
S
GR
GS
[1 0 0 1 179.42857 234.97926] CT
1 0 0 RC
N
f1394637256
f
GR
GS
[1 0 0 1 179.42857 234.97926] CT
1 0 0 RC
10.0 ML
N
-3 0 M
3 0 L
S
GR
GS
1 0 0 RC
1 LJ
0.5 LW
N
247.821 287.446 M
247.821 290.031 L
S
GR
GS
1 0 0 RC
1 LJ
0.5 LW
N
275.179 217.795 M
275.179 225.469 L
S
GR
GS
1 0 0 RC
1 LJ
0.5 LW
N
247.821 287.446 M
247.821 281.121 L
S
GR
GS
1 0 0 RC
1 LJ
0.5 LW
N
275.179 217.795 M
275.179 210.121 L
S
GR
GS
[1 0 0 1 247.82143 287.44598] CT
1 0 0 RC
N
f-891180347
f
GR
GS
[1 0 0 1 275.17856 217.7948] CT
1 0 0 RC
N
f-891180347
f
GR
GS
[1 0 0 1 275.17856 225.4686] CT
1 0 0 RC
N
f1394637256
f
GR
GS
[1 0 0 1 275.17856 225.4686] CT
1 0 0 RC
10.0 ML
N
-3 0 M
3 0 L
S
GR
GS
[1 0 0 1 247.82143 281.12097] CT
1 0 0 RC
N
f1394637256
f
GR
GS
[1 0 0 1 247.82143 281.12097] CT
1 0 0 RC
10.0 ML
N
-3 0 M
3 0 L
S
GR
GS
[1 0 0 1 275.17856 210.121] CT
1 0 0 RC
N
f1394637256
f
GR
GS
[1 0 0 1 275.17856 210.121] CT
1 0 0 RC
10.0 ML
N
-3 0 M
3 0 L
S
GR
GS
1 0 0 RC
1 LJ
0.5 LW
N
343.571 75.206 M
343.571 88.418 L
S
GR
GS
1 0 0 RC
1 LJ
0.5 LW
N
370.929 216.366 M
370.929 231.302 L
S
GR
GS
1 0 0 RC
1 LJ
0.5 LW
N
343.571 75.206 M
343.571 61.995 L
S
GR
GS
1 0 0 RC
1 LJ
0.5 LW
N
370.929 216.366 M
370.929 201.429 L
S
GR
GS
[1 0 0 1 343.57144 75.20634] CT
1 0 0 RC
N
f-891180347
f
GR
GS
[1 0 0 1 370.92856 216.36562] CT
1 0 0 RC
N
f-891180347
f
GR
GS
[1 0 0 1 343.57144 88.41804] CT
1 0 0 RC
N
f1394637256
f
GR
GS
[1 0 0 1 343.57144 88.41804] CT
1 0 0 RC
10.0 ML
N
-3 0 M
3 0 L
S
GR
GS
[1 0 0 1 370.92856 231.3018] CT
1 0 0 RC
N
f1394637256
f
GR
GS
[1 0 0 1 370.92856 231.3018] CT
1 0 0 RC
10.0 ML
N
-3 0 M
3 0 L
S
GR
GS
[1 0 0 1 343.57144 61.99467] CT
1 0 0 RC
N
f1394637256
f
GR
GS
[1 0 0 1 343.57144 61.99467] CT
1 0 0 RC
10.0 ML
N
-3 0 M
3 0 L
S
GR
GS
[1 0 0 1 370.92856 201.42943] CT
1 0 0 RC
N
f1394637256
f
GR
GS
[1 0 0 1 370.92856 201.42943] CT
1 0 0 RC
10.0 ML
N
-3 0 M
3 0 L
S
GR
GS
[8 8] 0 setdash
2 LJ
2 LW
N
70 250.079 M
165.75 250.079 L
261.5 250.079 L
357.25 250.079 L
453 250.079 L
S
GR
GS
0.149 GC
2 setlinecap
1 LJ
0.5 LW
N
70 290 M
453 290 L
S
GR
GS
0.149 GC
2 setlinecap
1 LJ
0.5 LW
N
70 26 M
453 26 L
S
GR
GS
0.149 GC
2 setlinecap
1 LJ
0.5 LW
N
165.75 290 M
165.75 286.17 L
S
GR
GS
0.149 GC
2 setlinecap
1 LJ
0.5 LW
N
261.5 290 M
261.5 286.17 L
S
GR
GS
0.149 GC
2 setlinecap
1 LJ
0.5 LW
N
357.25 290 M
357.25 286.17 L
S
GR
GS
0.149 GC
2 setlinecap
1 LJ
0.5 LW
N
165.75 26 M
165.75 29.83 L
S
GR
GS
0.149 GC
2 setlinecap
1 LJ
0.5 LW
N
261.5 26 M
261.5 29.83 L
S
GR
GS
0.149 GC
2 setlinecap
1 LJ
0.5 LW
N
357.25 26 M
357.25 29.83 L
S
GR
GS
[1 0 0 1 165.75 296.39999] CT
0.149 GC
/Times-Roman 22 F
GS
[1 0 0 1 0 0] CT
-8 20 moveto 
1 -1 scale
(A) t 
GR
GR
GS
[1 0 0 1 261.5 296.39999] CT
0.149 GC
/Times-Roman 22 F
GS
[1 0 0 1 0 0] CT
-7.5 20 moveto 
1 -1 scale
(B) t 
GR
GR
GS
[1 0 0 1 357.25 296.39999] CT
0.149 GC
/Times-Roman 22 F
GS
[1 0 0 1 0 0] CT
-7.5 20 moveto 
1 -1 scale
(C) t 
GR
GR
GS
[1 0 0 1 261.50018 322.39999] CT
0.149 GC
/Times-Roman 24.2 F
GS
[1 0 0 1 0 0] CT
-49 22 moveto 
1 -1 scale
(WLAN id) t 
GR
GR
GS
0.149 GC
2 setlinecap
1 LJ
0.5 LW
N
70 290 M
70 26 L
S
GR
GS
0.149 GC
2 setlinecap
1 LJ
0.5 LW
N
453 290 M
453 26 L
S
GR
GS
0.149 GC
2 setlinecap
1 LJ
0.5 LW
N
70 290 M
73.83 290 L
S
GR
GS
0.149 GC
2 setlinecap
1 LJ
0.5 LW
N
70 192.855 M
73.83 192.855 L
S
GR
GS
0.149 GC
2 setlinecap
1 LJ
0.5 LW
N
70 95.71 M
73.83 95.71 L
S
GR
GS
0.149 GC
2 setlinecap
1 LJ
0.5 LW
N
453 290 M
449.17 290 L
S
GR
GS
0.149 GC
2 setlinecap
1 LJ
0.5 LW
N
453 192.855 M
449.17 192.855 L
S
GR
GS
0.149 GC
2 setlinecap
1 LJ
0.5 LW
N
453 95.71 M
449.17 95.71 L
S
GR
GS
[1 0 0 1 63.6 290] CT
0.149 GC
/Times-Roman 22 F
GS
[1 0 0 1 0 0] CT
-11 7.5 moveto 
1 -1 scale
(0) t 
GR
GR
GS
[1 0 0 1 63.6 192.85483] CT
0.149 GC
/Times-Roman 22 F
GS
[1 0 0 1 0 0] CT
-22 7.5 moveto 
1 -1 scale
(50) t 
GR
GR
GS
[1 0 0 1 63.6 95.70966] CT
0.149 GC
/Times-Roman 22 F
GS
[1 0 0 1 0 0] CT
-33 7.5 moveto 
1 -1 scale
(100) t 
GR
GR
GS
[0 -1 1 0 27.6 157.99988] CT
0.149 GC
/Times-Roman 24.2 F
GS
[1 0 0 1 0 0] CT
-122.5 -6 moveto 
1 -1 scale
(Mean throughput \(Mbps\)) t 
GR
GR
GS
1 GC
N
/f-71631116{446 188 M
446 114 L
250 114 L
250 188 L
cp}def
f-71631116
f
GR
GS
[1 0 0 1 287 127.5] CT
/Times-Roman 19.8 F
GS
[1 0 0 1 0 0] CT
0 6.5 moveto 
1 -1 scale
(Short-range) t 
GR
GR
GS
0.749 0 0.749 RC
N
/f-348657874{284 136.45 M
284 118.55 L
254 118.55 L
254 136.45 L
cp}def
f-348657874
f
GR
GS
10.0 ML
0.5 LW
N
254 136.45 M
254 118.55 L
284 118.55 L
284 136.45 L
cp
S
GR
GS
[1 0 0 1 287 151] CT
/Times-Roman 19.8 F
GS
[1 0 0 1 0 0] CT
0 6.5 moveto 
1 -1 scale
(Large-range) t 
GR
GR
GS
0.976 0.98 0.078 RC
N
/f-1801726162{284 159.95 M
284 142.05 L
254 142.05 L
254 159.95 L
cp}def
f-1801726162
f
GR
GS
10.0 ML
0.5 LW
N
254 159.95 M
254 142.05 L
284 142.05 L
284 159.95 L
cp
S
GR
GS
[1 0 0 1 287 174.5] CT
/Times-Roman 19.8 F
GS
[1 0 0 1 0 0] CT
0 6.5 moveto 
1 -1 scale
(Optimal \(max-min\)) t 
GR
GR
GS
[8 8] 0 setdash
2 LJ
2 LW
N
254 174.5 M
284 174.5 L
S
GR
GS
0.149 GC
10.0 ML
0.5 LW
N
250 188 M
250 114 L
446 114 L
446 188 L
cp
S
GR
%%Trailer
%%Pages: 1
%%EOF
