%!PS-Adobe-3.0 EPSF-3.0
%%Creator: (MATLAB, The Mathworks, Inc. Version 9.3.0.713579 \(R2017b\). Operating System: Mac OS X)
%%Title: ./Output/mean_tpt_TS.eps
%%CreationDate: 2018-03-23T11:55:18
%%Pages: (atend)
%%BoundingBox:     5     5   454   325
%%LanguageLevel: 3
%%EndComments
%%BeginProlog
%%BeginResource: procset (Apache XML Graphics Std ProcSet) 1.2 0
%%Version: 1.2 0
%%Copyright: (Copyright 2001-2003,2010 The Apache Software Foundation. License terms: http://www.apache.org/licenses/LICENSE-2.0)
/bd{bind def}bind def
/ld{load def}bd
/GR/grestore ld
/GS/gsave ld
/RM/rmoveto ld
/C/curveto ld
/t/show ld
/L/lineto ld
/ML/setmiterlimit ld
/CT/concat ld
/f/fill ld
/N/newpath ld
/S/stroke ld
/CC/setcmykcolor ld
/A/ashow ld
/cp/closepath ld
/RC/setrgbcolor ld
/LJ/setlinejoin ld
/GC/setgray ld
/LW/setlinewidth ld
/M/moveto ld
/re {4 2 roll M
1 index 0 rlineto
0 exch rlineto
neg 0 rlineto
cp } bd
/_ctm matrix def
/_tm matrix def
/BT { _ctm currentmatrix pop matrix _tm copy pop 0 0 moveto } bd
/ET { _ctm setmatrix } bd
/iTm { _ctm setmatrix _tm concat } bd
/Tm { _tm astore pop iTm 0 0 moveto } bd
/ux 0.0 def
/uy 0.0 def
/F {
  /Tp exch def
  /Tf exch def
  Tf findfont Tp scalefont setfont
  /cf Tf def  /cs Tp def
} bd
/ULS {currentpoint /uy exch def /ux exch def} bd
/ULE {
  /Tcx currentpoint pop def
  gsave
  newpath
  cf findfont cs scalefont dup
  /FontMatrix get 0 get /Ts exch def /FontInfo get dup
  /UnderlinePosition get Ts mul /To exch def
  /UnderlineThickness get Ts mul /Tt exch def
  ux uy To add moveto  Tcx uy To add lineto
  Tt setlinewidth stroke
  grestore
} bd
/OLE {
  /Tcx currentpoint pop def
  gsave
  newpath
  cf findfont cs scalefont dup
  /FontMatrix get 0 get /Ts exch def /FontInfo get dup
  /UnderlinePosition get Ts mul /To exch def
  /UnderlineThickness get Ts mul /Tt exch def
  ux uy To add cs add moveto Tcx uy To add cs add lineto
  Tt setlinewidth stroke
  grestore
} bd
/SOE {
  /Tcx currentpoint pop def
  gsave
  newpath
  cf findfont cs scalefont dup
  /FontMatrix get 0 get /Ts exch def /FontInfo get dup
  /UnderlinePosition get Ts mul /To exch def
  /UnderlineThickness get Ts mul /Tt exch def
  ux uy To add cs 10 mul 26 idiv add moveto Tcx uy To add cs 10 mul 26 idiv add lineto
  Tt setlinewidth stroke
  grestore
} bd
/QT {
/Y22 exch store
/X22 exch store
/Y21 exch store
/X21 exch store
currentpoint
/Y21 load 2 mul add 3 div exch
/X21 load 2 mul add 3 div exch
/X21 load 2 mul /X22 load add 3 div
/Y21 load 2 mul /Y22 load add 3 div
/X22 load /Y22 load curveto
} bd
/SSPD {
dup length /d exch dict def
{
/v exch def
/k exch def
currentpagedevice k known {
/cpdv currentpagedevice k get def
v cpdv ne {
/upd false def
/nullv v type /nulltype eq def
/nullcpdv cpdv type /nulltype eq def
nullv nullcpdv or
{
/upd true def
} {
/sametype v type cpdv type eq def
sametype {
v type /arraytype eq {
/vlen v length def
/cpdvlen cpdv length def
vlen cpdvlen eq {
0 1 vlen 1 sub {
/i exch def
/obj v i get def
/cpdobj cpdv i get def
obj cpdobj ne {
/upd true def
exit
} if
} for
} {
/upd true def
} ifelse
} {
v type /dicttype eq {
v {
/dv exch def
/dk exch def
/cpddv cpdv dk get def
dv cpddv ne {
/upd true def
exit
} if
} forall
} {
/upd true def
} ifelse
} ifelse
} if
} ifelse
upd true eq {
d k v put
} if
} if
} if
} forall
d length 0 gt {
d setpagedevice
} if
} bd
/RE { % /NewFontName [NewEncodingArray] /FontName RE -
  findfont dup length dict begin
  {
    1 index /FID ne
    {def} {pop pop} ifelse
  } forall
  /Encoding exch def
  /FontName 1 index def
  currentdict definefont pop
  end
} bind def
%%EndResource
%%BeginResource: procset (Apache XML Graphics EPS ProcSet) 1.0 0
%%Version: 1.0 0
%%Copyright: (Copyright 2002-2003 The Apache Software Foundation. License terms: http://www.apache.org/licenses/LICENSE-2.0)
/BeginEPSF { %def
/b4_Inc_state save def         % Save state for cleanup
/dict_count countdictstack def % Count objects on dict stack
/op_count count 1 sub def      % Count objects on operand stack
userdict begin                 % Push userdict on dict stack
/showpage { } def              % Redefine showpage, { } = null proc
0 setgray 0 setlinecap         % Prepare graphics state
1 setlinewidth 0 setlinejoin
10 setmiterlimit [ ] 0 setdash newpath
/languagelevel where           % If level not equal to 1 then
{pop languagelevel             % set strokeadjust and
1 ne                           % overprint to their defaults.
{false setstrokeadjust false setoverprint
} if
} if
} bd
/EndEPSF { %def
count op_count sub {pop} repeat            % Clean up stacks
countdictstack dict_count sub {end} repeat
b4_Inc_state restore
} bd
%%EndResource
%FOPBeginFontDict
%%IncludeResource: font Courier-Oblique
%%IncludeResource: font Courier-BoldOblique
%%IncludeResource: font Courier-Bold
%%IncludeResource: font ZapfDingbats
%%IncludeResource: font Symbol
%%IncludeResource: font Helvetica
%%IncludeResource: font Helvetica-Oblique
%%IncludeResource: font Helvetica-Bold
%%IncludeResource: font Helvetica-BoldOblique
%%IncludeResource: font Times-Roman
%%IncludeResource: font Times-Italic
%%IncludeResource: font Times-Bold
%%IncludeResource: font Times-BoldItalic
%%IncludeResource: font Courier
%FOPEndFontDict
%%BeginResource: encoding WinAnsiEncoding
/WinAnsiEncoding [
/.notdef /.notdef /.notdef /.notdef /.notdef
/.notdef /.notdef /.notdef /.notdef /.notdef
/.notdef /.notdef /.notdef /.notdef /.notdef
/.notdef /.notdef /.notdef /.notdef /.notdef
/.notdef /.notdef /.notdef /.notdef /.notdef
/.notdef /.notdef /.notdef /.notdef /.notdef
/.notdef /.notdef /space /exclam /quotedbl
/numbersign /dollar /percent /ampersand /quotesingle
/parenleft /parenright /asterisk /plus /comma
/hyphen /period /slash /zero /one
/two /three /four /five /six
/seven /eight /nine /colon /semicolon
/less /equal /greater /question /at
/A /B /C /D /E
/F /G /H /I /J
/K /L /M /N /O
/P /Q /R /S /T
/U /V /W /X /Y
/Z /bracketleft /backslash /bracketright /asciicircum
/underscore /quoteleft /a /b /c
/d /e /f /g /h
/i /j /k /l /m
/n /o /p /q /r
/s /t /u /v /w
/x /y /z /braceleft /bar
/braceright /asciitilde /bullet /Euro /bullet
/quotesinglbase /florin /quotedblbase /ellipsis /dagger
/daggerdbl /circumflex /perthousand /Scaron /guilsinglleft
/OE /bullet /Zcaron /bullet /bullet
/quoteleft /quoteright /quotedblleft /quotedblright /bullet
/endash /emdash /asciitilde /trademark /scaron
/guilsinglright /oe /bullet /zcaron /Ydieresis
/space /exclamdown /cent /sterling /currency
/yen /brokenbar /section /dieresis /copyright
/ordfeminine /guillemotleft /logicalnot /sfthyphen /registered
/macron /degree /plusminus /twosuperior /threesuperior
/acute /mu /paragraph /middot /cedilla
/onesuperior /ordmasculine /guillemotright /onequarter /onehalf
/threequarters /questiondown /Agrave /Aacute /Acircumflex
/Atilde /Adieresis /Aring /AE /Ccedilla
/Egrave /Eacute /Ecircumflex /Edieresis /Igrave
/Iacute /Icircumflex /Idieresis /Eth /Ntilde
/Ograve /Oacute /Ocircumflex /Otilde /Odieresis
/multiply /Oslash /Ugrave /Uacute /Ucircumflex
/Udieresis /Yacute /Thorn /germandbls /agrave
/aacute /acircumflex /atilde /adieresis /aring
/ae /ccedilla /egrave /eacute /ecircumflex
/edieresis /igrave /iacute /icircumflex /idieresis
/eth /ntilde /ograve /oacute /ocircumflex
/otilde /odieresis /divide /oslash /ugrave
/uacute /ucircumflex /udieresis /yacute /thorn
/ydieresis
] def
%%EndResource
%FOPBeginFontReencode
/Courier-Oblique findfont
dup length dict begin
  {1 index /FID ne {def} {pop pop} ifelse} forall
  /Encoding WinAnsiEncoding def
  currentdict
end
/Courier-Oblique exch definefont pop
/Courier-BoldOblique findfont
dup length dict begin
  {1 index /FID ne {def} {pop pop} ifelse} forall
  /Encoding WinAnsiEncoding def
  currentdict
end
/Courier-BoldOblique exch definefont pop
/Courier-Bold findfont
dup length dict begin
  {1 index /FID ne {def} {pop pop} ifelse} forall
  /Encoding WinAnsiEncoding def
  currentdict
end
/Courier-Bold exch definefont pop
/Helvetica findfont
dup length dict begin
  {1 index /FID ne {def} {pop pop} ifelse} forall
  /Encoding WinAnsiEncoding def
  currentdict
end
/Helvetica exch definefont pop
/Helvetica-Oblique findfont
dup length dict begin
  {1 index /FID ne {def} {pop pop} ifelse} forall
  /Encoding WinAnsiEncoding def
  currentdict
end
/Helvetica-Oblique exch definefont pop
/Helvetica-Bold findfont
dup length dict begin
  {1 index /FID ne {def} {pop pop} ifelse} forall
  /Encoding WinAnsiEncoding def
  currentdict
end
/Helvetica-Bold exch definefont pop
/Helvetica-BoldOblique findfont
dup length dict begin
  {1 index /FID ne {def} {pop pop} ifelse} forall
  /Encoding WinAnsiEncoding def
  currentdict
end
/Helvetica-BoldOblique exch definefont pop
/Times-Roman findfont
dup length dict begin
  {1 index /FID ne {def} {pop pop} ifelse} forall
  /Encoding WinAnsiEncoding def
  currentdict
end
/Times-Roman exch definefont pop
/Times-Italic findfont
dup length dict begin
  {1 index /FID ne {def} {pop pop} ifelse} forall
  /Encoding WinAnsiEncoding def
  currentdict
end
/Times-Italic exch definefont pop
/Times-Bold findfont
dup length dict begin
  {1 index /FID ne {def} {pop pop} ifelse} forall
  /Encoding WinAnsiEncoding def
  currentdict
end
/Times-Bold exch definefont pop
/Times-BoldItalic findfont
dup length dict begin
  {1 index /FID ne {def} {pop pop} ifelse} forall
  /Encoding WinAnsiEncoding def
  currentdict
end
/Times-BoldItalic exch definefont pop
/Courier findfont
dup length dict begin
  {1 index /FID ne {def} {pop pop} ifelse} forall
  /Encoding WinAnsiEncoding def
  currentdict
end
/Courier exch definefont pop
%FOPEndFontReencode
%%EndProlog
%%Page: 1 1
%%PageBoundingBox: 0 0 500 350
%%BeginPageSetup
[1 0 0 -1 0 350] CT
%%EndPageSetup
GS
1 GC
N
0 0 500 350 re
f
GR
GS
1 GC
N
0 0 500 350 re
f
GR
GS
1 GC
N
70 290 M
453 290 L
453 26 L
70 26 L
cp
f
GR
GS
0.775 GC
[1 3] 0 setdash
2 LJ
0.5 LW
N
70 290 M
70 26 L
S
GR
GS
0.775 GC
[1 3] 0 setdash
2 LJ
0.5 LW
N
95.533 290 M
95.533 26 L
S
GR
GS
0.775 GC
[1 3] 0 setdash
2 LJ
0.5 LW
N
121.067 290 M
121.067 26 L
S
GR
GS
0.775 GC
[1 3] 0 setdash
2 LJ
0.5 LW
N
146.6 290 M
146.6 26 L
S
GR
GS
0.775 GC
[1 3] 0 setdash
2 LJ
0.5 LW
N
172.133 290 M
172.133 26 L
S
GR
GS
0.775 GC
[1 3] 0 setdash
2 LJ
0.5 LW
N
223.2 290 M
223.2 26 L
S
GR
GS
0.775 GC
[1 3] 0 setdash
2 LJ
0.5 LW
N
248.733 290 M
248.733 26 L
S
GR
GS
0.775 GC
[1 3] 0 setdash
2 LJ
0.5 LW
N
274.267 290 M
274.267 26 L
S
GR
GS
0.775 GC
[1 3] 0 setdash
2 LJ
0.5 LW
N
299.8 290 M
299.8 26 L
S
GR
GS
0.775 GC
[1 3] 0 setdash
2 LJ
0.5 LW
N
350.867 290 M
350.867 26 L
S
GR
GS
0.775 GC
[1 3] 0 setdash
2 LJ
0.5 LW
N
376.4 290 M
376.4 26 L
S
GR
GS
0.775 GC
[1 3] 0 setdash
2 LJ
0.5 LW
N
401.933 290 M
401.933 26 L
S
GR
GS
0.775 GC
[1 3] 0 setdash
2 LJ
0.5 LW
N
427.467 290 M
427.467 26 L
S
GR
GS
0.775 GC
[1 3] 0 setdash
2 LJ
0.5 LW
N
453 290 M
453 26 L
S
GR
GS
0.873 GC
1 LJ
0.5 LW
N
197.667 290 M
197.667 26 L
S
GR
GS
0.873 GC
1 LJ
0.5 LW
N
325.333 290 M
325.333 26 L
S
GR
GS
0.775 GC
[1 3] 0 setdash
2 LJ
0.5 LW
N
453 275.092 M
70 275.092 L
S
GR
GS
0.775 GC
[1 3] 0 setdash
2 LJ
0.5 LW
N
453 260.185 M
70 260.185 L
S
GR
GS
0.775 GC
[1 3] 0 setdash
2 LJ
0.5 LW
N
453 245.277 M
70 245.277 L
S
GR
GS
0.775 GC
[1 3] 0 setdash
2 LJ
0.5 LW
N
453 230.37 M
70 230.37 L
S
GR
GS
0.775 GC
[1 3] 0 setdash
2 LJ
0.5 LW
N
453 200.554 M
70 200.554 L
S
GR
GS
0.775 GC
[1 3] 0 setdash
2 LJ
0.5 LW
N
453 185.647 M
70 185.647 L
S
GR
GS
0.775 GC
[1 3] 0 setdash
2 LJ
0.5 LW
N
453 170.739 M
70 170.739 L
S
GR
GS
0.775 GC
[1 3] 0 setdash
2 LJ
0.5 LW
N
453 155.831 M
70 155.831 L
S
GR
GS
0.775 GC
[1 3] 0 setdash
2 LJ
0.5 LW
N
453 126.016 M
70 126.016 L
S
GR
GS
0.775 GC
[1 3] 0 setdash
2 LJ
0.5 LW
N
453 111.109 M
70 111.109 L
S
GR
GS
0.775 GC
[1 3] 0 setdash
2 LJ
0.5 LW
N
453 96.201 M
70 96.201 L
S
GR
GS
0.775 GC
[1 3] 0 setdash
2 LJ
0.5 LW
N
453 81.293 M
70 81.293 L
S
GR
GS
0.775 GC
[1 3] 0 setdash
2 LJ
0.5 LW
N
453 51.478 M
70 51.478 L
S
GR
GS
0.775 GC
[1 3] 0 setdash
2 LJ
0.5 LW
N
453 36.571 M
70 36.571 L
S
GR
GS
0.873 GC
1 LJ
0.5 LW
N
453 290 M
70 290 L
S
GR
GS
0.873 GC
1 LJ
0.5 LW
N
453 215.462 M
70 215.462 L
S
GR
GS
0.873 GC
1 LJ
0.5 LW
N
453 140.924 M
70 140.924 L
S
GR
GS
0.873 GC
1 LJ
0.5 LW
N
453 66.386 M
70 66.386 L
S
GR
GS
0.149 GC
1 LJ
0.5 LW
N
70 290 M
453 290 L
S
GR
GS
0 0.447 0.741 RC
N
229.583 290 M
229.583 111.676 L
165.75 111.676 L
165.75 290 L
cp
357.25 290 M
357.25 210.467 L
293.417 210.467 L
293.417 290 L
cp
f
GR
GS
10.0 ML
0.5 LW
N
165.75 290 M
165.75 111.676 L
229.583 111.676 L
229.583 290 L
cp
S
GR
GS
10.0 ML
0.5 LW
N
293.417 290 M
293.417 210.467 L
357.25 210.467 L
357.25 290 L
cp
S
GR
GS
1 0 0 RC
1 LJ
0.5 LW
N
197.667 111.676 M
197.667 116.99 L
S
GR
GS
1 0 0 RC
1 LJ
0.5 LW
N
325.333 210.467 M
325.333 222.907 L
S
GR
GS
1 0 0 RC
1 LJ
0.5 LW
N
197.667 111.676 M
197.667 106.362 L
S
GR
GS
1 0 0 RC
1 LJ
0.5 LW
N
325.333 210.467 M
325.333 198.028 L
S
GR
GS
[1 0 0 1 197.66667 111.67587] CT
1 0 0 RC
N
1 0 M
1 0.552 0.552 1 0 1 C
-0.552 1 -1 0.552 -1 0 C
-1 -0.552 -0.552 -1 0 -1 C
0.552 -1 1 -0.552 1 0 C
cp
f
GR
GS
[1 0 0 1 325.33334 210.46741] CT
1 0 0 RC
N
/f-891180347{1 0 M
1 0.552 0.552 1 0 1 C
-0.552 1 -1 0.552 -1 0 C
-1 -0.552 -0.552 -1 0 -1 C
0.552 -1 1 -0.552 1 0 C
cp}def
f-891180347
f
GR
GS
[1 0 0 1 197.66667 116.99017] CT
1 0 0 RC
N
-3 0 M
3 0 L
f
GR
GS
[1 0 0 1 197.66667 116.99017] CT
1 0 0 RC
10.0 ML
N
-3 0 M
3 0 L
S
GR
GS
[1 0 0 1 325.33334 222.90704] CT
1 0 0 RC
N
/f1394637256{-3 0 M
3 0 L}def
f1394637256
f
GR
GS
[1 0 0 1 325.33334 222.90704] CT
1 0 0 RC
10.0 ML
N
-3 0 M
3 0 L
S
GR
GS
[1 0 0 1 197.66667 106.36154] CT
1 0 0 RC
N
f1394637256
f
GR
GS
[1 0 0 1 197.66667 106.36154] CT
1 0 0 RC
10.0 ML
N
-3 0 M
3 0 L
S
GR
GS
[1 0 0 1 325.33334 198.02777] CT
1 0 0 RC
N
f1394637256
f
GR
GS
[1 0 0 1 325.33334 198.02777] CT
1 0 0 RC
10.0 ML
N
-3 0 M
3 0 L
S
GR
GS
1 0 0 RC
[10 6] 0 setdash
2 LJ
1.5 LW
N
165.75 290 M
165.75 112.354 L
229.583 112.354 L
229.583 290 L
cp
S
GR
GS
1 0 0 RC
[10 6] 0 setdash
2 LJ
1.5 LW
N
293.417 290 M
293.417 208.517 L
357.25 208.517 L
357.25 290 L
cp
S
GR
GS
[8 8] 0 setdash
2 LJ
2 LW
N
70 208.517 M
197.667 208.517 L
325.333 208.517 L
453 208.517 L
S
GR
GS
0.149 GC
2 setlinecap
1 LJ
0.5 LW
N
70 290 M
453 290 L
S
GR
GS
0.149 GC
2 setlinecap
1 LJ
0.5 LW
N
70 26 M
453 26 L
S
GR
GS
0.149 GC
2 setlinecap
1 LJ
0.5 LW
N
197.667 290 M
197.667 286.17 L
S
GR
GS
0.149 GC
2 setlinecap
1 LJ
0.5 LW
N
325.333 290 M
325.333 286.17 L
S
GR
GS
0.149 GC
2 setlinecap
1 LJ
0.5 LW
N
197.667 26 M
197.667 29.83 L
S
GR
GS
0.149 GC
2 setlinecap
1 LJ
0.5 LW
N
325.333 26 M
325.333 29.83 L
S
GR
GS
[1 0 0 1 197.66667 296.39999] CT
0.149 GC
/Times-Roman 22 F
GS
[1 0 0 1 0 0] CT
-5.5 20 moveto 
1 -1 scale
(1) t 
GR
GR
GS
[1 0 0 1 325.33334 296.39999] CT
0.149 GC
/Times-Roman 22 F
GS
[1 0 0 1 0 0] CT
-5.5 20 moveto 
1 -1 scale
(2) t 
GR
GR
GS
[1 0 0 1 261.50018 322.39999] CT
0.149 GC
/Times-Roman 24 F
GS
[1 0 0 1 0 0] CT
-32.5 22 moveto 
1 -1 scale
(WN id) t 
GR
GR
GS
0.149 GC
2 setlinecap
1 LJ
0.5 LW
N
70 290 M
70 26 L
S
GR
GS
0.149 GC
2 setlinecap
1 LJ
0.5 LW
N
453 290 M
453 26 L
S
GR
GS
0.149 GC
2 setlinecap
1 LJ
0.5 LW
N
70 290 M
73.83 290 L
S
GR
GS
0.149 GC
2 setlinecap
1 LJ
0.5 LW
N
70 215.462 M
73.83 215.462 L
S
GR
GS
0.149 GC
2 setlinecap
1 LJ
0.5 LW
N
70 140.924 M
73.83 140.924 L
S
GR
GS
0.149 GC
2 setlinecap
1 LJ
0.5 LW
N
70 66.386 M
73.83 66.386 L
S
GR
GS
0.149 GC
2 setlinecap
1 LJ
0.5 LW
N
453 290 M
449.17 290 L
S
GR
GS
0.149 GC
2 setlinecap
1 LJ
0.5 LW
N
453 215.462 M
449.17 215.462 L
S
GR
GS
0.149 GC
2 setlinecap
1 LJ
0.5 LW
N
453 140.924 M
449.17 140.924 L
S
GR
GS
0.149 GC
2 setlinecap
1 LJ
0.5 LW
N
453 66.386 M
449.17 66.386 L
S
GR
GS
[1 0 0 1 63.6 290] CT
0.149 GC
/Times-Roman 22 F
GS
[1 0 0 1 0 0] CT
-11 7.5 moveto 
1 -1 scale
(0) t 
GR
GR
GS
[1 0 0 1 63.6 215.46191] CT
0.149 GC
/Times-Roman 22 F
GS
[1 0 0 1 0 0] CT
-22 7.5 moveto 
1 -1 scale
(50) t 
GR
GR
GS
[1 0 0 1 63.6 140.92383] CT
0.149 GC
/Times-Roman 22 F
GS
[1 0 0 1 0 0] CT
-33 7.5 moveto 
1 -1 scale
(100) t 
GR
GR
GS
[1 0 0 1 63.6 66.38574] CT
0.149 GC
/Times-Roman 22 F
GS
[1 0 0 1 0 0] CT
-33 7.5 moveto 
1 -1 scale
(150) t 
GR
GR
GS
[0 -1 1 0 27.6 157.99988] CT
0.149 GC
/Times-Roman 24 F
GS
[1 0 0 1 0 0] CT
-121.5 -6 moveto 
1 -1 scale
(Mean throughput \(Mbps\)) t 
GR
GR
GS
1 GC
N
/f-1944295966{443 110 M
443 36 L
299 36 L
299 110 L
cp}def
f-1944295966
f
GR
GS
[1 0 0 1 336 49.5] CT
/Times-Roman 19.8 F
GS
[1 0 0 1 0 0] CT
0 6.5 moveto 
1 -1 scale
(Thompson s.) t 
GR
GR
GS
0 0.447 0.741 RC
N
/f-810419338{333 58.45 M
333 40.55 L
303 40.55 L
303 58.45 L
cp}def
f-810419338
f
GR
GS
10.0 ML
0.5 LW
N
303 58.45 M
303 40.55 L
333 40.55 L
333 58.45 L
cp
S
GR
GS
[1 0 0 1 336 73] CT
/Times-Roman 19.8 F
GS
[1 0 0 1 0 0] CT
0 6.5 moveto 
1 -1 scale
(Optimal) t 
GR
GR
GS
1 0 0 RC
[10 6] 0 setdash
2 LJ
1.5 LW
N
303 81.95 M
303 64.05 L
333 64.05 L
333 81.95 L
cp
S
GR
GS
[1 0 0 1 336 96.5] CT
/Times-Roman 19.8 F
GS
[1 0 0 1 0 0] CT
0 6.5 moveto 
1 -1 scale
(Shared goal) t 
GR
GR
GS
[8 8] 0 setdash
2 LJ
2 LW
N
303 96.5 M
333 96.5 L
S
GR
GS
0.149 GC
10.0 ML
0.5 LW
N
299 110 M
299 36 L
443 36 L
443 110 L
cp
S
GR
%%Trailer
%%Pages: 1
%%EOF
