%!PS-Adobe-3.0 EPSF-3.0
%%Creator: (MATLAB, The Mathworks, Inc. Version 9.3.0.713579 \(R2017b\). Operating System: Mac OS X)
%%Title: ./Output/temporal_individual_tpt_TS.eps
%%CreationDate: 2018-03-23T11:55:13
%%Pages: (atend)
%%BoundingBox:    10    13   471   349
%%LanguageLevel: 3
%%EndComments
%%BeginProlog
%%BeginResource: procset (Apache XML Graphics Std ProcSet) 1.2 0
%%Version: 1.2 0
%%Copyright: (Copyright 2001-2003,2010 The Apache Software Foundation. License terms: http://www.apache.org/licenses/LICENSE-2.0)
/bd{bind def}bind def
/ld{load def}bd
/GR/grestore ld
/GS/gsave ld
/RM/rmoveto ld
/C/curveto ld
/t/show ld
/L/lineto ld
/ML/setmiterlimit ld
/CT/concat ld
/f/fill ld
/N/newpath ld
/S/stroke ld
/CC/setcmykcolor ld
/A/ashow ld
/cp/closepath ld
/RC/setrgbcolor ld
/LJ/setlinejoin ld
/GC/setgray ld
/LW/setlinewidth ld
/M/moveto ld
/re {4 2 roll M
1 index 0 rlineto
0 exch rlineto
neg 0 rlineto
cp } bd
/_ctm matrix def
/_tm matrix def
/BT { _ctm currentmatrix pop matrix _tm copy pop 0 0 moveto } bd
/ET { _ctm setmatrix } bd
/iTm { _ctm setmatrix _tm concat } bd
/Tm { _tm astore pop iTm 0 0 moveto } bd
/ux 0.0 def
/uy 0.0 def
/F {
  /Tp exch def
  /Tf exch def
  Tf findfont Tp scalefont setfont
  /cf Tf def  /cs Tp def
} bd
/ULS {currentpoint /uy exch def /ux exch def} bd
/ULE {
  /Tcx currentpoint pop def
  gsave
  newpath
  cf findfont cs scalefont dup
  /FontMatrix get 0 get /Ts exch def /FontInfo get dup
  /UnderlinePosition get Ts mul /To exch def
  /UnderlineThickness get Ts mul /Tt exch def
  ux uy To add moveto  Tcx uy To add lineto
  Tt setlinewidth stroke
  grestore
} bd
/OLE {
  /Tcx currentpoint pop def
  gsave
  newpath
  cf findfont cs scalefont dup
  /FontMatrix get 0 get /Ts exch def /FontInfo get dup
  /UnderlinePosition get Ts mul /To exch def
  /UnderlineThickness get Ts mul /Tt exch def
  ux uy To add cs add moveto Tcx uy To add cs add lineto
  Tt setlinewidth stroke
  grestore
} bd
/SOE {
  /Tcx currentpoint pop def
  gsave
  newpath
  cf findfont cs scalefont dup
  /FontMatrix get 0 get /Ts exch def /FontInfo get dup
  /UnderlinePosition get Ts mul /To exch def
  /UnderlineThickness get Ts mul /Tt exch def
  ux uy To add cs 10 mul 26 idiv add moveto Tcx uy To add cs 10 mul 26 idiv add lineto
  Tt setlinewidth stroke
  grestore
} bd
/QT {
/Y22 exch store
/X22 exch store
/Y21 exch store
/X21 exch store
currentpoint
/Y21 load 2 mul add 3 div exch
/X21 load 2 mul add 3 div exch
/X21 load 2 mul /X22 load add 3 div
/Y21 load 2 mul /Y22 load add 3 div
/X22 load /Y22 load curveto
} bd
/SSPD {
dup length /d exch dict def
{
/v exch def
/k exch def
currentpagedevice k known {
/cpdv currentpagedevice k get def
v cpdv ne {
/upd false def
/nullv v type /nulltype eq def
/nullcpdv cpdv type /nulltype eq def
nullv nullcpdv or
{
/upd true def
} {
/sametype v type cpdv type eq def
sametype {
v type /arraytype eq {
/vlen v length def
/cpdvlen cpdv length def
vlen cpdvlen eq {
0 1 vlen 1 sub {
/i exch def
/obj v i get def
/cpdobj cpdv i get def
obj cpdobj ne {
/upd true def
exit
} if
} for
} {
/upd true def
} ifelse
} {
v type /dicttype eq {
v {
/dv exch def
/dk exch def
/cpddv cpdv dk get def
dv cpddv ne {
/upd true def
exit
} if
} forall
} {
/upd true def
} ifelse
} ifelse
} if
} ifelse
upd true eq {
d k v put
} if
} if
} if
} forall
d length 0 gt {
d setpagedevice
} if
} bd
/RE { % /NewFontName [NewEncodingArray] /FontName RE -
  findfont dup length dict begin
  {
    1 index /FID ne
    {def} {pop pop} ifelse
  } forall
  /Encoding exch def
  /FontName 1 index def
  currentdict definefont pop
  end
} bind def
%%EndResource
%%BeginResource: procset (Apache XML Graphics EPS ProcSet) 1.0 0
%%Version: 1.0 0
%%Copyright: (Copyright 2002-2003 The Apache Software Foundation. License terms: http://www.apache.org/licenses/LICENSE-2.0)
/BeginEPSF { %def
/b4_Inc_state save def         % Save state for cleanup
/dict_count countdictstack def % Count objects on dict stack
/op_count count 1 sub def      % Count objects on operand stack
userdict begin                 % Push userdict on dict stack
/showpage { } def              % Redefine showpage, { } = null proc
0 setgray 0 setlinecap         % Prepare graphics state
1 setlinewidth 0 setlinejoin
10 setmiterlimit [ ] 0 setdash newpath
/languagelevel where           % If level not equal to 1 then
{pop languagelevel             % set strokeadjust and
1 ne                           % overprint to their defaults.
{false setstrokeadjust false setoverprint
} if
} if
} bd
/EndEPSF { %def
count op_count sub {pop} repeat            % Clean up stacks
countdictstack dict_count sub {end} repeat
b4_Inc_state restore
} bd
%%EndResource
%FOPBeginFontDict
%%IncludeResource: font Courier-Oblique
%%IncludeResource: font Courier-BoldOblique
%%IncludeResource: font Courier-Bold
%%IncludeResource: font ZapfDingbats
%%IncludeResource: font Symbol
%%IncludeResource: font Helvetica
%%IncludeResource: font Helvetica-Oblique
%%IncludeResource: font Helvetica-Bold
%%IncludeResource: font Helvetica-BoldOblique
%%IncludeResource: font Times-Roman
%%IncludeResource: font Times-Italic
%%IncludeResource: font Times-Bold
%%IncludeResource: font Times-BoldItalic
%%IncludeResource: font Courier
%FOPEndFontDict
%%BeginResource: encoding WinAnsiEncoding
/WinAnsiEncoding [
/.notdef /.notdef /.notdef /.notdef /.notdef
/.notdef /.notdef /.notdef /.notdef /.notdef
/.notdef /.notdef /.notdef /.notdef /.notdef
/.notdef /.notdef /.notdef /.notdef /.notdef
/.notdef /.notdef /.notdef /.notdef /.notdef
/.notdef /.notdef /.notdef /.notdef /.notdef
/.notdef /.notdef /space /exclam /quotedbl
/numbersign /dollar /percent /ampersand /quotesingle
/parenleft /parenright /asterisk /plus /comma
/hyphen /period /slash /zero /one
/two /three /four /five /six
/seven /eight /nine /colon /semicolon
/less /equal /greater /question /at
/A /B /C /D /E
/F /G /H /I /J
/K /L /M /N /O
/P /Q /R /S /T
/U /V /W /X /Y
/Z /bracketleft /backslash /bracketright /asciicircum
/underscore /quoteleft /a /b /c
/d /e /f /g /h
/i /j /k /l /m
/n /o /p /q /r
/s /t /u /v /w
/x /y /z /braceleft /bar
/braceright /asciitilde /bullet /Euro /bullet
/quotesinglbase /florin /quotedblbase /ellipsis /dagger
/daggerdbl /circumflex /perthousand /Scaron /guilsinglleft
/OE /bullet /Zcaron /bullet /bullet
/quoteleft /quoteright /quotedblleft /quotedblright /bullet
/endash /emdash /asciitilde /trademark /scaron
/guilsinglright /oe /bullet /zcaron /Ydieresis
/space /exclamdown /cent /sterling /currency
/yen /brokenbar /section /dieresis /copyright
/ordfeminine /guillemotleft /logicalnot /sfthyphen /registered
/macron /degree /plusminus /twosuperior /threesuperior
/acute /mu /paragraph /middot /cedilla
/onesuperior /ordmasculine /guillemotright /onequarter /onehalf
/threequarters /questiondown /Agrave /Aacute /Acircumflex
/Atilde /Adieresis /Aring /AE /Ccedilla
/Egrave /Eacute /Ecircumflex /Edieresis /Igrave
/Iacute /Icircumflex /Idieresis /Eth /Ntilde
/Ograve /Oacute /Ocircumflex /Otilde /Odieresis
/multiply /Oslash /Ugrave /Uacute /Ucircumflex
/Udieresis /Yacute /Thorn /germandbls /agrave
/aacute /acircumflex /atilde /adieresis /aring
/ae /ccedilla /egrave /eacute /ecircumflex
/edieresis /igrave /iacute /icircumflex /idieresis
/eth /ntilde /ograve /oacute /ocircumflex
/otilde /odieresis /divide /oslash /ugrave
/uacute /ucircumflex /udieresis /yacute /thorn
/ydieresis
] def
%%EndResource
%FOPBeginFontReencode
/Courier-Oblique findfont
dup length dict begin
  {1 index /FID ne {def} {pop pop} ifelse} forall
  /Encoding WinAnsiEncoding def
  currentdict
end
/Courier-Oblique exch definefont pop
/Courier-BoldOblique findfont
dup length dict begin
  {1 index /FID ne {def} {pop pop} ifelse} forall
  /Encoding WinAnsiEncoding def
  currentdict
end
/Courier-BoldOblique exch definefont pop
/Courier-Bold findfont
dup length dict begin
  {1 index /FID ne {def} {pop pop} ifelse} forall
  /Encoding WinAnsiEncoding def
  currentdict
end
/Courier-Bold exch definefont pop
/Helvetica findfont
dup length dict begin
  {1 index /FID ne {def} {pop pop} ifelse} forall
  /Encoding WinAnsiEncoding def
  currentdict
end
/Helvetica exch definefont pop
/Helvetica-Oblique findfont
dup length dict begin
  {1 index /FID ne {def} {pop pop} ifelse} forall
  /Encoding WinAnsiEncoding def
  currentdict
end
/Helvetica-Oblique exch definefont pop
/Helvetica-Bold findfont
dup length dict begin
  {1 index /FID ne {def} {pop pop} ifelse} forall
  /Encoding WinAnsiEncoding def
  currentdict
end
/Helvetica-Bold exch definefont pop
/Helvetica-BoldOblique findfont
dup length dict begin
  {1 index /FID ne {def} {pop pop} ifelse} forall
  /Encoding WinAnsiEncoding def
  currentdict
end
/Helvetica-BoldOblique exch definefont pop
/Times-Roman findfont
dup length dict begin
  {1 index /FID ne {def} {pop pop} ifelse} forall
  /Encoding WinAnsiEncoding def
  currentdict
end
/Times-Roman exch definefont pop
/Times-Italic findfont
dup length dict begin
  {1 index /FID ne {def} {pop pop} ifelse} forall
  /Encoding WinAnsiEncoding def
  currentdict
end
/Times-Italic exch definefont pop
/Times-Bold findfont
dup length dict begin
  {1 index /FID ne {def} {pop pop} ifelse} forall
  /Encoding WinAnsiEncoding def
  currentdict
end
/Times-Bold exch definefont pop
/Times-BoldItalic findfont
dup length dict begin
  {1 index /FID ne {def} {pop pop} ifelse} forall
  /Encoding WinAnsiEncoding def
  currentdict
end
/Times-BoldItalic exch definefont pop
/Courier findfont
dup length dict begin
  {1 index /FID ne {def} {pop pop} ifelse} forall
  /Encoding WinAnsiEncoding def
  currentdict
end
/Courier exch definefont pop
%FOPEndFontReencode
%%EndProlog
%%Page: 1 1
%%PageBoundingBox: 0 0 500 350
%%BeginPageSetup
[1 0 0 -1 0 350] CT
%%EndPageSetup
GS
1 GC
N
0 0 500 350 re
f
GR
GS
1 GC
N
0 0 500 350 re
f
GR
GS
1 GC
N
65 125 M
453 125 L
453 38 L
65 38 L
cp
f
GR
GS
0.873 GC
1 LJ
0.5 LW
N
142.289 125 M
142.289 38 L
S
GR
GS
0.873 GC
1 LJ
0.5 LW
N
219.967 125 M
219.967 38 L
S
GR
GS
0.873 GC
1 LJ
0.5 LW
N
297.645 125 M
297.645 38 L
S
GR
GS
0.873 GC
1 LJ
0.5 LW
N
375.322 125 M
375.322 38 L
S
GR
GS
0.873 GC
1 LJ
0.5 LW
N
453 125 M
453 38 L
S
GR
GS
0.873 GC
1 LJ
0.5 LW
N
453 125 M
65 125 L
S
GR
GS
0.873 GC
1 LJ
0.5 LW
N
453 71.407 M
65 71.407 L
S
GR
GS
0.149 GC
2 setlinecap
1 LJ
0.5 LW
N
65 125 M
453 125 L
S
GR
GS
0.149 GC
2 setlinecap
1 LJ
0.5 LW
N
65 38 M
453 38 L
S
GR
GS
0.149 GC
2 setlinecap
1 LJ
0.5 LW
N
142.289 125 M
142.289 121.12 L
S
GR
GS
0.149 GC
2 setlinecap
1 LJ
0.5 LW
N
219.967 125 M
219.967 121.12 L
S
GR
GS
0.149 GC
2 setlinecap
1 LJ
0.5 LW
N
297.645 125 M
297.645 121.12 L
S
GR
GS
0.149 GC
2 setlinecap
1 LJ
0.5 LW
N
375.322 125 M
375.322 121.12 L
S
GR
GS
0.149 GC
2 setlinecap
1 LJ
0.5 LW
N
453 125 M
453 121.12 L
S
GR
GS
0.149 GC
2 setlinecap
1 LJ
0.5 LW
N
142.289 38 M
142.289 41.88 L
S
GR
GS
0.149 GC
2 setlinecap
1 LJ
0.5 LW
N
219.967 38 M
219.967 41.88 L
S
GR
GS
0.149 GC
2 setlinecap
1 LJ
0.5 LW
N
297.645 38 M
297.645 41.88 L
S
GR
GS
0.149 GC
2 setlinecap
1 LJ
0.5 LW
N
375.322 38 M
375.322 41.88 L
S
GR
GS
0.149 GC
2 setlinecap
1 LJ
0.5 LW
N
453 38 M
453 41.88 L
S
GR
GS
[1 0 0 1 142.28929 130.60001] CT
0.149 GC
/Times-Roman 18 F
GS
[1 0 0 1 0 0] CT
-13.5 17 moveto 
1 -1 scale
(200) t 
GR
GR
GS
[1 0 0 1 219.96696 130.60001] CT
0.149 GC
/Times-Roman 18 F
GS
[1 0 0 1 0 0] CT
-13.5 17 moveto 
1 -1 scale
(400) t 
GR
GR
GS
[1 0 0 1 297.64465 130.60001] CT
0.149 GC
/Times-Roman 18 F
GS
[1 0 0 1 0 0] CT
-13.5 17 moveto 
1 -1 scale
(600) t 
GR
GR
GS
[1 0 0 1 375.32233 130.60001] CT
0.149 GC
/Times-Roman 18 F
GS
[1 0 0 1 0 0] CT
-13.5 17 moveto 
1 -1 scale
(800) t 
GR
GR
GS
[1 0 0 1 453 130.60001] CT
0.149 GC
/Times-Roman 18 F
GS
[1 0 0 1 0 0] CT
-18 17 moveto 
1 -1 scale
(1000) t 
GR
GR
GS
[1 0 0 1 259.00018 152.60001] CT
0.149 GC
/Times-Roman 19.8 F
GS
[1 0 0 1 0 0] CT
-47.5 18 moveto 
1 -1 scale
(TS iteration) t 
GR
GR
GS
0.149 GC
2 setlinecap
1 LJ
0.5 LW
N
65 125 M
65 38 L
S
GR
GS
0.149 GC
2 setlinecap
1 LJ
0.5 LW
N
453 125 M
453 38 L
S
GR
GS
0.149 GC
2 setlinecap
1 LJ
0.5 LW
N
65 125 M
68.88 125 L
S
GR
GS
0.149 GC
2 setlinecap
1 LJ
0.5 LW
N
65 71.407 M
68.88 71.407 L
S
GR
GS
0.149 GC
2 setlinecap
1 LJ
0.5 LW
N
453 125 M
449.12 125 L
S
GR
GS
0.149 GC
2 setlinecap
1 LJ
0.5 LW
N
453 71.407 M
449.12 71.407 L
S
GR
GS
[1 0 0 1 59.4 125] CT
0.149 GC
/Times-Roman 18 F
GS
[1 0 0 1 0 0] CT
-9 6.5 moveto 
1 -1 scale
(0) t 
GR
GR
GS
[1 0 0 1 59.4 71.4065] CT
0.149 GC
/Times-Roman 18 F
GS
[1 0 0 1 0 0] CT
-27 6.5 moveto 
1 -1 scale
(100) t 
GR
GR
GS
[0 -1 1 0 29.4 81.49996] CT
0.149 GC
/Times-Roman 19.8 F
GS
[1 0 0 1 0 0] CT
-78.5 -5 moveto 
1 -1 scale
(Throughput \(Mbps\)) t 
GR
GR
GS
[1 0 0 1 259.00024 33.05] CT
/Times-Bold 19.8 F
GS
[1 0 0 1 0 0] CT
-24.5 -5 moveto 
1 -1 scale
(WN 1) t 
GR
GR
GS
0 0.447 0.741 RC
1 LJ
0.5 LW
N
65 45.909 M
65.388 61.135 L
65.777 61.135 L
66.165 61.135 L
66.554 61.135 L
66.942 45.909 L
67.33 61.135 L
67.719 45.909 L
68.107 45.909 L
68.495 45.909 L
68.884 45.909 L
69.272 45.909 L
69.661 45.909 L
70.049 45.909 L
70.437 45.909 L
70.826 45.909 L
71.214 61.135 L
71.603 61.135 L
71.991 61.135 L
72.379 61.135 L
72.768 61.135 L
73.156 61.135 L
73.545 61.135 L
73.933 61.135 L
74.321 61.135 L
74.71 61.135 L
75.098 61.135 L
75.486 61.135 L
75.875 61.135 L
76.263 61.135 L
76.652 61.135 L
77.04 61.135 L
77.428 61.135 L
77.817 61.135 L
78.205 61.135 L
78.594 61.135 L
78.982 61.135 L
79.37 61.135 L
79.759 61.135 L
80.147 61.135 L
80.536 61.135 L
80.924 61.135 L
81.312 61.135 L
81.701 61.135 L
82.089 61.135 L
82.477 61.135 L
82.866 61.135 L
83.254 61.135 L
83.643 61.135 L
84.031 61.135 L
84.419 61.135 L
84.808 61.135 L
85.196 61.135 L
85.585 61.135 L
85.973 61.135 L
86.361 61.135 L
86.75 61.135 L
87.138 61.135 L
87.527 61.135 L
87.915 61.135 L
88.303 61.135 L
88.692 61.135 L
89.08 61.135 L
89.468 61.135 L
89.857 61.135 L
90.245 61.135 L
90.634 61.135 L
91.022 61.135 L
91.41 61.135 L
91.799 61.135 L
92.187 61.135 L
92.576 61.135 L
92.964 61.135 L
93.352 61.135 L
93.741 61.135 L
94.129 61.135 L
94.518 61.135 L
94.906 61.135 L
95.294 61.135 L
95.683 61.135 L
96.071 61.135 L
96.459 61.135 L
96.848 61.135 L
97.236 61.135 L
97.625 61.135 L
98.013 61.135 L
98.401 61.135 L
98.79 61.135 L
99.178 61.135 L
99.567 61.135 L
99.955 61.135 L
100.343 61.135 L
100.732 61.135 L
101.12 61.135 L
101.509 61.135 L
101.897 61.135 L
102.285 61.135 L
102.674 61.135 L
103.062 61.135 L
103.45 61.135 L
103.839 61.135 L
104.227 61.135 L
104.616 61.135 L
105.004 61.135 L
105.392 61.135 L
105.781 61.135 L
106.169 61.135 L
106.558 61.135 L
106.946 61.135 L
107.334 61.135 L
107.723 61.135 L
108.111 61.135 L
108.499 61.135 L
108.888 61.135 L
109.276 61.135 L
109.665 61.135 L
110.053 61.135 L
110.441 61.135 L
110.83 61.135 L
111.218 61.135 L
111.607 61.135 L
111.995 61.135 L
112.383 61.135 L
112.772 61.135 L
113.16 61.135 L
113.549 61.135 L
113.937 61.135 L
114.325 61.135 L
114.714 61.135 L
115.102 61.135 L
115.49 61.135 L
115.879 61.135 L
116.267 61.135 L
116.656 61.135 L
117.044 61.135 L
117.432 61.135 L
117.821 61.135 L
118.209 61.135 L
118.598 61.135 L
118.986 61.135 L
119.374 61.135 L
119.763 61.135 L
120.151 61.135 L
120.54 61.135 L
120.928 61.135 L
121.316 61.135 L
121.705 61.135 L
122.093 61.135 L
122.481 61.135 L
122.87 61.135 L
123.258 61.135 L
123.647 61.135 L
124.035 61.135 L
124.423 61.135 L
124.812 61.135 L
125.2 61.135 L
125.589 61.135 L
125.977 61.135 L
126.365 61.135 L
126.754 61.135 L
127.142 61.135 L
127.531 61.135 L
127.919 61.135 L
128.307 61.135 L
128.696 61.135 L
129.084 61.135 L
129.472 61.135 L
129.861 61.135 L
130.249 61.135 L
130.638 61.135 L
131.026 61.135 L
131.414 61.135 L
131.803 61.135 L
132.191 61.135 L
132.58 61.135 L
132.968 61.135 L
133.356 61.135 L
133.745 61.135 L
134.133 61.135 L
134.522 61.135 L
134.91 61.135 L
135.298 61.135 L
135.687 61.135 L
136.075 61.135 L
136.463 61.135 L
136.852 61.135 L
137.24 61.135 L
137.629 61.135 L
138.017 61.135 L
138.405 61.135 L
138.794 61.135 L
139.182 61.135 L
139.571 61.135 L
139.959 61.135 L
140.347 61.135 L
140.736 61.135 L
141.124 61.135 L
141.513 61.135 L
141.901 61.135 L
142.289 61.135 L
142.678 61.135 L
143.066 61.135 L
143.454 61.135 L
143.843 61.135 L
144.231 61.135 L
144.62 61.135 L
145.008 61.135 L
145.396 61.135 L
145.785 61.135 L
146.173 61.135 L
146.562 61.135 L
146.95 61.135 L
147.338 61.135 L
147.727 61.135 L
148.115 61.135 L
148.504 61.135 L
148.892 61.135 L
149.28 61.135 L
149.669 61.135 L
150.057 61.135 L
150.445 61.135 L
150.834 61.135 L
151.222 61.135 L
151.611 61.135 L
151.999 61.135 L
152.387 61.135 L
152.776 61.135 L
153.164 61.135 L
153.553 61.135 L
153.941 61.135 L
154.329 61.135 L
154.718 61.135 L
155.106 61.135 L
155.494 61.135 L
155.883 61.135 L
156.271 61.135 L
156.66 61.135 L
157.048 61.135 L
157.436 61.135 L
157.825 61.135 L
158.213 61.135 L
158.602 61.135 L
158.99 61.135 L
159.378 61.135 L
159.767 61.135 L
160.155 61.135 L
160.544 61.135 L
160.932 61.135 L
161.32 61.135 L
161.709 61.135 L
162.097 61.135 L
162.485 61.135 L
162.874 61.135 L
163.262 61.135 L
163.651 61.135 L
164.039 61.135 L
164.427 61.135 L
164.816 61.135 L
165.204 61.135 L
165.593 61.135 L
165.981 61.135 L
166.369 61.135 L
166.758 61.135 L
167.146 61.135 L
167.535 61.135 L
167.923 61.135 L
168.311 61.135 L
168.7 61.135 L
169.088 61.135 L
169.476 61.135 L
169.865 61.135 L
170.253 61.135 L
170.642 61.135 L
171.03 61.135 L
171.418 61.135 L
171.807 61.135 L
172.195 61.135 L
172.584 61.135 L
172.972 61.135 L
173.36 61.135 L
173.749 61.135 L
174.137 61.135 L
174.526 61.135 L
174.914 61.135 L
175.302 61.135 L
175.691 61.135 L
176.079 61.135 L
176.467 61.135 L
176.856 61.135 L
177.244 61.135 L
177.633 61.135 L
178.021 61.135 L
178.409 61.135 L
178.798 61.135 L
179.186 61.135 L
179.575 61.135 L
179.963 61.135 L
180.351 61.135 L
180.74 61.135 L
181.128 61.135 L
181.517 61.135 L
181.905 61.135 L
182.293 61.135 L
182.682 61.135 L
183.07 61.135 L
183.458 61.135 L
183.847 61.135 L
184.235 61.135 L
184.624 61.135 L
185.012 61.135 L
185.4 61.135 L
185.789 61.135 L
186.177 61.135 L
186.566 61.135 L
186.954 61.135 L
187.342 61.135 L
187.731 61.135 L
188.119 61.135 L
188.508 61.135 L
188.896 45.909 L
189.284 45.909 L
189.673 45.909 L
190.061 45.909 L
190.449 45.909 L
190.838 61.135 L
191.226 61.135 L
191.615 61.135 L
192.003 61.135 L
192.391 61.135 L
192.78 61.135 L
193.168 61.135 L
193.557 61.135 L
193.945 61.135 L
194.333 61.135 L
194.722 61.135 L
195.11 61.135 L
195.499 61.135 L
195.887 61.135 L
196.275 61.135 L
196.664 61.135 L
197.052 61.135 L
197.44 61.135 L
197.829 61.135 L
198.217 61.135 L
198.606 61.135 L
198.994 61.135 L
199.382 61.135 L
199.771 61.135 L
200.159 61.135 L
200.548 61.135 L
200.936 61.135 L
201.324 61.135 L
201.713 61.135 L
202.101 61.135 L
202.489 61.135 L
202.878 61.135 L
203.266 61.135 L
203.655 61.135 L
204.043 61.135 L
204.431 61.135 L
204.82 61.135 L
205.208 61.135 L
205.597 61.135 L
205.985 61.135 L
206.373 61.135 L
206.762 61.135 L
207.15 61.135 L
207.539 61.135 L
207.927 61.135 L
208.315 61.135 L
208.704 61.135 L
209.092 61.135 L
209.48 61.135 L
209.869 61.135 L
210.257 61.135 L
210.646 61.135 L
211.034 61.135 L
211.422 61.135 L
211.811 61.135 L
212.199 61.135 L
212.588 61.135 L
212.976 61.135 L
213.364 61.135 L
213.753 61.135 L
214.141 61.135 L
214.53 61.135 L
214.918 61.135 L
215.306 61.135 L
215.695 61.135 L
216.083 61.135 L
216.471 61.135 L
216.86 61.135 L
217.248 61.135 L
217.637 61.135 L
218.025 61.135 L
218.413 61.135 L
218.802 61.135 L
219.19 61.135 L
219.579 61.135 L
219.967 61.135 L
220.355 61.135 L
220.744 61.135 L
221.132 61.135 L
221.521 61.135 L
221.909 61.135 L
222.297 61.135 L
222.686 61.135 L
223.074 61.135 L
223.462 61.135 L
223.851 61.135 L
224.239 61.135 L
224.628 61.135 L
225.016 61.135 L
225.404 61.135 L
225.793 61.135 L
226.181 61.135 L
226.57 61.135 L
226.958 61.135 L
227.346 61.135 L
227.735 61.135 L
228.123 61.135 L
228.512 61.135 L
228.9 61.135 L
229.288 61.135 L
229.677 61.135 L
230.065 61.135 L
230.453 61.135 L
230.842 61.135 L
231.23 61.135 L
231.619 61.135 L
232.007 61.135 L
232.395 61.135 L
232.784 61.135 L
233.172 61.135 L
233.561 61.135 L
233.949 61.135 L
234.337 61.135 L
234.726 61.135 L
235.114 61.135 L
235.503 61.135 L
235.891 61.135 L
236.279 61.135 L
236.668 61.135 L
237.056 61.135 L
237.444 61.135 L
237.833 61.135 L
238.221 61.135 L
238.61 61.135 L
238.998 61.135 L
239.386 61.135 L
239.775 61.135 L
240.163 61.135 L
240.552 61.135 L
240.94 61.135 L
241.328 61.135 L
241.717 61.135 L
242.105 61.135 L
242.493 61.135 L
242.882 61.135 L
243.27 61.135 L
243.659 61.135 L
244.047 61.135 L
244.435 61.135 L
244.824 61.135 L
245.212 61.135 L
245.601 61.135 L
245.989 61.135 L
246.377 61.135 L
246.766 61.135 L
247.154 61.135 L
247.543 61.135 L
247.931 61.135 L
248.319 61.135 L
248.708 61.135 L
249.096 61.135 L
249.484 61.135 L
249.873 61.135 L
250.261 61.135 L
250.65 61.135 L
251.038 61.135 L
251.426 61.135 L
251.815 61.135 L
252.203 61.135 L
252.592 61.135 L
252.98 61.135 L
253.368 61.135 L
253.757 61.135 L
254.145 61.135 L
254.534 61.135 L
254.922 61.135 L
255.31 61.135 L
255.699 61.135 L
256.087 61.135 L
256.475 61.135 L
256.864 61.135 L
257.252 61.135 L
257.641 61.135 L
258.029 61.135 L
258.417 61.135 L
258.806 61.135 L
259.194 61.135 L
259.583 61.135 L
259.971 61.135 L
260.359 61.135 L
260.748 61.135 L
261.136 61.135 L
261.525 61.135 L
261.913 61.135 L
262.301 61.135 L
262.69 61.135 L
263.078 61.135 L
263.466 61.135 L
263.855 61.135 L
264.243 61.135 L
264.632 61.135 L
265.02 61.135 L
265.408 61.135 L
265.797 61.135 L
266.185 61.135 L
266.574 61.135 L
266.962 61.135 L
267.35 61.135 L
267.739 61.135 L
268.127 61.135 L
268.516 61.135 L
268.904 61.135 L
269.292 61.135 L
269.681 61.135 L
270.069 61.135 L
270.457 61.135 L
270.846 61.135 L
271.234 61.135 L
271.623 61.135 L
272.011 61.135 L
272.399 61.135 L
272.788 61.135 L
273.176 61.135 L
273.565 61.135 L
273.953 61.135 L
274.341 61.135 L
274.73 61.135 L
275.118 61.135 L
275.507 61.135 L
275.895 61.135 L
276.283 61.135 L
276.672 61.135 L
277.06 61.135 L
277.448 61.135 L
277.837 61.135 L
278.225 61.135 L
278.614 61.135 L
279.002 61.135 L
279.39 61.135 L
279.779 61.135 L
280.167 61.135 L
280.556 61.135 L
280.944 61.135 L
281.332 61.135 L
281.721 61.135 L
282.109 61.135 L
282.497 61.135 L
282.886 61.135 L
283.274 61.135 L
283.663 61.135 L
284.051 61.135 L
284.439 61.135 L
284.828 61.135 L
285.216 61.135 L
285.605 61.135 L
285.993 61.135 L
286.381 61.135 L
286.77 61.135 L
287.158 61.135 L
287.547 61.135 L
287.935 61.135 L
288.323 61.135 L
288.712 61.135 L
289.1 61.135 L
289.488 61.135 L
289.877 61.135 L
290.265 61.135 L
290.654 61.135 L
291.042 61.135 L
291.43 61.135 L
291.819 61.135 L
292.207 61.135 L
292.596 61.135 L
292.984 61.135 L
293.372 61.135 L
293.761 61.135 L
294.149 61.135 L
294.538 61.135 L
294.926 61.135 L
295.314 61.135 L
295.703 61.135 L
296.091 61.135 L
296.479 61.135 L
296.868 61.135 L
297.256 61.135 L
297.645 61.135 L
298.033 61.135 L
298.421 61.135 L
298.81 61.135 L
299.198 61.135 L
299.587 61.135 L
299.975 61.135 L
300.363 61.135 L
300.752 61.135 L
301.14 61.135 L
301.529 61.135 L
301.917 61.135 L
302.305 61.135 L
302.694 61.135 L
303.082 61.135 L
303.47 61.135 L
303.859 61.135 L
304.247 61.135 L
304.636 61.135 L
305.024 61.135 L
305.412 61.135 L
305.801 61.135 L
306.189 61.135 L
306.578 61.135 L
306.966 61.135 L
307.354 61.135 L
307.743 61.135 L
308.131 61.135 L
308.52 61.135 L
308.908 61.135 L
309.296 61.135 L
309.685 61.135 L
310.073 61.135 L
310.461 61.135 L
310.85 61.135 L
311.238 61.135 L
311.627 61.135 L
312.015 61.135 L
312.403 61.135 L
312.792 61.135 L
313.18 61.135 L
313.569 61.135 L
313.957 61.135 L
314.345 61.135 L
314.734 61.135 L
315.122 61.135 L
315.51 61.135 L
315.899 61.135 L
316.287 61.135 L
316.676 61.135 L
317.064 61.135 L
317.452 61.135 L
317.841 61.135 L
318.229 61.135 L
318.618 61.135 L
319.006 61.135 L
319.394 61.135 L
319.783 61.135 L
320.171 61.135 L
320.56 61.135 L
320.948 61.135 L
321.336 61.135 L
321.725 61.135 L
322.113 61.135 L
322.501 61.135 L
322.89 61.135 L
323.278 61.135 L
323.667 61.135 L
324.055 61.135 L
324.443 61.135 L
324.832 61.135 L
325.22 61.135 L
325.609 61.135 L
325.997 61.135 L
326.385 61.135 L
326.774 61.135 L
327.162 61.135 L
327.551 61.135 L
327.939 61.135 L
328.327 61.135 L
328.716 61.135 L
329.104 61.135 L
329.492 61.135 L
329.881 61.135 L
330.269 61.135 L
330.658 61.135 L
331.046 61.135 L
331.434 61.135 L
331.823 61.135 L
332.211 61.135 L
332.6 61.135 L
332.988 61.135 L
333.376 61.135 L
333.765 61.135 L
334.153 61.135 L
334.542 61.135 L
334.93 61.135 L
335.318 61.135 L
335.707 61.135 L
336.095 61.135 L
336.483 61.135 L
336.872 61.135 L
337.26 61.135 L
337.649 61.135 L
338.037 61.135 L
338.425 61.135 L
338.814 61.135 L
339.202 61.135 L
339.591 61.135 L
339.979 61.135 L
340.367 61.135 L
340.756 61.135 L
341.144 61.135 L
341.533 61.135 L
341.921 61.135 L
342.309 61.135 L
342.698 61.135 L
343.086 61.135 L
343.474 61.135 L
343.863 61.135 L
344.251 61.135 L
344.64 61.135 L
345.028 61.135 L
345.416 61.135 L
345.805 61.135 L
346.193 61.135 L
346.582 61.135 L
346.97 61.135 L
347.358 61.135 L
347.747 61.135 L
348.135 61.135 L
348.524 61.135 L
348.912 61.135 L
349.3 61.135 L
349.689 61.135 L
350.077 61.135 L
350.465 61.135 L
350.854 61.135 L
351.242 61.135 L
351.631 61.135 L
352.019 61.135 L
352.407 61.135 L
352.796 61.135 L
353.184 61.135 L
353.573 61.135 L
353.961 61.135 L
354.349 61.135 L
354.738 61.135 L
355.126 61.135 L
355.515 61.135 L
355.903 61.135 L
356.291 61.135 L
356.68 61.135 L
357.068 61.135 L
357.456 61.135 L
357.845 61.135 L
358.233 61.135 L
358.622 61.135 L
359.01 61.135 L
359.398 61.135 L
359.787 61.135 L
360.175 61.135 L
360.564 61.135 L
360.952 61.135 L
361.34 61.135 L
361.729 61.135 L
362.117 61.135 L
362.505 61.135 L
362.894 61.135 L
363.282 61.135 L
363.671 61.135 L
364.059 61.135 L
364.447 61.135 L
364.836 61.135 L
365.224 61.135 L
365.613 61.135 L
366.001 61.135 L
366.389 61.135 L
366.778 61.135 L
367.166 61.135 L
367.555 61.135 L
367.943 61.135 L
368.331 61.135 L
368.72 61.135 L
369.108 61.135 L
369.496 61.135 L
369.885 61.135 L
370.273 61.135 L
370.662 61.135 L
371.05 61.135 L
371.438 61.135 L
371.827 61.135 L
372.215 61.135 L
372.604 61.135 L
372.992 61.135 L
373.38 61.135 L
373.769 61.135 L
374.157 61.135 L
374.546 61.135 L
374.934 61.135 L
375.322 61.135 L
375.711 61.135 L
376.099 61.135 L
376.487 61.135 L
376.876 61.135 L
377.264 61.135 L
377.653 61.135 L
378.041 61.135 L
378.429 61.135 L
378.818 61.135 L
379.206 61.135 L
379.595 61.135 L
379.983 61.135 L
380.371 61.135 L
380.76 61.135 L
381.148 61.135 L
381.537 61.135 L
381.925 61.135 L
382.313 61.135 L
382.702 61.135 L
383.09 61.135 L
383.478 61.135 L
383.867 61.135 L
384.255 61.135 L
384.644 61.135 L
385.032 61.135 L
385.42 61.135 L
385.809 61.135 L
386.197 61.135 L
386.586 61.135 L
386.974 61.135 L
387.362 61.135 L
387.751 61.135 L
388.139 61.135 L
388.528 61.135 L
388.916 61.135 L
389.304 61.135 L
389.693 61.135 L
390.081 61.135 L
390.469 61.135 L
390.858 61.135 L
391.246 61.135 L
391.635 61.135 L
392.023 61.135 L
392.411 61.135 L
392.8 61.135 L
393.188 61.135 L
393.577 61.135 L
393.965 61.135 L
394.353 61.135 L
394.742 61.135 L
395.13 61.135 L
395.519 61.135 L
395.907 61.135 L
396.295 61.135 L
396.684 61.135 L
397.072 61.135 L
397.46 61.135 L
397.849 61.135 L
398.237 61.135 L
398.626 61.135 L
399.014 61.135 L
399.402 61.135 L
399.791 61.135 L
400.179 61.135 L
400.568 61.135 L
400.956 61.135 L
401.344 61.135 L
401.733 61.135 L
402.121 61.135 L
402.51 61.135 L
402.898 61.135 L
403.286 61.135 L
403.675 61.135 L
404.063 61.135 L
404.451 61.135 L
404.84 61.135 L
405.228 61.135 L
405.617 61.135 L
406.005 61.135 L
406.393 61.135 L
406.782 61.135 L
407.17 61.135 L
407.559 61.135 L
407.947 61.135 L
408.335 61.135 L
408.724 61.135 L
409.112 61.135 L
409.5 61.135 L
409.889 61.135 L
410.277 61.135 L
410.666 61.135 L
411.054 61.135 L
411.442 61.135 L
411.831 61.135 L
412.219 61.135 L
412.608 61.135 L
412.996 61.135 L
413.384 61.135 L
413.773 61.135 L
414.161 61.135 L
414.55 61.135 L
414.938 61.135 L
415.326 61.135 L
415.715 61.135 L
416.103 61.135 L
416.491 61.135 L
416.88 61.135 L
417.268 61.135 L
417.657 61.135 L
418.045 61.135 L
418.433 61.135 L
418.822 61.135 L
419.21 61.135 L
419.599 61.135 L
419.987 61.135 L
420.375 61.135 L
420.764 61.135 L
421.152 61.135 L
421.541 61.135 L
421.929 61.135 L
422.317 61.135 L
422.706 61.135 L
423.094 61.135 L
423.482 61.135 L
423.871 61.135 L
424.259 61.135 L
424.648 61.135 L
425.036 61.135 L
425.424 61.135 L
425.813 61.135 L
426.201 61.135 L
426.59 61.135 L
426.978 61.135 L
427.366 61.135 L
427.755 61.135 L
428.143 61.135 L
428.532 61.135 L
428.92 61.135 L
429.308 61.135 L
429.697 61.135 L
430.085 61.135 L
430.473 61.135 L
430.862 61.135 L
431.25 61.135 L
431.639 61.135 L
432.027 61.135 L
432.415 61.135 L
432.804 61.135 L
433.192 61.135 L
433.581 61.135 L
433.969 61.135 L
434.357 61.135 L
434.746 61.135 L
435.134 61.135 L
435.523 61.135 L
435.911 61.135 L
436.299 61.135 L
436.688 61.135 L
437.076 61.135 L
437.464 61.135 L
437.853 61.135 L
438.241 61.135 L
438.63 61.135 L
439.018 61.135 L
439.406 61.135 L
439.795 61.135 L
440.183 61.135 L
440.572 61.135 L
440.96 61.135 L
441.348 61.135 L
441.737 61.135 L
442.125 61.135 L
442.514 61.135 L
442.902 61.135 L
443.29 61.135 L
443.679 61.135 L
444.067 61.135 L
444.455 61.135 L
444.844 61.135 L
445.232 61.135 L
445.621 61.135 L
446.009 61.135 L
446.397 61.135 L
446.786 61.135 L
447.174 61.135 L
447.563 61.135 L
447.951 61.135 L
448.339 61.135 L
448.728 61.135 L
449.116 61.135 L
449.505 61.135 L
449.893 61.135 L
450.281 61.135 L
450.67 61.135 L
451.058 61.135 L
451.446 61.135 L
451.835 61.135 L
452.223 61.135 L
452.612 61.135 L
453 61.135 L
S
GR
GS
1 0 0 RC
[8 8] 0 setdash
2 LJ
2 LW
N
65 61.135 M
65.388 61.135 L
65.777 61.135 L
66.165 61.135 L
66.554 61.135 L
66.942 61.135 L
67.33 61.135 L
67.719 61.135 L
68.107 61.135 L
68.495 61.135 L
68.884 61.135 L
69.272 61.135 L
69.661 61.135 L
70.049 61.135 L
70.437 61.135 L
70.826 61.135 L
71.214 61.135 L
71.603 61.135 L
71.991 61.135 L
72.379 61.135 L
72.768 61.135 L
73.156 61.135 L
73.545 61.135 L
73.933 61.135 L
74.321 61.135 L
74.71 61.135 L
75.098 61.135 L
75.486 61.135 L
75.875 61.135 L
76.263 61.135 L
76.652 61.135 L
77.04 61.135 L
77.428 61.135 L
77.817 61.135 L
78.205 61.135 L
78.594 61.135 L
78.982 61.135 L
79.37 61.135 L
79.759 61.135 L
80.147 61.135 L
80.536 61.135 L
80.924 61.135 L
81.312 61.135 L
81.701 61.135 L
82.089 61.135 L
82.477 61.135 L
82.866 61.135 L
83.254 61.135 L
83.643 61.135 L
84.031 61.135 L
84.419 61.135 L
84.808 61.135 L
85.196 61.135 L
85.585 61.135 L
85.973 61.135 L
86.361 61.135 L
86.75 61.135 L
87.138 61.135 L
87.527 61.135 L
87.915 61.135 L
88.303 61.135 L
88.692 61.135 L
89.08 61.135 L
89.468 61.135 L
89.857 61.135 L
90.245 61.135 L
90.634 61.135 L
91.022 61.135 L
91.41 61.135 L
91.799 61.135 L
92.187 61.135 L
92.576 61.135 L
92.964 61.135 L
93.352 61.135 L
93.741 61.135 L
94.129 61.135 L
94.518 61.135 L
94.906 61.135 L
95.294 61.135 L
95.683 61.135 L
96.071 61.135 L
96.459 61.135 L
96.848 61.135 L
97.236 61.135 L
97.625 61.135 L
98.013 61.135 L
98.401 61.135 L
98.79 61.135 L
99.178 61.135 L
99.567 61.135 L
99.955 61.135 L
100.343 61.135 L
100.732 61.135 L
101.12 61.135 L
101.509 61.135 L
101.897 61.135 L
102.285 61.135 L
102.674 61.135 L
103.062 61.135 L
103.45 61.135 L
103.839 61.135 L
104.227 61.135 L
104.616 61.135 L
105.004 61.135 L
105.392 61.135 L
105.781 61.135 L
106.169 61.135 L
106.558 61.135 L
106.946 61.135 L
107.334 61.135 L
107.723 61.135 L
108.111 61.135 L
108.499 61.135 L
108.888 61.135 L
109.276 61.135 L
109.665 61.135 L
110.053 61.135 L
110.441 61.135 L
110.83 61.135 L
111.218 61.135 L
111.607 61.135 L
111.995 61.135 L
112.383 61.135 L
112.772 61.135 L
113.16 61.135 L
113.549 61.135 L
113.937 61.135 L
114.325 61.135 L
114.714 61.135 L
115.102 61.135 L
115.49 61.135 L
115.879 61.135 L
116.267 61.135 L
116.656 61.135 L
117.044 61.135 L
117.432 61.135 L
117.821 61.135 L
118.209 61.135 L
118.598 61.135 L
118.986 61.135 L
119.374 61.135 L
119.763 61.135 L
120.151 61.135 L
120.54 61.135 L
120.928 61.135 L
121.316 61.135 L
121.705 61.135 L
122.093 61.135 L
122.481 61.135 L
122.87 61.135 L
123.258 61.135 L
123.647 61.135 L
124.035 61.135 L
124.423 61.135 L
124.812 61.135 L
125.2 61.135 L
125.589 61.135 L
125.977 61.135 L
126.365 61.135 L
126.754 61.135 L
127.142 61.135 L
127.531 61.135 L
127.919 61.135 L
128.307 61.135 L
128.696 61.135 L
129.084 61.135 L
129.472 61.135 L
129.861 61.135 L
130.249 61.135 L
130.638 61.135 L
131.026 61.135 L
131.414 61.135 L
131.803 61.135 L
132.191 61.135 L
132.58 61.135 L
132.968 61.135 L
133.356 61.135 L
133.745 61.135 L
134.133 61.135 L
134.522 61.135 L
134.91 61.135 L
135.298 61.135 L
135.687 61.135 L
136.075 61.135 L
136.463 61.135 L
136.852 61.135 L
137.24 61.135 L
137.629 61.135 L
138.017 61.135 L
138.405 61.135 L
138.794 61.135 L
139.182 61.135 L
139.571 61.135 L
139.959 61.135 L
140.347 61.135 L
140.736 61.135 L
141.124 61.135 L
141.513 61.135 L
141.901 61.135 L
142.289 61.135 L
142.678 61.135 L
143.066 61.135 L
143.454 61.135 L
143.843 61.135 L
144.231 61.135 L
144.62 61.135 L
145.008 61.135 L
145.396 61.135 L
145.785 61.135 L
146.173 61.135 L
146.562 61.135 L
146.95 61.135 L
147.338 61.135 L
147.727 61.135 L
148.115 61.135 L
148.504 61.135 L
148.892 61.135 L
149.28 61.135 L
149.669 61.135 L
150.057 61.135 L
150.445 61.135 L
150.834 61.135 L
151.222 61.135 L
151.611 61.135 L
151.999 61.135 L
152.387 61.135 L
152.776 61.135 L
153.164 61.135 L
153.553 61.135 L
153.941 61.135 L
154.329 61.135 L
154.718 61.135 L
155.106 61.135 L
155.494 61.135 L
155.883 61.135 L
156.271 61.135 L
156.66 61.135 L
157.048 61.135 L
157.436 61.135 L
157.825 61.135 L
158.213 61.135 L
158.602 61.135 L
158.99 61.135 L
159.378 61.135 L
159.767 61.135 L
160.155 61.135 L
160.544 61.135 L
160.932 61.135 L
161.32 61.135 L
161.709 61.135 L
162.097 61.135 L
162.485 61.135 L
162.874 61.135 L
163.262 61.135 L
163.651 61.135 L
164.039 61.135 L
164.427 61.135 L
164.816 61.135 L
165.204 61.135 L
165.593 61.135 L
165.981 61.135 L
166.369 61.135 L
166.758 61.135 L
167.146 61.135 L
167.535 61.135 L
167.923 61.135 L
168.311 61.135 L
168.7 61.135 L
169.088 61.135 L
169.476 61.135 L
169.865 61.135 L
170.253 61.135 L
170.642 61.135 L
171.03 61.135 L
171.418 61.135 L
171.807 61.135 L
172.195 61.135 L
172.584 61.135 L
172.972 61.135 L
173.36 61.135 L
173.749 61.135 L
174.137 61.135 L
174.526 61.135 L
174.914 61.135 L
175.302 61.135 L
175.691 61.135 L
176.079 61.135 L
176.467 61.135 L
176.856 61.135 L
177.244 61.135 L
177.633 61.135 L
178.021 61.135 L
178.409 61.135 L
178.798 61.135 L
179.186 61.135 L
179.575 61.135 L
179.963 61.135 L
180.351 61.135 L
180.74 61.135 L
181.128 61.135 L
181.517 61.135 L
181.905 61.135 L
182.293 61.135 L
182.682 61.135 L
183.07 61.135 L
183.458 61.135 L
183.847 61.135 L
184.235 61.135 L
184.624 61.135 L
185.012 61.135 L
185.4 61.135 L
185.789 61.135 L
186.177 61.135 L
186.566 61.135 L
186.954 61.135 L
187.342 61.135 L
187.731 61.135 L
188.119 61.135 L
188.508 61.135 L
188.896 61.135 L
189.284 61.135 L
189.673 61.135 L
190.061 61.135 L
190.449 61.135 L
190.838 61.135 L
191.226 61.135 L
191.615 61.135 L
192.003 61.135 L
192.391 61.135 L
192.78 61.135 L
193.168 61.135 L
193.557 61.135 L
193.945 61.135 L
194.333 61.135 L
194.722 61.135 L
195.11 61.135 L
195.499 61.135 L
195.887 61.135 L
196.275 61.135 L
196.664 61.135 L
197.052 61.135 L
197.44 61.135 L
197.829 61.135 L
198.217 61.135 L
198.606 61.135 L
198.994 61.135 L
199.382 61.135 L
199.771 61.135 L
200.159 61.135 L
200.548 61.135 L
200.936 61.135 L
201.324 61.135 L
201.713 61.135 L
202.101 61.135 L
202.489 61.135 L
202.878 61.135 L
203.266 61.135 L
203.655 61.135 L
204.043 61.135 L
204.431 61.135 L
204.82 61.135 L
205.208 61.135 L
205.597 61.135 L
205.985 61.135 L
206.373 61.135 L
206.762 61.135 L
207.15 61.135 L
207.539 61.135 L
207.927 61.135 L
208.315 61.135 L
208.704 61.135 L
209.092 61.135 L
209.48 61.135 L
209.869 61.135 L
210.257 61.135 L
210.646 61.135 L
211.034 61.135 L
211.422 61.135 L
211.811 61.135 L
212.199 61.135 L
212.588 61.135 L
212.976 61.135 L
213.364 61.135 L
213.753 61.135 L
214.141 61.135 L
214.53 61.135 L
214.918 61.135 L
215.306 61.135 L
215.695 61.135 L
216.083 61.135 L
216.471 61.135 L
216.86 61.135 L
217.248 61.135 L
217.637 61.135 L
218.025 61.135 L
218.413 61.135 L
218.802 61.135 L
219.19 61.135 L
219.579 61.135 L
219.967 61.135 L
220.355 61.135 L
220.744 61.135 L
221.132 61.135 L
221.521 61.135 L
221.909 61.135 L
222.297 61.135 L
222.686 61.135 L
223.074 61.135 L
223.462 61.135 L
223.851 61.135 L
224.239 61.135 L
224.628 61.135 L
225.016 61.135 L
225.404 61.135 L
225.793 61.135 L
226.181 61.135 L
226.57 61.135 L
226.958 61.135 L
227.346 61.135 L
227.735 61.135 L
228.123 61.135 L
228.512 61.135 L
228.9 61.135 L
229.288 61.135 L
229.677 61.135 L
230.065 61.135 L
230.453 61.135 L
230.842 61.135 L
231.23 61.135 L
231.619 61.135 L
232.007 61.135 L
232.395 61.135 L
232.784 61.135 L
233.172 61.135 L
233.561 61.135 L
233.949 61.135 L
234.337 61.135 L
234.726 61.135 L
235.114 61.135 L
235.503 61.135 L
235.891 61.135 L
236.279 61.135 L
236.668 61.135 L
237.056 61.135 L
237.444 61.135 L
237.833 61.135 L
238.221 61.135 L
238.61 61.135 L
238.998 61.135 L
239.386 61.135 L
239.775 61.135 L
240.163 61.135 L
240.552 61.135 L
240.94 61.135 L
241.328 61.135 L
241.717 61.135 L
242.105 61.135 L
242.493 61.135 L
242.882 61.135 L
243.27 61.135 L
243.659 61.135 L
244.047 61.135 L
244.435 61.135 L
244.824 61.135 L
245.212 61.135 L
245.601 61.135 L
245.989 61.135 L
246.377 61.135 L
246.766 61.135 L
247.154 61.135 L
247.543 61.135 L
247.931 61.135 L
248.319 61.135 L
248.708 61.135 L
249.096 61.135 L
249.484 61.135 L
249.873 61.135 L
250.261 61.135 L
250.65 61.135 L
251.038 61.135 L
251.426 61.135 L
251.815 61.135 L
252.203 61.135 L
252.592 61.135 L
252.98 61.135 L
253.368 61.135 L
253.757 61.135 L
254.145 61.135 L
254.534 61.135 L
254.922 61.135 L
255.31 61.135 L
255.699 61.135 L
256.087 61.135 L
256.475 61.135 L
256.864 61.135 L
257.252 61.135 L
257.641 61.135 L
258.029 61.135 L
258.417 61.135 L
258.806 61.135 L
259.194 61.135 L
259.583 61.135 L
259.971 61.135 L
260.359 61.135 L
260.748 61.135 L
261.136 61.135 L
261.525 61.135 L
261.913 61.135 L
262.301 61.135 L
262.69 61.135 L
263.078 61.135 L
263.466 61.135 L
263.855 61.135 L
264.243 61.135 L
264.632 61.135 L
265.02 61.135 L
265.408 61.135 L
265.797 61.135 L
266.185 61.135 L
266.574 61.135 L
266.962 61.135 L
267.35 61.135 L
267.739 61.135 L
268.127 61.135 L
268.516 61.135 L
268.904 61.135 L
269.292 61.135 L
269.681 61.135 L
270.069 61.135 L
270.457 61.135 L
270.846 61.135 L
271.234 61.135 L
271.623 61.135 L
272.011 61.135 L
272.399 61.135 L
272.788 61.135 L
273.176 61.135 L
273.565 61.135 L
273.953 61.135 L
274.341 61.135 L
274.73 61.135 L
275.118 61.135 L
275.507 61.135 L
275.895 61.135 L
276.283 61.135 L
276.672 61.135 L
277.06 61.135 L
277.448 61.135 L
277.837 61.135 L
278.225 61.135 L
278.614 61.135 L
279.002 61.135 L
279.39 61.135 L
279.779 61.135 L
280.167 61.135 L
280.556 61.135 L
280.944 61.135 L
281.332 61.135 L
281.721 61.135 L
282.109 61.135 L
282.497 61.135 L
282.886 61.135 L
283.274 61.135 L
283.663 61.135 L
284.051 61.135 L
284.439 61.135 L
284.828 61.135 L
285.216 61.135 L
285.605 61.135 L
285.993 61.135 L
286.381 61.135 L
286.77 61.135 L
287.158 61.135 L
287.547 61.135 L
287.935 61.135 L
288.323 61.135 L
288.712 61.135 L
289.1 61.135 L
289.488 61.135 L
289.877 61.135 L
290.265 61.135 L
290.654 61.135 L
291.042 61.135 L
291.43 61.135 L
291.819 61.135 L
292.207 61.135 L
292.596 61.135 L
292.984 61.135 L
293.372 61.135 L
293.761 61.135 L
294.149 61.135 L
294.538 61.135 L
294.926 61.135 L
295.314 61.135 L
295.703 61.135 L
296.091 61.135 L
296.479 61.135 L
296.868 61.135 L
297.256 61.135 L
297.645 61.135 L
298.033 61.135 L
298.421 61.135 L
298.81 61.135 L
299.198 61.135 L
299.587 61.135 L
299.975 61.135 L
300.363 61.135 L
300.752 61.135 L
301.14 61.135 L
301.529 61.135 L
301.917 61.135 L
302.305 61.135 L
302.694 61.135 L
303.082 61.135 L
303.47 61.135 L
303.859 61.135 L
304.247 61.135 L
304.636 61.135 L
305.024 61.135 L
305.412 61.135 L
305.801 61.135 L
306.189 61.135 L
306.578 61.135 L
306.966 61.135 L
307.354 61.135 L
307.743 61.135 L
308.131 61.135 L
308.52 61.135 L
308.908 61.135 L
309.296 61.135 L
309.685 61.135 L
310.073 61.135 L
310.461 61.135 L
310.85 61.135 L
311.238 61.135 L
311.627 61.135 L
312.015 61.135 L
312.403 61.135 L
312.792 61.135 L
313.18 61.135 L
313.569 61.135 L
313.957 61.135 L
314.345 61.135 L
314.734 61.135 L
315.122 61.135 L
315.51 61.135 L
315.899 61.135 L
316.287 61.135 L
316.676 61.135 L
317.064 61.135 L
317.452 61.135 L
317.841 61.135 L
318.229 61.135 L
318.618 61.135 L
319.006 61.135 L
319.394 61.135 L
319.783 61.135 L
320.171 61.135 L
320.56 61.135 L
320.948 61.135 L
321.336 61.135 L
321.725 61.135 L
322.113 61.135 L
322.501 61.135 L
322.89 61.135 L
323.278 61.135 L
323.667 61.135 L
324.055 61.135 L
324.443 61.135 L
324.832 61.135 L
325.22 61.135 L
325.609 61.135 L
325.997 61.135 L
326.385 61.135 L
326.774 61.135 L
327.162 61.135 L
327.551 61.135 L
327.939 61.135 L
328.327 61.135 L
328.716 61.135 L
329.104 61.135 L
329.492 61.135 L
329.881 61.135 L
330.269 61.135 L
330.658 61.135 L
331.046 61.135 L
331.434 61.135 L
331.823 61.135 L
332.211 61.135 L
332.6 61.135 L
332.988 61.135 L
333.376 61.135 L
333.765 61.135 L
334.153 61.135 L
334.542 61.135 L
334.93 61.135 L
335.318 61.135 L
335.707 61.135 L
336.095 61.135 L
336.483 61.135 L
336.872 61.135 L
337.26 61.135 L
337.649 61.135 L
338.037 61.135 L
338.425 61.135 L
338.814 61.135 L
339.202 61.135 L
339.591 61.135 L
339.979 61.135 L
340.367 61.135 L
340.756 61.135 L
341.144 61.135 L
341.533 61.135 L
341.921 61.135 L
342.309 61.135 L
342.698 61.135 L
343.086 61.135 L
343.474 61.135 L
343.863 61.135 L
344.251 61.135 L
344.64 61.135 L
345.028 61.135 L
345.416 61.135 L
345.805 61.135 L
346.193 61.135 L
346.582 61.135 L
346.97 61.135 L
347.358 61.135 L
347.747 61.135 L
348.135 61.135 L
348.524 61.135 L
348.912 61.135 L
349.3 61.135 L
349.689 61.135 L
350.077 61.135 L
350.465 61.135 L
350.854 61.135 L
351.242 61.135 L
351.631 61.135 L
352.019 61.135 L
352.407 61.135 L
352.796 61.135 L
353.184 61.135 L
353.573 61.135 L
353.961 61.135 L
354.349 61.135 L
354.738 61.135 L
355.126 61.135 L
355.515 61.135 L
355.903 61.135 L
356.291 61.135 L
356.68 61.135 L
357.068 61.135 L
357.456 61.135 L
357.845 61.135 L
358.233 61.135 L
358.622 61.135 L
359.01 61.135 L
359.398 61.135 L
359.787 61.135 L
360.175 61.135 L
360.564 61.135 L
360.952 61.135 L
361.34 61.135 L
361.729 61.135 L
362.117 61.135 L
362.505 61.135 L
362.894 61.135 L
363.282 61.135 L
363.671 61.135 L
364.059 61.135 L
364.447 61.135 L
364.836 61.135 L
365.224 61.135 L
365.613 61.135 L
366.001 61.135 L
366.389 61.135 L
366.778 61.135 L
367.166 61.135 L
367.555 61.135 L
367.943 61.135 L
368.331 61.135 L
368.72 61.135 L
369.108 61.135 L
369.496 61.135 L
369.885 61.135 L
370.273 61.135 L
370.662 61.135 L
371.05 61.135 L
371.438 61.135 L
371.827 61.135 L
372.215 61.135 L
372.604 61.135 L
372.992 61.135 L
373.38 61.135 L
373.769 61.135 L
374.157 61.135 L
374.546 61.135 L
374.934 61.135 L
375.322 61.135 L
375.711 61.135 L
376.099 61.135 L
376.487 61.135 L
376.876 61.135 L
377.264 61.135 L
377.653 61.135 L
378.041 61.135 L
378.429 61.135 L
378.818 61.135 L
379.206 61.135 L
379.595 61.135 L
379.983 61.135 L
380.371 61.135 L
380.76 61.135 L
381.148 61.135 L
381.537 61.135 L
381.925 61.135 L
382.313 61.135 L
382.702 61.135 L
383.09 61.135 L
383.478 61.135 L
383.867 61.135 L
384.255 61.135 L
384.644 61.135 L
385.032 61.135 L
385.42 61.135 L
385.809 61.135 L
386.197 61.135 L
386.586 61.135 L
386.974 61.135 L
387.362 61.135 L
387.751 61.135 L
388.139 61.135 L
388.528 61.135 L
388.916 61.135 L
389.304 61.135 L
389.693 61.135 L
390.081 61.135 L
390.469 61.135 L
390.858 61.135 L
391.246 61.135 L
391.635 61.135 L
392.023 61.135 L
392.411 61.135 L
392.8 61.135 L
393.188 61.135 L
393.577 61.135 L
393.965 61.135 L
394.353 61.135 L
394.742 61.135 L
395.13 61.135 L
395.519 61.135 L
395.907 61.135 L
396.295 61.135 L
396.684 61.135 L
397.072 61.135 L
397.46 61.135 L
397.849 61.135 L
398.237 61.135 L
398.626 61.135 L
399.014 61.135 L
399.402 61.135 L
399.791 61.135 L
400.179 61.135 L
400.568 61.135 L
400.956 61.135 L
401.344 61.135 L
401.733 61.135 L
402.121 61.135 L
402.51 61.135 L
402.898 61.135 L
403.286 61.135 L
403.675 61.135 L
404.063 61.135 L
404.451 61.135 L
404.84 61.135 L
405.228 61.135 L
405.617 61.135 L
406.005 61.135 L
406.393 61.135 L
406.782 61.135 L
407.17 61.135 L
407.559 61.135 L
407.947 61.135 L
408.335 61.135 L
408.724 61.135 L
409.112 61.135 L
409.5 61.135 L
409.889 61.135 L
410.277 61.135 L
410.666 61.135 L
411.054 61.135 L
411.442 61.135 L
411.831 61.135 L
412.219 61.135 L
412.608 61.135 L
412.996 61.135 L
413.384 61.135 L
413.773 61.135 L
414.161 61.135 L
414.55 61.135 L
414.938 61.135 L
415.326 61.135 L
415.715 61.135 L
416.103 61.135 L
416.491 61.135 L
416.88 61.135 L
417.268 61.135 L
417.657 61.135 L
418.045 61.135 L
418.433 61.135 L
418.822 61.135 L
419.21 61.135 L
419.599 61.135 L
419.987 61.135 L
420.375 61.135 L
420.764 61.135 L
421.152 61.135 L
421.541 61.135 L
421.929 61.135 L
422.317 61.135 L
422.706 61.135 L
423.094 61.135 L
423.482 61.135 L
423.871 61.135 L
424.259 61.135 L
424.648 61.135 L
425.036 61.135 L
425.424 61.135 L
425.813 61.135 L
426.201 61.135 L
426.59 61.135 L
426.978 61.135 L
427.366 61.135 L
427.755 61.135 L
428.143 61.135 L
428.532 61.135 L
428.92 61.135 L
429.308 61.135 L
429.697 61.135 L
430.085 61.135 L
430.473 61.135 L
430.862 61.135 L
431.25 61.135 L
431.639 61.135 L
432.027 61.135 L
432.415 61.135 L
432.804 61.135 L
433.192 61.135 L
433.581 61.135 L
433.969 61.135 L
434.357 61.135 L
434.746 61.135 L
435.134 61.135 L
435.523 61.135 L
435.911 61.135 L
436.299 61.135 L
436.688 61.135 L
437.076 61.135 L
437.464 61.135 L
437.853 61.135 L
438.241 61.135 L
438.63 61.135 L
439.018 61.135 L
439.406 61.135 L
439.795 61.135 L
440.183 61.135 L
440.572 61.135 L
440.96 61.135 L
441.348 61.135 L
441.737 61.135 L
442.125 61.135 L
442.514 61.135 L
442.902 61.135 L
443.29 61.135 L
443.679 61.135 L
444.067 61.135 L
444.455 61.135 L
444.844 61.135 L
445.232 61.135 L
445.621 61.135 L
446.009 61.135 L
446.397 61.135 L
446.786 61.135 L
447.174 61.135 L
447.563 61.135 L
447.951 61.135 L
448.339 61.135 L
448.728 61.135 L
449.116 61.135 L
449.505 61.135 L
449.893 61.135 L
450.281 61.135 L
450.67 61.135 L
451.058 61.135 L
451.446 61.135 L
451.835 61.135 L
452.223 61.135 L
452.612 61.135 L
453 61.135 L
S
GR
GS
1 GC
N
65 291 M
453 291 L
453 203 L
65 203 L
cp
f
GR
GS
0.873 GC
1 LJ
0.5 LW
N
142.289 291 M
142.289 203 L
S
GR
GS
0.873 GC
1 LJ
0.5 LW
N
219.967 291 M
219.967 203 L
S
GR
GS
0.873 GC
1 LJ
0.5 LW
N
297.645 291 M
297.645 203 L
S
GR
GS
0.873 GC
1 LJ
0.5 LW
N
375.322 291 M
375.322 203 L
S
GR
GS
0.873 GC
1 LJ
0.5 LW
N
453 291 M
453 203 L
S
GR
GS
0.873 GC
1 LJ
0.5 LW
N
453 291 M
65 291 L
S
GR
GS
0.873 GC
1 LJ
0.5 LW
N
453 236.79 M
65 236.79 L
S
GR
GS
0.149 GC
2 setlinecap
1 LJ
0.5 LW
N
65 291 M
453 291 L
S
GR
GS
0.149 GC
2 setlinecap
1 LJ
0.5 LW
N
65 203 M
453 203 L
S
GR
GS
0.149 GC
2 setlinecap
1 LJ
0.5 LW
N
142.289 291 M
142.289 287.12 L
S
GR
GS
0.149 GC
2 setlinecap
1 LJ
0.5 LW
N
219.967 291 M
219.967 287.12 L
S
GR
GS
0.149 GC
2 setlinecap
1 LJ
0.5 LW
N
297.645 291 M
297.645 287.12 L
S
GR
GS
0.149 GC
2 setlinecap
1 LJ
0.5 LW
N
375.322 291 M
375.322 287.12 L
S
GR
GS
0.149 GC
2 setlinecap
1 LJ
0.5 LW
N
453 291 M
453 287.12 L
S
GR
GS
0.149 GC
2 setlinecap
1 LJ
0.5 LW
N
142.289 203 M
142.289 206.88 L
S
GR
GS
0.149 GC
2 setlinecap
1 LJ
0.5 LW
N
219.967 203 M
219.967 206.88 L
S
GR
GS
0.149 GC
2 setlinecap
1 LJ
0.5 LW
N
297.645 203 M
297.645 206.88 L
S
GR
GS
0.149 GC
2 setlinecap
1 LJ
0.5 LW
N
375.322 203 M
375.322 206.88 L
S
GR
GS
0.149 GC
2 setlinecap
1 LJ
0.5 LW
N
453 203 M
453 206.88 L
S
GR
GS
[1 0 0 1 142.28929 296.60001] CT
0.149 GC
/Times-Roman 18 F
GS
[1 0 0 1 0 0] CT
-13.5 17 moveto 
1 -1 scale
(200) t 
GR
GR
GS
[1 0 0 1 219.96696 296.60001] CT
0.149 GC
/Times-Roman 18 F
GS
[1 0 0 1 0 0] CT
-13.5 17 moveto 
1 -1 scale
(400) t 
GR
GR
GS
[1 0 0 1 297.64465 296.60001] CT
0.149 GC
/Times-Roman 18 F
GS
[1 0 0 1 0 0] CT
-13.5 17 moveto 
1 -1 scale
(600) t 
GR
GR
GS
[1 0 0 1 375.32233 296.60001] CT
0.149 GC
/Times-Roman 18 F
GS
[1 0 0 1 0 0] CT
-13.5 17 moveto 
1 -1 scale
(800) t 
GR
GR
GS
[1 0 0 1 453 296.60001] CT
0.149 GC
/Times-Roman 18 F
GS
[1 0 0 1 0 0] CT
-18 17 moveto 
1 -1 scale
(1000) t 
GR
GR
GS
[1 0 0 1 259.00018 318.60001] CT
0.149 GC
/Times-Roman 19.8 F
GS
[1 0 0 1 0 0] CT
-47.5 18 moveto 
1 -1 scale
(TS iteration) t 
GR
GR
GS
0.149 GC
2 setlinecap
1 LJ
0.5 LW
N
65 291 M
65 203 L
S
GR
GS
0.149 GC
2 setlinecap
1 LJ
0.5 LW
N
453 291 M
453 203 L
S
GR
GS
0.149 GC
2 setlinecap
1 LJ
0.5 LW
N
65 291 M
68.88 291 L
S
GR
GS
0.149 GC
2 setlinecap
1 LJ
0.5 LW
N
65 236.79 M
68.88 236.79 L
S
GR
GS
0.149 GC
2 setlinecap
1 LJ
0.5 LW
N
453 291 M
449.12 291 L
S
GR
GS
0.149 GC
2 setlinecap
1 LJ
0.5 LW
N
453 236.79 M
449.12 236.79 L
S
GR
GS
[1 0 0 1 59.4 291] CT
0.149 GC
/Times-Roman 18 F
GS
[1 0 0 1 0 0] CT
-9 6.5 moveto 
1 -1 scale
(0) t 
GR
GR
GS
[1 0 0 1 59.4 236.79048] CT
0.149 GC
/Times-Roman 18 F
GS
[1 0 0 1 0 0] CT
-27 6.5 moveto 
1 -1 scale
(100) t 
GR
GR
GS
[0 -1 1 0 29.4 246.99995] CT
0.149 GC
/Times-Roman 19.8 F
GS
[1 0 0 1 0 0] CT
-78.5 -5 moveto 
1 -1 scale
(Throughput \(Mbps\)) t 
GR
GR
GS
[1 0 0 1 259.00024 198.05] CT
/Times-Bold 19.8 F
GS
[1 0 0 1 0 0] CT
-24.5 -5 moveto 
1 -1 scale
(WN 2) t 
GR
GR
GS
0 0.447 0.741 RC
1 LJ
0.5 LW
N
65 291 M
65.388 291 L
65.777 290.928 L
66.165 290.928 L
66.554 291 L
66.942 291 L
67.33 291 L
67.719 290.91 L
68.107 291 L
68.495 291 L
68.884 291 L
69.272 291 L
69.661 291 L
70.049 291 L
70.437 291 L
70.826 291 L
71.214 261.37 L
71.603 261.37 L
71.991 261.37 L
72.379 261.37 L
72.768 261.37 L
73.156 261.37 L
73.545 261.37 L
73.933 261.37 L
74.321 261.37 L
74.71 261.37 L
75.098 261.37 L
75.486 261.37 L
75.875 261.37 L
76.263 261.37 L
76.652 261.37 L
77.04 261.37 L
77.428 261.37 L
77.817 261.37 L
78.205 261.37 L
78.594 261.37 L
78.982 261.37 L
79.37 261.37 L
79.759 261.37 L
80.147 261.37 L
80.536 261.37 L
80.924 261.37 L
81.312 261.37 L
81.701 261.37 L
82.089 261.37 L
82.477 261.37 L
82.866 261.37 L
83.254 261.37 L
83.643 261.37 L
84.031 261.37 L
84.419 261.37 L
84.808 261.37 L
85.196 261.37 L
85.585 261.37 L
85.973 261.37 L
86.361 261.37 L
86.75 261.37 L
87.138 261.37 L
87.527 261.37 L
87.915 261.37 L
88.303 261.37 L
88.692 261.37 L
89.08 261.37 L
89.468 261.37 L
89.857 261.37 L
90.245 261.37 L
90.634 261.37 L
91.022 261.37 L
91.41 261.37 L
91.799 261.37 L
92.187 290.928 L
92.576 261.37 L
92.964 261.37 L
93.352 261.37 L
93.741 261.37 L
94.129 261.37 L
94.518 261.37 L
94.906 261.37 L
95.294 261.37 L
95.683 261.37 L
96.071 261.37 L
96.459 261.37 L
96.848 261.37 L
97.236 261.37 L
97.625 261.37 L
98.013 261.37 L
98.401 261.37 L
98.79 261.37 L
99.178 261.37 L
99.567 261.37 L
99.955 261.37 L
100.343 261.37 L
100.732 261.37 L
101.12 261.37 L
101.509 261.37 L
101.897 261.37 L
102.285 261.37 L
102.674 261.37 L
103.062 261.37 L
103.45 261.37 L
103.839 261.37 L
104.227 261.37 L
104.616 261.37 L
105.004 261.37 L
105.392 261.37 L
105.781 261.37 L
106.169 261.37 L
106.558 261.37 L
106.946 261.37 L
107.334 261.37 L
107.723 261.37 L
108.111 261.37 L
108.499 261.37 L
108.888 261.37 L
109.276 261.37 L
109.665 261.37 L
110.053 261.37 L
110.441 261.37 L
110.83 261.37 L
111.218 261.37 L
111.607 261.37 L
111.995 261.37 L
112.383 261.37 L
112.772 261.37 L
113.16 261.37 L
113.549 261.37 L
113.937 261.37 L
114.325 261.37 L
114.714 261.37 L
115.102 261.37 L
115.49 261.37 L
115.879 261.37 L
116.267 261.37 L
116.656 261.37 L
117.044 261.37 L
117.432 261.37 L
117.821 261.37 L
118.209 261.37 L
118.598 261.37 L
118.986 261.37 L
119.374 261.37 L
119.763 261.37 L
120.151 261.37 L
120.54 261.37 L
120.928 261.37 L
121.316 261.37 L
121.705 261.37 L
122.093 261.37 L
122.481 261.37 L
122.87 261.37 L
123.258 261.37 L
123.647 261.37 L
124.035 261.37 L
124.423 261.37 L
124.812 261.37 L
125.2 261.37 L
125.589 261.37 L
125.977 261.37 L
126.365 261.37 L
126.754 261.37 L
127.142 261.37 L
127.531 261.37 L
127.919 261.37 L
128.307 261.37 L
128.696 261.37 L
129.084 261.37 L
129.472 261.37 L
129.861 261.37 L
130.249 261.37 L
130.638 261.37 L
131.026 261.37 L
131.414 261.37 L
131.803 261.37 L
132.191 261.37 L
132.58 261.37 L
132.968 261.37 L
133.356 261.37 L
133.745 261.37 L
134.133 261.37 L
134.522 261.37 L
134.91 261.37 L
135.298 261.37 L
135.687 261.37 L
136.075 261.37 L
136.463 261.37 L
136.852 261.37 L
137.24 261.37 L
137.629 261.37 L
138.017 261.37 L
138.405 261.37 L
138.794 261.37 L
139.182 261.37 L
139.571 261.37 L
139.959 261.37 L
140.347 290.928 L
140.736 261.37 L
141.124 261.37 L
141.513 261.37 L
141.901 261.37 L
142.289 261.37 L
142.678 261.37 L
143.066 261.37 L
143.454 261.37 L
143.843 261.37 L
144.231 261.37 L
144.62 261.37 L
145.008 261.37 L
145.396 261.37 L
145.785 261.37 L
146.173 261.37 L
146.562 261.37 L
146.95 261.37 L
147.338 261.37 L
147.727 261.37 L
148.115 261.37 L
148.504 261.37 L
148.892 261.37 L
149.28 261.37 L
149.669 261.37 L
150.057 261.37 L
150.445 261.37 L
150.834 261.37 L
151.222 261.37 L
151.611 261.37 L
151.999 261.37 L
152.387 261.37 L
152.776 261.37 L
153.164 261.37 L
153.553 261.37 L
153.941 261.37 L
154.329 261.37 L
154.718 261.37 L
155.106 261.37 L
155.494 261.37 L
155.883 261.37 L
156.271 290.928 L
156.66 261.37 L
157.048 261.37 L
157.436 261.37 L
157.825 261.37 L
158.213 261.37 L
158.602 261.37 L
158.99 261.37 L
159.378 261.37 L
159.767 261.37 L
160.155 261.37 L
160.544 261.37 L
160.932 261.37 L
161.32 261.37 L
161.709 261.37 L
162.097 261.37 L
162.485 261.37 L
162.874 261.37 L
163.262 261.37 L
163.651 261.37 L
164.039 261.37 L
164.427 261.37 L
164.816 261.37 L
165.204 261.37 L
165.593 261.37 L
165.981 261.37 L
166.369 261.37 L
166.758 261.37 L
167.146 261.37 L
167.535 261.37 L
167.923 261.37 L
168.311 261.37 L
168.7 261.37 L
169.088 261.37 L
169.476 261.37 L
169.865 261.37 L
170.253 261.37 L
170.642 261.37 L
171.03 261.37 L
171.418 261.37 L
171.807 261.37 L
172.195 261.37 L
172.584 261.37 L
172.972 261.37 L
173.36 261.37 L
173.749 261.37 L
174.137 261.37 L
174.526 261.37 L
174.914 261.37 L
175.302 261.37 L
175.691 261.37 L
176.079 261.37 L
176.467 261.37 L
176.856 261.37 L
177.244 261.37 L
177.633 261.37 L
178.021 261.37 L
178.409 261.37 L
178.798 261.37 L
179.186 261.37 L
179.575 261.37 L
179.963 261.37 L
180.351 261.37 L
180.74 261.37 L
181.128 261.37 L
181.517 261.37 L
181.905 261.37 L
182.293 261.37 L
182.682 261.37 L
183.07 261.37 L
183.458 261.37 L
183.847 261.37 L
184.235 261.37 L
184.624 261.37 L
185.012 261.37 L
185.4 261.37 L
185.789 261.37 L
186.177 261.37 L
186.566 261.37 L
186.954 261.37 L
187.342 261.37 L
187.731 261.37 L
188.119 261.37 L
188.508 261.37 L
188.896 290.732 L
189.284 290.732 L
189.673 290.732 L
190.061 290.732 L
190.449 290.732 L
190.838 261.37 L
191.226 261.37 L
191.615 261.37 L
192.003 261.37 L
192.391 261.37 L
192.78 261.37 L
193.168 261.37 L
193.557 261.37 L
193.945 261.37 L
194.333 261.37 L
194.722 261.37 L
195.11 261.37 L
195.499 261.37 L
195.887 261.37 L
196.275 261.37 L
196.664 261.37 L
197.052 261.37 L
197.44 261.37 L
197.829 261.37 L
198.217 261.37 L
198.606 261.37 L
198.994 261.37 L
199.382 261.37 L
199.771 261.37 L
200.159 261.37 L
200.548 261.37 L
200.936 261.37 L
201.324 261.37 L
201.713 261.37 L
202.101 261.37 L
202.489 261.37 L
202.878 261.37 L
203.266 261.37 L
203.655 261.37 L
204.043 261.37 L
204.431 261.37 L
204.82 261.37 L
205.208 261.37 L
205.597 261.37 L
205.985 261.37 L
206.373 261.37 L
206.762 261.37 L
207.15 261.37 L
207.539 261.37 L
207.927 261.37 L
208.315 261.37 L
208.704 261.37 L
209.092 261.37 L
209.48 261.37 L
209.869 261.37 L
210.257 261.37 L
210.646 261.37 L
211.034 261.37 L
211.422 261.37 L
211.811 261.37 L
212.199 261.37 L
212.588 261.37 L
212.976 261.37 L
213.364 261.37 L
213.753 261.37 L
214.141 261.37 L
214.53 261.37 L
214.918 261.37 L
215.306 261.37 L
215.695 261.37 L
216.083 261.37 L
216.471 261.37 L
216.86 261.37 L
217.248 261.37 L
217.637 261.37 L
218.025 261.37 L
218.413 261.37 L
218.802 261.37 L
219.19 261.37 L
219.579 261.37 L
219.967 261.37 L
220.355 261.37 L
220.744 261.37 L
221.132 261.37 L
221.521 261.37 L
221.909 261.37 L
222.297 261.37 L
222.686 261.37 L
223.074 261.37 L
223.462 261.37 L
223.851 261.37 L
224.239 261.37 L
224.628 261.37 L
225.016 261.37 L
225.404 261.37 L
225.793 261.37 L
226.181 261.37 L
226.57 261.37 L
226.958 261.37 L
227.346 261.37 L
227.735 261.37 L
228.123 261.37 L
228.512 261.37 L
228.9 261.37 L
229.288 261.37 L
229.677 261.37 L
230.065 261.37 L
230.453 261.37 L
230.842 261.37 L
231.23 261.37 L
231.619 261.37 L
232.007 261.37 L
232.395 261.37 L
232.784 261.37 L
233.172 261.37 L
233.561 261.37 L
233.949 261.37 L
234.337 261.37 L
234.726 261.37 L
235.114 261.37 L
235.503 261.37 L
235.891 261.37 L
236.279 261.37 L
236.668 261.37 L
237.056 261.37 L
237.444 261.37 L
237.833 261.37 L
238.221 261.37 L
238.61 261.37 L
238.998 261.37 L
239.386 261.37 L
239.775 261.37 L
240.163 261.37 L
240.552 261.37 L
240.94 261.37 L
241.328 261.37 L
241.717 261.37 L
242.105 261.37 L
242.493 261.37 L
242.882 261.37 L
243.27 261.37 L
243.659 261.37 L
244.047 261.37 L
244.435 261.37 L
244.824 261.37 L
245.212 261.37 L
245.601 261.37 L
245.989 261.37 L
246.377 261.37 L
246.766 261.37 L
247.154 261.37 L
247.543 261.37 L
247.931 261.37 L
248.319 261.37 L
248.708 261.37 L
249.096 261.37 L
249.484 261.37 L
249.873 261.37 L
250.261 261.37 L
250.65 261.37 L
251.038 261.37 L
251.426 261.37 L
251.815 261.37 L
252.203 261.37 L
252.592 261.37 L
252.98 261.37 L
253.368 261.37 L
253.757 261.37 L
254.145 261.37 L
254.534 261.37 L
254.922 261.37 L
255.31 261.37 L
255.699 261.37 L
256.087 261.37 L
256.475 261.37 L
256.864 261.37 L
257.252 261.37 L
257.641 261.37 L
258.029 261.37 L
258.417 261.37 L
258.806 261.37 L
259.194 261.37 L
259.583 261.37 L
259.971 261.37 L
260.359 261.37 L
260.748 261.37 L
261.136 261.37 L
261.525 261.37 L
261.913 261.37 L
262.301 261.37 L
262.69 261.37 L
263.078 261.37 L
263.466 261.37 L
263.855 261.37 L
264.243 261.37 L
264.632 261.37 L
265.02 261.37 L
265.408 261.37 L
265.797 261.37 L
266.185 261.37 L
266.574 261.37 L
266.962 261.37 L
267.35 261.37 L
267.739 261.37 L
268.127 261.37 L
268.516 261.37 L
268.904 261.37 L
269.292 261.37 L
269.681 261.37 L
270.069 261.37 L
270.457 261.37 L
270.846 261.37 L
271.234 261.37 L
271.623 261.37 L
272.011 261.37 L
272.399 261.37 L
272.788 261.37 L
273.176 261.37 L
273.565 261.37 L
273.953 261.37 L
274.341 261.37 L
274.73 261.37 L
275.118 261.37 L
275.507 261.37 L
275.895 261.37 L
276.283 261.37 L
276.672 261.37 L
277.06 261.37 L
277.448 261.37 L
277.837 261.37 L
278.225 261.37 L
278.614 261.37 L
279.002 261.37 L
279.39 261.37 L
279.779 261.37 L
280.167 261.37 L
280.556 261.37 L
280.944 261.37 L
281.332 261.37 L
281.721 261.37 L
282.109 261.37 L
282.497 261.37 L
282.886 261.37 L
283.274 261.37 L
283.663 261.37 L
284.051 261.37 L
284.439 261.37 L
284.828 261.37 L
285.216 261.37 L
285.605 261.37 L
285.993 261.37 L
286.381 261.37 L
286.77 261.37 L
287.158 261.37 L
287.547 261.37 L
287.935 261.37 L
288.323 261.37 L
288.712 261.37 L
289.1 261.37 L
289.488 261.37 L
289.877 261.37 L
290.265 261.37 L
290.654 261.37 L
291.042 261.37 L
291.43 261.37 L
291.819 261.37 L
292.207 261.37 L
292.596 261.37 L
292.984 261.37 L
293.372 261.37 L
293.761 261.37 L
294.149 261.37 L
294.538 261.37 L
294.926 261.37 L
295.314 261.37 L
295.703 261.37 L
296.091 261.37 L
296.479 261.37 L
296.868 261.37 L
297.256 261.37 L
297.645 261.37 L
298.033 261.37 L
298.421 261.37 L
298.81 261.37 L
299.198 261.37 L
299.587 261.37 L
299.975 261.37 L
300.363 261.37 L
300.752 261.37 L
301.14 261.37 L
301.529 261.37 L
301.917 261.37 L
302.305 261.37 L
302.694 261.37 L
303.082 261.37 L
303.47 261.37 L
303.859 261.37 L
304.247 261.37 L
304.636 261.37 L
305.024 261.37 L
305.412 261.37 L
305.801 261.37 L
306.189 261.37 L
306.578 261.37 L
306.966 261.37 L
307.354 261.37 L
307.743 261.37 L
308.131 261.37 L
308.52 261.37 L
308.908 261.37 L
309.296 261.37 L
309.685 261.37 L
310.073 261.37 L
310.461 261.37 L
310.85 261.37 L
311.238 261.37 L
311.627 261.37 L
312.015 261.37 L
312.403 261.37 L
312.792 261.37 L
313.18 261.37 L
313.569 261.37 L
313.957 261.37 L
314.345 261.37 L
314.734 261.37 L
315.122 261.37 L
315.51 261.37 L
315.899 261.37 L
316.287 261.37 L
316.676 261.37 L
317.064 261.37 L
317.452 261.37 L
317.841 261.37 L
318.229 261.37 L
318.618 261.37 L
319.006 261.37 L
319.394 261.37 L
319.783 261.37 L
320.171 261.37 L
320.56 261.37 L
320.948 261.37 L
321.336 261.37 L
321.725 261.37 L
322.113 261.37 L
322.501 261.37 L
322.89 261.37 L
323.278 261.37 L
323.667 261.37 L
324.055 261.37 L
324.443 261.37 L
324.832 261.37 L
325.22 261.37 L
325.609 261.37 L
325.997 261.37 L
326.385 261.37 L
326.774 261.37 L
327.162 261.37 L
327.551 261.37 L
327.939 261.37 L
328.327 261.37 L
328.716 261.37 L
329.104 261.37 L
329.492 261.37 L
329.881 261.37 L
330.269 261.37 L
330.658 261.37 L
331.046 261.37 L
331.434 261.37 L
331.823 261.37 L
332.211 261.37 L
332.6 261.37 L
332.988 261.37 L
333.376 261.37 L
333.765 261.37 L
334.153 261.37 L
334.542 261.37 L
334.93 261.37 L
335.318 261.37 L
335.707 261.37 L
336.095 261.37 L
336.483 261.37 L
336.872 261.37 L
337.26 261.37 L
337.649 261.37 L
338.037 261.37 L
338.425 261.37 L
338.814 261.37 L
339.202 261.37 L
339.591 261.37 L
339.979 261.37 L
340.367 261.37 L
340.756 261.37 L
341.144 261.37 L
341.533 261.37 L
341.921 261.37 L
342.309 261.37 L
342.698 261.37 L
343.086 261.37 L
343.474 261.37 L
343.863 261.37 L
344.251 261.37 L
344.64 261.37 L
345.028 261.37 L
345.416 261.37 L
345.805 261.37 L
346.193 261.37 L
346.582 261.37 L
346.97 261.37 L
347.358 261.37 L
347.747 261.37 L
348.135 261.37 L
348.524 261.37 L
348.912 261.37 L
349.3 261.37 L
349.689 261.37 L
350.077 261.37 L
350.465 261.37 L
350.854 261.37 L
351.242 261.37 L
351.631 261.37 L
352.019 261.37 L
352.407 261.37 L
352.796 261.37 L
353.184 261.37 L
353.573 261.37 L
353.961 261.37 L
354.349 261.37 L
354.738 261.37 L
355.126 261.37 L
355.515 261.37 L
355.903 261.37 L
356.291 261.37 L
356.68 261.37 L
357.068 261.37 L
357.456 261.37 L
357.845 261.37 L
358.233 261.37 L
358.622 261.37 L
359.01 261.37 L
359.398 261.37 L
359.787 261.37 L
360.175 261.37 L
360.564 261.37 L
360.952 261.37 L
361.34 261.37 L
361.729 261.37 L
362.117 261.37 L
362.505 261.37 L
362.894 261.37 L
363.282 261.37 L
363.671 261.37 L
364.059 261.37 L
364.447 261.37 L
364.836 261.37 L
365.224 261.37 L
365.613 261.37 L
366.001 261.37 L
366.389 261.37 L
366.778 261.37 L
367.166 261.37 L
367.555 261.37 L
367.943 261.37 L
368.331 261.37 L
368.72 261.37 L
369.108 261.37 L
369.496 261.37 L
369.885 261.37 L
370.273 261.37 L
370.662 261.37 L
371.05 261.37 L
371.438 261.37 L
371.827 261.37 L
372.215 261.37 L
372.604 261.37 L
372.992 261.37 L
373.38 261.37 L
373.769 261.37 L
374.157 261.37 L
374.546 261.37 L
374.934 261.37 L
375.322 261.37 L
375.711 261.37 L
376.099 261.37 L
376.487 261.37 L
376.876 261.37 L
377.264 261.37 L
377.653 261.37 L
378.041 261.37 L
378.429 261.37 L
378.818 261.37 L
379.206 261.37 L
379.595 261.37 L
379.983 261.37 L
380.371 261.37 L
380.76 261.37 L
381.148 261.37 L
381.537 261.37 L
381.925 261.37 L
382.313 261.37 L
382.702 261.37 L
383.09 261.37 L
383.478 261.37 L
383.867 261.37 L
384.255 261.37 L
384.644 261.37 L
385.032 261.37 L
385.42 261.37 L
385.809 261.37 L
386.197 261.37 L
386.586 261.37 L
386.974 261.37 L
387.362 261.37 L
387.751 261.37 L
388.139 261.37 L
388.528 261.37 L
388.916 261.37 L
389.304 261.37 L
389.693 261.37 L
390.081 261.37 L
390.469 261.37 L
390.858 261.37 L
391.246 261.37 L
391.635 261.37 L
392.023 261.37 L
392.411 261.37 L
392.8 261.37 L
393.188 261.37 L
393.577 261.37 L
393.965 261.37 L
394.353 261.37 L
394.742 261.37 L
395.13 261.37 L
395.519 261.37 L
395.907 261.37 L
396.295 261.37 L
396.684 261.37 L
397.072 261.37 L
397.46 261.37 L
397.849 261.37 L
398.237 261.37 L
398.626 261.37 L
399.014 261.37 L
399.402 261.37 L
399.791 261.37 L
400.179 261.37 L
400.568 261.37 L
400.956 261.37 L
401.344 261.37 L
401.733 261.37 L
402.121 261.37 L
402.51 261.37 L
402.898 261.37 L
403.286 261.37 L
403.675 261.37 L
404.063 261.37 L
404.451 261.37 L
404.84 261.37 L
405.228 261.37 L
405.617 261.37 L
406.005 261.37 L
406.393 261.37 L
406.782 261.37 L
407.17 261.37 L
407.559 261.37 L
407.947 261.37 L
408.335 261.37 L
408.724 261.37 L
409.112 261.37 L
409.5 261.37 L
409.889 261.37 L
410.277 261.37 L
410.666 261.37 L
411.054 261.37 L
411.442 261.37 L
411.831 261.37 L
412.219 261.37 L
412.608 261.37 L
412.996 261.37 L
413.384 261.37 L
413.773 261.37 L
414.161 261.37 L
414.55 261.37 L
414.938 261.37 L
415.326 261.37 L
415.715 261.37 L
416.103 261.37 L
416.491 261.37 L
416.88 261.37 L
417.268 261.37 L
417.657 261.37 L
418.045 261.37 L
418.433 261.37 L
418.822 261.37 L
419.21 261.37 L
419.599 261.37 L
419.987 261.37 L
420.375 261.37 L
420.764 261.37 L
421.152 261.37 L
421.541 261.37 L
421.929 261.37 L
422.317 261.37 L
422.706 261.37 L
423.094 261.37 L
423.482 261.37 L
423.871 261.37 L
424.259 261.37 L
424.648 261.37 L
425.036 261.37 L
425.424 261.37 L
425.813 261.37 L
426.201 261.37 L
426.59 261.37 L
426.978 261.37 L
427.366 261.37 L
427.755 261.37 L
428.143 261.37 L
428.532 261.37 L
428.92 261.37 L
429.308 261.37 L
429.697 261.37 L
430.085 261.37 L
430.473 261.37 L
430.862 261.37 L
431.25 261.37 L
431.639 261.37 L
432.027 261.37 L
432.415 261.37 L
432.804 261.37 L
433.192 261.37 L
433.581 261.37 L
433.969 261.37 L
434.357 261.37 L
434.746 261.37 L
435.134 261.37 L
435.523 261.37 L
435.911 261.37 L
436.299 261.37 L
436.688 261.37 L
437.076 261.37 L
437.464 261.37 L
437.853 261.37 L
438.241 261.37 L
438.63 261.37 L
439.018 261.37 L
439.406 261.37 L
439.795 261.37 L
440.183 261.37 L
440.572 261.37 L
440.96 261.37 L
441.348 261.37 L
441.737 261.37 L
442.125 261.37 L
442.514 261.37 L
442.902 261.37 L
443.29 261.37 L
443.679 261.37 L
444.067 261.37 L
444.455 261.37 L
444.844 261.37 L
445.232 261.37 L
445.621 261.37 L
446.009 261.37 L
446.397 261.37 L
446.786 261.37 L
447.174 261.37 L
447.563 261.37 L
447.951 261.37 L
448.339 261.37 L
448.728 261.37 L
449.116 261.37 L
449.505 261.37 L
449.893 261.37 L
450.281 261.37 L
450.67 261.37 L
451.058 261.37 L
451.446 261.37 L
451.835 261.37 L
452.223 261.37 L
452.612 261.37 L
453 261.37 L
S
GR
GS
1 0 0 RC
[8 8] 0 setdash
2 LJ
2 LW
N
65 261.37 M
65.388 261.37 L
65.777 261.37 L
66.165 261.37 L
66.554 261.37 L
66.942 261.37 L
67.33 261.37 L
67.719 261.37 L
68.107 261.37 L
68.495 261.37 L
68.884 261.37 L
69.272 261.37 L
69.661 261.37 L
70.049 261.37 L
70.437 261.37 L
70.826 261.37 L
71.214 261.37 L
71.603 261.37 L
71.991 261.37 L
72.379 261.37 L
72.768 261.37 L
73.156 261.37 L
73.545 261.37 L
73.933 261.37 L
74.321 261.37 L
74.71 261.37 L
75.098 261.37 L
75.486 261.37 L
75.875 261.37 L
76.263 261.37 L
76.652 261.37 L
77.04 261.37 L
77.428 261.37 L
77.817 261.37 L
78.205 261.37 L
78.594 261.37 L
78.982 261.37 L
79.37 261.37 L
79.759 261.37 L
80.147 261.37 L
80.536 261.37 L
80.924 261.37 L
81.312 261.37 L
81.701 261.37 L
82.089 261.37 L
82.477 261.37 L
82.866 261.37 L
83.254 261.37 L
83.643 261.37 L
84.031 261.37 L
84.419 261.37 L
84.808 261.37 L
85.196 261.37 L
85.585 261.37 L
85.973 261.37 L
86.361 261.37 L
86.75 261.37 L
87.138 261.37 L
87.527 261.37 L
87.915 261.37 L
88.303 261.37 L
88.692 261.37 L
89.08 261.37 L
89.468 261.37 L
89.857 261.37 L
90.245 261.37 L
90.634 261.37 L
91.022 261.37 L
91.41 261.37 L
91.799 261.37 L
92.187 261.37 L
92.576 261.37 L
92.964 261.37 L
93.352 261.37 L
93.741 261.37 L
94.129 261.37 L
94.518 261.37 L
94.906 261.37 L
95.294 261.37 L
95.683 261.37 L
96.071 261.37 L
96.459 261.37 L
96.848 261.37 L
97.236 261.37 L
97.625 261.37 L
98.013 261.37 L
98.401 261.37 L
98.79 261.37 L
99.178 261.37 L
99.567 261.37 L
99.955 261.37 L
100.343 261.37 L
100.732 261.37 L
101.12 261.37 L
101.509 261.37 L
101.897 261.37 L
102.285 261.37 L
102.674 261.37 L
103.062 261.37 L
103.45 261.37 L
103.839 261.37 L
104.227 261.37 L
104.616 261.37 L
105.004 261.37 L
105.392 261.37 L
105.781 261.37 L
106.169 261.37 L
106.558 261.37 L
106.946 261.37 L
107.334 261.37 L
107.723 261.37 L
108.111 261.37 L
108.499 261.37 L
108.888 261.37 L
109.276 261.37 L
109.665 261.37 L
110.053 261.37 L
110.441 261.37 L
110.83 261.37 L
111.218 261.37 L
111.607 261.37 L
111.995 261.37 L
112.383 261.37 L
112.772 261.37 L
113.16 261.37 L
113.549 261.37 L
113.937 261.37 L
114.325 261.37 L
114.714 261.37 L
115.102 261.37 L
115.49 261.37 L
115.879 261.37 L
116.267 261.37 L
116.656 261.37 L
117.044 261.37 L
117.432 261.37 L
117.821 261.37 L
118.209 261.37 L
118.598 261.37 L
118.986 261.37 L
119.374 261.37 L
119.763 261.37 L
120.151 261.37 L
120.54 261.37 L
120.928 261.37 L
121.316 261.37 L
121.705 261.37 L
122.093 261.37 L
122.481 261.37 L
122.87 261.37 L
123.258 261.37 L
123.647 261.37 L
124.035 261.37 L
124.423 261.37 L
124.812 261.37 L
125.2 261.37 L
125.589 261.37 L
125.977 261.37 L
126.365 261.37 L
126.754 261.37 L
127.142 261.37 L
127.531 261.37 L
127.919 261.37 L
128.307 261.37 L
128.696 261.37 L
129.084 261.37 L
129.472 261.37 L
129.861 261.37 L
130.249 261.37 L
130.638 261.37 L
131.026 261.37 L
131.414 261.37 L
131.803 261.37 L
132.191 261.37 L
132.58 261.37 L
132.968 261.37 L
133.356 261.37 L
133.745 261.37 L
134.133 261.37 L
134.522 261.37 L
134.91 261.37 L
135.298 261.37 L
135.687 261.37 L
136.075 261.37 L
136.463 261.37 L
136.852 261.37 L
137.24 261.37 L
137.629 261.37 L
138.017 261.37 L
138.405 261.37 L
138.794 261.37 L
139.182 261.37 L
139.571 261.37 L
139.959 261.37 L
140.347 261.37 L
140.736 261.37 L
141.124 261.37 L
141.513 261.37 L
141.901 261.37 L
142.289 261.37 L
142.678 261.37 L
143.066 261.37 L
143.454 261.37 L
143.843 261.37 L
144.231 261.37 L
144.62 261.37 L
145.008 261.37 L
145.396 261.37 L
145.785 261.37 L
146.173 261.37 L
146.562 261.37 L
146.95 261.37 L
147.338 261.37 L
147.727 261.37 L
148.115 261.37 L
148.504 261.37 L
148.892 261.37 L
149.28 261.37 L
149.669 261.37 L
150.057 261.37 L
150.445 261.37 L
150.834 261.37 L
151.222 261.37 L
151.611 261.37 L
151.999 261.37 L
152.387 261.37 L
152.776 261.37 L
153.164 261.37 L
153.553 261.37 L
153.941 261.37 L
154.329 261.37 L
154.718 261.37 L
155.106 261.37 L
155.494 261.37 L
155.883 261.37 L
156.271 261.37 L
156.66 261.37 L
157.048 261.37 L
157.436 261.37 L
157.825 261.37 L
158.213 261.37 L
158.602 261.37 L
158.99 261.37 L
159.378 261.37 L
159.767 261.37 L
160.155 261.37 L
160.544 261.37 L
160.932 261.37 L
161.32 261.37 L
161.709 261.37 L
162.097 261.37 L
162.485 261.37 L
162.874 261.37 L
163.262 261.37 L
163.651 261.37 L
164.039 261.37 L
164.427 261.37 L
164.816 261.37 L
165.204 261.37 L
165.593 261.37 L
165.981 261.37 L
166.369 261.37 L
166.758 261.37 L
167.146 261.37 L
167.535 261.37 L
167.923 261.37 L
168.311 261.37 L
168.7 261.37 L
169.088 261.37 L
169.476 261.37 L
169.865 261.37 L
170.253 261.37 L
170.642 261.37 L
171.03 261.37 L
171.418 261.37 L
171.807 261.37 L
172.195 261.37 L
172.584 261.37 L
172.972 261.37 L
173.36 261.37 L
173.749 261.37 L
174.137 261.37 L
174.526 261.37 L
174.914 261.37 L
175.302 261.37 L
175.691 261.37 L
176.079 261.37 L
176.467 261.37 L
176.856 261.37 L
177.244 261.37 L
177.633 261.37 L
178.021 261.37 L
178.409 261.37 L
178.798 261.37 L
179.186 261.37 L
179.575 261.37 L
179.963 261.37 L
180.351 261.37 L
180.74 261.37 L
181.128 261.37 L
181.517 261.37 L
181.905 261.37 L
182.293 261.37 L
182.682 261.37 L
183.07 261.37 L
183.458 261.37 L
183.847 261.37 L
184.235 261.37 L
184.624 261.37 L
185.012 261.37 L
185.4 261.37 L
185.789 261.37 L
186.177 261.37 L
186.566 261.37 L
186.954 261.37 L
187.342 261.37 L
187.731 261.37 L
188.119 261.37 L
188.508 261.37 L
188.896 261.37 L
189.284 261.37 L
189.673 261.37 L
190.061 261.37 L
190.449 261.37 L
190.838 261.37 L
191.226 261.37 L
191.615 261.37 L
192.003 261.37 L
192.391 261.37 L
192.78 261.37 L
193.168 261.37 L
193.557 261.37 L
193.945 261.37 L
194.333 261.37 L
194.722 261.37 L
195.11 261.37 L
195.499 261.37 L
195.887 261.37 L
196.275 261.37 L
196.664 261.37 L
197.052 261.37 L
197.44 261.37 L
197.829 261.37 L
198.217 261.37 L
198.606 261.37 L
198.994 261.37 L
199.382 261.37 L
199.771 261.37 L
200.159 261.37 L
200.548 261.37 L
200.936 261.37 L
201.324 261.37 L
201.713 261.37 L
202.101 261.37 L
202.489 261.37 L
202.878 261.37 L
203.266 261.37 L
203.655 261.37 L
204.043 261.37 L
204.431 261.37 L
204.82 261.37 L
205.208 261.37 L
205.597 261.37 L
205.985 261.37 L
206.373 261.37 L
206.762 261.37 L
207.15 261.37 L
207.539 261.37 L
207.927 261.37 L
208.315 261.37 L
208.704 261.37 L
209.092 261.37 L
209.48 261.37 L
209.869 261.37 L
210.257 261.37 L
210.646 261.37 L
211.034 261.37 L
211.422 261.37 L
211.811 261.37 L
212.199 261.37 L
212.588 261.37 L
212.976 261.37 L
213.364 261.37 L
213.753 261.37 L
214.141 261.37 L
214.53 261.37 L
214.918 261.37 L
215.306 261.37 L
215.695 261.37 L
216.083 261.37 L
216.471 261.37 L
216.86 261.37 L
217.248 261.37 L
217.637 261.37 L
218.025 261.37 L
218.413 261.37 L
218.802 261.37 L
219.19 261.37 L
219.579 261.37 L
219.967 261.37 L
220.355 261.37 L
220.744 261.37 L
221.132 261.37 L
221.521 261.37 L
221.909 261.37 L
222.297 261.37 L
222.686 261.37 L
223.074 261.37 L
223.462 261.37 L
223.851 261.37 L
224.239 261.37 L
224.628 261.37 L
225.016 261.37 L
225.404 261.37 L
225.793 261.37 L
226.181 261.37 L
226.57 261.37 L
226.958 261.37 L
227.346 261.37 L
227.735 261.37 L
228.123 261.37 L
228.512 261.37 L
228.9 261.37 L
229.288 261.37 L
229.677 261.37 L
230.065 261.37 L
230.453 261.37 L
230.842 261.37 L
231.23 261.37 L
231.619 261.37 L
232.007 261.37 L
232.395 261.37 L
232.784 261.37 L
233.172 261.37 L
233.561 261.37 L
233.949 261.37 L
234.337 261.37 L
234.726 261.37 L
235.114 261.37 L
235.503 261.37 L
235.891 261.37 L
236.279 261.37 L
236.668 261.37 L
237.056 261.37 L
237.444 261.37 L
237.833 261.37 L
238.221 261.37 L
238.61 261.37 L
238.998 261.37 L
239.386 261.37 L
239.775 261.37 L
240.163 261.37 L
240.552 261.37 L
240.94 261.37 L
241.328 261.37 L
241.717 261.37 L
242.105 261.37 L
242.493 261.37 L
242.882 261.37 L
243.27 261.37 L
243.659 261.37 L
244.047 261.37 L
244.435 261.37 L
244.824 261.37 L
245.212 261.37 L
245.601 261.37 L
245.989 261.37 L
246.377 261.37 L
246.766 261.37 L
247.154 261.37 L
247.543 261.37 L
247.931 261.37 L
248.319 261.37 L
248.708 261.37 L
249.096 261.37 L
249.484 261.37 L
249.873 261.37 L
250.261 261.37 L
250.65 261.37 L
251.038 261.37 L
251.426 261.37 L
251.815 261.37 L
252.203 261.37 L
252.592 261.37 L
252.98 261.37 L
253.368 261.37 L
253.757 261.37 L
254.145 261.37 L
254.534 261.37 L
254.922 261.37 L
255.31 261.37 L
255.699 261.37 L
256.087 261.37 L
256.475 261.37 L
256.864 261.37 L
257.252 261.37 L
257.641 261.37 L
258.029 261.37 L
258.417 261.37 L
258.806 261.37 L
259.194 261.37 L
259.583 261.37 L
259.971 261.37 L
260.359 261.37 L
260.748 261.37 L
261.136 261.37 L
261.525 261.37 L
261.913 261.37 L
262.301 261.37 L
262.69 261.37 L
263.078 261.37 L
263.466 261.37 L
263.855 261.37 L
264.243 261.37 L
264.632 261.37 L
265.02 261.37 L
265.408 261.37 L
265.797 261.37 L
266.185 261.37 L
266.574 261.37 L
266.962 261.37 L
267.35 261.37 L
267.739 261.37 L
268.127 261.37 L
268.516 261.37 L
268.904 261.37 L
269.292 261.37 L
269.681 261.37 L
270.069 261.37 L
270.457 261.37 L
270.846 261.37 L
271.234 261.37 L
271.623 261.37 L
272.011 261.37 L
272.399 261.37 L
272.788 261.37 L
273.176 261.37 L
273.565 261.37 L
273.953 261.37 L
274.341 261.37 L
274.73 261.37 L
275.118 261.37 L
275.507 261.37 L
275.895 261.37 L
276.283 261.37 L
276.672 261.37 L
277.06 261.37 L
277.448 261.37 L
277.837 261.37 L
278.225 261.37 L
278.614 261.37 L
279.002 261.37 L
279.39 261.37 L
279.779 261.37 L
280.167 261.37 L
280.556 261.37 L
280.944 261.37 L
281.332 261.37 L
281.721 261.37 L
282.109 261.37 L
282.497 261.37 L
282.886 261.37 L
283.274 261.37 L
283.663 261.37 L
284.051 261.37 L
284.439 261.37 L
284.828 261.37 L
285.216 261.37 L
285.605 261.37 L
285.993 261.37 L
286.381 261.37 L
286.77 261.37 L
287.158 261.37 L
287.547 261.37 L
287.935 261.37 L
288.323 261.37 L
288.712 261.37 L
289.1 261.37 L
289.488 261.37 L
289.877 261.37 L
290.265 261.37 L
290.654 261.37 L
291.042 261.37 L
291.43 261.37 L
291.819 261.37 L
292.207 261.37 L
292.596 261.37 L
292.984 261.37 L
293.372 261.37 L
293.761 261.37 L
294.149 261.37 L
294.538 261.37 L
294.926 261.37 L
295.314 261.37 L
295.703 261.37 L
296.091 261.37 L
296.479 261.37 L
296.868 261.37 L
297.256 261.37 L
297.645 261.37 L
298.033 261.37 L
298.421 261.37 L
298.81 261.37 L
299.198 261.37 L
299.587 261.37 L
299.975 261.37 L
300.363 261.37 L
300.752 261.37 L
301.14 261.37 L
301.529 261.37 L
301.917 261.37 L
302.305 261.37 L
302.694 261.37 L
303.082 261.37 L
303.47 261.37 L
303.859 261.37 L
304.247 261.37 L
304.636 261.37 L
305.024 261.37 L
305.412 261.37 L
305.801 261.37 L
306.189 261.37 L
306.578 261.37 L
306.966 261.37 L
307.354 261.37 L
307.743 261.37 L
308.131 261.37 L
308.52 261.37 L
308.908 261.37 L
309.296 261.37 L
309.685 261.37 L
310.073 261.37 L
310.461 261.37 L
310.85 261.37 L
311.238 261.37 L
311.627 261.37 L
312.015 261.37 L
312.403 261.37 L
312.792 261.37 L
313.18 261.37 L
313.569 261.37 L
313.957 261.37 L
314.345 261.37 L
314.734 261.37 L
315.122 261.37 L
315.51 261.37 L
315.899 261.37 L
316.287 261.37 L
316.676 261.37 L
317.064 261.37 L
317.452 261.37 L
317.841 261.37 L
318.229 261.37 L
318.618 261.37 L
319.006 261.37 L
319.394 261.37 L
319.783 261.37 L
320.171 261.37 L
320.56 261.37 L
320.948 261.37 L
321.336 261.37 L
321.725 261.37 L
322.113 261.37 L
322.501 261.37 L
322.89 261.37 L
323.278 261.37 L
323.667 261.37 L
324.055 261.37 L
324.443 261.37 L
324.832 261.37 L
325.22 261.37 L
325.609 261.37 L
325.997 261.37 L
326.385 261.37 L
326.774 261.37 L
327.162 261.37 L
327.551 261.37 L
327.939 261.37 L
328.327 261.37 L
328.716 261.37 L
329.104 261.37 L
329.492 261.37 L
329.881 261.37 L
330.269 261.37 L
330.658 261.37 L
331.046 261.37 L
331.434 261.37 L
331.823 261.37 L
332.211 261.37 L
332.6 261.37 L
332.988 261.37 L
333.376 261.37 L
333.765 261.37 L
334.153 261.37 L
334.542 261.37 L
334.93 261.37 L
335.318 261.37 L
335.707 261.37 L
336.095 261.37 L
336.483 261.37 L
336.872 261.37 L
337.26 261.37 L
337.649 261.37 L
338.037 261.37 L
338.425 261.37 L
338.814 261.37 L
339.202 261.37 L
339.591 261.37 L
339.979 261.37 L
340.367 261.37 L
340.756 261.37 L
341.144 261.37 L
341.533 261.37 L
341.921 261.37 L
342.309 261.37 L
342.698 261.37 L
343.086 261.37 L
343.474 261.37 L
343.863 261.37 L
344.251 261.37 L
344.64 261.37 L
345.028 261.37 L
345.416 261.37 L
345.805 261.37 L
346.193 261.37 L
346.582 261.37 L
346.97 261.37 L
347.358 261.37 L
347.747 261.37 L
348.135 261.37 L
348.524 261.37 L
348.912 261.37 L
349.3 261.37 L
349.689 261.37 L
350.077 261.37 L
350.465 261.37 L
350.854 261.37 L
351.242 261.37 L
351.631 261.37 L
352.019 261.37 L
352.407 261.37 L
352.796 261.37 L
353.184 261.37 L
353.573 261.37 L
353.961 261.37 L
354.349 261.37 L
354.738 261.37 L
355.126 261.37 L
355.515 261.37 L
355.903 261.37 L
356.291 261.37 L
356.68 261.37 L
357.068 261.37 L
357.456 261.37 L
357.845 261.37 L
358.233 261.37 L
358.622 261.37 L
359.01 261.37 L
359.398 261.37 L
359.787 261.37 L
360.175 261.37 L
360.564 261.37 L
360.952 261.37 L
361.34 261.37 L
361.729 261.37 L
362.117 261.37 L
362.505 261.37 L
362.894 261.37 L
363.282 261.37 L
363.671 261.37 L
364.059 261.37 L
364.447 261.37 L
364.836 261.37 L
365.224 261.37 L
365.613 261.37 L
366.001 261.37 L
366.389 261.37 L
366.778 261.37 L
367.166 261.37 L
367.555 261.37 L
367.943 261.37 L
368.331 261.37 L
368.72 261.37 L
369.108 261.37 L
369.496 261.37 L
369.885 261.37 L
370.273 261.37 L
370.662 261.37 L
371.05 261.37 L
371.438 261.37 L
371.827 261.37 L
372.215 261.37 L
372.604 261.37 L
372.992 261.37 L
373.38 261.37 L
373.769 261.37 L
374.157 261.37 L
374.546 261.37 L
374.934 261.37 L
375.322 261.37 L
375.711 261.37 L
376.099 261.37 L
376.487 261.37 L
376.876 261.37 L
377.264 261.37 L
377.653 261.37 L
378.041 261.37 L
378.429 261.37 L
378.818 261.37 L
379.206 261.37 L
379.595 261.37 L
379.983 261.37 L
380.371 261.37 L
380.76 261.37 L
381.148 261.37 L
381.537 261.37 L
381.925 261.37 L
382.313 261.37 L
382.702 261.37 L
383.09 261.37 L
383.478 261.37 L
383.867 261.37 L
384.255 261.37 L
384.644 261.37 L
385.032 261.37 L
385.42 261.37 L
385.809 261.37 L
386.197 261.37 L
386.586 261.37 L
386.974 261.37 L
387.362 261.37 L
387.751 261.37 L
388.139 261.37 L
388.528 261.37 L
388.916 261.37 L
389.304 261.37 L
389.693 261.37 L
390.081 261.37 L
390.469 261.37 L
390.858 261.37 L
391.246 261.37 L
391.635 261.37 L
392.023 261.37 L
392.411 261.37 L
392.8 261.37 L
393.188 261.37 L
393.577 261.37 L
393.965 261.37 L
394.353 261.37 L
394.742 261.37 L
395.13 261.37 L
395.519 261.37 L
395.907 261.37 L
396.295 261.37 L
396.684 261.37 L
397.072 261.37 L
397.46 261.37 L
397.849 261.37 L
398.237 261.37 L
398.626 261.37 L
399.014 261.37 L
399.402 261.37 L
399.791 261.37 L
400.179 261.37 L
400.568 261.37 L
400.956 261.37 L
401.344 261.37 L
401.733 261.37 L
402.121 261.37 L
402.51 261.37 L
402.898 261.37 L
403.286 261.37 L
403.675 261.37 L
404.063 261.37 L
404.451 261.37 L
404.84 261.37 L
405.228 261.37 L
405.617 261.37 L
406.005 261.37 L
406.393 261.37 L
406.782 261.37 L
407.17 261.37 L
407.559 261.37 L
407.947 261.37 L
408.335 261.37 L
408.724 261.37 L
409.112 261.37 L
409.5 261.37 L
409.889 261.37 L
410.277 261.37 L
410.666 261.37 L
411.054 261.37 L
411.442 261.37 L
411.831 261.37 L
412.219 261.37 L
412.608 261.37 L
412.996 261.37 L
413.384 261.37 L
413.773 261.37 L
414.161 261.37 L
414.55 261.37 L
414.938 261.37 L
415.326 261.37 L
415.715 261.37 L
416.103 261.37 L
416.491 261.37 L
416.88 261.37 L
417.268 261.37 L
417.657 261.37 L
418.045 261.37 L
418.433 261.37 L
418.822 261.37 L
419.21 261.37 L
419.599 261.37 L
419.987 261.37 L
420.375 261.37 L
420.764 261.37 L
421.152 261.37 L
421.541 261.37 L
421.929 261.37 L
422.317 261.37 L
422.706 261.37 L
423.094 261.37 L
423.482 261.37 L
423.871 261.37 L
424.259 261.37 L
424.648 261.37 L
425.036 261.37 L
425.424 261.37 L
425.813 261.37 L
426.201 261.37 L
426.59 261.37 L
426.978 261.37 L
427.366 261.37 L
427.755 261.37 L
428.143 261.37 L
428.532 261.37 L
428.92 261.37 L
429.308 261.37 L
429.697 261.37 L
430.085 261.37 L
430.473 261.37 L
430.862 261.37 L
431.25 261.37 L
431.639 261.37 L
432.027 261.37 L
432.415 261.37 L
432.804 261.37 L
433.192 261.37 L
433.581 261.37 L
433.969 261.37 L
434.357 261.37 L
434.746 261.37 L
435.134 261.37 L
435.523 261.37 L
435.911 261.37 L
436.299 261.37 L
436.688 261.37 L
437.076 261.37 L
437.464 261.37 L
437.853 261.37 L
438.241 261.37 L
438.63 261.37 L
439.018 261.37 L
439.406 261.37 L
439.795 261.37 L
440.183 261.37 L
440.572 261.37 L
440.96 261.37 L
441.348 261.37 L
441.737 261.37 L
442.125 261.37 L
442.514 261.37 L
442.902 261.37 L
443.29 261.37 L
443.679 261.37 L
444.067 261.37 L
444.455 261.37 L
444.844 261.37 L
445.232 261.37 L
445.621 261.37 L
446.009 261.37 L
446.397 261.37 L
446.786 261.37 L
447.174 261.37 L
447.563 261.37 L
447.951 261.37 L
448.339 261.37 L
448.728 261.37 L
449.116 261.37 L
449.505 261.37 L
449.893 261.37 L
450.281 261.37 L
450.67 261.37 L
451.058 261.37 L
451.446 261.37 L
451.835 261.37 L
452.223 261.37 L
452.612 261.37 L
453 261.37 L
S
GR
%%Trailer
%%Pages: 1
%%EOF
