%!PS-Adobe-3.0 EPSF-3.0
%%Creator: (MATLAB, The Mathworks, Inc. Version 9.3.0.713579 \(R2017b\). Operating System: Mac OS X)
%%Title: ./Output/individual_regret_evolution_TS.eps
%%CreationDate: 2018-03-16T13:31:46
%%Pages: (atend)
%%BoundingBox:    11    14   475   335
%%LanguageLevel: 3
%%EndComments
%%BeginProlog
%%BeginResource: procset (Apache XML Graphics Std ProcSet) 1.2 0
%%Version: 1.2 0
%%Copyright: (Copyright 2001-2003,2010 The Apache Software Foundation. License terms: http://www.apache.org/licenses/LICENSE-2.0)
/bd{bind def}bind def
/ld{load def}bd
/GR/grestore ld
/GS/gsave ld
/RM/rmoveto ld
/C/curveto ld
/t/show ld
/L/lineto ld
/ML/setmiterlimit ld
/CT/concat ld
/f/fill ld
/N/newpath ld
/S/stroke ld
/CC/setcmykcolor ld
/A/ashow ld
/cp/closepath ld
/RC/setrgbcolor ld
/LJ/setlinejoin ld
/GC/setgray ld
/LW/setlinewidth ld
/M/moveto ld
/re {4 2 roll M
1 index 0 rlineto
0 exch rlineto
neg 0 rlineto
cp } bd
/_ctm matrix def
/_tm matrix def
/BT { _ctm currentmatrix pop matrix _tm copy pop 0 0 moveto } bd
/ET { _ctm setmatrix } bd
/iTm { _ctm setmatrix _tm concat } bd
/Tm { _tm astore pop iTm 0 0 moveto } bd
/ux 0.0 def
/uy 0.0 def
/F {
  /Tp exch def
  /Tf exch def
  Tf findfont Tp scalefont setfont
  /cf Tf def  /cs Tp def
} bd
/ULS {currentpoint /uy exch def /ux exch def} bd
/ULE {
  /Tcx currentpoint pop def
  gsave
  newpath
  cf findfont cs scalefont dup
  /FontMatrix get 0 get /Ts exch def /FontInfo get dup
  /UnderlinePosition get Ts mul /To exch def
  /UnderlineThickness get Ts mul /Tt exch def
  ux uy To add moveto  Tcx uy To add lineto
  Tt setlinewidth stroke
  grestore
} bd
/OLE {
  /Tcx currentpoint pop def
  gsave
  newpath
  cf findfont cs scalefont dup
  /FontMatrix get 0 get /Ts exch def /FontInfo get dup
  /UnderlinePosition get Ts mul /To exch def
  /UnderlineThickness get Ts mul /Tt exch def
  ux uy To add cs add moveto Tcx uy To add cs add lineto
  Tt setlinewidth stroke
  grestore
} bd
/SOE {
  /Tcx currentpoint pop def
  gsave
  newpath
  cf findfont cs scalefont dup
  /FontMatrix get 0 get /Ts exch def /FontInfo get dup
  /UnderlinePosition get Ts mul /To exch def
  /UnderlineThickness get Ts mul /Tt exch def
  ux uy To add cs 10 mul 26 idiv add moveto Tcx uy To add cs 10 mul 26 idiv add lineto
  Tt setlinewidth stroke
  grestore
} bd
/QT {
/Y22 exch store
/X22 exch store
/Y21 exch store
/X21 exch store
currentpoint
/Y21 load 2 mul add 3 div exch
/X21 load 2 mul add 3 div exch
/X21 load 2 mul /X22 load add 3 div
/Y21 load 2 mul /Y22 load add 3 div
/X22 load /Y22 load curveto
} bd
/SSPD {
dup length /d exch dict def
{
/v exch def
/k exch def
currentpagedevice k known {
/cpdv currentpagedevice k get def
v cpdv ne {
/upd false def
/nullv v type /nulltype eq def
/nullcpdv cpdv type /nulltype eq def
nullv nullcpdv or
{
/upd true def
} {
/sametype v type cpdv type eq def
sametype {
v type /arraytype eq {
/vlen v length def
/cpdvlen cpdv length def
vlen cpdvlen eq {
0 1 vlen 1 sub {
/i exch def
/obj v i get def
/cpdobj cpdv i get def
obj cpdobj ne {
/upd true def
exit
} if
} for
} {
/upd true def
} ifelse
} {
v type /dicttype eq {
v {
/dv exch def
/dk exch def
/cpddv cpdv dk get def
dv cpddv ne {
/upd true def
exit
} if
} forall
} {
/upd true def
} ifelse
} ifelse
} if
} ifelse
upd true eq {
d k v put
} if
} if
} if
} forall
d length 0 gt {
d setpagedevice
} if
} bd
/RE { % /NewFontName [NewEncodingArray] /FontName RE -
  findfont dup length dict begin
  {
    1 index /FID ne
    {def} {pop pop} ifelse
  } forall
  /Encoding exch def
  /FontName 1 index def
  currentdict definefont pop
  end
} bind def
%%EndResource
%%BeginResource: procset (Apache XML Graphics EPS ProcSet) 1.0 0
%%Version: 1.0 0
%%Copyright: (Copyright 2002-2003 The Apache Software Foundation. License terms: http://www.apache.org/licenses/LICENSE-2.0)
/BeginEPSF { %def
/b4_Inc_state save def         % Save state for cleanup
/dict_count countdictstack def % Count objects on dict stack
/op_count count 1 sub def      % Count objects on operand stack
userdict begin                 % Push userdict on dict stack
/showpage { } def              % Redefine showpage, { } = null proc
0 setgray 0 setlinecap         % Prepare graphics state
1 setlinewidth 0 setlinejoin
10 setmiterlimit [ ] 0 setdash newpath
/languagelevel where           % If level not equal to 1 then
{pop languagelevel             % set strokeadjust and
1 ne                           % overprint to their defaults.
{false setstrokeadjust false setoverprint
} if
} if
} bd
/EndEPSF { %def
count op_count sub {pop} repeat            % Clean up stacks
countdictstack dict_count sub {end} repeat
b4_Inc_state restore
} bd
%%EndResource
%FOPBeginFontDict
%%IncludeResource: font Courier-Oblique
%%IncludeResource: font Courier-BoldOblique
%%IncludeResource: font Courier-Bold
%%IncludeResource: font ZapfDingbats
%%IncludeResource: font Symbol
%%IncludeResource: font Helvetica
%%IncludeResource: font Helvetica-Oblique
%%IncludeResource: font Helvetica-Bold
%%IncludeResource: font Helvetica-BoldOblique
%%IncludeResource: font Times-Roman
%%IncludeResource: font Times-Italic
%%IncludeResource: font Times-Bold
%%IncludeResource: font Times-BoldItalic
%%IncludeResource: font Courier
%FOPEndFontDict
%%BeginResource: encoding WinAnsiEncoding
/WinAnsiEncoding [
/.notdef /.notdef /.notdef /.notdef /.notdef
/.notdef /.notdef /.notdef /.notdef /.notdef
/.notdef /.notdef /.notdef /.notdef /.notdef
/.notdef /.notdef /.notdef /.notdef /.notdef
/.notdef /.notdef /.notdef /.notdef /.notdef
/.notdef /.notdef /.notdef /.notdef /.notdef
/.notdef /.notdef /space /exclam /quotedbl
/numbersign /dollar /percent /ampersand /quotesingle
/parenleft /parenright /asterisk /plus /comma
/hyphen /period /slash /zero /one
/two /three /four /five /six
/seven /eight /nine /colon /semicolon
/less /equal /greater /question /at
/A /B /C /D /E
/F /G /H /I /J
/K /L /M /N /O
/P /Q /R /S /T
/U /V /W /X /Y
/Z /bracketleft /backslash /bracketright /asciicircum
/underscore /quoteleft /a /b /c
/d /e /f /g /h
/i /j /k /l /m
/n /o /p /q /r
/s /t /u /v /w
/x /y /z /braceleft /bar
/braceright /asciitilde /bullet /Euro /bullet
/quotesinglbase /florin /quotedblbase /ellipsis /dagger
/daggerdbl /circumflex /perthousand /Scaron /guilsinglleft
/OE /bullet /Zcaron /bullet /bullet
/quoteleft /quoteright /quotedblleft /quotedblright /bullet
/endash /emdash /asciitilde /trademark /scaron
/guilsinglright /oe /bullet /zcaron /Ydieresis
/space /exclamdown /cent /sterling /currency
/yen /brokenbar /section /dieresis /copyright
/ordfeminine /guillemotleft /logicalnot /sfthyphen /registered
/macron /degree /plusminus /twosuperior /threesuperior
/acute /mu /paragraph /middot /cedilla
/onesuperior /ordmasculine /guillemotright /onequarter /onehalf
/threequarters /questiondown /Agrave /Aacute /Acircumflex
/Atilde /Adieresis /Aring /AE /Ccedilla
/Egrave /Eacute /Ecircumflex /Edieresis /Igrave
/Iacute /Icircumflex /Idieresis /Eth /Ntilde
/Ograve /Oacute /Ocircumflex /Otilde /Odieresis
/multiply /Oslash /Ugrave /Uacute /Ucircumflex
/Udieresis /Yacute /Thorn /germandbls /agrave
/aacute /acircumflex /atilde /adieresis /aring
/ae /ccedilla /egrave /eacute /ecircumflex
/edieresis /igrave /iacute /icircumflex /idieresis
/eth /ntilde /ograve /oacute /ocircumflex
/otilde /odieresis /divide /oslash /ugrave
/uacute /ucircumflex /udieresis /yacute /thorn
/ydieresis
] def
%%EndResource
%FOPBeginFontReencode
/Courier-Oblique findfont
dup length dict begin
  {1 index /FID ne {def} {pop pop} ifelse} forall
  /Encoding WinAnsiEncoding def
  currentdict
end
/Courier-Oblique exch definefont pop
/Courier-BoldOblique findfont
dup length dict begin
  {1 index /FID ne {def} {pop pop} ifelse} forall
  /Encoding WinAnsiEncoding def
  currentdict
end
/Courier-BoldOblique exch definefont pop
/Courier-Bold findfont
dup length dict begin
  {1 index /FID ne {def} {pop pop} ifelse} forall
  /Encoding WinAnsiEncoding def
  currentdict
end
/Courier-Bold exch definefont pop
/Helvetica findfont
dup length dict begin
  {1 index /FID ne {def} {pop pop} ifelse} forall
  /Encoding WinAnsiEncoding def
  currentdict
end
/Helvetica exch definefont pop
/Helvetica-Oblique findfont
dup length dict begin
  {1 index /FID ne {def} {pop pop} ifelse} forall
  /Encoding WinAnsiEncoding def
  currentdict
end
/Helvetica-Oblique exch definefont pop
/Helvetica-Bold findfont
dup length dict begin
  {1 index /FID ne {def} {pop pop} ifelse} forall
  /Encoding WinAnsiEncoding def
  currentdict
end
/Helvetica-Bold exch definefont pop
/Helvetica-BoldOblique findfont
dup length dict begin
  {1 index /FID ne {def} {pop pop} ifelse} forall
  /Encoding WinAnsiEncoding def
  currentdict
end
/Helvetica-BoldOblique exch definefont pop
/Times-Roman findfont
dup length dict begin
  {1 index /FID ne {def} {pop pop} ifelse} forall
  /Encoding WinAnsiEncoding def
  currentdict
end
/Times-Roman exch definefont pop
/Times-Italic findfont
dup length dict begin
  {1 index /FID ne {def} {pop pop} ifelse} forall
  /Encoding WinAnsiEncoding def
  currentdict
end
/Times-Italic exch definefont pop
/Times-Bold findfont
dup length dict begin
  {1 index /FID ne {def} {pop pop} ifelse} forall
  /Encoding WinAnsiEncoding def
  currentdict
end
/Times-Bold exch definefont pop
/Times-BoldItalic findfont
dup length dict begin
  {1 index /FID ne {def} {pop pop} ifelse} forall
  /Encoding WinAnsiEncoding def
  currentdict
end
/Times-BoldItalic exch definefont pop
/Courier findfont
dup length dict begin
  {1 index /FID ne {def} {pop pop} ifelse} forall
  /Encoding WinAnsiEncoding def
  currentdict
end
/Courier exch definefont pop
%FOPEndFontReencode
%%EndProlog
%%Page: 1 1
%%PageBoundingBox: 0 0 500 350
%%BeginPageSetup
[1 0 0 -1 0 350] CT
%%EndPageSetup
GS
1 GC
N
0 0 500 350 re
f
GR
GS
1 GC
N
0 0 500 350 re
f
GR
GS
1 GC
N
65 115 M
453 115 L
453 44 L
65 44 L
cp
f
GR
GS
0.149 GC
2 setlinecap
1 LJ
0.5 LW
N
65 115 M
453 115 L
S
GR
GS
0.149 GC
2 setlinecap
1 LJ
0.5 LW
N
65 44 M
453 44 L
S
GR
GS
0.149 GC
2 setlinecap
1 LJ
0.5 LW
N
65 115 M
65 111.12 L
S
GR
GS
0.149 GC
2 setlinecap
1 LJ
0.5 LW
N
142.6 115 M
142.6 111.12 L
S
GR
GS
0.149 GC
2 setlinecap
1 LJ
0.5 LW
N
220.2 115 M
220.2 111.12 L
S
GR
GS
0.149 GC
2 setlinecap
1 LJ
0.5 LW
N
297.8 115 M
297.8 111.12 L
S
GR
GS
0.149 GC
2 setlinecap
1 LJ
0.5 LW
N
375.4 115 M
375.4 111.12 L
S
GR
GS
0.149 GC
2 setlinecap
1 LJ
0.5 LW
N
453 115 M
453 111.12 L
S
GR
GS
0.149 GC
2 setlinecap
1 LJ
0.5 LW
N
65 44 M
65 47.88 L
S
GR
GS
0.149 GC
2 setlinecap
1 LJ
0.5 LW
N
142.6 44 M
142.6 47.88 L
S
GR
GS
0.149 GC
2 setlinecap
1 LJ
0.5 LW
N
220.2 44 M
220.2 47.88 L
S
GR
GS
0.149 GC
2 setlinecap
1 LJ
0.5 LW
N
297.8 44 M
297.8 47.88 L
S
GR
GS
0.149 GC
2 setlinecap
1 LJ
0.5 LW
N
375.4 44 M
375.4 47.88 L
S
GR
GS
0.149 GC
2 setlinecap
1 LJ
0.5 LW
N
453 44 M
453 47.88 L
S
GR
GS
[1 0 0 1 65 121.4] CT
0.149 GC
/Times-Roman 22 F
GS
[1 0 0 1 0 0] CT
-5.5 20 moveto 
1 -1 scale
(0) t 
GR
GR
GS
[1 0 0 1 142.60001 121.4] CT
0.149 GC
/Times-Roman 22 F
GS
[1 0 0 1 0 0] CT
-16.5 20 moveto 
1 -1 scale
(200) t 
GR
GR
GS
[1 0 0 1 220.2 121.4] CT
0.149 GC
/Times-Roman 22 F
GS
[1 0 0 1 0 0] CT
-16.5 20 moveto 
1 -1 scale
(400) t 
GR
GR
GS
[1 0 0 1 297.79999 121.4] CT
0.149 GC
/Times-Roman 22 F
GS
[1 0 0 1 0 0] CT
-16.5 20 moveto 
1 -1 scale
(600) t 
GR
GR
GS
[1 0 0 1 375.39999 121.4] CT
0.149 GC
/Times-Roman 22 F
GS
[1 0 0 1 0 0] CT
-16.5 20 moveto 
1 -1 scale
(800) t 
GR
GR
GS
[1 0 0 1 453 121.4] CT
0.149 GC
/Times-Roman 22 F
GS
[1 0 0 1 0 0] CT
-22 20 moveto 
1 -1 scale
(1000) t 
GR
GR
GS
[1 0 0 1 259.00018 147.39999] CT
0.149 GC
/Times-Roman 24 F
GS
[1 0 0 1 0 0] CT
-57 22 moveto 
1 -1 scale
(TS iteration) t 
GR
GR
GS
0.149 GC
2 setlinecap
1 LJ
0.5 LW
N
65 115 M
65 44 L
S
GR
GS
0.149 GC
2 setlinecap
1 LJ
0.5 LW
N
453 115 M
453 44 L
S
GR
GS
0.149 GC
2 setlinecap
1 LJ
0.5 LW
N
65 115 M
68.88 115 L
S
GR
GS
0.149 GC
2 setlinecap
1 LJ
0.5 LW
N
65 79.5 M
68.88 79.5 L
S
GR
GS
0.149 GC
2 setlinecap
1 LJ
0.5 LW
N
65 44 M
68.88 44 L
S
GR
GS
0.149 GC
2 setlinecap
1 LJ
0.5 LW
N
453 115 M
449.12 115 L
S
GR
GS
0.149 GC
2 setlinecap
1 LJ
0.5 LW
N
453 79.5 M
449.12 79.5 L
S
GR
GS
0.149 GC
2 setlinecap
1 LJ
0.5 LW
N
453 44 M
449.12 44 L
S
GR
GS
[1 0 0 1 58.6 115] CT
0.149 GC
/Times-Roman 22 F
GS
[1 0 0 1 0 0] CT
-11 7.5 moveto 
1 -1 scale
(0) t 
GR
GR
GS
[1 0 0 1 58.6 79.5] CT
0.149 GC
/Times-Roman 22 F
GS
[1 0 0 1 0 0] CT
-22 7.5 moveto 
1 -1 scale
(20) t 
GR
GR
GS
[1 0 0 1 58.6 44] CT
0.149 GC
/Times-Roman 22 F
GS
[1 0 0 1 0 0] CT
-22 7.5 moveto 
1 -1 scale
(40) t 
GR
GR
GS
[0 -1 1 0 33.6 79.49997] CT
0.149 GC
/Times-Roman 24 F
GS
[1 0 0 1 0 0] CT
-32 -6 moveto 
1 -1 scale
(Regret) t 
GR
GR
GS
[1 0 0 1 259.00024 37.95] CT
/Times-Bold 24.2 F
GS
[1 0 0 1 0 0] CT
-47 -6 moveto 
1 -1 scale
(WLAN 1) t 
GR
GR
GS
0 0.447 0.741 RC
1 LJ
0.5 LW
N
65.388 115 M
65.776 113.229 L
66.164 111.46 L
66.552 109.685 L
66.94 107.91 L
67.328 106.135 L
67.716 104.365 L
68.104 102.596 L
68.492 100.826 L
68.88 99.056 L
69.268 97.297 L
69.656 95.538 L
70.044 93.763 L
70.432 91.994 L
70.82 90.224 L
71.208 88.449 L
71.596 86.674 L
71.984 84.899 L
72.372 83.124 L
72.76 81.349 L
73.148 79.59 L
73.536 77.831 L
73.924 76.072 L
74.312 74.297 L
74.7 72.522 L
75.088 72.522 L
75.476 70.763 L
75.864 70.763 L
76.252 70.763 L
76.64 70.763 L
77.028 68.988 L
77.416 68.988 L
77.804 68.988 L
78.192 68.988 L
78.58 68.988 L
78.968 68.988 L
79.356 68.988 L
79.744 68.988 L
80.132 68.988 L
80.52 68.988 L
80.908 68.988 L
81.296 68.988 L
81.684 68.988 L
82.072 68.988 L
82.46 68.988 L
82.848 68.988 L
83.236 68.988 L
83.624 68.988 L
84.012 68.988 L
84.4 68.988 L
84.788 68.988 L
85.176 68.988 L
85.564 68.988 L
85.952 68.988 L
86.34 68.988 L
86.728 68.988 L
87.116 68.988 L
87.504 68.988 L
87.892 68.988 L
88.28 68.988 L
88.668 68.988 L
89.056 68.988 L
89.444 68.988 L
89.832 68.988 L
90.22 68.988 L
90.608 68.988 L
90.996 68.988 L
91.384 68.988 L
91.772 68.988 L
92.16 68.988 L
92.548 68.988 L
92.936 68.988 L
93.324 68.988 L
93.712 68.988 L
94.1 68.988 L
94.488 68.988 L
94.876 68.988 L
95.264 68.988 L
95.652 68.988 L
96.04 68.988 L
96.428 68.988 L
96.816 68.988 L
97.204 68.988 L
97.592 68.988 L
97.98 68.988 L
98.368 68.988 L
98.756 68.988 L
99.144 68.988 L
99.532 68.988 L
99.92 68.988 L
100.308 68.988 L
100.696 68.988 L
101.084 68.988 L
101.472 68.988 L
101.86 68.988 L
102.248 68.988 L
102.636 68.988 L
103.024 68.988 L
103.412 68.988 L
103.8 68.988 L
104.188 68.988 L
104.576 68.988 L
104.964 68.988 L
105.352 68.988 L
105.74 68.988 L
106.128 68.988 L
106.516 68.988 L
106.904 68.988 L
107.292 68.988 L
107.68 68.988 L
108.068 68.988 L
108.456 68.988 L
108.844 68.988 L
109.232 68.988 L
109.62 68.988 L
110.008 68.988 L
110.396 68.988 L
110.784 68.988 L
111.172 68.988 L
111.56 68.988 L
111.948 68.988 L
112.336 68.988 L
112.724 68.988 L
113.112 68.988 L
113.5 68.988 L
113.888 68.988 L
114.276 68.988 L
114.664 68.988 L
115.052 68.988 L
115.44 68.988 L
115.828 68.988 L
116.216 68.988 L
116.604 68.988 L
116.992 68.988 L
117.38 68.988 L
117.768 68.988 L
118.156 68.988 L
118.544 68.988 L
118.932 68.988 L
119.32 68.988 L
119.708 68.988 L
120.096 68.988 L
120.484 68.988 L
120.872 68.988 L
121.26 68.988 L
121.648 68.988 L
122.036 68.988 L
122.424 68.988 L
122.812 68.988 L
123.2 68.988 L
123.588 68.988 L
123.976 68.988 L
124.364 68.988 L
124.752 68.988 L
125.14 68.988 L
125.528 68.988 L
125.916 68.988 L
126.304 68.988 L
126.692 68.988 L
127.08 68.988 L
127.468 68.988 L
127.856 68.988 L
128.244 68.988 L
128.632 68.988 L
129.02 68.988 L
129.408 68.988 L
129.796 68.988 L
130.184 68.988 L
130.572 68.988 L
130.96 68.988 L
131.348 68.988 L
131.736 68.988 L
132.124 68.988 L
132.512 68.988 L
132.9 68.988 L
133.288 68.988 L
133.676 68.988 L
134.064 68.988 L
134.452 68.988 L
134.84 68.988 L
135.228 68.988 L
135.616 68.988 L
136.004 68.988 L
136.392 68.988 L
136.78 68.988 L
137.168 68.988 L
137.556 68.988 L
137.944 68.988 L
138.332 68.988 L
138.72 68.988 L
139.108 68.988 L
139.496 68.988 L
139.884 68.988 L
140.272 68.988 L
140.66 68.988 L
141.048 68.988 L
141.436 68.988 L
141.824 68.988 L
142.212 68.988 L
142.6 68.988 L
142.988 68.988 L
143.376 68.988 L
143.764 68.988 L
144.152 68.988 L
144.54 68.988 L
144.928 68.988 L
145.316 68.988 L
145.704 68.988 L
146.092 68.988 L
146.48 68.988 L
146.868 68.988 L
147.256 68.988 L
147.644 68.988 L
148.032 68.988 L
148.42 68.988 L
148.808 68.988 L
149.196 68.988 L
149.584 68.988 L
149.972 68.988 L
150.36 68.988 L
150.748 68.988 L
151.136 68.988 L
151.524 68.988 L
151.912 68.988 L
152.3 68.988 L
152.688 68.988 L
153.076 68.988 L
153.464 68.988 L
153.852 68.988 L
154.24 68.988 L
154.628 68.988 L
155.016 68.988 L
155.404 68.988 L
155.792 68.988 L
156.18 68.988 L
156.568 68.988 L
156.956 68.988 L
157.344 68.988 L
157.732 68.988 L
158.12 68.988 L
158.508 68.988 L
158.896 68.988 L
159.284 68.988 L
159.672 68.988 L
160.06 68.988 L
160.448 68.988 L
160.836 68.988 L
161.224 68.988 L
161.612 68.988 L
162 68.988 L
162.388 68.988 L
162.776 68.988 L
163.164 68.988 L
163.552 68.988 L
163.94 68.988 L
164.328 68.988 L
164.716 68.988 L
165.104 68.988 L
165.492 68.988 L
165.88 68.988 L
166.268 68.988 L
166.656 68.988 L
167.044 68.988 L
167.432 68.988 L
167.82 68.988 L
168.208 68.988 L
168.596 68.988 L
168.984 68.988 L
169.372 68.988 L
169.76 68.988 L
170.148 68.988 L
170.536 68.988 L
170.924 68.988 L
171.312 68.988 L
171.7 68.988 L
172.088 68.988 L
172.476 68.988 L
172.864 68.988 L
173.252 68.988 L
173.64 68.988 L
174.028 68.988 L
174.416 68.988 L
174.804 68.988 L
175.192 68.988 L
175.58 68.988 L
175.968 68.988 L
176.356 68.988 L
176.744 68.988 L
177.132 68.988 L
177.52 68.988 L
177.908 68.988 L
178.296 68.988 L
178.684 68.988 L
179.072 68.988 L
179.46 68.988 L
179.848 68.988 L
180.236 68.988 L
180.624 68.988 L
181.012 68.988 L
181.4 68.988 L
181.788 68.988 L
182.176 68.988 L
182.564 68.988 L
182.952 68.988 L
183.34 68.988 L
183.728 68.988 L
184.116 68.988 L
184.504 68.988 L
184.892 68.988 L
185.28 68.988 L
185.668 68.988 L
186.056 68.988 L
186.444 68.988 L
186.832 68.988 L
187.22 68.988 L
187.608 68.988 L
187.996 68.988 L
188.384 68.988 L
188.772 68.988 L
189.16 68.988 L
189.548 68.988 L
189.936 68.988 L
190.324 68.988 L
190.712 68.988 L
191.1 68.988 L
191.488 68.988 L
191.876 68.988 L
192.264 68.988 L
192.652 68.988 L
193.04 68.988 L
193.428 68.988 L
193.816 68.988 L
194.204 68.988 L
194.592 68.988 L
194.98 68.988 L
195.368 68.988 L
195.756 68.988 L
196.144 68.988 L
196.532 68.988 L
196.92 68.988 L
197.308 68.988 L
197.696 68.988 L
198.084 68.988 L
198.472 68.988 L
198.86 68.988 L
199.248 68.988 L
199.636 68.988 L
200.024 68.988 L
200.412 68.988 L
200.8 68.988 L
201.188 68.988 L
201.576 68.988 L
201.964 68.988 L
202.352 68.988 L
202.74 68.988 L
203.128 68.988 L
203.516 68.988 L
203.904 68.988 L
204.292 68.988 L
204.68 68.988 L
205.068 68.988 L
205.456 68.988 L
205.844 68.988 L
206.232 68.988 L
206.62 68.988 L
207.008 68.988 L
207.396 68.988 L
207.784 68.988 L
208.172 68.988 L
208.56 68.988 L
208.948 68.988 L
209.336 68.988 L
209.724 68.988 L
210.112 68.988 L
210.5 68.988 L
210.888 68.988 L
211.276 68.988 L
211.664 68.988 L
212.052 68.988 L
212.44 68.988 L
212.828 68.988 L
213.216 68.988 L
213.604 68.988 L
213.992 68.988 L
214.38 68.988 L
214.768 68.988 L
215.156 68.988 L
215.544 68.988 L
215.932 68.988 L
216.32 68.988 L
216.708 68.988 L
217.096 68.988 L
217.484 68.988 L
217.872 68.988 L
218.26 68.988 L
218.648 68.988 L
219.036 68.988 L
219.424 68.988 L
219.812 68.988 L
220.2 68.988 L
220.588 68.988 L
220.976 68.988 L
221.364 68.988 L
221.752 68.988 L
222.14 68.988 L
222.528 68.988 L
222.916 68.988 L
223.304 68.988 L
223.692 68.988 L
224.08 68.988 L
224.468 68.988 L
224.856 68.988 L
225.244 68.988 L
225.632 68.988 L
226.02 68.988 L
226.408 68.988 L
226.796 68.988 L
227.184 68.988 L
227.572 68.988 L
227.96 68.988 L
228.348 68.988 L
228.736 68.988 L
229.124 68.988 L
229.512 68.988 L
229.9 68.988 L
230.288 68.988 L
230.676 68.988 L
231.064 68.988 L
231.452 68.988 L
231.84 68.988 L
232.228 68.988 L
232.616 68.988 L
233.004 68.988 L
233.392 68.988 L
233.78 68.988 L
234.168 68.988 L
234.556 68.988 L
234.944 68.988 L
235.332 68.988 L
235.72 68.988 L
236.108 68.988 L
236.496 68.988 L
236.884 68.988 L
237.272 68.988 L
237.66 68.988 L
238.048 68.988 L
238.436 68.988 L
238.824 68.988 L
239.212 68.988 L
239.6 68.988 L
239.988 68.988 L
240.376 68.988 L
240.764 68.988 L
241.152 68.988 L
241.54 68.988 L
241.928 68.988 L
242.316 68.988 L
242.704 68.988 L
243.092 68.988 L
243.48 68.988 L
243.868 68.988 L
244.256 68.988 L
244.644 68.988 L
245.032 68.988 L
245.42 68.988 L
245.808 68.988 L
246.196 68.988 L
246.584 68.988 L
246.972 68.988 L
247.36 68.988 L
247.748 68.988 L
248.136 68.988 L
248.524 68.988 L
248.912 68.988 L
249.3 68.988 L
249.688 68.988 L
250.076 68.988 L
250.464 68.988 L
250.852 68.988 L
251.24 68.988 L
251.628 68.988 L
252.016 68.988 L
252.404 68.988 L
252.792 68.988 L
253.18 68.988 L
253.568 68.988 L
253.956 68.988 L
254.344 68.988 L
254.732 68.988 L
255.12 68.988 L
255.508 68.988 L
255.896 68.988 L
256.284 68.988 L
256.672 68.988 L
257.06 68.988 L
257.448 68.988 L
257.836 68.988 L
258.224 68.988 L
258.612 68.988 L
259 68.988 L
259.388 68.988 L
259.776 68.988 L
260.164 68.988 L
260.552 68.988 L
260.94 68.988 L
261.328 68.988 L
261.716 68.988 L
262.104 68.988 L
262.492 68.988 L
262.88 68.988 L
263.268 68.988 L
263.656 68.988 L
264.044 68.988 L
264.432 68.988 L
264.82 68.988 L
265.208 68.988 L
265.596 68.988 L
265.984 68.988 L
266.372 68.988 L
266.76 68.988 L
267.148 68.988 L
267.536 68.988 L
267.924 68.988 L
268.312 68.988 L
268.7 68.988 L
269.088 68.988 L
269.476 68.988 L
269.864 68.988 L
270.252 68.988 L
270.64 68.988 L
271.028 68.988 L
271.416 68.988 L
271.804 68.988 L
272.192 68.988 L
272.58 68.988 L
272.968 68.988 L
273.356 68.988 L
273.744 68.988 L
274.132 68.988 L
274.52 68.988 L
274.908 68.988 L
275.296 68.988 L
275.684 68.988 L
276.072 68.988 L
276.46 68.988 L
276.848 68.988 L
277.236 68.988 L
277.624 68.988 L
278.012 68.988 L
278.4 68.988 L
278.788 68.988 L
279.176 68.988 L
279.564 68.988 L
279.952 68.988 L
280.34 68.988 L
280.728 68.988 L
281.116 68.988 L
281.504 68.988 L
281.892 68.988 L
282.28 68.988 L
282.668 68.988 L
283.056 68.988 L
283.444 68.988 L
283.832 68.988 L
284.22 68.988 L
284.608 68.988 L
284.996 68.988 L
285.384 68.988 L
285.772 68.988 L
286.16 68.988 L
286.548 68.988 L
286.936 68.988 L
287.324 68.988 L
287.712 68.988 L
288.1 68.988 L
288.488 68.988 L
288.876 68.988 L
289.264 68.988 L
289.652 68.988 L
290.04 68.988 L
290.428 68.988 L
290.816 68.988 L
291.204 68.988 L
291.592 68.988 L
291.98 68.988 L
292.368 68.988 L
292.756 68.988 L
293.144 68.988 L
293.532 68.988 L
293.92 68.988 L
294.308 68.988 L
294.696 68.988 L
295.084 68.988 L
295.472 68.988 L
295.86 68.988 L
296.248 68.988 L
296.636 68.988 L
297.024 68.988 L
297.412 68.988 L
297.8 68.988 L
298.188 68.988 L
298.576 68.988 L
298.964 68.988 L
299.352 68.988 L
299.74 68.988 L
300.128 68.988 L
300.516 68.988 L
300.904 68.988 L
301.292 68.988 L
301.68 68.988 L
302.068 68.988 L
302.456 68.988 L
302.844 68.988 L
303.232 68.988 L
303.62 68.988 L
304.008 68.988 L
304.396 68.988 L
304.784 68.988 L
305.172 68.988 L
305.56 68.988 L
305.948 68.988 L
306.336 68.988 L
306.724 68.988 L
307.112 68.988 L
307.5 68.988 L
307.888 68.988 L
308.276 68.988 L
308.664 68.988 L
309.052 68.988 L
309.44 68.988 L
309.828 68.988 L
310.216 68.988 L
310.604 68.988 L
310.992 68.988 L
311.38 68.988 L
311.768 68.988 L
312.156 68.988 L
312.544 68.988 L
312.932 68.988 L
313.32 68.988 L
313.708 68.988 L
314.096 68.988 L
314.484 68.988 L
314.872 68.988 L
315.26 68.988 L
315.648 68.988 L
316.036 68.988 L
316.424 68.988 L
316.812 68.988 L
317.2 68.988 L
317.588 68.988 L
317.976 68.988 L
318.364 68.988 L
318.752 68.988 L
319.14 68.988 L
319.528 68.988 L
319.916 68.988 L
320.304 68.988 L
320.692 68.988 L
321.08 68.988 L
321.468 68.988 L
321.856 68.988 L
322.244 68.988 L
322.632 68.988 L
323.02 68.988 L
323.408 68.988 L
323.796 68.988 L
324.184 68.988 L
324.572 68.988 L
324.96 68.988 L
325.348 68.988 L
325.736 68.988 L
326.124 68.988 L
326.512 68.988 L
326.9 68.988 L
327.288 68.988 L
327.676 68.988 L
328.064 68.988 L
328.452 68.988 L
328.84 68.988 L
329.228 68.988 L
329.616 68.988 L
330.004 68.988 L
330.392 68.988 L
330.78 68.988 L
331.168 68.988 L
331.556 68.988 L
331.944 68.988 L
332.332 68.988 L
332.72 68.988 L
333.108 68.988 L
333.496 68.988 L
333.884 68.988 L
334.272 68.988 L
334.66 68.988 L
335.048 68.988 L
335.436 68.988 L
335.824 68.988 L
336.212 68.988 L
336.6 68.988 L
336.988 68.988 L
337.376 68.988 L
337.764 68.988 L
338.152 68.988 L
338.54 68.988 L
338.928 68.988 L
339.316 68.988 L
339.704 68.988 L
340.092 68.988 L
340.48 68.988 L
340.868 68.988 L
341.256 68.988 L
341.644 68.988 L
342.032 68.988 L
342.42 68.988 L
342.808 68.988 L
343.196 68.988 L
343.584 68.988 L
343.972 68.988 L
344.36 68.988 L
344.748 68.988 L
345.136 68.988 L
345.524 68.988 L
345.912 68.988 L
346.3 68.988 L
346.688 68.988 L
347.076 68.988 L
347.464 68.988 L
347.852 68.988 L
348.24 68.988 L
348.628 68.988 L
349.016 68.988 L
349.404 68.988 L
349.792 68.988 L
350.18 68.988 L
350.568 68.988 L
350.956 68.988 L
351.344 68.988 L
351.732 68.988 L
352.12 68.988 L
352.508 68.988 L
352.896 68.988 L
353.284 68.988 L
353.672 68.988 L
354.06 68.988 L
354.448 68.988 L
354.836 68.988 L
355.224 68.988 L
355.612 68.988 L
356 68.988 L
356.388 68.988 L
356.776 68.988 L
357.164 68.988 L
357.552 68.988 L
357.94 68.988 L
358.328 68.988 L
358.716 68.988 L
359.104 68.988 L
359.492 68.988 L
359.88 68.988 L
360.268 68.988 L
360.656 68.988 L
361.044 68.988 L
361.432 68.988 L
361.82 68.988 L
362.208 68.988 L
362.596 68.988 L
362.984 68.988 L
363.372 68.988 L
363.76 68.988 L
364.148 68.988 L
364.536 68.988 L
364.924 68.988 L
365.312 68.988 L
365.7 68.988 L
366.088 68.988 L
366.476 68.988 L
366.864 68.988 L
367.252 68.988 L
367.64 68.988 L
368.028 68.988 L
368.416 68.988 L
368.804 68.988 L
369.192 68.988 L
369.58 68.988 L
369.968 68.988 L
370.356 68.988 L
370.744 68.988 L
371.132 68.988 L
371.52 68.988 L
371.908 68.988 L
372.296 68.988 L
372.684 68.988 L
373.072 68.988 L
373.46 68.988 L
373.848 68.988 L
374.236 68.988 L
374.624 68.988 L
375.012 68.988 L
375.4 68.988 L
375.788 68.988 L
376.176 68.988 L
376.564 68.988 L
376.952 68.988 L
377.34 68.988 L
377.728 68.988 L
378.116 68.988 L
378.504 68.988 L
378.892 68.988 L
379.28 68.988 L
379.668 68.988 L
380.056 68.988 L
380.444 68.988 L
380.832 68.988 L
381.22 68.988 L
381.608 68.988 L
381.996 68.988 L
382.384 68.988 L
382.772 68.988 L
383.16 68.988 L
383.548 68.988 L
383.936 68.988 L
384.324 68.988 L
384.712 68.988 L
385.1 68.988 L
385.488 68.988 L
385.876 68.988 L
386.264 68.988 L
386.652 68.988 L
387.04 68.988 L
387.428 68.988 L
387.816 68.988 L
388.204 68.988 L
388.592 68.988 L
388.98 68.988 L
389.368 68.988 L
389.756 68.988 L
390.144 68.988 L
390.532 68.988 L
390.92 68.988 L
391.308 68.988 L
391.696 68.988 L
392.084 68.988 L
392.472 68.988 L
392.86 68.988 L
393.248 68.988 L
393.636 68.988 L
394.024 68.988 L
394.412 68.988 L
394.8 68.988 L
395.188 68.988 L
395.576 68.988 L
395.964 68.988 L
396.352 68.988 L
396.74 68.988 L
397.128 68.988 L
397.516 68.988 L
397.904 68.988 L
398.292 68.988 L
398.68 68.988 L
399.068 68.988 L
399.456 68.988 L
399.844 68.988 L
400.232 68.988 L
400.62 68.988 L
401.008 68.988 L
401.396 68.988 L
401.784 68.988 L
402.172 68.988 L
402.56 68.988 L
402.948 68.988 L
403.336 68.988 L
403.724 68.988 L
404.112 68.988 L
404.5 68.988 L
404.888 68.988 L
405.276 68.988 L
405.664 68.988 L
406.052 68.988 L
406.44 68.988 L
406.828 68.988 L
407.216 68.988 L
407.604 68.988 L
407.992 68.988 L
408.38 68.988 L
408.768 68.988 L
409.156 68.988 L
409.544 68.988 L
409.932 68.988 L
410.32 68.988 L
410.708 68.988 L
411.096 68.988 L
411.484 68.988 L
411.872 68.988 L
412.26 68.988 L
412.648 68.988 L
413.036 68.988 L
413.424 68.988 L
413.812 68.988 L
414.2 68.988 L
414.588 68.988 L
414.976 68.988 L
415.364 68.988 L
415.752 68.988 L
416.14 68.988 L
416.528 68.988 L
416.916 68.988 L
417.304 68.988 L
417.692 68.988 L
418.08 68.988 L
418.468 68.988 L
418.856 68.988 L
419.244 68.988 L
419.632 68.988 L
420.02 68.988 L
420.408 68.988 L
420.796 68.988 L
421.184 68.988 L
421.572 68.988 L
421.96 68.988 L
422.348 68.988 L
422.736 68.988 L
423.124 68.988 L
423.512 68.988 L
423.9 68.988 L
424.288 68.988 L
424.676 68.988 L
425.064 68.988 L
425.452 68.988 L
425.84 68.988 L
426.228 68.988 L
426.616 68.988 L
427.004 68.988 L
427.392 68.988 L
427.78 68.988 L
428.168 68.988 L
428.556 68.988 L
428.944 68.988 L
429.332 68.988 L
429.72 68.988 L
430.108 68.988 L
430.496 68.988 L
430.884 68.988 L
431.272 68.988 L
431.66 68.988 L
432.048 68.988 L
432.436 68.988 L
432.824 68.988 L
433.212 68.988 L
433.6 68.988 L
433.988 68.988 L
434.376 68.988 L
434.764 68.988 L
435.152 68.988 L
435.54 68.988 L
435.928 68.988 L
436.316 68.988 L
436.704 68.988 L
437.092 68.988 L
437.48 68.988 L
437.868 68.988 L
438.256 68.988 L
438.644 68.988 L
439.032 68.988 L
439.42 68.988 L
439.808 68.988 L
440.196 68.988 L
440.584 68.988 L
440.972 68.988 L
441.36 68.988 L
441.748 68.988 L
442.136 68.988 L
442.524 68.988 L
442.912 68.988 L
443.3 68.988 L
443.688 68.988 L
444.076 68.988 L
444.464 68.988 L
444.852 68.988 L
445.24 68.988 L
445.628 68.988 L
446.016 68.988 L
446.404 68.988 L
446.792 68.988 L
447.18 68.988 L
447.568 68.988 L
447.956 68.988 L
448.344 68.988 L
448.732 68.988 L
449.12 68.988 L
449.508 68.988 L
449.896 68.988 L
450.284 68.988 L
450.672 68.988 L
451.06 68.988 L
451.448 68.988 L
451.836 68.988 L
452.224 68.988 L
452.612 68.988 L
453 68.988 L
S
GR
GS
1 GC
N
65 281 M
453 281 L
453 210 L
65 210 L
cp
f
GR
GS
0.149 GC
2 setlinecap
1 LJ
0.5 LW
N
65 281 M
453 281 L
S
GR
GS
0.149 GC
2 setlinecap
1 LJ
0.5 LW
N
65 210 M
453 210 L
S
GR
GS
0.149 GC
2 setlinecap
1 LJ
0.5 LW
N
65 281 M
65 277.12 L
S
GR
GS
0.149 GC
2 setlinecap
1 LJ
0.5 LW
N
142.6 281 M
142.6 277.12 L
S
GR
GS
0.149 GC
2 setlinecap
1 LJ
0.5 LW
N
220.2 281 M
220.2 277.12 L
S
GR
GS
0.149 GC
2 setlinecap
1 LJ
0.5 LW
N
297.8 281 M
297.8 277.12 L
S
GR
GS
0.149 GC
2 setlinecap
1 LJ
0.5 LW
N
375.4 281 M
375.4 277.12 L
S
GR
GS
0.149 GC
2 setlinecap
1 LJ
0.5 LW
N
453 281 M
453 277.12 L
S
GR
GS
0.149 GC
2 setlinecap
1 LJ
0.5 LW
N
65 210 M
65 213.88 L
S
GR
GS
0.149 GC
2 setlinecap
1 LJ
0.5 LW
N
142.6 210 M
142.6 213.88 L
S
GR
GS
0.149 GC
2 setlinecap
1 LJ
0.5 LW
N
220.2 210 M
220.2 213.88 L
S
GR
GS
0.149 GC
2 setlinecap
1 LJ
0.5 LW
N
297.8 210 M
297.8 213.88 L
S
GR
GS
0.149 GC
2 setlinecap
1 LJ
0.5 LW
N
375.4 210 M
375.4 213.88 L
S
GR
GS
0.149 GC
2 setlinecap
1 LJ
0.5 LW
N
453 210 M
453 213.88 L
S
GR
GS
[1 0 0 1 65 287.39999] CT
0.149 GC
/Times-Roman 22 F
GS
[1 0 0 1 0 0] CT
-5.5 20 moveto 
1 -1 scale
(0) t 
GR
GR
GS
[1 0 0 1 142.60001 287.39999] CT
0.149 GC
/Times-Roman 22 F
GS
[1 0 0 1 0 0] CT
-16.5 20 moveto 
1 -1 scale
(200) t 
GR
GR
GS
[1 0 0 1 220.2 287.39999] CT
0.149 GC
/Times-Roman 22 F
GS
[1 0 0 1 0 0] CT
-16.5 20 moveto 
1 -1 scale
(400) t 
GR
GR
GS
[1 0 0 1 297.79999 287.39999] CT
0.149 GC
/Times-Roman 22 F
GS
[1 0 0 1 0 0] CT
-16.5 20 moveto 
1 -1 scale
(600) t 
GR
GR
GS
[1 0 0 1 375.39999 287.39999] CT
0.149 GC
/Times-Roman 22 F
GS
[1 0 0 1 0 0] CT
-16.5 20 moveto 
1 -1 scale
(800) t 
GR
GR
GS
[1 0 0 1 453 287.39999] CT
0.149 GC
/Times-Roman 22 F
GS
[1 0 0 1 0 0] CT
-22 20 moveto 
1 -1 scale
(1000) t 
GR
GR
GS
[1 0 0 1 259.00018 313.39999] CT
0.149 GC
/Times-Roman 24 F
GS
[1 0 0 1 0 0] CT
-57 22 moveto 
1 -1 scale
(TS iteration) t 
GR
GR
GS
0.149 GC
2 setlinecap
1 LJ
0.5 LW
N
65 281 M
65 210 L
S
GR
GS
0.149 GC
2 setlinecap
1 LJ
0.5 LW
N
453 281 M
453 210 L
S
GR
GS
0.149 GC
2 setlinecap
1 LJ
0.5 LW
N
65 281 M
68.88 281 L
S
GR
GS
0.149 GC
2 setlinecap
1 LJ
0.5 LW
N
65 245.5 M
68.88 245.5 L
S
GR
GS
0.149 GC
2 setlinecap
1 LJ
0.5 LW
N
65 210 M
68.88 210 L
S
GR
GS
0.149 GC
2 setlinecap
1 LJ
0.5 LW
N
453 281 M
449.12 281 L
S
GR
GS
0.149 GC
2 setlinecap
1 LJ
0.5 LW
N
453 245.5 M
449.12 245.5 L
S
GR
GS
0.149 GC
2 setlinecap
1 LJ
0.5 LW
N
453 210 M
449.12 210 L
S
GR
GS
[1 0 0 1 58.6 281] CT
0.149 GC
/Times-Roman 22 F
GS
[1 0 0 1 0 0] CT
-11 7.5 moveto 
1 -1 scale
(0) t 
GR
GR
GS
[1 0 0 1 58.6 245.5] CT
0.149 GC
/Times-Roman 22 F
GS
[1 0 0 1 0 0] CT
-22 7.5 moveto 
1 -1 scale
(20) t 
GR
GR
GS
[1 0 0 1 58.6 210] CT
0.149 GC
/Times-Roman 22 F
GS
[1 0 0 1 0 0] CT
-22 7.5 moveto 
1 -1 scale
(40) t 
GR
GR
GS
[0 -1 1 0 33.6 245.49997] CT
0.149 GC
/Times-Roman 24 F
GS
[1 0 0 1 0 0] CT
-32 -6 moveto 
1 -1 scale
(Regret) t 
GR
GR
GS
[1 0 0 1 259.00024 203.95] CT
/Times-Bold 24.2 F
GS
[1 0 0 1 0 0] CT
-47 -6 moveto 
1 -1 scale
(WLAN 2) t 
GR
GR
GS
0 0.447 0.741 RC
1 LJ
0.5 LW
N
65.388 281 M
65.776 279.229 L
66.164 277.46 L
66.552 275.685 L
66.94 273.91 L
67.328 272.135 L
67.716 270.365 L
68.104 268.596 L
68.492 266.826 L
68.88 265.056 L
69.268 263.297 L
69.656 261.538 L
70.044 259.763 L
70.432 257.994 L
70.82 256.224 L
71.208 254.449 L
71.596 252.674 L
71.984 250.899 L
72.372 249.124 L
72.76 247.349 L
73.148 245.59 L
73.536 243.831 L
73.924 242.072 L
74.312 240.297 L
74.7 238.522 L
75.088 238.522 L
75.476 236.763 L
75.864 236.763 L
76.252 236.763 L
76.64 236.763 L
77.028 234.988 L
77.416 234.988 L
77.804 234.988 L
78.192 234.988 L
78.58 234.988 L
78.968 234.988 L
79.356 234.988 L
79.744 234.988 L
80.132 234.988 L
80.52 234.988 L
80.908 234.988 L
81.296 234.988 L
81.684 234.988 L
82.072 234.988 L
82.46 234.988 L
82.848 234.988 L
83.236 234.988 L
83.624 234.988 L
84.012 234.988 L
84.4 234.988 L
84.788 234.988 L
85.176 234.988 L
85.564 234.988 L
85.952 234.988 L
86.34 234.988 L
86.728 234.988 L
87.116 234.988 L
87.504 234.988 L
87.892 234.988 L
88.28 234.988 L
88.668 234.988 L
89.056 234.988 L
89.444 234.988 L
89.832 234.988 L
90.22 234.988 L
90.608 234.988 L
90.996 234.988 L
91.384 234.988 L
91.772 234.988 L
92.16 234.988 L
92.548 234.988 L
92.936 234.988 L
93.324 234.988 L
93.712 234.988 L
94.1 234.988 L
94.488 234.988 L
94.876 234.988 L
95.264 234.988 L
95.652 234.988 L
96.04 234.988 L
96.428 234.988 L
96.816 234.988 L
97.204 234.988 L
97.592 234.988 L
97.98 234.988 L
98.368 234.988 L
98.756 234.988 L
99.144 234.988 L
99.532 234.988 L
99.92 234.988 L
100.308 234.988 L
100.696 234.988 L
101.084 234.988 L
101.472 234.988 L
101.86 234.988 L
102.248 234.988 L
102.636 234.988 L
103.024 234.988 L
103.412 234.988 L
103.8 234.988 L
104.188 234.988 L
104.576 234.988 L
104.964 234.988 L
105.352 234.988 L
105.74 234.988 L
106.128 234.988 L
106.516 234.988 L
106.904 234.988 L
107.292 234.988 L
107.68 234.988 L
108.068 234.988 L
108.456 234.988 L
108.844 234.988 L
109.232 234.988 L
109.62 234.988 L
110.008 234.988 L
110.396 234.988 L
110.784 234.988 L
111.172 234.988 L
111.56 234.988 L
111.948 234.988 L
112.336 234.988 L
112.724 234.988 L
113.112 234.988 L
113.5 234.988 L
113.888 234.988 L
114.276 234.988 L
114.664 234.988 L
115.052 234.988 L
115.44 234.988 L
115.828 234.988 L
116.216 234.988 L
116.604 234.988 L
116.992 234.988 L
117.38 234.988 L
117.768 234.988 L
118.156 234.988 L
118.544 234.988 L
118.932 234.988 L
119.32 234.988 L
119.708 234.988 L
120.096 234.988 L
120.484 234.988 L
120.872 234.988 L
121.26 234.988 L
121.648 234.988 L
122.036 234.988 L
122.424 234.988 L
122.812 234.988 L
123.2 234.988 L
123.588 234.988 L
123.976 234.988 L
124.364 234.988 L
124.752 234.988 L
125.14 234.988 L
125.528 234.988 L
125.916 234.988 L
126.304 234.988 L
126.692 234.988 L
127.08 234.988 L
127.468 234.988 L
127.856 234.988 L
128.244 234.988 L
128.632 234.988 L
129.02 234.988 L
129.408 234.988 L
129.796 234.988 L
130.184 234.988 L
130.572 234.988 L
130.96 234.988 L
131.348 234.988 L
131.736 234.988 L
132.124 234.988 L
132.512 234.988 L
132.9 234.988 L
133.288 234.988 L
133.676 234.988 L
134.064 234.988 L
134.452 234.988 L
134.84 234.988 L
135.228 234.988 L
135.616 234.988 L
136.004 234.988 L
136.392 234.988 L
136.78 234.988 L
137.168 234.988 L
137.556 234.988 L
137.944 234.988 L
138.332 234.988 L
138.72 234.988 L
139.108 234.988 L
139.496 234.988 L
139.884 234.988 L
140.272 234.988 L
140.66 234.988 L
141.048 234.988 L
141.436 234.988 L
141.824 234.988 L
142.212 234.988 L
142.6 234.988 L
142.988 234.988 L
143.376 234.988 L
143.764 234.988 L
144.152 234.988 L
144.54 234.988 L
144.928 234.988 L
145.316 234.988 L
145.704 234.988 L
146.092 234.988 L
146.48 234.988 L
146.868 234.988 L
147.256 234.988 L
147.644 234.988 L
148.032 234.988 L
148.42 234.988 L
148.808 234.988 L
149.196 234.988 L
149.584 234.988 L
149.972 234.988 L
150.36 234.988 L
150.748 234.988 L
151.136 234.988 L
151.524 234.988 L
151.912 234.988 L
152.3 234.988 L
152.688 234.988 L
153.076 234.988 L
153.464 234.988 L
153.852 234.988 L
154.24 234.988 L
154.628 234.988 L
155.016 234.988 L
155.404 234.988 L
155.792 234.988 L
156.18 234.988 L
156.568 234.988 L
156.956 234.988 L
157.344 234.988 L
157.732 234.988 L
158.12 234.988 L
158.508 234.988 L
158.896 234.988 L
159.284 234.988 L
159.672 234.988 L
160.06 234.988 L
160.448 234.988 L
160.836 234.988 L
161.224 234.988 L
161.612 234.988 L
162 234.988 L
162.388 234.988 L
162.776 234.988 L
163.164 234.988 L
163.552 234.988 L
163.94 234.988 L
164.328 234.988 L
164.716 234.988 L
165.104 234.988 L
165.492 234.988 L
165.88 234.988 L
166.268 234.988 L
166.656 234.988 L
167.044 234.988 L
167.432 234.988 L
167.82 234.988 L
168.208 234.988 L
168.596 234.988 L
168.984 234.988 L
169.372 234.988 L
169.76 234.988 L
170.148 234.988 L
170.536 234.988 L
170.924 234.988 L
171.312 234.988 L
171.7 234.988 L
172.088 234.988 L
172.476 234.988 L
172.864 234.988 L
173.252 234.988 L
173.64 234.988 L
174.028 234.988 L
174.416 234.988 L
174.804 234.988 L
175.192 234.988 L
175.58 234.988 L
175.968 234.988 L
176.356 234.988 L
176.744 234.988 L
177.132 234.988 L
177.52 234.988 L
177.908 234.988 L
178.296 234.988 L
178.684 234.988 L
179.072 234.988 L
179.46 234.988 L
179.848 234.988 L
180.236 234.988 L
180.624 234.988 L
181.012 234.988 L
181.4 234.988 L
181.788 234.988 L
182.176 234.988 L
182.564 234.988 L
182.952 234.988 L
183.34 234.988 L
183.728 234.988 L
184.116 234.988 L
184.504 234.988 L
184.892 234.988 L
185.28 234.988 L
185.668 234.988 L
186.056 234.988 L
186.444 234.988 L
186.832 234.988 L
187.22 234.988 L
187.608 234.988 L
187.996 234.988 L
188.384 234.988 L
188.772 234.988 L
189.16 234.988 L
189.548 234.988 L
189.936 234.988 L
190.324 234.988 L
190.712 234.988 L
191.1 234.988 L
191.488 234.988 L
191.876 234.988 L
192.264 234.988 L
192.652 234.988 L
193.04 234.988 L
193.428 234.988 L
193.816 234.988 L
194.204 234.988 L
194.592 234.988 L
194.98 234.988 L
195.368 234.988 L
195.756 234.988 L
196.144 234.988 L
196.532 234.988 L
196.92 234.988 L
197.308 234.988 L
197.696 234.988 L
198.084 234.988 L
198.472 234.988 L
198.86 234.988 L
199.248 234.988 L
199.636 234.988 L
200.024 234.988 L
200.412 234.988 L
200.8 234.988 L
201.188 234.988 L
201.576 234.988 L
201.964 234.988 L
202.352 234.988 L
202.74 234.988 L
203.128 234.988 L
203.516 234.988 L
203.904 234.988 L
204.292 234.988 L
204.68 234.988 L
205.068 234.988 L
205.456 234.988 L
205.844 234.988 L
206.232 234.988 L
206.62 234.988 L
207.008 234.988 L
207.396 234.988 L
207.784 234.988 L
208.172 234.988 L
208.56 234.988 L
208.948 234.988 L
209.336 234.988 L
209.724 234.988 L
210.112 234.988 L
210.5 234.988 L
210.888 234.988 L
211.276 234.988 L
211.664 234.988 L
212.052 234.988 L
212.44 234.988 L
212.828 234.988 L
213.216 234.988 L
213.604 234.988 L
213.992 234.988 L
214.38 234.988 L
214.768 234.988 L
215.156 234.988 L
215.544 234.988 L
215.932 234.988 L
216.32 234.988 L
216.708 234.988 L
217.096 234.988 L
217.484 234.988 L
217.872 234.988 L
218.26 234.988 L
218.648 234.988 L
219.036 234.988 L
219.424 234.988 L
219.812 234.988 L
220.2 234.988 L
220.588 234.988 L
220.976 234.988 L
221.364 234.988 L
221.752 234.988 L
222.14 234.988 L
222.528 234.988 L
222.916 234.988 L
223.304 234.988 L
223.692 234.988 L
224.08 234.988 L
224.468 234.988 L
224.856 234.988 L
225.244 234.988 L
225.632 234.988 L
226.02 234.988 L
226.408 234.988 L
226.796 234.988 L
227.184 234.988 L
227.572 234.988 L
227.96 234.988 L
228.348 234.988 L
228.736 234.988 L
229.124 234.988 L
229.512 234.988 L
229.9 234.988 L
230.288 234.988 L
230.676 234.988 L
231.064 234.988 L
231.452 234.988 L
231.84 234.988 L
232.228 234.988 L
232.616 234.988 L
233.004 234.988 L
233.392 234.988 L
233.78 234.988 L
234.168 234.988 L
234.556 234.988 L
234.944 234.988 L
235.332 234.988 L
235.72 234.988 L
236.108 234.988 L
236.496 234.988 L
236.884 234.988 L
237.272 234.988 L
237.66 234.988 L
238.048 234.988 L
238.436 234.988 L
238.824 234.988 L
239.212 234.988 L
239.6 234.988 L
239.988 234.988 L
240.376 234.988 L
240.764 234.988 L
241.152 234.988 L
241.54 234.988 L
241.928 234.988 L
242.316 234.988 L
242.704 234.988 L
243.092 234.988 L
243.48 234.988 L
243.868 234.988 L
244.256 234.988 L
244.644 234.988 L
245.032 234.988 L
245.42 234.988 L
245.808 234.988 L
246.196 234.988 L
246.584 234.988 L
246.972 234.988 L
247.36 234.988 L
247.748 234.988 L
248.136 234.988 L
248.524 234.988 L
248.912 234.988 L
249.3 234.988 L
249.688 234.988 L
250.076 234.988 L
250.464 234.988 L
250.852 234.988 L
251.24 234.988 L
251.628 234.988 L
252.016 234.988 L
252.404 234.988 L
252.792 234.988 L
253.18 234.988 L
253.568 234.988 L
253.956 234.988 L
254.344 234.988 L
254.732 234.988 L
255.12 234.988 L
255.508 234.988 L
255.896 234.988 L
256.284 234.988 L
256.672 234.988 L
257.06 234.988 L
257.448 234.988 L
257.836 234.988 L
258.224 234.988 L
258.612 234.988 L
259 234.988 L
259.388 234.988 L
259.776 234.988 L
260.164 234.988 L
260.552 234.988 L
260.94 234.988 L
261.328 234.988 L
261.716 234.988 L
262.104 234.988 L
262.492 234.988 L
262.88 234.988 L
263.268 234.988 L
263.656 234.988 L
264.044 234.988 L
264.432 234.988 L
264.82 234.988 L
265.208 234.988 L
265.596 234.988 L
265.984 234.988 L
266.372 234.988 L
266.76 234.988 L
267.148 234.988 L
267.536 234.988 L
267.924 234.988 L
268.312 234.988 L
268.7 234.988 L
269.088 234.988 L
269.476 234.988 L
269.864 234.988 L
270.252 234.988 L
270.64 234.988 L
271.028 234.988 L
271.416 234.988 L
271.804 234.988 L
272.192 234.988 L
272.58 234.988 L
272.968 234.988 L
273.356 234.988 L
273.744 234.988 L
274.132 234.988 L
274.52 234.988 L
274.908 234.988 L
275.296 234.988 L
275.684 234.988 L
276.072 234.988 L
276.46 234.988 L
276.848 234.988 L
277.236 234.988 L
277.624 234.988 L
278.012 234.988 L
278.4 234.988 L
278.788 234.988 L
279.176 234.988 L
279.564 234.988 L
279.952 234.988 L
280.34 234.988 L
280.728 234.988 L
281.116 234.988 L
281.504 234.988 L
281.892 234.988 L
282.28 234.988 L
282.668 234.988 L
283.056 234.988 L
283.444 234.988 L
283.832 234.988 L
284.22 234.988 L
284.608 234.988 L
284.996 234.988 L
285.384 234.988 L
285.772 234.988 L
286.16 234.988 L
286.548 234.988 L
286.936 234.988 L
287.324 234.988 L
287.712 234.988 L
288.1 234.988 L
288.488 234.988 L
288.876 234.988 L
289.264 234.988 L
289.652 234.988 L
290.04 234.988 L
290.428 234.988 L
290.816 234.988 L
291.204 234.988 L
291.592 234.988 L
291.98 234.988 L
292.368 234.988 L
292.756 234.988 L
293.144 234.988 L
293.532 234.988 L
293.92 234.988 L
294.308 234.988 L
294.696 234.988 L
295.084 234.988 L
295.472 234.988 L
295.86 234.988 L
296.248 234.988 L
296.636 234.988 L
297.024 234.988 L
297.412 234.988 L
297.8 234.988 L
298.188 234.988 L
298.576 234.988 L
298.964 234.988 L
299.352 234.988 L
299.74 234.988 L
300.128 234.988 L
300.516 234.988 L
300.904 234.988 L
301.292 234.988 L
301.68 234.988 L
302.068 234.988 L
302.456 234.988 L
302.844 234.988 L
303.232 234.988 L
303.62 234.988 L
304.008 234.988 L
304.396 234.988 L
304.784 234.988 L
305.172 234.988 L
305.56 234.988 L
305.948 234.988 L
306.336 234.988 L
306.724 234.988 L
307.112 234.988 L
307.5 234.988 L
307.888 234.988 L
308.276 234.988 L
308.664 234.988 L
309.052 234.988 L
309.44 234.988 L
309.828 234.988 L
310.216 234.988 L
310.604 234.988 L
310.992 234.988 L
311.38 234.988 L
311.768 234.988 L
312.156 234.988 L
312.544 234.988 L
312.932 234.988 L
313.32 234.988 L
313.708 234.988 L
314.096 234.988 L
314.484 234.988 L
314.872 234.988 L
315.26 234.988 L
315.648 234.988 L
316.036 234.988 L
316.424 234.988 L
316.812 234.988 L
317.2 234.988 L
317.588 234.988 L
317.976 234.988 L
318.364 234.988 L
318.752 234.988 L
319.14 234.988 L
319.528 234.988 L
319.916 234.988 L
320.304 234.988 L
320.692 234.988 L
321.08 234.988 L
321.468 234.988 L
321.856 234.988 L
322.244 234.988 L
322.632 234.988 L
323.02 234.988 L
323.408 234.988 L
323.796 234.988 L
324.184 234.988 L
324.572 234.988 L
324.96 234.988 L
325.348 234.988 L
325.736 234.988 L
326.124 234.988 L
326.512 234.988 L
326.9 234.988 L
327.288 234.988 L
327.676 234.988 L
328.064 234.988 L
328.452 234.988 L
328.84 234.988 L
329.228 234.988 L
329.616 234.988 L
330.004 234.988 L
330.392 234.988 L
330.78 234.988 L
331.168 234.988 L
331.556 234.988 L
331.944 234.988 L
332.332 234.988 L
332.72 234.988 L
333.108 234.988 L
333.496 234.988 L
333.884 234.988 L
334.272 234.988 L
334.66 234.988 L
335.048 234.988 L
335.436 234.988 L
335.824 234.988 L
336.212 234.988 L
336.6 234.988 L
336.988 234.988 L
337.376 234.988 L
337.764 234.988 L
338.152 234.988 L
338.54 234.988 L
338.928 234.988 L
339.316 234.988 L
339.704 234.988 L
340.092 234.988 L
340.48 234.988 L
340.868 234.988 L
341.256 234.988 L
341.644 234.988 L
342.032 234.988 L
342.42 234.988 L
342.808 234.988 L
343.196 234.988 L
343.584 234.988 L
343.972 234.988 L
344.36 234.988 L
344.748 234.988 L
345.136 234.988 L
345.524 234.988 L
345.912 234.988 L
346.3 234.988 L
346.688 234.988 L
347.076 234.988 L
347.464 234.988 L
347.852 234.988 L
348.24 234.988 L
348.628 234.988 L
349.016 234.988 L
349.404 234.988 L
349.792 234.988 L
350.18 234.988 L
350.568 234.988 L
350.956 234.988 L
351.344 234.988 L
351.732 234.988 L
352.12 234.988 L
352.508 234.988 L
352.896 234.988 L
353.284 234.988 L
353.672 234.988 L
354.06 234.988 L
354.448 234.988 L
354.836 234.988 L
355.224 234.988 L
355.612 234.988 L
356 234.988 L
356.388 234.988 L
356.776 234.988 L
357.164 234.988 L
357.552 234.988 L
357.94 234.988 L
358.328 234.988 L
358.716 234.988 L
359.104 234.988 L
359.492 234.988 L
359.88 234.988 L
360.268 234.988 L
360.656 234.988 L
361.044 234.988 L
361.432 234.988 L
361.82 234.988 L
362.208 234.988 L
362.596 234.988 L
362.984 234.988 L
363.372 234.988 L
363.76 234.988 L
364.148 234.988 L
364.536 234.988 L
364.924 234.988 L
365.312 234.988 L
365.7 234.988 L
366.088 234.988 L
366.476 234.988 L
366.864 234.988 L
367.252 234.988 L
367.64 234.988 L
368.028 234.988 L
368.416 234.988 L
368.804 234.988 L
369.192 234.988 L
369.58 234.988 L
369.968 234.988 L
370.356 234.988 L
370.744 234.988 L
371.132 234.988 L
371.52 234.988 L
371.908 234.988 L
372.296 234.988 L
372.684 234.988 L
373.072 234.988 L
373.46 234.988 L
373.848 234.988 L
374.236 234.988 L
374.624 234.988 L
375.012 234.988 L
375.4 234.988 L
375.788 234.988 L
376.176 234.988 L
376.564 234.988 L
376.952 234.988 L
377.34 234.988 L
377.728 234.988 L
378.116 234.988 L
378.504 234.988 L
378.892 234.988 L
379.28 234.988 L
379.668 234.988 L
380.056 234.988 L
380.444 234.988 L
380.832 234.988 L
381.22 234.988 L
381.608 234.988 L
381.996 234.988 L
382.384 234.988 L
382.772 234.988 L
383.16 234.988 L
383.548 234.988 L
383.936 234.988 L
384.324 234.988 L
384.712 234.988 L
385.1 234.988 L
385.488 234.988 L
385.876 234.988 L
386.264 234.988 L
386.652 234.988 L
387.04 234.988 L
387.428 234.988 L
387.816 234.988 L
388.204 234.988 L
388.592 234.988 L
388.98 234.988 L
389.368 234.988 L
389.756 234.988 L
390.144 234.988 L
390.532 234.988 L
390.92 234.988 L
391.308 234.988 L
391.696 234.988 L
392.084 234.988 L
392.472 234.988 L
392.86 234.988 L
393.248 234.988 L
393.636 234.988 L
394.024 234.988 L
394.412 234.988 L
394.8 234.988 L
395.188 234.988 L
395.576 234.988 L
395.964 234.988 L
396.352 234.988 L
396.74 234.988 L
397.128 234.988 L
397.516 234.988 L
397.904 234.988 L
398.292 234.988 L
398.68 234.988 L
399.068 234.988 L
399.456 234.988 L
399.844 234.988 L
400.232 234.988 L
400.62 234.988 L
401.008 234.988 L
401.396 234.988 L
401.784 234.988 L
402.172 234.988 L
402.56 234.988 L
402.948 234.988 L
403.336 234.988 L
403.724 234.988 L
404.112 234.988 L
404.5 234.988 L
404.888 234.988 L
405.276 234.988 L
405.664 234.988 L
406.052 234.988 L
406.44 234.988 L
406.828 234.988 L
407.216 234.988 L
407.604 234.988 L
407.992 234.988 L
408.38 234.988 L
408.768 234.988 L
409.156 234.988 L
409.544 234.988 L
409.932 234.988 L
410.32 234.988 L
410.708 234.988 L
411.096 234.988 L
411.484 234.988 L
411.872 234.988 L
412.26 234.988 L
412.648 234.988 L
413.036 234.988 L
413.424 234.988 L
413.812 234.988 L
414.2 234.988 L
414.588 234.988 L
414.976 234.988 L
415.364 234.988 L
415.752 234.988 L
416.14 234.988 L
416.528 234.988 L
416.916 234.988 L
417.304 234.988 L
417.692 234.988 L
418.08 234.988 L
418.468 234.988 L
418.856 234.988 L
419.244 234.988 L
419.632 234.988 L
420.02 234.988 L
420.408 234.988 L
420.796 234.988 L
421.184 234.988 L
421.572 234.988 L
421.96 234.988 L
422.348 234.988 L
422.736 234.988 L
423.124 234.988 L
423.512 234.988 L
423.9 234.988 L
424.288 234.988 L
424.676 234.988 L
425.064 234.988 L
425.452 234.988 L
425.84 234.988 L
426.228 234.988 L
426.616 234.988 L
427.004 234.988 L
427.392 234.988 L
427.78 234.988 L
428.168 234.988 L
428.556 234.988 L
428.944 234.988 L
429.332 234.988 L
429.72 234.988 L
430.108 234.988 L
430.496 234.988 L
430.884 234.988 L
431.272 234.988 L
431.66 234.988 L
432.048 234.988 L
432.436 234.988 L
432.824 234.988 L
433.212 234.988 L
433.6 234.988 L
433.988 234.988 L
434.376 234.988 L
434.764 234.988 L
435.152 234.988 L
435.54 234.988 L
435.928 234.988 L
436.316 234.988 L
436.704 234.988 L
437.092 234.988 L
437.48 234.988 L
437.868 234.988 L
438.256 234.988 L
438.644 234.988 L
439.032 234.988 L
439.42 234.988 L
439.808 234.988 L
440.196 234.988 L
440.584 234.988 L
440.972 234.988 L
441.36 234.988 L
441.748 234.988 L
442.136 234.988 L
442.524 234.988 L
442.912 234.988 L
443.3 234.988 L
443.688 234.988 L
444.076 234.988 L
444.464 234.988 L
444.852 234.988 L
445.24 234.988 L
445.628 234.988 L
446.016 234.988 L
446.404 234.988 L
446.792 234.988 L
447.18 234.988 L
447.568 234.988 L
447.956 234.988 L
448.344 234.988 L
448.732 234.988 L
449.12 234.988 L
449.508 234.988 L
449.896 234.988 L
450.284 234.988 L
450.672 234.988 L
451.06 234.988 L
451.448 234.988 L
451.836 234.988 L
452.224 234.988 L
452.612 234.988 L
453 234.988 L
S
GR
%%Trailer
%%Pages: 1
%%EOF
