%!PS-Adobe-3.0 EPSF-3.0
%%Creator: (MATLAB, The Mathworks, Inc. Version 9.3.0.713579 \(R2017b\). Operating System: Mac OS X)
%%Title: (/Users/franciscowilhelmi/workspace/papers/selfish_vs_informed_spatial_reuse/Results/Part 3 - Scalability/scalability_mean_tpt.eps)
%%CreationDate: 2018-05-18T11:55:24
%%Pages: (atend)
%%BoundingBox: 0 0 500 350
%%LanguageLevel: 3
%%EndComments
%%BeginProlog
%%BeginResource: procset (Apache XML Graphics Std ProcSet) 1.2 0
%%Version: 1.2 0
%%Copyright: (Copyright 2001-2003,2010 The Apache Software Foundation. License terms: http://www.apache.org/licenses/LICENSE-2.0)
/bd{bind def}bind def
/ld{load def}bd
/GR/grestore ld
/GS/gsave ld
/RM/rmoveto ld
/C/curveto ld
/t/show ld
/L/lineto ld
/ML/setmiterlimit ld
/CT/concat ld
/f/fill ld
/N/newpath ld
/S/stroke ld
/CC/setcmykcolor ld
/A/ashow ld
/cp/closepath ld
/RC/setrgbcolor ld
/LJ/setlinejoin ld
/GC/setgray ld
/LW/setlinewidth ld
/M/moveto ld
/re {4 2 roll M
1 index 0 rlineto
0 exch rlineto
neg 0 rlineto
cp } bd
/_ctm matrix def
/_tm matrix def
/BT { _ctm currentmatrix pop matrix _tm copy pop 0 0 moveto } bd
/ET { _ctm setmatrix } bd
/iTm { _ctm setmatrix _tm concat } bd
/Tm { _tm astore pop iTm 0 0 moveto } bd
/ux 0.0 def
/uy 0.0 def
/F {
  /Tp exch def
  /Tf exch def
  Tf findfont Tp scalefont setfont
  /cf Tf def  /cs Tp def
} bd
/ULS {currentpoint /uy exch def /ux exch def} bd
/ULE {
  /Tcx currentpoint pop def
  gsave
  newpath
  cf findfont cs scalefont dup
  /FontMatrix get 0 get /Ts exch def /FontInfo get dup
  /UnderlinePosition get Ts mul /To exch def
  /UnderlineThickness get Ts mul /Tt exch def
  ux uy To add moveto  Tcx uy To add lineto
  Tt setlinewidth stroke
  grestore
} bd
/OLE {
  /Tcx currentpoint pop def
  gsave
  newpath
  cf findfont cs scalefont dup
  /FontMatrix get 0 get /Ts exch def /FontInfo get dup
  /UnderlinePosition get Ts mul /To exch def
  /UnderlineThickness get Ts mul /Tt exch def
  ux uy To add cs add moveto Tcx uy To add cs add lineto
  Tt setlinewidth stroke
  grestore
} bd
/SOE {
  /Tcx currentpoint pop def
  gsave
  newpath
  cf findfont cs scalefont dup
  /FontMatrix get 0 get /Ts exch def /FontInfo get dup
  /UnderlinePosition get Ts mul /To exch def
  /UnderlineThickness get Ts mul /Tt exch def
  ux uy To add cs 10 mul 26 idiv add moveto Tcx uy To add cs 10 mul 26 idiv add lineto
  Tt setlinewidth stroke
  grestore
} bd
/QT {
/Y22 exch store
/X22 exch store
/Y21 exch store
/X21 exch store
currentpoint
/Y21 load 2 mul add 3 div exch
/X21 load 2 mul add 3 div exch
/X21 load 2 mul /X22 load add 3 div
/Y21 load 2 mul /Y22 load add 3 div
/X22 load /Y22 load curveto
} bd
/SSPD {
dup length /d exch dict def
{
/v exch def
/k exch def
currentpagedevice k known {
/cpdv currentpagedevice k get def
v cpdv ne {
/upd false def
/nullv v type /nulltype eq def
/nullcpdv cpdv type /nulltype eq def
nullv nullcpdv or
{
/upd true def
} {
/sametype v type cpdv type eq def
sametype {
v type /arraytype eq {
/vlen v length def
/cpdvlen cpdv length def
vlen cpdvlen eq {
0 1 vlen 1 sub {
/i exch def
/obj v i get def
/cpdobj cpdv i get def
obj cpdobj ne {
/upd true def
exit
} if
} for
} {
/upd true def
} ifelse
} {
v type /dicttype eq {
v {
/dv exch def
/dk exch def
/cpddv cpdv dk get def
dv cpddv ne {
/upd true def
exit
} if
} forall
} {
/upd true def
} ifelse
} ifelse
} if
} ifelse
upd true eq {
d k v put
} if
} if
} if
} forall
d length 0 gt {
d setpagedevice
} if
} bd
/RE { % /NewFontName [NewEncodingArray] /FontName RE -
  findfont dup length dict begin
  {
    1 index /FID ne
    {def} {pop pop} ifelse
  } forall
  /Encoding exch def
  /FontName 1 index def
  currentdict definefont pop
  end
} bind def
%%EndResource
%%BeginResource: procset (Apache XML Graphics EPS ProcSet) 1.0 0
%%Version: 1.0 0
%%Copyright: (Copyright 2002-2003 The Apache Software Foundation. License terms: http://www.apache.org/licenses/LICENSE-2.0)
/BeginEPSF { %def
/b4_Inc_state save def         % Save state for cleanup
/dict_count countdictstack def % Count objects on dict stack
/op_count count 1 sub def      % Count objects on operand stack
userdict begin                 % Push userdict on dict stack
/showpage { } def              % Redefine showpage, { } = null proc
0 setgray 0 setlinecap         % Prepare graphics state
1 setlinewidth 0 setlinejoin
10 setmiterlimit [ ] 0 setdash newpath
/languagelevel where           % If level not equal to 1 then
{pop languagelevel             % set strokeadjust and
1 ne                           % overprint to their defaults.
{false setstrokeadjust false setoverprint
} if
} if
} bd
/EndEPSF { %def
count op_count sub {pop} repeat            % Clean up stacks
countdictstack dict_count sub {end} repeat
b4_Inc_state restore
} bd
%%EndResource
%FOPBeginFontDict
%%IncludeResource: font Courier-Oblique
%%IncludeResource: font Courier-BoldOblique
%%IncludeResource: font Courier-Bold
%%IncludeResource: font ZapfDingbats
%%IncludeResource: font Symbol
%%IncludeResource: font Helvetica
%%IncludeResource: font Helvetica-Oblique
%%IncludeResource: font Helvetica-Bold
%%IncludeResource: font Helvetica-BoldOblique
%%IncludeResource: font Times-Roman
%%IncludeResource: font Times-Italic
%%IncludeResource: font Times-Bold
%%IncludeResource: font Times-BoldItalic
%%IncludeResource: font Courier
%FOPEndFontDict
%%BeginResource: encoding WinAnsiEncoding
/WinAnsiEncoding [
/.notdef /.notdef /.notdef /.notdef /.notdef
/.notdef /.notdef /.notdef /.notdef /.notdef
/.notdef /.notdef /.notdef /.notdef /.notdef
/.notdef /.notdef /.notdef /.notdef /.notdef
/.notdef /.notdef /.notdef /.notdef /.notdef
/.notdef /.notdef /.notdef /.notdef /.notdef
/.notdef /.notdef /space /exclam /quotedbl
/numbersign /dollar /percent /ampersand /quotesingle
/parenleft /parenright /asterisk /plus /comma
/hyphen /period /slash /zero /one
/two /three /four /five /six
/seven /eight /nine /colon /semicolon
/less /equal /greater /question /at
/A /B /C /D /E
/F /G /H /I /J
/K /L /M /N /O
/P /Q /R /S /T
/U /V /W /X /Y
/Z /bracketleft /backslash /bracketright /asciicircum
/underscore /quoteleft /a /b /c
/d /e /f /g /h
/i /j /k /l /m
/n /o /p /q /r
/s /t /u /v /w
/x /y /z /braceleft /bar
/braceright /asciitilde /bullet /Euro /bullet
/quotesinglbase /florin /quotedblbase /ellipsis /dagger
/daggerdbl /circumflex /perthousand /Scaron /guilsinglleft
/OE /bullet /Zcaron /bullet /bullet
/quoteleft /quoteright /quotedblleft /quotedblright /bullet
/endash /emdash /asciitilde /trademark /scaron
/guilsinglright /oe /bullet /zcaron /Ydieresis
/space /exclamdown /cent /sterling /currency
/yen /brokenbar /section /dieresis /copyright
/ordfeminine /guillemotleft /logicalnot /sfthyphen /registered
/macron /degree /plusminus /twosuperior /threesuperior
/acute /mu /paragraph /middot /cedilla
/onesuperior /ordmasculine /guillemotright /onequarter /onehalf
/threequarters /questiondown /Agrave /Aacute /Acircumflex
/Atilde /Adieresis /Aring /AE /Ccedilla
/Egrave /Eacute /Ecircumflex /Edieresis /Igrave
/Iacute /Icircumflex /Idieresis /Eth /Ntilde
/Ograve /Oacute /Ocircumflex /Otilde /Odieresis
/multiply /Oslash /Ugrave /Uacute /Ucircumflex
/Udieresis /Yacute /Thorn /germandbls /agrave
/aacute /acircumflex /atilde /adieresis /aring
/ae /ccedilla /egrave /eacute /ecircumflex
/edieresis /igrave /iacute /icircumflex /idieresis
/eth /ntilde /ograve /oacute /ocircumflex
/otilde /odieresis /divide /oslash /ugrave
/uacute /ucircumflex /udieresis /yacute /thorn
/ydieresis
] def
%%EndResource
%FOPBeginFontReencode
/Courier-Oblique findfont
dup length dict begin
  {1 index /FID ne {def} {pop pop} ifelse} forall
  /Encoding WinAnsiEncoding def
  currentdict
end
/Courier-Oblique exch definefont pop
/Courier-BoldOblique findfont
dup length dict begin
  {1 index /FID ne {def} {pop pop} ifelse} forall
  /Encoding WinAnsiEncoding def
  currentdict
end
/Courier-BoldOblique exch definefont pop
/Courier-Bold findfont
dup length dict begin
  {1 index /FID ne {def} {pop pop} ifelse} forall
  /Encoding WinAnsiEncoding def
  currentdict
end
/Courier-Bold exch definefont pop
/Helvetica findfont
dup length dict begin
  {1 index /FID ne {def} {pop pop} ifelse} forall
  /Encoding WinAnsiEncoding def
  currentdict
end
/Helvetica exch definefont pop
/Helvetica-Oblique findfont
dup length dict begin
  {1 index /FID ne {def} {pop pop} ifelse} forall
  /Encoding WinAnsiEncoding def
  currentdict
end
/Helvetica-Oblique exch definefont pop
/Helvetica-Bold findfont
dup length dict begin
  {1 index /FID ne {def} {pop pop} ifelse} forall
  /Encoding WinAnsiEncoding def
  currentdict
end
/Helvetica-Bold exch definefont pop
/Helvetica-BoldOblique findfont
dup length dict begin
  {1 index /FID ne {def} {pop pop} ifelse} forall
  /Encoding WinAnsiEncoding def
  currentdict
end
/Helvetica-BoldOblique exch definefont pop
/Times-Roman findfont
dup length dict begin
  {1 index /FID ne {def} {pop pop} ifelse} forall
  /Encoding WinAnsiEncoding def
  currentdict
end
/Times-Roman exch definefont pop
/Times-Italic findfont
dup length dict begin
  {1 index /FID ne {def} {pop pop} ifelse} forall
  /Encoding WinAnsiEncoding def
  currentdict
end
/Times-Italic exch definefont pop
/Times-Bold findfont
dup length dict begin
  {1 index /FID ne {def} {pop pop} ifelse} forall
  /Encoding WinAnsiEncoding def
  currentdict
end
/Times-Bold exch definefont pop
/Times-BoldItalic findfont
dup length dict begin
  {1 index /FID ne {def} {pop pop} ifelse} forall
  /Encoding WinAnsiEncoding def
  currentdict
end
/Times-BoldItalic exch definefont pop
/Courier findfont
dup length dict begin
  {1 index /FID ne {def} {pop pop} ifelse} forall
  /Encoding WinAnsiEncoding def
  currentdict
end
/Courier exch definefont pop
%FOPEndFontReencode
%%EndProlog
%%Page: 1 1
%%PageBoundingBox: 0 0 500 350
%%BeginPageSetup
[1 0 0 -1 0 350] CT
%%EndPageSetup
GS
1 GC
N
0 0 500 350 re
f
GR
GS
1 GC
N
0 0 500 350 re
f
GR
GS
1 GC
N
70 290 M
453 290 L
453 26 L
70 26 L
cp
f
GR
GS
0.873 GC
1 LJ
0.5 LW
N
117.073 290 M
117.073 26 L
S
GR
GS
0.873 GC
1 LJ
0.5 LW
N
213.358 290 M
213.358 26 L
S
GR
GS
0.873 GC
1 LJ
0.5 LW
N
309.642 290 M
309.642 26 L
S
GR
GS
0.873 GC
1 LJ
0.5 LW
N
405.927 290 M
405.927 26 L
S
GR
GS
0.873 GC
1 LJ
0.5 LW
N
453 290 M
70 290 L
S
GR
GS
0.873 GC
1 LJ
0.5 LW
N
453 237.2 M
70 237.2 L
S
GR
GS
0.873 GC
1 LJ
0.5 LW
N
453 184.4 M
70 184.4 L
S
GR
GS
0.873 GC
1 LJ
0.5 LW
N
453 131.6 M
70 131.6 L
S
GR
GS
0.873 GC
1 LJ
0.5 LW
N
453 78.8 M
70 78.8 L
S
GR
GS
0.873 GC
1 LJ
0.5 LW
N
453 26 M
70 26 L
S
GR
GS
0.149 GC
1 LJ
0.5 LW
N
70 290 M
453 290 L
S
GR
GS
0.749 0 0.749 RC
N
104.235 290 M
104.235 179.165 L
87.117 179.165 L
87.117 290 L
cp
200.52 290 M
200.52 233.297 L
183.402 233.297 L
183.402 290 L
cp
296.804 290 M
296.804 246.701 L
279.687 246.701 L
279.687 290 L
cp
393.089 290 M
393.089 249.232 L
375.972 249.232 L
375.972 290 L
cp
f
GR
GS
10.0 ML
0.5 LW
N
87.117 290 M
87.117 179.165 L
104.235 179.165 L
104.235 290 L
cp
S
GR
GS
10.0 ML
0.5 LW
N
183.402 290 M
183.402 233.297 L
200.52 233.297 L
200.52 290 L
cp
S
GR
GS
10.0 ML
0.5 LW
N
279.687 290 M
279.687 246.701 L
296.804 246.701 L
296.804 290 L
cp
S
GR
GS
10.0 ML
0.5 LW
N
375.972 290 M
375.972 249.232 L
393.089 249.232 L
393.089 290 L
cp
S
GR
GS
1 1 0 RC
N
125.631 290 M
125.631 93.696 L
108.514 93.696 L
108.514 290 L
cp
221.916 290 M
221.916 116.781 L
204.799 116.781 L
204.799 290 L
cp
318.201 290 M
318.201 143.844 L
301.084 143.844 L
301.084 290 L
cp
414.486 290 M
414.486 160.097 L
397.369 160.097 L
397.369 290 L
cp
f
GR
GS
10.0 ML
0.5 LW
N
108.514 290 M
108.514 93.696 L
125.631 93.696 L
125.631 290 L
cp
S
GR
GS
10.0 ML
0.5 LW
N
204.799 290 M
204.799 116.781 L
221.916 116.781 L
221.916 290 L
cp
S
GR
GS
10.0 ML
0.5 LW
N
301.084 290 M
301.084 143.844 L
318.201 143.844 L
318.201 290 L
cp
S
GR
GS
10.0 ML
0.5 LW
N
397.369 290 M
397.369 160.097 L
414.486 160.097 L
414.486 290 L
cp
S
GR
GS
0 0.498 0 RC
N
147.028 290 M
147.028 86.738 L
129.911 86.738 L
129.911 290 L
cp
243.313 290 M
243.313 125.643 L
226.196 125.643 L
226.196 290 L
cp
339.598 290 M
339.598 180.022 L
322.48 180.022 L
322.48 290 L
cp
435.883 290 M
435.883 205.986 L
418.765 205.986 L
418.765 290 L
cp
f
GR
GS
10.0 ML
0.5 LW
N
129.911 290 M
129.911 86.738 L
147.028 86.738 L
147.028 290 L
cp
S
GR
GS
10.0 ML
0.5 LW
N
226.196 290 M
226.196 125.643 L
243.313 125.643 L
243.313 290 L
cp
S
GR
GS
10.0 ML
0.5 LW
N
322.48 290 M
322.48 180.022 L
339.598 180.022 L
339.598 290 L
cp
S
GR
GS
10.0 ML
0.5 LW
N
418.765 290 M
418.765 205.986 L
435.883 205.986 L
435.883 290 L
cp
S
GR
GS
1 0 0 RC
1 LJ
0.5 LW
N
95.676 179.165 M
95.676 271.36 L
S
GR
GS
1 0 0 RC
1 LJ
0.5 LW
N
191.961 233.297 M
191.961 273.118 L
S
GR
GS
1 0 0 RC
1 LJ
0.5 LW
N
288.246 246.701 M
288.246 279.009 L
S
GR
GS
1 0 0 RC
1 LJ
0.5 LW
N
384.531 249.232 M
384.531 276.483 L
S
GR
GS
1 0 0 RC
1 LJ
0.5 LW
N
95.676 179.165 M
95.676 86.971 L
S
GR
GS
1 0 0 RC
1 LJ
0.5 LW
N
191.961 233.297 M
191.961 193.477 L
S
GR
GS
1 0 0 RC
1 LJ
0.5 LW
N
288.246 246.701 M
288.246 214.392 L
S
GR
GS
1 0 0 RC
1 LJ
0.5 LW
N
384.531 249.232 M
384.531 221.982 L
S
GR
GS
[1 0 0 1 95.67598 179.16547] CT
1 0 0 RC
N
1 0 M
1 0.552 0.552 1 0 1 C
-0.552 1 -1 0.552 -1 0 C
-1 -0.552 -0.552 -1 0 -1 C
0.552 -1 1 -0.552 1 0 C
cp
f
GR
GS
[1 0 0 1 191.96089 233.29739] CT
1 0 0 RC
N
/f-891180347{1 0 M
1 0.552 0.552 1 0 1 C
-0.552 1 -1 0.552 -1 0 C
-1 -0.552 -0.552 -1 0 -1 C
0.552 -1 1 -0.552 1 0 C
cp}def
f-891180347
f
GR
GS
[1 0 0 1 288.24579 246.70085] CT
1 0 0 RC
N
f-891180347
f
GR
GS
[1 0 0 1 384.53073 249.23239] CT
1 0 0 RC
N
f-891180347
f
GR
GS
[1 0 0 1 95.67598 271.35959] CT
1 0 0 RC
N
-3 0 M
3 0 L
f
GR
GS
[1 0 0 1 95.67598 271.35959] CT
1 0 0 RC
10.0 ML
N
-3 0 M
3 0 L
S
GR
GS
[1 0 0 1 191.96089 273.11823] CT
1 0 0 RC
N
/f1394637256{-3 0 M
3 0 L}def
f1394637256
f
GR
GS
[1 0 0 1 191.96089 273.11823] CT
1 0 0 RC
10.0 ML
N
-3 0 M
3 0 L
S
GR
GS
[1 0 0 1 288.24579 279.00925] CT
1 0 0 RC
N
f1394637256
f
GR
GS
[1 0 0 1 288.24579 279.00925] CT
1 0 0 RC
10.0 ML
N
-3 0 M
3 0 L
S
GR
GS
[1 0 0 1 384.53073 276.48285] CT
1 0 0 RC
N
f1394637256
f
GR
GS
[1 0 0 1 384.53073 276.48285] CT
1 0 0 RC
10.0 ML
N
-3 0 M
3 0 L
S
GR
GS
[1 0 0 1 95.67598 86.97133] CT
1 0 0 RC
N
f1394637256
f
GR
GS
[1 0 0 1 95.67598 86.97133] CT
1 0 0 RC
10.0 ML
N
-3 0 M
3 0 L
S
GR
GS
[1 0 0 1 191.96089 193.47656] CT
1 0 0 RC
N
f1394637256
f
GR
GS
[1 0 0 1 191.96089 193.47656] CT
1 0 0 RC
10.0 ML
N
-3 0 M
3 0 L
S
GR
GS
[1 0 0 1 288.24579 214.39246] CT
1 0 0 RC
N
f1394637256
f
GR
GS
[1 0 0 1 288.24579 214.39246] CT
1 0 0 RC
10.0 ML
N
-3 0 M
3 0 L
S
GR
GS
[1 0 0 1 384.53073 221.98195] CT
1 0 0 RC
N
f1394637256
f
GR
GS
[1 0 0 1 384.53073 221.98195] CT
1 0 0 RC
10.0 ML
N
-3 0 M
3 0 L
S
GR
GS
1 0 0 RC
1 LJ
0.5 LW
N
117.073 93.696 M
117.073 137.948 L
S
GR
GS
1 0 0 RC
1 LJ
0.5 LW
N
213.358 116.781 M
213.358 156.594 L
S
GR
GS
1 0 0 RC
1 LJ
0.5 LW
N
309.642 143.844 M
309.642 177.898 L
S
GR
GS
1 0 0 RC
1 LJ
0.5 LW
N
405.927 160.097 M
405.927 191.311 L
S
GR
GS
1 0 0 RC
1 LJ
0.5 LW
N
117.073 93.696 M
117.073 49.444 L
S
GR
GS
1 0 0 RC
1 LJ
0.5 LW
N
213.358 116.781 M
213.358 76.969 L
S
GR
GS
1 0 0 RC
1 LJ
0.5 LW
N
309.642 143.844 M
309.642 109.791 L
S
GR
GS
1 0 0 RC
1 LJ
0.5 LW
N
405.927 160.097 M
405.927 128.883 L
S
GR
GS
[1 0 0 1 117.07262 93.69602] CT
1 0 0 RC
N
f-891180347
f
GR
GS
[1 0 0 1 213.35754 116.78146] CT
1 0 0 RC
N
f-891180347
f
GR
GS
[1 0 0 1 309.64246 143.8445] CT
1 0 0 RC
N
f-891180347
f
GR
GS
[1 0 0 1 405.92737 160.09689] CT
1 0 0 RC
N
f-891180347
f
GR
GS
[1 0 0 1 117.07262 137.94798] CT
1 0 0 RC
N
f1394637256
f
GR
GS
[1 0 0 1 117.07262 137.94798] CT
1 0 0 RC
10.0 ML
N
-3 0 M
3 0 L
S
GR
GS
[1 0 0 1 213.35754 156.59357] CT
1 0 0 RC
N
f1394637256
f
GR
GS
[1 0 0 1 213.35754 156.59357] CT
1 0 0 RC
10.0 ML
N
-3 0 M
3 0 L
S
GR
GS
[1 0 0 1 309.64246 177.89824] CT
1 0 0 RC
N
f1394637256
f
GR
GS
[1 0 0 1 309.64246 177.89824] CT
1 0 0 RC
10.0 ML
N
-3 0 M
3 0 L
S
GR
GS
[1 0 0 1 405.92737 191.31075] CT
1 0 0 RC
N
f1394637256
f
GR
GS
[1 0 0 1 405.92737 191.31075] CT
1 0 0 RC
10.0 ML
N
-3 0 M
3 0 L
S
GR
GS
[1 0 0 1 117.07262 49.44406] CT
1 0 0 RC
N
f1394637256
f
GR
GS
[1 0 0 1 117.07262 49.44406] CT
1 0 0 RC
10.0 ML
N
-3 0 M
3 0 L
S
GR
GS
[1 0 0 1 213.35754 76.96935] CT
1 0 0 RC
N
f1394637256
f
GR
GS
[1 0 0 1 213.35754 76.96935] CT
1 0 0 RC
10.0 ML
N
-3 0 M
3 0 L
S
GR
GS
[1 0 0 1 309.64246 109.79076] CT
1 0 0 RC
N
f1394637256
f
GR
GS
[1 0 0 1 309.64246 109.79076] CT
1 0 0 RC
10.0 ML
N
-3 0 M
3 0 L
S
GR
GS
[1 0 0 1 405.92737 128.88303] CT
1 0 0 RC
N
f1394637256
f
GR
GS
[1 0 0 1 405.92737 128.88303] CT
1 0 0 RC
10.0 ML
N
-3 0 M
3 0 L
S
GR
GS
1 0 0 RC
1 LJ
0.5 LW
N
138.469 86.738 M
138.469 136.221 L
S
GR
GS
1 0 0 RC
1 LJ
0.5 LW
N
234.754 125.643 M
234.754 178.641 L
S
GR
GS
1 0 0 RC
1 LJ
0.5 LW
N
331.039 180.022 M
331.039 219.635 L
S
GR
GS
1 0 0 RC
1 LJ
0.5 LW
N
427.324 205.986 M
427.324 239.594 L
S
GR
GS
1 0 0 RC
1 LJ
0.5 LW
N
138.469 86.738 M
138.469 37.255 L
S
GR
GS
1 0 0 RC
1 LJ
0.5 LW
N
234.754 125.643 M
234.754 72.645 L
S
GR
GS
1 0 0 RC
1 LJ
0.5 LW
N
331.039 180.022 M
331.039 140.408 L
S
GR
GS
1 0 0 RC
1 LJ
0.5 LW
N
427.324 205.986 M
427.324 172.379 L
S
GR
GS
[1 0 0 1 138.46927 86.73811] CT
1 0 0 RC
N
f-891180347
f
GR
GS
[1 0 0 1 234.7542 125.64297] CT
1 0 0 RC
N
f-891180347
f
GR
GS
[1 0 0 1 331.03912 180.02151] CT
1 0 0 RC
N
f-891180347
f
GR
GS
[1 0 0 1 427.32404 205.98628] CT
1 0 0 RC
N
f-891180347
f
GR
GS
[1 0 0 1 138.46927 136.22079] CT
1 0 0 RC
N
f1394637256
f
GR
GS
[1 0 0 1 138.46927 136.22079] CT
1 0 0 RC
10.0 ML
N
-3 0 M
3 0 L
S
GR
GS
[1 0 0 1 234.7542 178.64081] CT
1 0 0 RC
N
f1394637256
f
GR
GS
[1 0 0 1 234.7542 178.64081] CT
1 0 0 RC
10.0 ML
N
-3 0 M
3 0 L
S
GR
GS
[1 0 0 1 331.03912 219.63539] CT
1 0 0 RC
N
f1394637256
f
GR
GS
[1 0 0 1 331.03912 219.63539] CT
1 0 0 RC
10.0 ML
N
-3 0 M
3 0 L
S
GR
GS
[1 0 0 1 427.32404 239.5937] CT
1 0 0 RC
N
f1394637256
f
GR
GS
[1 0 0 1 427.32404 239.5937] CT
1 0 0 RC
10.0 ML
N
-3 0 M
3 0 L
S
GR
GS
[1 0 0 1 138.46927 37.25543] CT
1 0 0 RC
N
f1394637256
f
GR
GS
[1 0 0 1 138.46927 37.25543] CT
1 0 0 RC
10.0 ML
N
-3 0 M
3 0 L
S
GR
GS
[1 0 0 1 234.7542 72.64515] CT
1 0 0 RC
N
f1394637256
f
GR
GS
[1 0 0 1 234.7542 72.64515] CT
1 0 0 RC
10.0 ML
N
-3 0 M
3 0 L
S
GR
GS
[1 0 0 1 331.03912 140.40762] CT
1 0 0 RC
N
f1394637256
f
GR
GS
[1 0 0 1 331.03912 140.40762] CT
1 0 0 RC
10.0 ML
N
-3 0 M
3 0 L
S
GR
GS
[1 0 0 1 427.32404 172.37886] CT
1 0 0 RC
N
f1394637256
f
GR
GS
[1 0 0 1 427.32404 172.37886] CT
1 0 0 RC
10.0 ML
N
-3 0 M
3 0 L
S
GR
GS
0.149 GC
2 setlinecap
1 LJ
0.5 LW
N
70 290 M
453 290 L
S
GR
GS
0.149 GC
2 setlinecap
1 LJ
0.5 LW
N
70 26 M
453 26 L
S
GR
GS
0.149 GC
2 setlinecap
1 LJ
0.5 LW
N
117.073 290 M
117.073 286.17 L
S
GR
GS
0.149 GC
2 setlinecap
1 LJ
0.5 LW
N
213.358 290 M
213.358 286.17 L
S
GR
GS
0.149 GC
2 setlinecap
1 LJ
0.5 LW
N
309.642 290 M
309.642 286.17 L
S
GR
GS
0.149 GC
2 setlinecap
1 LJ
0.5 LW
N
405.927 290 M
405.927 286.17 L
S
GR
GS
0.149 GC
2 setlinecap
1 LJ
0.5 LW
N
117.073 26 M
117.073 29.83 L
S
GR
GS
0.149 GC
2 setlinecap
1 LJ
0.5 LW
N
213.358 26 M
213.358 29.83 L
S
GR
GS
0.149 GC
2 setlinecap
1 LJ
0.5 LW
N
309.642 26 M
309.642 29.83 L
S
GR
GS
0.149 GC
2 setlinecap
1 LJ
0.5 LW
N
405.927 26 M
405.927 29.83 L
S
GR
GS
[1 0 0 1 117.07262 296.39999] CT
0.149 GC
/Times-Roman 22 F
GS
[1 0 0 1 0 0] CT
-5.5 20 moveto 
1 -1 scale
(2) t 
GR
GR
GS
[1 0 0 1 213.35754 296.39999] CT
0.149 GC
/Times-Roman 22 F
GS
[1 0 0 1 0 0] CT
-5.5 20 moveto 
1 -1 scale
(4) t 
GR
GR
GS
[1 0 0 1 309.64246 296.39999] CT
0.149 GC
/Times-Roman 22 F
GS
[1 0 0 1 0 0] CT
-5.5 20 moveto 
1 -1 scale
(6) t 
GR
GR
GS
[1 0 0 1 405.92737 296.39999] CT
0.149 GC
/Times-Roman 22 F
GS
[1 0 0 1 0 0] CT
-5.5 20 moveto 
1 -1 scale
(8) t 
GR
GR
GS
[1 0 0 1 261.50018 322.39999] CT
0.149 GC
/Times-Roman 24.2 F
GS
[1 0 0 1 0 0] CT
-87 22 moveto 
1 -1 scale
(Number of Nodes) t 
GR
GR
GS
0.149 GC
2 setlinecap
1 LJ
0.5 LW
N
70 290 M
70 26 L
S
GR
GS
0.149 GC
2 setlinecap
1 LJ
0.5 LW
N
453 290 M
453 26 L
S
GR
GS
0.149 GC
2 setlinecap
1 LJ
0.5 LW
N
70 290 M
73.83 290 L
S
GR
GS
0.149 GC
2 setlinecap
1 LJ
0.5 LW
N
70 237.2 M
73.83 237.2 L
S
GR
GS
0.149 GC
2 setlinecap
1 LJ
0.5 LW
N
70 184.4 M
73.83 184.4 L
S
GR
GS
0.149 GC
2 setlinecap
1 LJ
0.5 LW
N
70 131.6 M
73.83 131.6 L
S
GR
GS
0.149 GC
2 setlinecap
1 LJ
0.5 LW
N
70 78.8 M
73.83 78.8 L
S
GR
GS
0.149 GC
2 setlinecap
1 LJ
0.5 LW
N
70 26 M
73.83 26 L
S
GR
GS
0.149 GC
2 setlinecap
1 LJ
0.5 LW
N
453 290 M
449.17 290 L
S
GR
GS
0.149 GC
2 setlinecap
1 LJ
0.5 LW
N
453 237.2 M
449.17 237.2 L
S
GR
GS
0.149 GC
2 setlinecap
1 LJ
0.5 LW
N
453 184.4 M
449.17 184.4 L
S
GR
GS
0.149 GC
2 setlinecap
1 LJ
0.5 LW
N
453 131.6 M
449.17 131.6 L
S
GR
GS
0.149 GC
2 setlinecap
1 LJ
0.5 LW
N
453 78.8 M
449.17 78.8 L
S
GR
GS
0.149 GC
2 setlinecap
1 LJ
0.5 LW
N
453 26 M
449.17 26 L
S
GR
GS
[1 0 0 1 63.6 290] CT
0.149 GC
/Times-Roman 22 F
GS
[1 0 0 1 0 0] CT
-11 7.5 moveto 
1 -1 scale
(0) t 
GR
GR
GS
[1 0 0 1 63.6 237.2] CT
0.149 GC
/Times-Roman 22 F
GS
[1 0 0 1 0 0] CT
-22 7.5 moveto 
1 -1 scale
(20) t 
GR
GR
GS
[1 0 0 1 63.6 184.39999] CT
0.149 GC
/Times-Roman 22 F
GS
[1 0 0 1 0 0] CT
-22 7.5 moveto 
1 -1 scale
(40) t 
GR
GR
GS
[1 0 0 1 63.6 131.60001] CT
0.149 GC
/Times-Roman 22 F
GS
[1 0 0 1 0 0] CT
-22 7.5 moveto 
1 -1 scale
(60) t 
GR
GR
GS
[1 0 0 1 63.6 78.8] CT
0.149 GC
/Times-Roman 22 F
GS
[1 0 0 1 0 0] CT
-22 7.5 moveto 
1 -1 scale
(80) t 
GR
GR
GS
[1 0 0 1 63.6 26] CT
0.149 GC
/Times-Roman 22 F
GS
[1 0 0 1 0 0] CT
-33 7.5 moveto 
1 -1 scale
(100) t 
GR
GR
GS
[0 -1 1 0 27.6 157.99988] CT
0.149 GC
/Times-Roman 24.2 F
GS
[1 0 0 1 0 0] CT
-140 -6 moveto 
1 -1 scale
(Mean av. throughput \(Mbps\)) t 
GR
GR
GS
1 GC
N
/f1404606946{443 110 M
443 36 L
244 36 L
244 110 L
cp}def
f1404606946
f
GR
GS
[1 0 0 1 281 49.5] CT
/Times-Roman 19.8 F
GS
[1 0 0 1 0 0] CT
0 6.5 moveto 
1 -1 scale
(Static) t 
GR
GR
GS
0.749 0 0.749 RC
N
/f692250742{278 58.45 M
278 40.55 L
248 40.55 L
248 58.45 L
cp}def
f692250742
f
GR
GS
10.0 ML
0.5 LW
N
248 58.45 M
248 40.55 L
278 40.55 L
278 58.45 L
cp
S
GR
GS
[1 0 0 1 281 73] CT
/Times-Roman 19.8 F
GS
[1 0 0 1 0 0] CT
0 6.5 moveto 
1 -1 scale
(Selfish) t 
GR
GR
GS
1 1 0 RC
N
/f-1321874010{278 81.95 M
278 64.05 L
248 64.05 L
248 81.95 L
cp}def
f-1321874010
f
GR
GS
10.0 ML
0.5 LW
N
248 81.95 M
248 64.05 L
278 64.05 L
278 81.95 L
cp
S
GR
GS
[1 0 0 1 281 96.5] CT
/Times-Roman 19.8 F
GS
[1 0 0 1 0 0] CT
0 6.5 moveto 
1 -1 scale
(Environment-aware) t 
GR
GR
GS
0 0.498 0 RC
N
/f1402479420{278 105.45 M
278 87.55 L
248 87.55 L
248 105.45 L
cp}def
f1402479420
f
GR
GS
10.0 ML
0.5 LW
N
248 105.45 M
248 87.55 L
278 87.55 L
278 105.45 L
cp
S
GR
GS
0.149 GC
10.0 ML
0.5 LW
N
244 110 M
244 36 L
443 36 L
443 110 L
cp
S
GR
%%Trailer
%%Pages: 1
%%EOF
