%!PS-Adobe-3.0 EPSF-3.0
%%Creator: (MATLAB, The Mathworks, Inc. Version 9.3.0.713579 \(R2017b\). Operating System: Mac OS X)
%%Title: (/Users/franciscowilhelmi/workspace/papers/selfish_vs_informed_spatial_reuse/Results/Part 3 - Scalability/scalability_mean_jfi.eps)
%%CreationDate: 2018-05-18T11:54:43
%%Pages: (atend)
%%BoundingBox: 0 0 500 350
%%LanguageLevel: 3
%%EndComments
%%BeginProlog
%%BeginResource: procset (Apache XML Graphics Std ProcSet) 1.2 0
%%Version: 1.2 0
%%Copyright: (Copyright 2001-2003,2010 The Apache Software Foundation. License terms: http://www.apache.org/licenses/LICENSE-2.0)
/bd{bind def}bind def
/ld{load def}bd
/GR/grestore ld
/GS/gsave ld
/RM/rmoveto ld
/C/curveto ld
/t/show ld
/L/lineto ld
/ML/setmiterlimit ld
/CT/concat ld
/f/fill ld
/N/newpath ld
/S/stroke ld
/CC/setcmykcolor ld
/A/ashow ld
/cp/closepath ld
/RC/setrgbcolor ld
/LJ/setlinejoin ld
/GC/setgray ld
/LW/setlinewidth ld
/M/moveto ld
/re {4 2 roll M
1 index 0 rlineto
0 exch rlineto
neg 0 rlineto
cp } bd
/_ctm matrix def
/_tm matrix def
/BT { _ctm currentmatrix pop matrix _tm copy pop 0 0 moveto } bd
/ET { _ctm setmatrix } bd
/iTm { _ctm setmatrix _tm concat } bd
/Tm { _tm astore pop iTm 0 0 moveto } bd
/ux 0.0 def
/uy 0.0 def
/F {
  /Tp exch def
  /Tf exch def
  Tf findfont Tp scalefont setfont
  /cf Tf def  /cs Tp def
} bd
/ULS {currentpoint /uy exch def /ux exch def} bd
/ULE {
  /Tcx currentpoint pop def
  gsave
  newpath
  cf findfont cs scalefont dup
  /FontMatrix get 0 get /Ts exch def /FontInfo get dup
  /UnderlinePosition get Ts mul /To exch def
  /UnderlineThickness get Ts mul /Tt exch def
  ux uy To add moveto  Tcx uy To add lineto
  Tt setlinewidth stroke
  grestore
} bd
/OLE {
  /Tcx currentpoint pop def
  gsave
  newpath
  cf findfont cs scalefont dup
  /FontMatrix get 0 get /Ts exch def /FontInfo get dup
  /UnderlinePosition get Ts mul /To exch def
  /UnderlineThickness get Ts mul /Tt exch def
  ux uy To add cs add moveto Tcx uy To add cs add lineto
  Tt setlinewidth stroke
  grestore
} bd
/SOE {
  /Tcx currentpoint pop def
  gsave
  newpath
  cf findfont cs scalefont dup
  /FontMatrix get 0 get /Ts exch def /FontInfo get dup
  /UnderlinePosition get Ts mul /To exch def
  /UnderlineThickness get Ts mul /Tt exch def
  ux uy To add cs 10 mul 26 idiv add moveto Tcx uy To add cs 10 mul 26 idiv add lineto
  Tt setlinewidth stroke
  grestore
} bd
/QT {
/Y22 exch store
/X22 exch store
/Y21 exch store
/X21 exch store
currentpoint
/Y21 load 2 mul add 3 div exch
/X21 load 2 mul add 3 div exch
/X21 load 2 mul /X22 load add 3 div
/Y21 load 2 mul /Y22 load add 3 div
/X22 load /Y22 load curveto
} bd
/SSPD {
dup length /d exch dict def
{
/v exch def
/k exch def
currentpagedevice k known {
/cpdv currentpagedevice k get def
v cpdv ne {
/upd false def
/nullv v type /nulltype eq def
/nullcpdv cpdv type /nulltype eq def
nullv nullcpdv or
{
/upd true def
} {
/sametype v type cpdv type eq def
sametype {
v type /arraytype eq {
/vlen v length def
/cpdvlen cpdv length def
vlen cpdvlen eq {
0 1 vlen 1 sub {
/i exch def
/obj v i get def
/cpdobj cpdv i get def
obj cpdobj ne {
/upd true def
exit
} if
} for
} {
/upd true def
} ifelse
} {
v type /dicttype eq {
v {
/dv exch def
/dk exch def
/cpddv cpdv dk get def
dv cpddv ne {
/upd true def
exit
} if
} forall
} {
/upd true def
} ifelse
} ifelse
} if
} ifelse
upd true eq {
d k v put
} if
} if
} if
} forall
d length 0 gt {
d setpagedevice
} if
} bd
/RE { % /NewFontName [NewEncodingArray] /FontName RE -
  findfont dup length dict begin
  {
    1 index /FID ne
    {def} {pop pop} ifelse
  } forall
  /Encoding exch def
  /FontName 1 index def
  currentdict definefont pop
  end
} bind def
%%EndResource
%%BeginResource: procset (Apache XML Graphics EPS ProcSet) 1.0 0
%%Version: 1.0 0
%%Copyright: (Copyright 2002-2003 The Apache Software Foundation. License terms: http://www.apache.org/licenses/LICENSE-2.0)
/BeginEPSF { %def
/b4_Inc_state save def         % Save state for cleanup
/dict_count countdictstack def % Count objects on dict stack
/op_count count 1 sub def      % Count objects on operand stack
userdict begin                 % Push userdict on dict stack
/showpage { } def              % Redefine showpage, { } = null proc
0 setgray 0 setlinecap         % Prepare graphics state
1 setlinewidth 0 setlinejoin
10 setmiterlimit [ ] 0 setdash newpath
/languagelevel where           % If level not equal to 1 then
{pop languagelevel             % set strokeadjust and
1 ne                           % overprint to their defaults.
{false setstrokeadjust false setoverprint
} if
} if
} bd
/EndEPSF { %def
count op_count sub {pop} repeat            % Clean up stacks
countdictstack dict_count sub {end} repeat
b4_Inc_state restore
} bd
%%EndResource
%FOPBeginFontDict
%%IncludeResource: font Courier-Oblique
%%IncludeResource: font Courier-BoldOblique
%%IncludeResource: font Courier-Bold
%%IncludeResource: font ZapfDingbats
%%IncludeResource: font Symbol
%%IncludeResource: font Helvetica
%%IncludeResource: font Helvetica-Oblique
%%IncludeResource: font Helvetica-Bold
%%IncludeResource: font Helvetica-BoldOblique
%%IncludeResource: font Times-Roman
%%IncludeResource: font Times-Italic
%%IncludeResource: font Times-Bold
%%IncludeResource: font Times-BoldItalic
%%IncludeResource: font Courier
%FOPEndFontDict
%%BeginResource: encoding WinAnsiEncoding
/WinAnsiEncoding [
/.notdef /.notdef /.notdef /.notdef /.notdef
/.notdef /.notdef /.notdef /.notdef /.notdef
/.notdef /.notdef /.notdef /.notdef /.notdef
/.notdef /.notdef /.notdef /.notdef /.notdef
/.notdef /.notdef /.notdef /.notdef /.notdef
/.notdef /.notdef /.notdef /.notdef /.notdef
/.notdef /.notdef /space /exclam /quotedbl
/numbersign /dollar /percent /ampersand /quotesingle
/parenleft /parenright /asterisk /plus /comma
/hyphen /period /slash /zero /one
/two /three /four /five /six
/seven /eight /nine /colon /semicolon
/less /equal /greater /question /at
/A /B /C /D /E
/F /G /H /I /J
/K /L /M /N /O
/P /Q /R /S /T
/U /V /W /X /Y
/Z /bracketleft /backslash /bracketright /asciicircum
/underscore /quoteleft /a /b /c
/d /e /f /g /h
/i /j /k /l /m
/n /o /p /q /r
/s /t /u /v /w
/x /y /z /braceleft /bar
/braceright /asciitilde /bullet /Euro /bullet
/quotesinglbase /florin /quotedblbase /ellipsis /dagger
/daggerdbl /circumflex /perthousand /Scaron /guilsinglleft
/OE /bullet /Zcaron /bullet /bullet
/quoteleft /quoteright /quotedblleft /quotedblright /bullet
/endash /emdash /asciitilde /trademark /scaron
/guilsinglright /oe /bullet /zcaron /Ydieresis
/space /exclamdown /cent /sterling /currency
/yen /brokenbar /section /dieresis /copyright
/ordfeminine /guillemotleft /logicalnot /sfthyphen /registered
/macron /degree /plusminus /twosuperior /threesuperior
/acute /mu /paragraph /middot /cedilla
/onesuperior /ordmasculine /guillemotright /onequarter /onehalf
/threequarters /questiondown /Agrave /Aacute /Acircumflex
/Atilde /Adieresis /Aring /AE /Ccedilla
/Egrave /Eacute /Ecircumflex /Edieresis /Igrave
/Iacute /Icircumflex /Idieresis /Eth /Ntilde
/Ograve /Oacute /Ocircumflex /Otilde /Odieresis
/multiply /Oslash /Ugrave /Uacute /Ucircumflex
/Udieresis /Yacute /Thorn /germandbls /agrave
/aacute /acircumflex /atilde /adieresis /aring
/ae /ccedilla /egrave /eacute /ecircumflex
/edieresis /igrave /iacute /icircumflex /idieresis
/eth /ntilde /ograve /oacute /ocircumflex
/otilde /odieresis /divide /oslash /ugrave
/uacute /ucircumflex /udieresis /yacute /thorn
/ydieresis
] def
%%EndResource
%FOPBeginFontReencode
/Courier-Oblique findfont
dup length dict begin
  {1 index /FID ne {def} {pop pop} ifelse} forall
  /Encoding WinAnsiEncoding def
  currentdict
end
/Courier-Oblique exch definefont pop
/Courier-BoldOblique findfont
dup length dict begin
  {1 index /FID ne {def} {pop pop} ifelse} forall
  /Encoding WinAnsiEncoding def
  currentdict
end
/Courier-BoldOblique exch definefont pop
/Courier-Bold findfont
dup length dict begin
  {1 index /FID ne {def} {pop pop} ifelse} forall
  /Encoding WinAnsiEncoding def
  currentdict
end
/Courier-Bold exch definefont pop
/Helvetica findfont
dup length dict begin
  {1 index /FID ne {def} {pop pop} ifelse} forall
  /Encoding WinAnsiEncoding def
  currentdict
end
/Helvetica exch definefont pop
/Helvetica-Oblique findfont
dup length dict begin
  {1 index /FID ne {def} {pop pop} ifelse} forall
  /Encoding WinAnsiEncoding def
  currentdict
end
/Helvetica-Oblique exch definefont pop
/Helvetica-Bold findfont
dup length dict begin
  {1 index /FID ne {def} {pop pop} ifelse} forall
  /Encoding WinAnsiEncoding def
  currentdict
end
/Helvetica-Bold exch definefont pop
/Helvetica-BoldOblique findfont
dup length dict begin
  {1 index /FID ne {def} {pop pop} ifelse} forall
  /Encoding WinAnsiEncoding def
  currentdict
end
/Helvetica-BoldOblique exch definefont pop
/Times-Roman findfont
dup length dict begin
  {1 index /FID ne {def} {pop pop} ifelse} forall
  /Encoding WinAnsiEncoding def
  currentdict
end
/Times-Roman exch definefont pop
/Times-Italic findfont
dup length dict begin
  {1 index /FID ne {def} {pop pop} ifelse} forall
  /Encoding WinAnsiEncoding def
  currentdict
end
/Times-Italic exch definefont pop
/Times-Bold findfont
dup length dict begin
  {1 index /FID ne {def} {pop pop} ifelse} forall
  /Encoding WinAnsiEncoding def
  currentdict
end
/Times-Bold exch definefont pop
/Times-BoldItalic findfont
dup length dict begin
  {1 index /FID ne {def} {pop pop} ifelse} forall
  /Encoding WinAnsiEncoding def
  currentdict
end
/Times-BoldItalic exch definefont pop
/Courier findfont
dup length dict begin
  {1 index /FID ne {def} {pop pop} ifelse} forall
  /Encoding WinAnsiEncoding def
  currentdict
end
/Courier exch definefont pop
%FOPEndFontReencode
%%EndProlog
%%Page: 1 1
%%PageBoundingBox: 0 0 500 350
%%BeginPageSetup
[1 0 0 -1 0 350] CT
%%EndPageSetup
GS
1 GC
N
0 0 500 350 re
f
GR
GS
1 GC
N
0 0 500 350 re
f
GR
GS
1 GC
N
65 290 M
453 290 L
453 26 L
65 26 L
cp
f
GR
GS
0.873 GC
1 LJ
0.5 LW
N
112.687 290 M
112.687 26 L
S
GR
GS
0.873 GC
1 LJ
0.5 LW
N
210.229 290 M
210.229 26 L
S
GR
GS
0.873 GC
1 LJ
0.5 LW
N
307.771 290 M
307.771 26 L
S
GR
GS
0.873 GC
1 LJ
0.5 LW
N
405.313 290 M
405.313 26 L
S
GR
GS
0.873 GC
1 LJ
0.5 LW
N
453 290 M
65 290 L
S
GR
GS
0.873 GC
1 LJ
0.5 LW
N
453 180 M
65 180 L
S
GR
GS
0.873 GC
1 LJ
0.5 LW
N
453 70 M
65 70 L
S
GR
GS
0.149 GC
1 LJ
0.5 LW
N
65 290 M
453 290 L
S
GR
GS
0.749 0 0.749 RC
N
99.682 290 M
99.682 109.839 L
82.341 109.839 L
82.341 290 L
cp
197.223 290 M
197.223 160.679 L
179.883 160.679 L
179.883 290 L
cp
294.765 290 M
294.765 200.4 L
277.425 200.4 L
277.425 290 L
cp
392.307 290 M
392.307 216.373 L
374.966 216.373 L
374.966 290 L
cp
f
GR
GS
10.0 ML
0.5 LW
N
82.341 290 M
82.341 109.839 L
99.682 109.839 L
99.682 290 L
cp
S
GR
GS
10.0 ML
0.5 LW
N
179.883 290 M
179.883 160.679 L
197.223 160.679 L
197.223 290 L
cp
S
GR
GS
10.0 ML
0.5 LW
N
277.425 290 M
277.425 200.4 L
294.765 200.4 L
294.765 290 L
cp
S
GR
GS
10.0 ML
0.5 LW
N
374.966 290 M
374.966 216.373 L
392.307 216.373 L
392.307 290 L
cp
S
GR
GS
1 1 0 RC
N
121.358 290 M
121.358 91.429 L
104.017 91.429 L
104.017 290 L
cp
218.899 290 M
218.899 119.687 L
201.559 119.687 L
201.559 290 L
cp
316.441 290 M
316.441 142.012 L
299.101 142.012 L
299.101 290 L
cp
413.983 290 M
413.983 154.446 L
396.642 154.446 L
396.642 290 L
cp
f
GR
GS
10.0 ML
0.5 LW
N
104.017 290 M
104.017 91.429 L
121.358 91.429 L
121.358 290 L
cp
S
GR
GS
10.0 ML
0.5 LW
N
201.559 290 M
201.559 119.687 L
218.899 119.687 L
218.899 290 L
cp
S
GR
GS
10.0 ML
0.5 LW
N
299.101 290 M
299.101 142.012 L
316.441 142.012 L
316.441 290 L
cp
S
GR
GS
10.0 ML
0.5 LW
N
396.642 290 M
396.642 154.446 L
413.983 154.446 L
413.983 290 L
cp
S
GR
GS
0 0.498 0 RC
N
143.034 290 M
143.034 82.722 L
125.693 82.722 L
125.693 290 L
cp
240.575 290 M
240.575 101.158 L
223.235 101.158 L
223.235 290 L
cp
338.117 290 M
338.117 146.879 L
320.777 146.879 L
320.777 290 L
cp
435.659 290 M
435.659 176.984 L
418.318 176.984 L
418.318 290 L
cp
f
GR
GS
10.0 ML
0.5 LW
N
125.693 290 M
125.693 82.722 L
143.034 82.722 L
143.034 290 L
cp
S
GR
GS
10.0 ML
0.5 LW
N
223.235 290 M
223.235 101.158 L
240.575 101.158 L
240.575 290 L
cp
S
GR
GS
10.0 ML
0.5 LW
N
320.777 290 M
320.777 146.879 L
338.117 146.879 L
338.117 290 L
cp
S
GR
GS
10.0 ML
0.5 LW
N
418.318 290 M
418.318 176.984 L
435.659 176.984 L
435.659 290 L
cp
S
GR
GS
1 0 0 RC
1 LJ
0.5 LW
N
91.011 109.839 M
91.011 158.837 L
S
GR
GS
1 0 0 RC
1 LJ
0.5 LW
N
188.553 160.679 M
188.553 211.005 L
S
GR
GS
1 0 0 RC
1 LJ
0.5 LW
N
286.095 200.4 M
286.095 241.344 L
S
GR
GS
1 0 0 RC
1 LJ
0.5 LW
N
383.637 216.373 M
383.637 248.186 L
S
GR
GS
1 0 0 RC
1 LJ
0.5 LW
N
91.011 109.839 M
91.011 60.84 L
S
GR
GS
1 0 0 RC
1 LJ
0.5 LW
N
188.553 160.679 M
188.553 110.354 L
S
GR
GS
1 0 0 RC
1 LJ
0.5 LW
N
286.095 200.4 M
286.095 159.457 L
S
GR
GS
1 0 0 RC
1 LJ
0.5 LW
N
383.637 216.373 M
383.637 184.56 L
S
GR
GS
[1 0 0 1 91.01118 109.83862] CT
1 0 0 RC
N
1 0 M
1 0.552 0.552 1 0 1 C
-0.552 1 -1 0.552 -1 0 C
-1 -0.552 -0.552 -1 0 -1 C
0.552 -1 1 -0.552 1 0 C
cp
f
GR
GS
[1 0 0 1 188.55307 160.67931] CT
1 0 0 RC
N
/f-891180347{1 0 M
1 0.552 0.552 1 0 1 C
-0.552 1 -1 0.552 -1 0 C
-1 -0.552 -0.552 -1 0 -1 C
0.552 -1 1 -0.552 1 0 C
cp}def
f-891180347
f
GR
GS
[1 0 0 1 286.09497 200.40041] CT
1 0 0 RC
N
f-891180347
f
GR
GS
[1 0 0 1 383.63687 216.3734] CT
1 0 0 RC
N
f-891180347
f
GR
GS
[1 0 0 1 91.01118 158.83716] CT
1 0 0 RC
N
-3 0 M
3 0 L
f
GR
GS
[1 0 0 1 91.01118 158.83716] CT
1 0 0 RC
10.0 ML
N
-3 0 M
3 0 L
S
GR
GS
[1 0 0 1 188.55307 211.0049] CT
1 0 0 RC
N
/f1394637256{-3 0 M
3 0 L}def
f1394637256
f
GR
GS
[1 0 0 1 188.55307 211.0049] CT
1 0 0 RC
10.0 ML
N
-3 0 M
3 0 L
S
GR
GS
[1 0 0 1 286.09497 241.34366] CT
1 0 0 RC
N
f1394637256
f
GR
GS
[1 0 0 1 286.09497 241.34366] CT
1 0 0 RC
10.0 ML
N
-3 0 M
3 0 L
S
GR
GS
[1 0 0 1 383.63687 248.18643] CT
1 0 0 RC
N
f1394637256
f
GR
GS
[1 0 0 1 383.63687 248.18643] CT
1 0 0 RC
10.0 ML
N
-3 0 M
3 0 L
S
GR
GS
[1 0 0 1 91.01118 60.84008] CT
1 0 0 RC
N
f1394637256
f
GR
GS
[1 0 0 1 91.01118 60.84008] CT
1 0 0 RC
10.0 ML
N
-3 0 M
3 0 L
S
GR
GS
[1 0 0 1 188.55307 110.3537] CT
1 0 0 RC
N
f1394637256
f
GR
GS
[1 0 0 1 188.55307 110.3537] CT
1 0 0 RC
10.0 ML
N
-3 0 M
3 0 L
S
GR
GS
[1 0 0 1 286.09497 159.45717] CT
1 0 0 RC
N
f1394637256
f
GR
GS
[1 0 0 1 286.09497 159.45717] CT
1 0 0 RC
10.0 ML
N
-3 0 M
3 0 L
S
GR
GS
[1 0 0 1 383.63687 184.56036] CT
1 0 0 RC
N
f1394637256
f
GR
GS
[1 0 0 1 383.63687 184.56036] CT
1 0 0 RC
10.0 ML
N
-3 0 M
3 0 L
S
GR
GS
1 0 0 RC
1 LJ
0.5 LW
N
112.687 91.429 M
112.687 109.228 L
S
GR
GS
1 0 0 RC
1 LJ
0.5 LW
N
210.229 119.687 M
210.229 143.49 L
S
GR
GS
1 0 0 RC
1 LJ
0.5 LW
N
307.771 142.012 M
307.771 165.897 L
S
GR
GS
1 0 0 RC
1 LJ
0.5 LW
N
405.313 154.446 M
405.313 175.871 L
S
GR
GS
1 0 0 RC
1 LJ
0.5 LW
N
112.687 91.429 M
112.687 73.63 L
S
GR
GS
1 0 0 RC
1 LJ
0.5 LW
N
210.229 119.687 M
210.229 95.883 L
S
GR
GS
1 0 0 RC
1 LJ
0.5 LW
N
307.771 142.012 M
307.771 118.128 L
S
GR
GS
1 0 0 RC
1 LJ
0.5 LW
N
405.313 154.446 M
405.313 133.021 L
S
GR
GS
[1 0 0 1 112.68715 91.42944] CT
1 0 0 RC
N
f-891180347
f
GR
GS
[1 0 0 1 210.22905 119.68688] CT
1 0 0 RC
N
f-891180347
f
GR
GS
[1 0 0 1 307.77094 142.01248] CT
1 0 0 RC
N
f-891180347
f
GR
GS
[1 0 0 1 405.31284 154.4462] CT
1 0 0 RC
N
f-891180347
f
GR
GS
[1 0 0 1 112.68715 109.2284] CT
1 0 0 RC
N
f1394637256
f
GR
GS
[1 0 0 1 112.68715 109.2284] CT
1 0 0 RC
10.0 ML
N
-3 0 M
3 0 L
S
GR
GS
[1 0 0 1 210.22905 143.49048] CT
1 0 0 RC
N
f1394637256
f
GR
GS
[1 0 0 1 210.22905 143.49048] CT
1 0 0 RC
10.0 ML
N
-3 0 M
3 0 L
S
GR
GS
[1 0 0 1 307.77094 165.89679] CT
1 0 0 RC
N
f1394637256
f
GR
GS
[1 0 0 1 307.77094 165.89679] CT
1 0 0 RC
10.0 ML
N
-3 0 M
3 0 L
S
GR
GS
[1 0 0 1 405.31284 175.87094] CT
1 0 0 RC
N
f1394637256
f
GR
GS
[1 0 0 1 405.31284 175.87094] CT
1 0 0 RC
10.0 ML
N
-3 0 M
3 0 L
S
GR
GS
[1 0 0 1 112.68715 73.63049] CT
1 0 0 RC
N
f1394637256
f
GR
GS
[1 0 0 1 112.68715 73.63049] CT
1 0 0 RC
10.0 ML
N
-3 0 M
3 0 L
S
GR
GS
[1 0 0 1 210.22905 95.88329] CT
1 0 0 RC
N
f1394637256
f
GR
GS
[1 0 0 1 210.22905 95.88329] CT
1 0 0 RC
10.0 ML
N
-3 0 M
3 0 L
S
GR
GS
[1 0 0 1 307.77094 118.12817] CT
1 0 0 RC
N
f1394637256
f
GR
GS
[1 0 0 1 307.77094 118.12817] CT
1 0 0 RC
10.0 ML
N
-3 0 M
3 0 L
S
GR
GS
[1 0 0 1 405.31284 133.02144] CT
1 0 0 RC
N
f1394637256
f
GR
GS
[1 0 0 1 405.31284 133.02144] CT
1 0 0 RC
10.0 ML
N
-3 0 M
3 0 L
S
GR
GS
1 0 0 RC
1 LJ
0.5 LW
N
134.363 82.722 M
134.363 92.982 L
S
GR
GS
1 0 0 RC
1 LJ
0.5 LW
N
231.905 101.158 M
231.905 127.302 L
S
GR
GS
1 0 0 RC
1 LJ
0.5 LW
N
329.447 146.879 M
329.447 183.096 L
S
GR
GS
1 0 0 RC
1 LJ
0.5 LW
N
426.989 176.984 M
426.989 214.917 L
S
GR
GS
1 0 0 RC
1 LJ
0.5 LW
N
134.363 82.722 M
134.363 72.463 L
S
GR
GS
1 0 0 RC
1 LJ
0.5 LW
N
231.905 101.158 M
231.905 75.014 L
S
GR
GS
1 0 0 RC
1 LJ
0.5 LW
N
329.447 146.879 M
329.447 110.662 L
S
GR
GS
1 0 0 RC
1 LJ
0.5 LW
N
426.989 176.984 M
426.989 139.051 L
S
GR
GS
[1 0 0 1 134.36313 82.72245] CT
1 0 0 RC
N
f-891180347
f
GR
GS
[1 0 0 1 231.90504 101.15802] CT
1 0 0 RC
N
f-891180347
f
GR
GS
[1 0 0 1 329.44693 146.87878] CT
1 0 0 RC
N
f-891180347
f
GR
GS
[1 0 0 1 426.98883 176.98366] CT
1 0 0 RC
N
f-891180347
f
GR
GS
[1 0 0 1 134.36313 92.98178] CT
1 0 0 RC
N
f1394637256
f
GR
GS
[1 0 0 1 134.36313 92.98178] CT
1 0 0 RC
10.0 ML
N
-3 0 M
3 0 L
S
GR
GS
[1 0 0 1 231.90504 127.30223] CT
1 0 0 RC
N
f1394637256
f
GR
GS
[1 0 0 1 231.90504 127.30223] CT
1 0 0 RC
10.0 ML
N
-3 0 M
3 0 L
S
GR
GS
[1 0 0 1 329.44693 183.0959] CT
1 0 0 RC
N
f1394637256
f
GR
GS
[1 0 0 1 329.44693 183.0959] CT
1 0 0 RC
10.0 ML
N
-3 0 M
3 0 L
S
GR
GS
[1 0 0 1 426.98883 214.91664] CT
1 0 0 RC
N
f1394637256
f
GR
GS
[1 0 0 1 426.98883 214.91664] CT
1 0 0 RC
10.0 ML
N
-3 0 M
3 0 L
S
GR
GS
[1 0 0 1 134.36313 72.46313] CT
1 0 0 RC
N
f1394637256
f
GR
GS
[1 0 0 1 134.36313 72.46313] CT
1 0 0 RC
10.0 ML
N
-3 0 M
3 0 L
S
GR
GS
[1 0 0 1 231.90504 75.01383] CT
1 0 0 RC
N
f1394637256
f
GR
GS
[1 0 0 1 231.90504 75.01383] CT
1 0 0 RC
10.0 ML
N
-3 0 M
3 0 L
S
GR
GS
[1 0 0 1 329.44693 110.66167] CT
1 0 0 RC
N
f1394637256
f
GR
GS
[1 0 0 1 329.44693 110.66167] CT
1 0 0 RC
10.0 ML
N
-3 0 M
3 0 L
S
GR
GS
[1 0 0 1 426.98883 139.05067] CT
1 0 0 RC
N
f1394637256
f
GR
GS
[1 0 0 1 426.98883 139.05067] CT
1 0 0 RC
10.0 ML
N
-3 0 M
3 0 L
S
GR
GS
0.149 GC
2 setlinecap
1 LJ
0.5 LW
N
65 290 M
453 290 L
S
GR
GS
0.149 GC
2 setlinecap
1 LJ
0.5 LW
N
65 26 M
453 26 L
S
GR
GS
0.149 GC
2 setlinecap
1 LJ
0.5 LW
N
112.687 290 M
112.687 286.12 L
S
GR
GS
0.149 GC
2 setlinecap
1 LJ
0.5 LW
N
210.229 290 M
210.229 286.12 L
S
GR
GS
0.149 GC
2 setlinecap
1 LJ
0.5 LW
N
307.771 290 M
307.771 286.12 L
S
GR
GS
0.149 GC
2 setlinecap
1 LJ
0.5 LW
N
405.313 290 M
405.313 286.12 L
S
GR
GS
0.149 GC
2 setlinecap
1 LJ
0.5 LW
N
112.687 26 M
112.687 29.88 L
S
GR
GS
0.149 GC
2 setlinecap
1 LJ
0.5 LW
N
210.229 26 M
210.229 29.88 L
S
GR
GS
0.149 GC
2 setlinecap
1 LJ
0.5 LW
N
307.771 26 M
307.771 29.88 L
S
GR
GS
0.149 GC
2 setlinecap
1 LJ
0.5 LW
N
405.313 26 M
405.313 29.88 L
S
GR
GS
[1 0 0 1 112.68715 296.39999] CT
0.149 GC
/Times-Roman 22 F
GS
[1 0 0 1 0 0] CT
-5.5 20 moveto 
1 -1 scale
(2) t 
GR
GR
GS
[1 0 0 1 210.22905 296.39999] CT
0.149 GC
/Times-Roman 22 F
GS
[1 0 0 1 0 0] CT
-5.5 20 moveto 
1 -1 scale
(4) t 
GR
GR
GS
[1 0 0 1 307.77094 296.39999] CT
0.149 GC
/Times-Roman 22 F
GS
[1 0 0 1 0 0] CT
-5.5 20 moveto 
1 -1 scale
(6) t 
GR
GR
GS
[1 0 0 1 405.31284 296.39999] CT
0.149 GC
/Times-Roman 22 F
GS
[1 0 0 1 0 0] CT
-5.5 20 moveto 
1 -1 scale
(8) t 
GR
GR
GS
[1 0 0 1 259.00018 322.39999] CT
0.149 GC
/Times-Roman 24.2 F
GS
[1 0 0 1 0 0] CT
-87 22 moveto 
1 -1 scale
(Number of Nodes) t 
GR
GR
GS
0.149 GC
2 setlinecap
1 LJ
0.5 LW
N
65 290 M
65 26 L
S
GR
GS
0.149 GC
2 setlinecap
1 LJ
0.5 LW
N
453 290 M
453 26 L
S
GR
GS
0.149 GC
2 setlinecap
1 LJ
0.5 LW
N
65 290 M
68.88 290 L
S
GR
GS
0.149 GC
2 setlinecap
1 LJ
0.5 LW
N
65 180 M
68.88 180 L
S
GR
GS
0.149 GC
2 setlinecap
1 LJ
0.5 LW
N
65 70 M
68.88 70 L
S
GR
GS
0.149 GC
2 setlinecap
1 LJ
0.5 LW
N
453 290 M
449.12 290 L
S
GR
GS
0.149 GC
2 setlinecap
1 LJ
0.5 LW
N
453 180 M
449.12 180 L
S
GR
GS
0.149 GC
2 setlinecap
1 LJ
0.5 LW
N
453 70 M
449.12 70 L
S
GR
GS
[1 0 0 1 58.6 290] CT
0.149 GC
/Times-Roman 22 F
GS
[1 0 0 1 0 0] CT
-11 7.5 moveto 
1 -1 scale
(0) t 
GR
GR
GS
[1 0 0 1 58.6 180] CT
0.149 GC
/Times-Roman 22 F
GS
[1 0 0 1 0 0] CT
-28 7.5 moveto 
1 -1 scale
(0.5) t 
GR
GR
GS
[1 0 0 1 58.6 70] CT
0.149 GC
/Times-Roman 22 F
GS
[1 0 0 1 0 0] CT
-11 7.5 moveto 
1 -1 scale
(1) t 
GR
GR
GS
[0 -1 1 0 27.6 157.99986] CT
0.149 GC
/Times-Roman 24.2 F
GS
[1 0 0 1 0 0] CT
-76 -6 moveto 
1 -1 scale
(Throughput JFI) t 
GR
GR
GS
1 GC
N
/f1404606946{443 110 M
443 36 L
244 36 L
244 110 L
cp}def
f1404606946
f
GR
GS
[1 0 0 1 281 49.5] CT
/Times-Roman 19.8 F
GS
[1 0 0 1 0 0] CT
0 6.5 moveto 
1 -1 scale
(Static) t 
GR
GR
GS
0.749 0 0.749 RC
N
/f692250742{278 58.45 M
278 40.55 L
248 40.55 L
248 58.45 L
cp}def
f692250742
f
GR
GS
10.0 ML
0.5 LW
N
248 58.45 M
248 40.55 L
278 40.55 L
278 58.45 L
cp
S
GR
GS
[1 0 0 1 281 73] CT
/Times-Roman 19.8 F
GS
[1 0 0 1 0 0] CT
0 6.5 moveto 
1 -1 scale
(Selfish) t 
GR
GR
GS
1 1 0 RC
N
/f-1321874010{278 81.95 M
278 64.05 L
248 64.05 L
248 81.95 L
cp}def
f-1321874010
f
GR
GS
10.0 ML
0.5 LW
N
248 81.95 M
248 64.05 L
278 64.05 L
278 81.95 L
cp
S
GR
GS
[1 0 0 1 281 96.5] CT
/Times-Roman 19.8 F
GS
[1 0 0 1 0 0] CT
0 6.5 moveto 
1 -1 scale
(Environment-aware) t 
GR
GR
GS
0 0.498 0 RC
N
/f1402479420{278 105.45 M
278 87.55 L
248 87.55 L
248 105.45 L
cp}def
f1402479420
f
GR
GS
10.0 ML
0.5 LW
N
248 105.45 M
248 87.55 L
278 87.55 L
278 105.45 L
cp
S
GR
GS
0.149 GC
10.0 ML
0.5 LW
N
244 110 M
244 36 L
443 36 L
443 110 L
cp
S
GR
%%Trailer
%%Pages: 1
%%EOF
