%!PS-Adobe-3.0 EPSF-3.0
%%Creator: (MATLAB, The Mathworks, Inc. Version 9.3.0.713579 \(R2017b\). Operating System: Mac OS X)
%%Title: (/Users/franciscowilhelmi/workspace/papers/selfish_vs_informed_spatial_reuse/Results/Part 3 - Scalability/mean_avg_tpt_evolution_scalability_selfish.eps)
%%CreationDate: 2018-05-18T11:55:47
%%Pages: (atend)
%%BoundingBox: 0 0 623 350
%%LanguageLevel: 3
%%EndComments
%%BeginProlog
%%BeginResource: procset (Apache XML Graphics Std ProcSet) 1.2 0
%%Version: 1.2 0
%%Copyright: (Copyright 2001-2003,2010 The Apache Software Foundation. License terms: http://www.apache.org/licenses/LICENSE-2.0)
/bd{bind def}bind def
/ld{load def}bd
/GR/grestore ld
/GS/gsave ld
/RM/rmoveto ld
/C/curveto ld
/t/show ld
/L/lineto ld
/ML/setmiterlimit ld
/CT/concat ld
/f/fill ld
/N/newpath ld
/S/stroke ld
/CC/setcmykcolor ld
/A/ashow ld
/cp/closepath ld
/RC/setrgbcolor ld
/LJ/setlinejoin ld
/GC/setgray ld
/LW/setlinewidth ld
/M/moveto ld
/re {4 2 roll M
1 index 0 rlineto
0 exch rlineto
neg 0 rlineto
cp } bd
/_ctm matrix def
/_tm matrix def
/BT { _ctm currentmatrix pop matrix _tm copy pop 0 0 moveto } bd
/ET { _ctm setmatrix } bd
/iTm { _ctm setmatrix _tm concat } bd
/Tm { _tm astore pop iTm 0 0 moveto } bd
/ux 0.0 def
/uy 0.0 def
/F {
  /Tp exch def
  /Tf exch def
  Tf findfont Tp scalefont setfont
  /cf Tf def  /cs Tp def
} bd
/ULS {currentpoint /uy exch def /ux exch def} bd
/ULE {
  /Tcx currentpoint pop def
  gsave
  newpath
  cf findfont cs scalefont dup
  /FontMatrix get 0 get /Ts exch def /FontInfo get dup
  /UnderlinePosition get Ts mul /To exch def
  /UnderlineThickness get Ts mul /Tt exch def
  ux uy To add moveto  Tcx uy To add lineto
  Tt setlinewidth stroke
  grestore
} bd
/OLE {
  /Tcx currentpoint pop def
  gsave
  newpath
  cf findfont cs scalefont dup
  /FontMatrix get 0 get /Ts exch def /FontInfo get dup
  /UnderlinePosition get Ts mul /To exch def
  /UnderlineThickness get Ts mul /Tt exch def
  ux uy To add cs add moveto Tcx uy To add cs add lineto
  Tt setlinewidth stroke
  grestore
} bd
/SOE {
  /Tcx currentpoint pop def
  gsave
  newpath
  cf findfont cs scalefont dup
  /FontMatrix get 0 get /Ts exch def /FontInfo get dup
  /UnderlinePosition get Ts mul /To exch def
  /UnderlineThickness get Ts mul /Tt exch def
  ux uy To add cs 10 mul 26 idiv add moveto Tcx uy To add cs 10 mul 26 idiv add lineto
  Tt setlinewidth stroke
  grestore
} bd
/QT {
/Y22 exch store
/X22 exch store
/Y21 exch store
/X21 exch store
currentpoint
/Y21 load 2 mul add 3 div exch
/X21 load 2 mul add 3 div exch
/X21 load 2 mul /X22 load add 3 div
/Y21 load 2 mul /Y22 load add 3 div
/X22 load /Y22 load curveto
} bd
/SSPD {
dup length /d exch dict def
{
/v exch def
/k exch def
currentpagedevice k known {
/cpdv currentpagedevice k get def
v cpdv ne {
/upd false def
/nullv v type /nulltype eq def
/nullcpdv cpdv type /nulltype eq def
nullv nullcpdv or
{
/upd true def
} {
/sametype v type cpdv type eq def
sametype {
v type /arraytype eq {
/vlen v length def
/cpdvlen cpdv length def
vlen cpdvlen eq {
0 1 vlen 1 sub {
/i exch def
/obj v i get def
/cpdobj cpdv i get def
obj cpdobj ne {
/upd true def
exit
} if
} for
} {
/upd true def
} ifelse
} {
v type /dicttype eq {
v {
/dv exch def
/dk exch def
/cpddv cpdv dk get def
dv cpddv ne {
/upd true def
exit
} if
} forall
} {
/upd true def
} ifelse
} ifelse
} if
} ifelse
upd true eq {
d k v put
} if
} if
} if
} forall
d length 0 gt {
d setpagedevice
} if
} bd
/RE { % /NewFontName [NewEncodingArray] /FontName RE -
  findfont dup length dict begin
  {
    1 index /FID ne
    {def} {pop pop} ifelse
  } forall
  /Encoding exch def
  /FontName 1 index def
  currentdict definefont pop
  end
} bind def
%%EndResource
%%BeginResource: procset (Apache XML Graphics EPS ProcSet) 1.0 0
%%Version: 1.0 0
%%Copyright: (Copyright 2002-2003 The Apache Software Foundation. License terms: http://www.apache.org/licenses/LICENSE-2.0)
/BeginEPSF { %def
/b4_Inc_state save def         % Save state for cleanup
/dict_count countdictstack def % Count objects on dict stack
/op_count count 1 sub def      % Count objects on operand stack
userdict begin                 % Push userdict on dict stack
/showpage { } def              % Redefine showpage, { } = null proc
0 setgray 0 setlinecap         % Prepare graphics state
1 setlinewidth 0 setlinejoin
10 setmiterlimit [ ] 0 setdash newpath
/languagelevel where           % If level not equal to 1 then
{pop languagelevel             % set strokeadjust and
1 ne                           % overprint to their defaults.
{false setstrokeadjust false setoverprint
} if
} if
} bd
/EndEPSF { %def
count op_count sub {pop} repeat            % Clean up stacks
countdictstack dict_count sub {end} repeat
b4_Inc_state restore
} bd
%%EndResource
%FOPBeginFontDict
%%IncludeResource: font Courier-Oblique
%%IncludeResource: font Courier-BoldOblique
%%IncludeResource: font Courier-Bold
%%IncludeResource: font ZapfDingbats
%%IncludeResource: font Symbol
%%IncludeResource: font Helvetica
%%IncludeResource: font Helvetica-Oblique
%%IncludeResource: font Helvetica-Bold
%%IncludeResource: font Helvetica-BoldOblique
%%IncludeResource: font Times-Roman
%%IncludeResource: font Times-Italic
%%IncludeResource: font Times-Bold
%%IncludeResource: font Times-BoldItalic
%%IncludeResource: font Courier
%FOPEndFontDict
%%BeginResource: encoding WinAnsiEncoding
/WinAnsiEncoding [
/.notdef /.notdef /.notdef /.notdef /.notdef
/.notdef /.notdef /.notdef /.notdef /.notdef
/.notdef /.notdef /.notdef /.notdef /.notdef
/.notdef /.notdef /.notdef /.notdef /.notdef
/.notdef /.notdef /.notdef /.notdef /.notdef
/.notdef /.notdef /.notdef /.notdef /.notdef
/.notdef /.notdef /space /exclam /quotedbl
/numbersign /dollar /percent /ampersand /quotesingle
/parenleft /parenright /asterisk /plus /comma
/hyphen /period /slash /zero /one
/two /three /four /five /six
/seven /eight /nine /colon /semicolon
/less /equal /greater /question /at
/A /B /C /D /E
/F /G /H /I /J
/K /L /M /N /O
/P /Q /R /S /T
/U /V /W /X /Y
/Z /bracketleft /backslash /bracketright /asciicircum
/underscore /quoteleft /a /b /c
/d /e /f /g /h
/i /j /k /l /m
/n /o /p /q /r
/s /t /u /v /w
/x /y /z /braceleft /bar
/braceright /asciitilde /bullet /Euro /bullet
/quotesinglbase /florin /quotedblbase /ellipsis /dagger
/daggerdbl /circumflex /perthousand /Scaron /guilsinglleft
/OE /bullet /Zcaron /bullet /bullet
/quoteleft /quoteright /quotedblleft /quotedblright /bullet
/endash /emdash /asciitilde /trademark /scaron
/guilsinglright /oe /bullet /zcaron /Ydieresis
/space /exclamdown /cent /sterling /currency
/yen /brokenbar /section /dieresis /copyright
/ordfeminine /guillemotleft /logicalnot /sfthyphen /registered
/macron /degree /plusminus /twosuperior /threesuperior
/acute /mu /paragraph /middot /cedilla
/onesuperior /ordmasculine /guillemotright /onequarter /onehalf
/threequarters /questiondown /Agrave /Aacute /Acircumflex
/Atilde /Adieresis /Aring /AE /Ccedilla
/Egrave /Eacute /Ecircumflex /Edieresis /Igrave
/Iacute /Icircumflex /Idieresis /Eth /Ntilde
/Ograve /Oacute /Ocircumflex /Otilde /Odieresis
/multiply /Oslash /Ugrave /Uacute /Ucircumflex
/Udieresis /Yacute /Thorn /germandbls /agrave
/aacute /acircumflex /atilde /adieresis /aring
/ae /ccedilla /egrave /eacute /ecircumflex
/edieresis /igrave /iacute /icircumflex /idieresis
/eth /ntilde /ograve /oacute /ocircumflex
/otilde /odieresis /divide /oslash /ugrave
/uacute /ucircumflex /udieresis /yacute /thorn
/ydieresis
] def
%%EndResource
%FOPBeginFontReencode
/Courier-Oblique findfont
dup length dict begin
  {1 index /FID ne {def} {pop pop} ifelse} forall
  /Encoding WinAnsiEncoding def
  currentdict
end
/Courier-Oblique exch definefont pop
/Courier-BoldOblique findfont
dup length dict begin
  {1 index /FID ne {def} {pop pop} ifelse} forall
  /Encoding WinAnsiEncoding def
  currentdict
end
/Courier-BoldOblique exch definefont pop
/Courier-Bold findfont
dup length dict begin
  {1 index /FID ne {def} {pop pop} ifelse} forall
  /Encoding WinAnsiEncoding def
  currentdict
end
/Courier-Bold exch definefont pop
/Helvetica findfont
dup length dict begin
  {1 index /FID ne {def} {pop pop} ifelse} forall
  /Encoding WinAnsiEncoding def
  currentdict
end
/Helvetica exch definefont pop
/Helvetica-Oblique findfont
dup length dict begin
  {1 index /FID ne {def} {pop pop} ifelse} forall
  /Encoding WinAnsiEncoding def
  currentdict
end
/Helvetica-Oblique exch definefont pop
/Helvetica-Bold findfont
dup length dict begin
  {1 index /FID ne {def} {pop pop} ifelse} forall
  /Encoding WinAnsiEncoding def
  currentdict
end
/Helvetica-Bold exch definefont pop
/Helvetica-BoldOblique findfont
dup length dict begin
  {1 index /FID ne {def} {pop pop} ifelse} forall
  /Encoding WinAnsiEncoding def
  currentdict
end
/Helvetica-BoldOblique exch definefont pop
/Times-Roman findfont
dup length dict begin
  {1 index /FID ne {def} {pop pop} ifelse} forall
  /Encoding WinAnsiEncoding def
  currentdict
end
/Times-Roman exch definefont pop
/Times-Italic findfont
dup length dict begin
  {1 index /FID ne {def} {pop pop} ifelse} forall
  /Encoding WinAnsiEncoding def
  currentdict
end
/Times-Italic exch definefont pop
/Times-Bold findfont
dup length dict begin
  {1 index /FID ne {def} {pop pop} ifelse} forall
  /Encoding WinAnsiEncoding def
  currentdict
end
/Times-Bold exch definefont pop
/Times-BoldItalic findfont
dup length dict begin
  {1 index /FID ne {def} {pop pop} ifelse} forall
  /Encoding WinAnsiEncoding def
  currentdict
end
/Times-BoldItalic exch definefont pop
/Courier findfont
dup length dict begin
  {1 index /FID ne {def} {pop pop} ifelse} forall
  /Encoding WinAnsiEncoding def
  currentdict
end
/Courier exch definefont pop
%FOPEndFontReencode
%%EndProlog
%%Page: 1 1
%%PageBoundingBox: 0 0 623 350
%%BeginPageSetup
[1 0 0 -1 0 350] CT
%%EndPageSetup
GS
1 GC
N
0 0 623 350 re
f
GR
GS
1 GC
N
0 0 623 350 re
f
GR
GS
1 GC
N
81 290 M
448 290 L
448 26 L
81 26 L
cp
f
GR
GS
0.873 GC
1 LJ
0.5 LW
N
81 290 M
81 26 L
S
GR
GS
0.873 GC
1 LJ
0.5 LW
N
172.75 290 M
172.75 26 L
S
GR
GS
0.873 GC
1 LJ
0.5 LW
N
264.5 290 M
264.5 26 L
S
GR
GS
0.873 GC
1 LJ
0.5 LW
N
356.25 290 M
356.25 26 L
S
GR
GS
0.873 GC
1 LJ
0.5 LW
N
448 290 M
448 26 L
S
GR
GS
0.873 GC
1 LJ
0.5 LW
N
448 290 M
81 290 L
S
GR
GS
0.873 GC
1 LJ
0.5 LW
N
448 224 M
81 224 L
S
GR
GS
0.873 GC
1 LJ
0.5 LW
N
448 158 M
81 158 L
S
GR
GS
0.873 GC
1 LJ
0.5 LW
N
448 92 M
81 92 L
S
GR
GS
0.873 GC
1 LJ
0.5 LW
N
448 26 M
81 26 L
S
GR
GS
0.149 GC
2 setlinecap
1 LJ
0.5 LW
N
81 290 M
448 290 L
S
GR
GS
0.149 GC
2 setlinecap
1 LJ
0.5 LW
N
81 26 M
448 26 L
S
GR
GS
0.149 GC
2 setlinecap
1 LJ
0.5 LW
N
81 290 M
81 286.33 L
S
GR
GS
0.149 GC
2 setlinecap
1 LJ
0.5 LW
N
172.75 290 M
172.75 286.33 L
S
GR
GS
0.149 GC
2 setlinecap
1 LJ
0.5 LW
N
264.5 290 M
264.5 286.33 L
S
GR
GS
0.149 GC
2 setlinecap
1 LJ
0.5 LW
N
356.25 290 M
356.25 286.33 L
S
GR
GS
0.149 GC
2 setlinecap
1 LJ
0.5 LW
N
448 290 M
448 286.33 L
S
GR
GS
0.149 GC
2 setlinecap
1 LJ
0.5 LW
N
81 26 M
81 29.67 L
S
GR
GS
0.149 GC
2 setlinecap
1 LJ
0.5 LW
N
172.75 26 M
172.75 29.67 L
S
GR
GS
0.149 GC
2 setlinecap
1 LJ
0.5 LW
N
264.5 26 M
264.5 29.67 L
S
GR
GS
0.149 GC
2 setlinecap
1 LJ
0.5 LW
N
356.25 26 M
356.25 29.67 L
S
GR
GS
0.149 GC
2 setlinecap
1 LJ
0.5 LW
N
448 26 M
448 29.67 L
S
GR
GS
[1 0 0 1 81 296.39999] CT
0.149 GC
/Times-Roman 22 F
GS
[1 0 0 1 0 0] CT
-26 20 moveto 
1 -1 scale
(1-100) t 
GR
GR
GS
[1 0 0 1 172.75 296.39999] CT
0.149 GC
/Times-Roman 22 F
GS
[1 0 0 1 0 0] CT
-37 20 moveto 
1 -1 scale
(101-200) t 
GR
GR
GS
[1 0 0 1 264.5 296.39999] CT
0.149 GC
/Times-Roman 22 F
GS
[1 0 0 1 0 0] CT
-37 20 moveto 
1 -1 scale
(201-300) t 
GR
GR
GS
[1 0 0 1 356.25 296.39999] CT
0.149 GC
/Times-Roman 22 F
GS
[1 0 0 1 0 0] CT
-37 20 moveto 
1 -1 scale
(301-400) t 
GR
GR
GS
[1 0 0 1 448 296.39999] CT
0.149 GC
/Times-Roman 22 F
GS
[1 0 0 1 0 0] CT
-37 20 moveto 
1 -1 scale
(401-500) t 
GR
GR
GS
[1 0 0 1 264.50018 322.39999] CT
0.149 GC
/Times-Roman 24.2 F
GS
[1 0 0 1 0 0] CT
-84 22 moveto 
1 -1 scale
(Learning interval) t 
GR
GR
GS
0.149 GC
2 setlinecap
1 LJ
0.5 LW
N
81 290 M
81 26 L
S
GR
GS
0.149 GC
2 setlinecap
1 LJ
0.5 LW
N
448 290 M
448 26 L
S
GR
GS
0.149 GC
2 setlinecap
1 LJ
0.5 LW
N
81 290 M
84.67 290 L
S
GR
GS
0.149 GC
2 setlinecap
1 LJ
0.5 LW
N
81 224 M
84.67 224 L
S
GR
GS
0.149 GC
2 setlinecap
1 LJ
0.5 LW
N
81 158 M
84.67 158 L
S
GR
GS
0.149 GC
2 setlinecap
1 LJ
0.5 LW
N
81 92 M
84.67 92 L
S
GR
GS
0.149 GC
2 setlinecap
1 LJ
0.5 LW
N
81 26 M
84.67 26 L
S
GR
GS
0.149 GC
2 setlinecap
1 LJ
0.5 LW
N
448 290 M
444.33 290 L
S
GR
GS
0.149 GC
2 setlinecap
1 LJ
0.5 LW
N
448 224 M
444.33 224 L
S
GR
GS
0.149 GC
2 setlinecap
1 LJ
0.5 LW
N
448 158 M
444.33 158 L
S
GR
GS
0.149 GC
2 setlinecap
1 LJ
0.5 LW
N
448 92 M
444.33 92 L
S
GR
GS
0.149 GC
2 setlinecap
1 LJ
0.5 LW
N
448 26 M
444.33 26 L
S
GR
GS
[1 0 0 1 74.6 290] CT
0.149 GC
/Times-Roman 22 F
GS
[1 0 0 1 0 0] CT
-22 7.5 moveto 
1 -1 scale
(20) t 
GR
GR
GS
[1 0 0 1 74.6 224] CT
0.149 GC
/Times-Roman 22 F
GS
[1 0 0 1 0 0] CT
-22 7.5 moveto 
1 -1 scale
(40) t 
GR
GR
GS
[1 0 0 1 74.6 158] CT
0.149 GC
/Times-Roman 22 F
GS
[1 0 0 1 0 0] CT
-22 7.5 moveto 
1 -1 scale
(60) t 
GR
GR
GS
[1 0 0 1 74.6 92] CT
0.149 GC
/Times-Roman 22 F
GS
[1 0 0 1 0 0] CT
-22 7.5 moveto 
1 -1 scale
(80) t 
GR
GR
GS
[1 0 0 1 74.6 26] CT
0.149 GC
/Times-Roman 22 F
GS
[1 0 0 1 0 0] CT
-33 7.5 moveto 
1 -1 scale
(100) t 
GR
GR
GS
[0 -1 1 0 38.6 157.99988] CT
0.149 GC
/Times-Roman 24.2 F
GS
[1 0 0 1 0 0] CT
-140 -6 moveto 
1 -1 scale
(Mean av. throughput \(Mbps\)) t 
GR
GR
GS
0 0 1 RC
[10 6] 0 setdash
2 LJ
0.5 LW
N
81 140.736 M
172.75 105.069 L
264.5 104.006 L
356.25 102.002 L
448 101.287 L
S
GR
GS
[1 0 0 1 81 140.7357] CT
0 0 1 RC
10.0 ML
N
-5 0 M
0 6.65 L
5 0 L
0 -6.65 L
cp
S
GR
GS
[1 0 0 1 172.75 105.0687] CT
0 0 1 RC
10.0 ML
N
-5 0 M
0 6.65 L
5 0 L
0 -6.65 L
cp
S
GR
GS
[1 0 0 1 264.5 104.00603] CT
0 0 1 RC
10.0 ML
N
-5 0 M
0 6.65 L
5 0 L
0 -6.65 L
cp
S
GR
GS
[1 0 0 1 356.25 102.00232] CT
0 0 1 RC
10.0 ML
N
-5 0 M
0 6.65 L
5 0 L
0 -6.65 L
cp
S
GR
GS
[1 0 0 1 448 101.28735] CT
0 0 1 RC
10.0 ML
N
-5 0 M
0 6.65 L
5 0 L
0 -6.65 L
cp
S
GR
GS
1 0 0 RC
[10 6] 0 setdash
2 LJ
0.5 LW
N
81 172.177 M
172.75 133.789 L
264.5 131.13 L
356.25 130.883 L
448 129.405 L
S
GR
GS
[1 0 0 1 81 172.17706] CT
1 0 0 RC
10.0 ML
N
-4.755 -1.545 M
-1.176 -1.545 L
0 -5 L
1.176 -1.545 L
4.755 -1.545 L
1.902 0.618 L
2.939 4.045 L
0 2 L
-2.939 4.045 L
-1.902 0.618 L
cp
S
GR
GS
[1 0 0 1 172.75 133.78937] CT
1 0 0 RC
10.0 ML
N
-4.755 -1.545 M
-1.176 -1.545 L
0 -5 L
1.176 -1.545 L
4.755 -1.545 L
1.902 0.618 L
2.939 4.045 L
0 2 L
-2.939 4.045 L
-1.902 0.618 L
cp
S
GR
GS
[1 0 0 1 264.5 131.13048] CT
1 0 0 RC
10.0 ML
N
-4.755 -1.545 M
-1.176 -1.545 L
0 -5 L
1.176 -1.545 L
4.755 -1.545 L
1.902 0.618 L
2.939 4.045 L
0 2 L
-2.939 4.045 L
-1.902 0.618 L
cp
S
GR
GS
[1 0 0 1 356.25 130.88258] CT
1 0 0 RC
10.0 ML
N
-4.755 -1.545 M
-1.176 -1.545 L
0 -5 L
1.176 -1.545 L
4.755 -1.545 L
1.902 0.618 L
2.939 4.045 L
0 2 L
-2.939 4.045 L
-1.902 0.618 L
cp
S
GR
GS
[1 0 0 1 448 129.40462] CT
1 0 0 RC
10.0 ML
N
-4.755 -1.545 M
-1.176 -1.545 L
0 -5 L
1.176 -1.545 L
4.755 -1.545 L
1.902 0.618 L
2.939 4.045 L
0 2 L
-2.939 4.045 L
-1.902 0.618 L
cp
S
GR
GS
1 0.843 0 RC
[10 6] 0 setdash
2 LJ
0.5 LW
N
81 204.856 M
172.75 169.331 L
264.5 165.259 L
356.25 163.988 L
448 163.094 L
S
GR
GS
[1 0 0 1 81 204.85623] CT
1 0.843 0 RC
10.0 ML
N
-4 -4 M
-4 4 L
4 4 L
4 -4 L
cp
S
GR
GS
[1 0 0 1 172.75 169.33069] CT
1 0.843 0 RC
10.0 ML
N
-4 -4 M
-4 4 L
4 4 L
4 -4 L
cp
S
GR
GS
[1 0 0 1 264.5 165.25934] CT
1 0.843 0 RC
10.0 ML
N
-4 -4 M
-4 4 L
4 4 L
4 -4 L
cp
S
GR
GS
[1 0 0 1 356.25 163.98824] CT
1 0.843 0 RC
10.0 ML
N
-4 -4 M
-4 4 L
4 4 L
4 -4 L
cp
S
GR
GS
[1 0 0 1 448 163.0936] CT
1 0.843 0 RC
10.0 ML
N
-4 -4 M
-4 4 L
4 4 L
4 -4 L
cp
S
GR
GS
0.494 0.184 0.557 RC
[10 6] 0 setdash
2 LJ
0.5 LW
N
81 222.775 M
172.75 189.222 L
264.5 186.551 L
356.25 184.894 L
448 184.663 L
S
GR
GS
[1 0 0 1 81 222.7751] CT
0.494 0.184 0.557 RC
10.0 ML
N
0 -5 M
0 5 L
-5 0 M
5 0 L
-3.536 -3.536 M
3.536 3.536 L
-3.536 3.536 M
3.536 -3.536 L
S
GR
GS
[1 0 0 1 172.75 189.22231] CT
0.494 0.184 0.557 RC
10.0 ML
N
0 -5 M
0 5 L
-5 0 M
5 0 L
-3.536 -3.536 M
3.536 3.536 L
-3.536 3.536 M
3.536 -3.536 L
S
GR
GS
[1 0 0 1 264.5 186.55093] CT
0.494 0.184 0.557 RC
10.0 ML
N
0 -5 M
0 5 L
-5 0 M
5 0 L
-3.536 -3.536 M
3.536 3.536 L
-3.536 3.536 M
3.536 -3.536 L
S
GR
GS
[1 0 0 1 356.25 184.89427] CT
0.494 0.184 0.557 RC
10.0 ML
N
0 -5 M
0 5 L
-5 0 M
5 0 L
-3.536 -3.536 M
3.536 3.536 L
-3.536 3.536 M
3.536 -3.536 L
S
GR
GS
[1 0 0 1 448 184.66293] CT
0.494 0.184 0.557 RC
10.0 ML
N
0 -5 M
0 5 L
-5 0 M
5 0 L
-3.536 -3.536 M
3.536 3.536 L
-3.536 3.536 M
3.536 -3.536 L
S
GR
GS
0 0 1 RC
1 LJ
0.5 LW
N
81 140.736 M
81 194.454 L
S
GR
GS
0 0 1 RC
1 LJ
0.5 LW
N
172.75 105.069 M
172.75 162.148 L
S
GR
GS
0 0 1 RC
1 LJ
0.5 LW
N
264.5 104.006 M
264.5 160.475 L
S
GR
GS
0 0 1 RC
1 LJ
0.5 LW
N
356.25 102.002 M
356.25 157.942 L
S
GR
GS
0 0 1 RC
1 LJ
0.5 LW
N
448 101.287 M
448 158.393 L
S
GR
GS
0 0 1 RC
1 LJ
0.5 LW
N
81 140.736 M
81 87.017 L
S
GR
GS
0 0 1 RC
1 LJ
0.5 LW
N
172.75 105.069 M
172.75 47.989 L
S
GR
GS
0 0 1 RC
1 LJ
0.5 LW
N
264.5 104.006 M
264.5 47.537 L
S
GR
GS
0 0 1 RC
1 LJ
0.5 LW
N
356.25 102.002 M
356.25 46.062 L
S
GR
GS
0 0 1 RC
1 LJ
0.5 LW
N
448 101.287 M
448 44.182 L
S
GR
GS
[1 0 0 1 81 140.7357] CT
0 0 1 RC
N
1 0 M
1 0.552 0.552 1 0 1 C
-0.552 1 -1 0.552 -1 0 C
-1 -0.552 -0.552 -1 0 -1 C
0.552 -1 1 -0.552 1 0 C
cp
f
GR
GS
[1 0 0 1 172.75 105.0687] CT
0 0 1 RC
N
/f-891180347{1 0 M
1 0.552 0.552 1 0 1 C
-0.552 1 -1 0.552 -1 0 C
-1 -0.552 -0.552 -1 0 -1 C
0.552 -1 1 -0.552 1 0 C
cp}def
f-891180347
f
GR
GS
[1 0 0 1 264.5 104.00603] CT
0 0 1 RC
N
f-891180347
f
GR
GS
[1 0 0 1 356.25 102.00232] CT
0 0 1 RC
N
f-891180347
f
GR
GS
[1 0 0 1 448 101.28735] CT
0 0 1 RC
N
f-891180347
f
GR
GS
[1 0 0 1 81 194.45395] CT
0 0 1 RC
N
-3 0 M
3 0 L
f
GR
GS
[1 0 0 1 81 194.45395] CT
0 0 1 RC
10.0 ML
N
-3 0 M
3 0 L
S
GR
GS
[1 0 0 1 172.75 162.14809] CT
0 0 1 RC
N
/f1394637256{-3 0 M
3 0 L}def
f1394637256
f
GR
GS
[1 0 0 1 172.75 162.14809] CT
0 0 1 RC
10.0 ML
N
-3 0 M
3 0 L
S
GR
GS
[1 0 0 1 264.5 160.47458] CT
0 0 1 RC
N
f1394637256
f
GR
GS
[1 0 0 1 264.5 160.47458] CT
0 0 1 RC
10.0 ML
N
-3 0 M
3 0 L
S
GR
GS
[1 0 0 1 356.25 157.9422] CT
0 0 1 RC
N
f1394637256
f
GR
GS
[1 0 0 1 356.25 157.9422] CT
0 0 1 RC
10.0 ML
N
-3 0 M
3 0 L
S
GR
GS
[1 0 0 1 448 158.39265] CT
0 0 1 RC
N
f1394637256
f
GR
GS
[1 0 0 1 448 158.39265] CT
0 0 1 RC
10.0 ML
N
-3 0 M
3 0 L
S
GR
GS
[1 0 0 1 81 87.01747] CT
0 0 1 RC
N
f1394637256
f
GR
GS
[1 0 0 1 81 87.01747] CT
0 0 1 RC
10.0 ML
N
-3 0 M
3 0 L
S
GR
GS
[1 0 0 1 172.75 47.98934] CT
0 0 1 RC
N
f1394637256
f
GR
GS
[1 0 0 1 172.75 47.98934] CT
0 0 1 RC
10.0 ML
N
-3 0 M
3 0 L
S
GR
GS
[1 0 0 1 264.5 47.53749] CT
0 0 1 RC
N
f1394637256
f
GR
GS
[1 0 0 1 264.5 47.53749] CT
0 0 1 RC
10.0 ML
N
-3 0 M
3 0 L
S
GR
GS
[1 0 0 1 356.25 46.06245] CT
0 0 1 RC
N
f1394637256
f
GR
GS
[1 0 0 1 356.25 46.06245] CT
0 0 1 RC
10.0 ML
N
-3 0 M
3 0 L
S
GR
GS
[1 0 0 1 448 44.18203] CT
0 0 1 RC
N
f1394637256
f
GR
GS
[1 0 0 1 448 44.18203] CT
0 0 1 RC
10.0 ML
N
-3 0 M
3 0 L
S
GR
GS
1 0 0 RC
1 LJ
0.5 LW
N
81 172.177 M
81 216.208 L
S
GR
GS
1 0 0 RC
1 LJ
0.5 LW
N
172.75 133.789 M
172.75 185.514 L
S
GR
GS
1 0 0 RC
1 LJ
0.5 LW
N
264.5 131.13 M
264.5 184.333 L
S
GR
GS
1 0 0 RC
1 LJ
0.5 LW
N
356.25 130.883 M
356.25 182.555 L
S
GR
GS
1 0 0 RC
1 LJ
0.5 LW
N
448 129.405 M
448 180.536 L
S
GR
GS
1 0 0 RC
1 LJ
0.5 LW
N
81 172.177 M
81 128.146 L
S
GR
GS
1 0 0 RC
1 LJ
0.5 LW
N
172.75 133.789 M
172.75 82.064 L
S
GR
GS
1 0 0 RC
1 LJ
0.5 LW
N
264.5 131.13 M
264.5 77.928 L
S
GR
GS
1 0 0 RC
1 LJ
0.5 LW
N
356.25 130.883 M
356.25 79.21 L
S
GR
GS
1 0 0 RC
1 LJ
0.5 LW
N
448 129.405 M
448 78.273 L
S
GR
GS
[1 0 0 1 81 172.17706] CT
1 0 0 RC
N
f-891180347
f
GR
GS
[1 0 0 1 172.75 133.78937] CT
1 0 0 RC
N
f-891180347
f
GR
GS
[1 0 0 1 264.5 131.13048] CT
1 0 0 RC
N
f-891180347
f
GR
GS
[1 0 0 1 356.25 130.88258] CT
1 0 0 RC
N
f-891180347
f
GR
GS
[1 0 0 1 448 129.40462] CT
1 0 0 RC
N
f-891180347
f
GR
GS
[1 0 0 1 81 216.20778] CT
1 0 0 RC
N
f1394637256
f
GR
GS
[1 0 0 1 81 216.20778] CT
1 0 0 RC
10.0 ML
N
-3 0 M
3 0 L
S
GR
GS
[1 0 0 1 172.75 185.51428] CT
1 0 0 RC
N
f1394637256
f
GR
GS
[1 0 0 1 172.75 185.51428] CT
1 0 0 RC
10.0 ML
N
-3 0 M
3 0 L
S
GR
GS
[1 0 0 1 264.5 184.33331] CT
1 0 0 RC
N
f1394637256
f
GR
GS
[1 0 0 1 264.5 184.33331] CT
1 0 0 RC
10.0 ML
N
-3 0 M
3 0 L
S
GR
GS
[1 0 0 1 356.25 182.55495] CT
1 0 0 RC
N
f1394637256
f
GR
GS
[1 0 0 1 356.25 182.55495] CT
1 0 0 RC
10.0 ML
N
-3 0 M
3 0 L
S
GR
GS
[1 0 0 1 448 180.53583] CT
1 0 0 RC
N
f1394637256
f
GR
GS
[1 0 0 1 448 180.53583] CT
1 0 0 RC
10.0 ML
N
-3 0 M
3 0 L
S
GR
GS
[1 0 0 1 81 128.14636] CT
1 0 0 RC
N
f1394637256
f
GR
GS
[1 0 0 1 81 128.14636] CT
1 0 0 RC
10.0 ML
N
-3 0 M
3 0 L
S
GR
GS
[1 0 0 1 172.75 82.06448] CT
1 0 0 RC
N
f1394637256
f
GR
GS
[1 0 0 1 172.75 82.06448] CT
1 0 0 RC
10.0 ML
N
-3 0 M
3 0 L
S
GR
GS
[1 0 0 1 264.5 77.92764] CT
1 0 0 RC
N
f1394637256
f
GR
GS
[1 0 0 1 264.5 77.92764] CT
1 0 0 RC
10.0 ML
N
-3 0 M
3 0 L
S
GR
GS
[1 0 0 1 356.25 79.21024] CT
1 0 0 RC
N
f1394637256
f
GR
GS
[1 0 0 1 356.25 79.21024] CT
1 0 0 RC
10.0 ML
N
-3 0 M
3 0 L
S
GR
GS
[1 0 0 1 448 78.2734] CT
1 0 0 RC
N
f1394637256
f
GR
GS
[1 0 0 1 448 78.2734] CT
1 0 0 RC
10.0 ML
N
-3 0 M
3 0 L
S
GR
GS
1 0.843 0 RC
1 LJ
0.5 LW
N
81 204.856 M
81 240.772 L
S
GR
GS
1 0.843 0 RC
1 LJ
0.5 LW
N
172.75 169.331 M
172.75 213.17 L
S
GR
GS
1 0.843 0 RC
1 LJ
0.5 LW
N
264.5 165.259 M
264.5 210.844 L
S
GR
GS
1 0.843 0 RC
1 LJ
0.5 LW
N
356.25 163.988 M
356.25 209.047 L
S
GR
GS
1 0.843 0 RC
1 LJ
0.5 LW
N
448 163.094 M
448 208.14 L
S
GR
GS
1 0.843 0 RC
1 LJ
0.5 LW
N
81 204.856 M
81 168.941 L
S
GR
GS
1 0.843 0 RC
1 LJ
0.5 LW
N
172.75 169.331 M
172.75 125.492 L
S
GR
GS
1 0.843 0 RC
1 LJ
0.5 LW
N
264.5 165.259 M
264.5 119.675 L
S
GR
GS
1 0.843 0 RC
1 LJ
0.5 LW
N
356.25 163.988 M
356.25 118.929 L
S
GR
GS
1 0.843 0 RC
1 LJ
0.5 LW
N
448 163.094 M
448 118.047 L
S
GR
GS
[1 0 0 1 81 204.85623] CT
1 0.843 0 RC
N
f-891180347
f
GR
GS
[1 0 0 1 172.75 169.33069] CT
1 0.843 0 RC
N
f-891180347
f
GR
GS
[1 0 0 1 264.5 165.25934] CT
1 0.843 0 RC
N
f-891180347
f
GR
GS
[1 0 0 1 356.25 163.98824] CT
1 0.843 0 RC
N
f-891180347
f
GR
GS
[1 0 0 1 448 163.0936] CT
1 0.843 0 RC
N
f-891180347
f
GR
GS
[1 0 0 1 81 240.77151] CT
1 0.843 0 RC
N
f1394637256
f
GR
GS
[1 0 0 1 81 240.77151] CT
1 0.843 0 RC
10.0 ML
N
-3 0 M
3 0 L
S
GR
GS
[1 0 0 1 172.75 213.16962] CT
1 0.843 0 RC
N
f1394637256
f
GR
GS
[1 0 0 1 172.75 213.16962] CT
1 0.843 0 RC
10.0 ML
N
-3 0 M
3 0 L
S
GR
GS
[1 0 0 1 264.5 210.84351] CT
1 0.843 0 RC
N
f1394637256
f
GR
GS
[1 0 0 1 264.5 210.84351] CT
1 0.843 0 RC
10.0 ML
N
-3 0 M
3 0 L
S
GR
GS
[1 0 0 1 356.25 209.04741] CT
1 0.843 0 RC
N
f1394637256
f
GR
GS
[1 0 0 1 356.25 209.04741] CT
1 0.843 0 RC
10.0 ML
N
-3 0 M
3 0 L
S
GR
GS
[1 0 0 1 448 208.13989] CT
1 0.843 0 RC
N
f1394637256
f
GR
GS
[1 0 0 1 448 208.13989] CT
1 0.843 0 RC
10.0 ML
N
-3 0 M
3 0 L
S
GR
GS
[1 0 0 1 81 168.94098] CT
1 0.843 0 RC
N
f1394637256
f
GR
GS
[1 0 0 1 81 168.94098] CT
1 0.843 0 RC
10.0 ML
N
-3 0 M
3 0 L
S
GR
GS
[1 0 0 1 172.75 125.49176] CT
1 0.843 0 RC
N
f1394637256
f
GR
GS
[1 0 0 1 172.75 125.49176] CT
1 0.843 0 RC
10.0 ML
N
-3 0 M
3 0 L
S
GR
GS
[1 0 0 1 264.5 119.67516] CT
1 0.843 0 RC
N
f1394637256
f
GR
GS
[1 0 0 1 264.5 119.67516] CT
1 0.843 0 RC
10.0 ML
N
-3 0 M
3 0 L
S
GR
GS
[1 0 0 1 356.25 118.92905] CT
1 0.843 0 RC
N
f1394637256
f
GR
GS
[1 0 0 1 356.25 118.92905] CT
1 0.843 0 RC
10.0 ML
N
-3 0 M
3 0 L
S
GR
GS
[1 0 0 1 448 118.04729] CT
1 0.843 0 RC
N
f1394637256
f
GR
GS
[1 0 0 1 448 118.04729] CT
1 0.843 0 RC
10.0 ML
N
-3 0 M
3 0 L
S
GR
GS
0.494 0.184 0.557 RC
1 LJ
0.5 LW
N
81 222.775 M
81 254.394 L
S
GR
GS
0.494 0.184 0.557 RC
1 LJ
0.5 LW
N
172.75 189.222 M
172.75 229.743 L
S
GR
GS
0.494 0.184 0.557 RC
1 LJ
0.5 LW
N
264.5 186.551 M
264.5 228.016 L
S
GR
GS
0.494 0.184 0.557 RC
1 LJ
0.5 LW
N
356.25 184.894 M
356.25 227.127 L
S
GR
GS
0.494 0.184 0.557 RC
1 LJ
0.5 LW
N
448 184.663 M
448 226.083 L
S
GR
GS
0.494 0.184 0.557 RC
1 LJ
0.5 LW
N
81 222.775 M
81 191.157 L
S
GR
GS
0.494 0.184 0.557 RC
1 LJ
0.5 LW
N
172.75 189.222 M
172.75 148.701 L
S
GR
GS
0.494 0.184 0.557 RC
1 LJ
0.5 LW
N
264.5 186.551 M
264.5 145.086 L
S
GR
GS
0.494 0.184 0.557 RC
1 LJ
0.5 LW
N
356.25 184.894 M
356.25 142.662 L
S
GR
GS
0.494 0.184 0.557 RC
1 LJ
0.5 LW
N
448 184.663 M
448 143.243 L
S
GR
GS
[1 0 0 1 81 222.7751] CT
0.494 0.184 0.557 RC
N
f-891180347
f
GR
GS
[1 0 0 1 172.75 189.22231] CT
0.494 0.184 0.557 RC
N
f-891180347
f
GR
GS
[1 0 0 1 264.5 186.55093] CT
0.494 0.184 0.557 RC
N
f-891180347
f
GR
GS
[1 0 0 1 356.25 184.89427] CT
0.494 0.184 0.557 RC
N
f-891180347
f
GR
GS
[1 0 0 1 448 184.66293] CT
0.494 0.184 0.557 RC
N
f-891180347
f
GR
GS
[1 0 0 1 81 254.39366] CT
0.494 0.184 0.557 RC
N
f1394637256
f
GR
GS
[1 0 0 1 81 254.39366] CT
0.494 0.184 0.557 RC
10.0 ML
N
-3 0 M
3 0 L
S
GR
GS
[1 0 0 1 172.75 229.74318] CT
0.494 0.184 0.557 RC
N
f1394637256
f
GR
GS
[1 0 0 1 172.75 229.74318] CT
0.494 0.184 0.557 RC
10.0 ML
N
-3 0 M
3 0 L
S
GR
GS
[1 0 0 1 264.5 228.01555] CT
0.494 0.184 0.557 RC
N
f1394637256
f
GR
GS
[1 0 0 1 264.5 228.01555] CT
0.494 0.184 0.557 RC
10.0 ML
N
-3 0 M
3 0 L
S
GR
GS
[1 0 0 1 356.25 227.12672] CT
0.494 0.184 0.557 RC
N
f1394637256
f
GR
GS
[1 0 0 1 356.25 227.12672] CT
0.494 0.184 0.557 RC
10.0 ML
N
-3 0 M
3 0 L
S
GR
GS
[1 0 0 1 448 226.08261] CT
0.494 0.184 0.557 RC
N
f1394637256
f
GR
GS
[1 0 0 1 448 226.08261] CT
0.494 0.184 0.557 RC
10.0 ML
N
-3 0 M
3 0 L
S
GR
GS
[1 0 0 1 81 191.15657] CT
0.494 0.184 0.557 RC
N
f1394637256
f
GR
GS
[1 0 0 1 81 191.15657] CT
0.494 0.184 0.557 RC
10.0 ML
N
-3 0 M
3 0 L
S
GR
GS
[1 0 0 1 172.75 148.70143] CT
0.494 0.184 0.557 RC
N
f1394637256
f
GR
GS
[1 0 0 1 172.75 148.70143] CT
0.494 0.184 0.557 RC
10.0 ML
N
-3 0 M
3 0 L
S
GR
GS
[1 0 0 1 264.5 145.08632] CT
0.494 0.184 0.557 RC
N
f1394637256
f
GR
GS
[1 0 0 1 264.5 145.08632] CT
0.494 0.184 0.557 RC
10.0 ML
N
-3 0 M
3 0 L
S
GR
GS
[1 0 0 1 356.25 142.66182] CT
0.494 0.184 0.557 RC
N
f1394637256
f
GR
GS
[1 0 0 1 356.25 142.66182] CT
0.494 0.184 0.557 RC
10.0 ML
N
-3 0 M
3 0 L
S
GR
GS
[1 0 0 1 448 143.24329] CT
0.494 0.184 0.557 RC
N
f1394637256
f
GR
GS
[1 0 0 1 448 143.24329] CT
0.494 0.184 0.557 RC
10.0 ML
N
-3 0 M
3 0 L
S
GR
GS
1 GC
N
/f-1033026142{599 207 M
599 110 L
476 110 L
476 207 L
cp}def
f-1033026142
f
GR
GS
[1 0 0 1 513 123.43077] CT
/Times-Roman 19.8 F
GS
[1 0 0 1 0 0] CT
0 6.5 moveto 
1 -1 scale
(2 WLANs) t 
GR
GR
GS
0 0 1 RC
[10 6] 0 setdash
2 LJ
0.5 LW
N
480 123.431 M
510 123.431 L
S
GR
GS
[1 0 0 1 495 123.43077] CT
0 0 1 RC
10.0 ML
N
-5 0 M
0 6.65 L
5 0 L
0 -6.65 L
cp
S
GR
GS
[1 0 0 1 513 146.81026] CT
/Times-Roman 19.8 F
GS
[1 0 0 1 0 0] CT
0 6.5 moveto 
1 -1 scale
(4 WLANs) t 
GR
GR
GS
1 0 0 RC
[10 6] 0 setdash
2 LJ
0.5 LW
N
480 146.81 M
510 146.81 L
S
GR
GS
[1 0 0 1 495 146.81026] CT
1 0 0 RC
10.0 ML
N
-4.755 -1.545 M
-1.176 -1.545 L
0 -5 L
1.176 -1.545 L
4.755 -1.545 L
1.902 0.618 L
2.939 4.045 L
0 2 L
-2.939 4.045 L
-1.902 0.618 L
cp
S
GR
GS
[1 0 0 1 513 170.18974] CT
/Times-Roman 19.8 F
GS
[1 0 0 1 0 0] CT
0 6.5 moveto 
1 -1 scale
(6 WLANs) t 
GR
GR
GS
1 0.843 0 RC
[10 6] 0 setdash
2 LJ
0.5 LW
N
480 170.19 M
510 170.19 L
S
GR
GS
[1 0 0 1 495 170.18974] CT
1 0.843 0 RC
10.0 ML
N
-4 -4 M
-4 4 L
4 4 L
4 -4 L
cp
S
GR
GS
[1 0 0 1 513 193.56923] CT
/Times-Roman 19.8 F
GS
[1 0 0 1 0 0] CT
0 6.5 moveto 
1 -1 scale
(8 WLANs) t 
GR
GR
GS
0.494 0.184 0.557 RC
[10 6] 0 setdash
2 LJ
0.5 LW
N
480 193.569 M
510 193.569 L
S
GR
GS
[1 0 0 1 495 193.56923] CT
0.494 0.184 0.557 RC
10.0 ML
N
0 -5 M
0 5 L
-5 0 M
5 0 L
-3.536 -3.536 M
3.536 3.536 L
-3.536 3.536 M
3.536 -3.536 L
S
GR
GS
0.149 GC
10.0 ML
0.5 LW
N
476 207 M
476 110 L
599 110 L
599 207 L
cp
S
GR
%%Trailer
%%Pages: 1
%%EOF
