%!PS-Adobe-3.0 EPSF-3.0
%%Creator: (MATLAB, The Mathworks, Inc. Version 9.3.0.713579 \(R2017b\). Operating System: Mac OS X)
%%Title: (/Users/franciscowilhelmi/workspace/papers/selfish_vs_informed_spatial_reuse/Results/Part 3 - Scalability/mean_avg_tpt_evolution_scalability_informed.eps)
%%CreationDate: 2018-05-18T11:56:03
%%Pages: (atend)
%%BoundingBox: 0 0 624 350
%%LanguageLevel: 3
%%EndComments
%%BeginProlog
%%BeginResource: procset (Apache XML Graphics Std ProcSet) 1.2 0
%%Version: 1.2 0
%%Copyright: (Copyright 2001-2003,2010 The Apache Software Foundation. License terms: http://www.apache.org/licenses/LICENSE-2.0)
/bd{bind def}bind def
/ld{load def}bd
/GR/grestore ld
/GS/gsave ld
/RM/rmoveto ld
/C/curveto ld
/t/show ld
/L/lineto ld
/ML/setmiterlimit ld
/CT/concat ld
/f/fill ld
/N/newpath ld
/S/stroke ld
/CC/setcmykcolor ld
/A/ashow ld
/cp/closepath ld
/RC/setrgbcolor ld
/LJ/setlinejoin ld
/GC/setgray ld
/LW/setlinewidth ld
/M/moveto ld
/re {4 2 roll M
1 index 0 rlineto
0 exch rlineto
neg 0 rlineto
cp } bd
/_ctm matrix def
/_tm matrix def
/BT { _ctm currentmatrix pop matrix _tm copy pop 0 0 moveto } bd
/ET { _ctm setmatrix } bd
/iTm { _ctm setmatrix _tm concat } bd
/Tm { _tm astore pop iTm 0 0 moveto } bd
/ux 0.0 def
/uy 0.0 def
/F {
  /Tp exch def
  /Tf exch def
  Tf findfont Tp scalefont setfont
  /cf Tf def  /cs Tp def
} bd
/ULS {currentpoint /uy exch def /ux exch def} bd
/ULE {
  /Tcx currentpoint pop def
  gsave
  newpath
  cf findfont cs scalefont dup
  /FontMatrix get 0 get /Ts exch def /FontInfo get dup
  /UnderlinePosition get Ts mul /To exch def
  /UnderlineThickness get Ts mul /Tt exch def
  ux uy To add moveto  Tcx uy To add lineto
  Tt setlinewidth stroke
  grestore
} bd
/OLE {
  /Tcx currentpoint pop def
  gsave
  newpath
  cf findfont cs scalefont dup
  /FontMatrix get 0 get /Ts exch def /FontInfo get dup
  /UnderlinePosition get Ts mul /To exch def
  /UnderlineThickness get Ts mul /Tt exch def
  ux uy To add cs add moveto Tcx uy To add cs add lineto
  Tt setlinewidth stroke
  grestore
} bd
/SOE {
  /Tcx currentpoint pop def
  gsave
  newpath
  cf findfont cs scalefont dup
  /FontMatrix get 0 get /Ts exch def /FontInfo get dup
  /UnderlinePosition get Ts mul /To exch def
  /UnderlineThickness get Ts mul /Tt exch def
  ux uy To add cs 10 mul 26 idiv add moveto Tcx uy To add cs 10 mul 26 idiv add lineto
  Tt setlinewidth stroke
  grestore
} bd
/QT {
/Y22 exch store
/X22 exch store
/Y21 exch store
/X21 exch store
currentpoint
/Y21 load 2 mul add 3 div exch
/X21 load 2 mul add 3 div exch
/X21 load 2 mul /X22 load add 3 div
/Y21 load 2 mul /Y22 load add 3 div
/X22 load /Y22 load curveto
} bd
/SSPD {
dup length /d exch dict def
{
/v exch def
/k exch def
currentpagedevice k known {
/cpdv currentpagedevice k get def
v cpdv ne {
/upd false def
/nullv v type /nulltype eq def
/nullcpdv cpdv type /nulltype eq def
nullv nullcpdv or
{
/upd true def
} {
/sametype v type cpdv type eq def
sametype {
v type /arraytype eq {
/vlen v length def
/cpdvlen cpdv length def
vlen cpdvlen eq {
0 1 vlen 1 sub {
/i exch def
/obj v i get def
/cpdobj cpdv i get def
obj cpdobj ne {
/upd true def
exit
} if
} for
} {
/upd true def
} ifelse
} {
v type /dicttype eq {
v {
/dv exch def
/dk exch def
/cpddv cpdv dk get def
dv cpddv ne {
/upd true def
exit
} if
} forall
} {
/upd true def
} ifelse
} ifelse
} if
} ifelse
upd true eq {
d k v put
} if
} if
} if
} forall
d length 0 gt {
d setpagedevice
} if
} bd
/RE { % /NewFontName [NewEncodingArray] /FontName RE -
  findfont dup length dict begin
  {
    1 index /FID ne
    {def} {pop pop} ifelse
  } forall
  /Encoding exch def
  /FontName 1 index def
  currentdict definefont pop
  end
} bind def
%%EndResource
%%BeginResource: procset (Apache XML Graphics EPS ProcSet) 1.0 0
%%Version: 1.0 0
%%Copyright: (Copyright 2002-2003 The Apache Software Foundation. License terms: http://www.apache.org/licenses/LICENSE-2.0)
/BeginEPSF { %def
/b4_Inc_state save def         % Save state for cleanup
/dict_count countdictstack def % Count objects on dict stack
/op_count count 1 sub def      % Count objects on operand stack
userdict begin                 % Push userdict on dict stack
/showpage { } def              % Redefine showpage, { } = null proc
0 setgray 0 setlinecap         % Prepare graphics state
1 setlinewidth 0 setlinejoin
10 setmiterlimit [ ] 0 setdash newpath
/languagelevel where           % If level not equal to 1 then
{pop languagelevel             % set strokeadjust and
1 ne                           % overprint to their defaults.
{false setstrokeadjust false setoverprint
} if
} if
} bd
/EndEPSF { %def
count op_count sub {pop} repeat            % Clean up stacks
countdictstack dict_count sub {end} repeat
b4_Inc_state restore
} bd
%%EndResource
%FOPBeginFontDict
%%IncludeResource: font Courier-Oblique
%%IncludeResource: font Courier-BoldOblique
%%IncludeResource: font Courier-Bold
%%IncludeResource: font ZapfDingbats
%%IncludeResource: font Symbol
%%IncludeResource: font Helvetica
%%IncludeResource: font Helvetica-Oblique
%%IncludeResource: font Helvetica-Bold
%%IncludeResource: font Helvetica-BoldOblique
%%IncludeResource: font Times-Roman
%%IncludeResource: font Times-Italic
%%IncludeResource: font Times-Bold
%%IncludeResource: font Times-BoldItalic
%%IncludeResource: font Courier
%FOPEndFontDict
%%BeginResource: encoding WinAnsiEncoding
/WinAnsiEncoding [
/.notdef /.notdef /.notdef /.notdef /.notdef
/.notdef /.notdef /.notdef /.notdef /.notdef
/.notdef /.notdef /.notdef /.notdef /.notdef
/.notdef /.notdef /.notdef /.notdef /.notdef
/.notdef /.notdef /.notdef /.notdef /.notdef
/.notdef /.notdef /.notdef /.notdef /.notdef
/.notdef /.notdef /space /exclam /quotedbl
/numbersign /dollar /percent /ampersand /quotesingle
/parenleft /parenright /asterisk /plus /comma
/hyphen /period /slash /zero /one
/two /three /four /five /six
/seven /eight /nine /colon /semicolon
/less /equal /greater /question /at
/A /B /C /D /E
/F /G /H /I /J
/K /L /M /N /O
/P /Q /R /S /T
/U /V /W /X /Y
/Z /bracketleft /backslash /bracketright /asciicircum
/underscore /quoteleft /a /b /c
/d /e /f /g /h
/i /j /k /l /m
/n /o /p /q /r
/s /t /u /v /w
/x /y /z /braceleft /bar
/braceright /asciitilde /bullet /Euro /bullet
/quotesinglbase /florin /quotedblbase /ellipsis /dagger
/daggerdbl /circumflex /perthousand /Scaron /guilsinglleft
/OE /bullet /Zcaron /bullet /bullet
/quoteleft /quoteright /quotedblleft /quotedblright /bullet
/endash /emdash /asciitilde /trademark /scaron
/guilsinglright /oe /bullet /zcaron /Ydieresis
/space /exclamdown /cent /sterling /currency
/yen /brokenbar /section /dieresis /copyright
/ordfeminine /guillemotleft /logicalnot /sfthyphen /registered
/macron /degree /plusminus /twosuperior /threesuperior
/acute /mu /paragraph /middot /cedilla
/onesuperior /ordmasculine /guillemotright /onequarter /onehalf
/threequarters /questiondown /Agrave /Aacute /Acircumflex
/Atilde /Adieresis /Aring /AE /Ccedilla
/Egrave /Eacute /Ecircumflex /Edieresis /Igrave
/Iacute /Icircumflex /Idieresis /Eth /Ntilde
/Ograve /Oacute /Ocircumflex /Otilde /Odieresis
/multiply /Oslash /Ugrave /Uacute /Ucircumflex
/Udieresis /Yacute /Thorn /germandbls /agrave
/aacute /acircumflex /atilde /adieresis /aring
/ae /ccedilla /egrave /eacute /ecircumflex
/edieresis /igrave /iacute /icircumflex /idieresis
/eth /ntilde /ograve /oacute /ocircumflex
/otilde /odieresis /divide /oslash /ugrave
/uacute /ucircumflex /udieresis /yacute /thorn
/ydieresis
] def
%%EndResource
%FOPBeginFontReencode
/Courier-Oblique findfont
dup length dict begin
  {1 index /FID ne {def} {pop pop} ifelse} forall
  /Encoding WinAnsiEncoding def
  currentdict
end
/Courier-Oblique exch definefont pop
/Courier-BoldOblique findfont
dup length dict begin
  {1 index /FID ne {def} {pop pop} ifelse} forall
  /Encoding WinAnsiEncoding def
  currentdict
end
/Courier-BoldOblique exch definefont pop
/Courier-Bold findfont
dup length dict begin
  {1 index /FID ne {def} {pop pop} ifelse} forall
  /Encoding WinAnsiEncoding def
  currentdict
end
/Courier-Bold exch definefont pop
/Helvetica findfont
dup length dict begin
  {1 index /FID ne {def} {pop pop} ifelse} forall
  /Encoding WinAnsiEncoding def
  currentdict
end
/Helvetica exch definefont pop
/Helvetica-Oblique findfont
dup length dict begin
  {1 index /FID ne {def} {pop pop} ifelse} forall
  /Encoding WinAnsiEncoding def
  currentdict
end
/Helvetica-Oblique exch definefont pop
/Helvetica-Bold findfont
dup length dict begin
  {1 index /FID ne {def} {pop pop} ifelse} forall
  /Encoding WinAnsiEncoding def
  currentdict
end
/Helvetica-Bold exch definefont pop
/Helvetica-BoldOblique findfont
dup length dict begin
  {1 index /FID ne {def} {pop pop} ifelse} forall
  /Encoding WinAnsiEncoding def
  currentdict
end
/Helvetica-BoldOblique exch definefont pop
/Times-Roman findfont
dup length dict begin
  {1 index /FID ne {def} {pop pop} ifelse} forall
  /Encoding WinAnsiEncoding def
  currentdict
end
/Times-Roman exch definefont pop
/Times-Italic findfont
dup length dict begin
  {1 index /FID ne {def} {pop pop} ifelse} forall
  /Encoding WinAnsiEncoding def
  currentdict
end
/Times-Italic exch definefont pop
/Times-Bold findfont
dup length dict begin
  {1 index /FID ne {def} {pop pop} ifelse} forall
  /Encoding WinAnsiEncoding def
  currentdict
end
/Times-Bold exch definefont pop
/Times-BoldItalic findfont
dup length dict begin
  {1 index /FID ne {def} {pop pop} ifelse} forall
  /Encoding WinAnsiEncoding def
  currentdict
end
/Times-BoldItalic exch definefont pop
/Courier findfont
dup length dict begin
  {1 index /FID ne {def} {pop pop} ifelse} forall
  /Encoding WinAnsiEncoding def
  currentdict
end
/Courier exch definefont pop
%FOPEndFontReencode
%%EndProlog
%%Page: 1 1
%%PageBoundingBox: 0 0 624 350
%%BeginPageSetup
[1 0 0 -1 0 350] CT
%%EndPageSetup
GS
1 GC
N
0 0 624 350 re
f
GR
GS
1 GC
N
0 0 624 350 re
f
GR
GS
1 GC
N
81 290 M
447 290 L
447 26 L
81 26 L
cp
f
GR
GS
0.873 GC
1 LJ
0.5 LW
N
81 290 M
81 26 L
S
GR
GS
0.873 GC
1 LJ
0.5 LW
N
172.5 290 M
172.5 26 L
S
GR
GS
0.873 GC
1 LJ
0.5 LW
N
264 290 M
264 26 L
S
GR
GS
0.873 GC
1 LJ
0.5 LW
N
355.5 290 M
355.5 26 L
S
GR
GS
0.873 GC
1 LJ
0.5 LW
N
447 290 M
447 26 L
S
GR
GS
0.873 GC
1 LJ
0.5 LW
N
447 290 M
81 290 L
S
GR
GS
0.873 GC
1 LJ
0.5 LW
N
447 237.2 M
81 237.2 L
S
GR
GS
0.873 GC
1 LJ
0.5 LW
N
447 184.4 M
81 184.4 L
S
GR
GS
0.873 GC
1 LJ
0.5 LW
N
447 131.6 M
81 131.6 L
S
GR
GS
0.873 GC
1 LJ
0.5 LW
N
447 78.8 M
81 78.8 L
S
GR
GS
0.873 GC
1 LJ
0.5 LW
N
447 26 M
81 26 L
S
GR
GS
0.149 GC
2 setlinecap
1 LJ
0.5 LW
N
81 290 M
447 290 L
S
GR
GS
0.149 GC
2 setlinecap
1 LJ
0.5 LW
N
81 26 M
447 26 L
S
GR
GS
0.149 GC
2 setlinecap
1 LJ
0.5 LW
N
81 290 M
81 286.34 L
S
GR
GS
0.149 GC
2 setlinecap
1 LJ
0.5 LW
N
172.5 290 M
172.5 286.34 L
S
GR
GS
0.149 GC
2 setlinecap
1 LJ
0.5 LW
N
264 290 M
264 286.34 L
S
GR
GS
0.149 GC
2 setlinecap
1 LJ
0.5 LW
N
355.5 290 M
355.5 286.34 L
S
GR
GS
0.149 GC
2 setlinecap
1 LJ
0.5 LW
N
447 290 M
447 286.34 L
S
GR
GS
0.149 GC
2 setlinecap
1 LJ
0.5 LW
N
81 26 M
81 29.66 L
S
GR
GS
0.149 GC
2 setlinecap
1 LJ
0.5 LW
N
172.5 26 M
172.5 29.66 L
S
GR
GS
0.149 GC
2 setlinecap
1 LJ
0.5 LW
N
264 26 M
264 29.66 L
S
GR
GS
0.149 GC
2 setlinecap
1 LJ
0.5 LW
N
355.5 26 M
355.5 29.66 L
S
GR
GS
0.149 GC
2 setlinecap
1 LJ
0.5 LW
N
447 26 M
447 29.66 L
S
GR
GS
[1 0 0 1 81 296.39999] CT
0.149 GC
/Times-Roman 22 F
GS
[1 0 0 1 0 0] CT
-26 20 moveto 
1 -1 scale
(1-100) t 
GR
GR
GS
[1 0 0 1 172.5 296.39999] CT
0.149 GC
/Times-Roman 22 F
GS
[1 0 0 1 0 0] CT
-37 20 moveto 
1 -1 scale
(101-200) t 
GR
GR
GS
[1 0 0 1 264 296.39999] CT
0.149 GC
/Times-Roman 22 F
GS
[1 0 0 1 0 0] CT
-37 20 moveto 
1 -1 scale
(201-300) t 
GR
GR
GS
[1 0 0 1 355.5 296.39999] CT
0.149 GC
/Times-Roman 22 F
GS
[1 0 0 1 0 0] CT
-37 20 moveto 
1 -1 scale
(301-400) t 
GR
GR
GS
[1 0 0 1 447 296.39999] CT
0.149 GC
/Times-Roman 22 F
GS
[1 0 0 1 0 0] CT
-37 20 moveto 
1 -1 scale
(401-500) t 
GR
GR
GS
[1 0 0 1 264.00018 322.39999] CT
0.149 GC
/Times-Roman 24.2 F
GS
[1 0 0 1 0 0] CT
-84 22 moveto 
1 -1 scale
(Learning interval) t 
GR
GR
GS
0.149 GC
2 setlinecap
1 LJ
0.5 LW
N
81 290 M
81 26 L
S
GR
GS
0.149 GC
2 setlinecap
1 LJ
0.5 LW
N
447 290 M
447 26 L
S
GR
GS
0.149 GC
2 setlinecap
1 LJ
0.5 LW
N
81 290 M
84.66 290 L
S
GR
GS
0.149 GC
2 setlinecap
1 LJ
0.5 LW
N
81 237.2 M
84.66 237.2 L
S
GR
GS
0.149 GC
2 setlinecap
1 LJ
0.5 LW
N
81 184.4 M
84.66 184.4 L
S
GR
GS
0.149 GC
2 setlinecap
1 LJ
0.5 LW
N
81 131.6 M
84.66 131.6 L
S
GR
GS
0.149 GC
2 setlinecap
1 LJ
0.5 LW
N
81 78.8 M
84.66 78.8 L
S
GR
GS
0.149 GC
2 setlinecap
1 LJ
0.5 LW
N
81 26 M
84.66 26 L
S
GR
GS
0.149 GC
2 setlinecap
1 LJ
0.5 LW
N
447 290 M
443.34 290 L
S
GR
GS
0.149 GC
2 setlinecap
1 LJ
0.5 LW
N
447 237.2 M
443.34 237.2 L
S
GR
GS
0.149 GC
2 setlinecap
1 LJ
0.5 LW
N
447 184.4 M
443.34 184.4 L
S
GR
GS
0.149 GC
2 setlinecap
1 LJ
0.5 LW
N
447 131.6 M
443.34 131.6 L
S
GR
GS
0.149 GC
2 setlinecap
1 LJ
0.5 LW
N
447 78.8 M
443.34 78.8 L
S
GR
GS
0.149 GC
2 setlinecap
1 LJ
0.5 LW
N
447 26 M
443.34 26 L
S
GR
GS
[1 0 0 1 74.6 290] CT
0.149 GC
/Times-Roman 22 F
GS
[1 0 0 1 0 0] CT
-11 7.5 moveto 
1 -1 scale
(0) t 
GR
GR
GS
[1 0 0 1 74.6 237.2] CT
0.149 GC
/Times-Roman 22 F
GS
[1 0 0 1 0 0] CT
-22 7.5 moveto 
1 -1 scale
(20) t 
GR
GR
GS
[1 0 0 1 74.6 184.39999] CT
0.149 GC
/Times-Roman 22 F
GS
[1 0 0 1 0 0] CT
-22 7.5 moveto 
1 -1 scale
(40) t 
GR
GR
GS
[1 0 0 1 74.6 131.60001] CT
0.149 GC
/Times-Roman 22 F
GS
[1 0 0 1 0 0] CT
-22 7.5 moveto 
1 -1 scale
(60) t 
GR
GR
GS
[1 0 0 1 74.6 78.8] CT
0.149 GC
/Times-Roman 22 F
GS
[1 0 0 1 0 0] CT
-22 7.5 moveto 
1 -1 scale
(80) t 
GR
GR
GS
[1 0 0 1 74.6 26] CT
0.149 GC
/Times-Roman 22 F
GS
[1 0 0 1 0 0] CT
-33 7.5 moveto 
1 -1 scale
(100) t 
GR
GR
GS
[0 -1 1 0 38.6 157.99988] CT
0.149 GC
/Times-Roman 24.2 F
GS
[1 0 0 1 0 0] CT
-140 -6 moveto 
1 -1 scale
(Mean av. throughput \(Mbps\)) t 
GR
GR
GS
0 0 1 RC
[10 6] 0 setdash
2 LJ
N
81 105.667 M
172.5 82.999 L
264 81.757 L
355.5 81.873 L
447 81.394 L
S
GR
GS
[1 0 0 1 81 105.66724] CT
0 0 1 RC
10.0 ML
N
-5 0 M
0 6.65 L
5 0 L
0 -6.65 L
cp
S
GR
GS
[1 0 0 1 172.5 82.99938] CT
0 0 1 RC
10.0 ML
N
-5 0 M
0 6.65 L
5 0 L
0 -6.65 L
cp
S
GR
GS
[1 0 0 1 264 81.75661] CT
0 0 1 RC
10.0 ML
N
-5 0 M
0 6.65 L
5 0 L
0 -6.65 L
cp
S
GR
GS
[1 0 0 1 355.5 81.87309] CT
0 0 1 RC
10.0 ML
N
-5 0 M
0 6.65 L
5 0 L
0 -6.65 L
cp
S
GR
GS
[1 0 0 1 447 81.39426] CT
0 0 1 RC
10.0 ML
N
-5 0 M
0 6.65 L
5 0 L
0 -6.65 L
cp
S
GR
GS
1 0 0 RC
[10 6] 0 setdash
2 LJ
N
81 148.324 M
172.5 120.998 L
264 119.792 L
355.5 119.636 L
447 119.465 L
S
GR
GS
[1 0 0 1 81 148.32381] CT
1 0 0 RC
10.0 ML
N
-4.755 -1.545 M
-1.176 -1.545 L
0 -5 L
1.176 -1.545 L
4.755 -1.545 L
1.902 0.618 L
2.939 4.045 L
0 2 L
-2.939 4.045 L
-1.902 0.618 L
cp
S
GR
GS
[1 0 0 1 172.5 120.99823] CT
1 0 0 RC
10.0 ML
N
-4.755 -1.545 M
-1.176 -1.545 L
0 -5 L
1.176 -1.545 L
4.755 -1.545 L
1.902 0.618 L
2.939 4.045 L
0 2 L
-2.939 4.045 L
-1.902 0.618 L
cp
S
GR
GS
[1 0 0 1 264 119.79233] CT
1 0 0 RC
10.0 ML
N
-4.755 -1.545 M
-1.176 -1.545 L
0 -5 L
1.176 -1.545 L
4.755 -1.545 L
1.902 0.618 L
2.939 4.045 L
0 2 L
-2.939 4.045 L
-1.902 0.618 L
cp
S
GR
GS
[1 0 0 1 355.5 119.63565] CT
1 0 0 RC
10.0 ML
N
-4.755 -1.545 M
-1.176 -1.545 L
0 -5 L
1.176 -1.545 L
4.755 -1.545 L
1.902 0.618 L
2.939 4.045 L
0 2 L
-2.939 4.045 L
-1.902 0.618 L
cp
S
GR
GS
[1 0 0 1 447 119.46484] CT
1 0 0 RC
10.0 ML
N
-4.755 -1.545 M
-1.176 -1.545 L
0 -5 L
1.176 -1.545 L
4.755 -1.545 L
1.902 0.618 L
2.939 4.045 L
0 2 L
-2.939 4.045 L
-1.902 0.618 L
cp
S
GR
GS
1 0.843 0 RC
[10 6] 0 setdash
2 LJ
N
81 199.59 M
172.5 179.154 L
264 174.898 L
355.5 174.423 L
447 172.043 L
S
GR
GS
[1 0 0 1 81 199.59019] CT
1 0.843 0 RC
10.0 ML
N
-4 -4 M
-4 4 L
4 4 L
4 -4 L
cp
S
GR
GS
[1 0 0 1 172.5 179.15356] CT
1 0.843 0 RC
10.0 ML
N
-4 -4 M
-4 4 L
4 4 L
4 -4 L
cp
S
GR
GS
[1 0 0 1 264 174.89767] CT
1 0.843 0 RC
10.0 ML
N
-4 -4 M
-4 4 L
4 4 L
4 -4 L
cp
S
GR
GS
[1 0 0 1 355.5 174.42345] CT
1 0.843 0 RC
10.0 ML
N
-4 -4 M
-4 4 L
4 4 L
4 -4 L
cp
S
GR
GS
[1 0 0 1 447 172.04265] CT
1 0.843 0 RC
10.0 ML
N
-4 -4 M
-4 4 L
4 4 L
4 -4 L
cp
S
GR
GS
0.494 0.184 0.557 RC
[10 6] 0 setdash
2 LJ
N
81 217.81 M
172.5 206.981 L
264 202.805 L
355.5 201.724 L
447 200.611 L
S
GR
GS
[1 0 0 1 81 217.81032] CT
0.494 0.184 0.557 RC
10.0 ML
N
-3.536 -3.536 M
3.536 3.536 L
-3.536 3.536 M
3.536 -3.536 L
S
GR
GS
[1 0 0 1 172.5 206.98067] CT
0.494 0.184 0.557 RC
10.0 ML
N
-3.536 -3.536 M
3.536 3.536 L
-3.536 3.536 M
3.536 -3.536 L
S
GR
GS
[1 0 0 1 264 202.80501] CT
0.494 0.184 0.557 RC
10.0 ML
N
-3.536 -3.536 M
3.536 3.536 L
-3.536 3.536 M
3.536 -3.536 L
S
GR
GS
[1 0 0 1 355.5 201.72446] CT
0.494 0.184 0.557 RC
10.0 ML
N
-3.536 -3.536 M
3.536 3.536 L
-3.536 3.536 M
3.536 -3.536 L
S
GR
GS
[1 0 0 1 447 200.61095] CT
0.494 0.184 0.557 RC
10.0 ML
N
-3.536 -3.536 M
3.536 3.536 L
-3.536 3.536 M
3.536 -3.536 L
S
GR
GS
0 0 1 RC
1 LJ
0.5 LW
N
81 105.667 M
81 154.255 L
S
GR
GS
0 0 1 RC
1 LJ
0.5 LW
N
172.5 82.999 M
172.5 132.721 L
S
GR
GS
0 0 1 RC
1 LJ
0.5 LW
N
264 81.757 M
264 131.88 L
S
GR
GS
0 0 1 RC
1 LJ
0.5 LW
N
355.5 81.873 M
355.5 132.003 L
S
GR
GS
0 0 1 RC
1 LJ
0.5 LW
N
447 81.394 M
447 131.904 L
S
GR
GS
0 0 1 RC
1 LJ
0.5 LW
N
81 105.667 M
81 57.079 L
S
GR
GS
0 0 1 RC
1 LJ
0.5 LW
N
172.5 82.999 M
172.5 33.278 L
S
GR
GS
0 0 1 RC
1 LJ
0.5 LW
N
264 81.757 M
264 31.633 L
S
GR
GS
0 0 1 RC
1 LJ
0.5 LW
N
355.5 81.873 M
355.5 31.743 L
S
GR
GS
0 0 1 RC
1 LJ
0.5 LW
N
447 81.394 M
447 30.885 L
S
GR
GS
[1 0 0 1 81 105.66724] CT
0 0 1 RC
N
1 0 M
1 0.552 0.552 1 0 1 C
-0.552 1 -1 0.552 -1 0 C
-1 -0.552 -0.552 -1 0 -1 C
0.552 -1 1 -0.552 1 0 C
cp
f
GR
GS
[1 0 0 1 172.5 82.99938] CT
0 0 1 RC
N
/f-891180347{1 0 M
1 0.552 0.552 1 0 1 C
-0.552 1 -1 0.552 -1 0 C
-1 -0.552 -0.552 -1 0 -1 C
0.552 -1 1 -0.552 1 0 C
cp}def
f-891180347
f
GR
GS
[1 0 0 1 264 81.75661] CT
0 0 1 RC
N
f-891180347
f
GR
GS
[1 0 0 1 355.5 81.87309] CT
0 0 1 RC
N
f-891180347
f
GR
GS
[1 0 0 1 447 81.39426] CT
0 0 1 RC
N
f-891180347
f
GR
GS
[1 0 0 1 81 154.25537] CT
0 0 1 RC
N
-3 0 M
3 0 L
f
GR
GS
[1 0 0 1 81 154.25537] CT
0 0 1 RC
10.0 ML
N
-3 0 M
3 0 L
S
GR
GS
[1 0 0 1 172.5 132.72063] CT
0 0 1 RC
N
/f1394637256{-3 0 M
3 0 L}def
f1394637256
f
GR
GS
[1 0 0 1 172.5 132.72063] CT
0 0 1 RC
10.0 ML
N
-3 0 M
3 0 L
S
GR
GS
[1 0 0 1 264 131.87979] CT
0 0 1 RC
N
f1394637256
f
GR
GS
[1 0 0 1 264 131.87979] CT
0 0 1 RC
10.0 ML
N
-3 0 M
3 0 L
S
GR
GS
[1 0 0 1 355.5 132.00301] CT
0 0 1 RC
N
f1394637256
f
GR
GS
[1 0 0 1 355.5 132.00301] CT
0 0 1 RC
10.0 ML
N
-3 0 M
3 0 L
S
GR
GS
[1 0 0 1 447 131.90364] CT
0 0 1 RC
N
f1394637256
f
GR
GS
[1 0 0 1 447 131.90364] CT
0 0 1 RC
10.0 ML
N
-3 0 M
3 0 L
S
GR
GS
[1 0 0 1 81 57.07914] CT
0 0 1 RC
N
f1394637256
f
GR
GS
[1 0 0 1 81 57.07914] CT
0 0 1 RC
10.0 ML
N
-3 0 M
3 0 L
S
GR
GS
[1 0 0 1 172.5 33.27813] CT
0 0 1 RC
N
f1394637256
f
GR
GS
[1 0 0 1 172.5 33.27813] CT
0 0 1 RC
10.0 ML
N
-3 0 M
3 0 L
S
GR
GS
[1 0 0 1 264 31.6334] CT
0 0 1 RC
N
f1394637256
f
GR
GS
[1 0 0 1 264 31.6334] CT
0 0 1 RC
10.0 ML
N
-3 0 M
3 0 L
S
GR
GS
[1 0 0 1 355.5 31.74318] CT
0 0 1 RC
N
f1394637256
f
GR
GS
[1 0 0 1 355.5 31.74318] CT
0 0 1 RC
10.0 ML
N
-3 0 M
3 0 L
S
GR
GS
[1 0 0 1 447 30.88486] CT
0 0 1 RC
N
f1394637256
f
GR
GS
[1 0 0 1 447 30.88486] CT
0 0 1 RC
10.0 ML
N
-3 0 M
3 0 L
S
GR
GS
1 0 0 RC
1 LJ
0.5 LW
N
81 148.324 M
81 196.821 L
S
GR
GS
1 0 0 RC
1 LJ
0.5 LW
N
172.5 120.998 M
172.5 176.183 L
S
GR
GS
1 0 0 RC
1 LJ
0.5 LW
N
264 119.792 M
264 174.488 L
S
GR
GS
1 0 0 RC
1 LJ
0.5 LW
N
355.5 119.636 M
355.5 174.498 L
S
GR
GS
1 0 0 RC
1 LJ
0.5 LW
N
447 119.465 M
447 174.061 L
S
GR
GS
1 0 0 RC
1 LJ
0.5 LW
N
81 148.324 M
81 99.826 L
S
GR
GS
1 0 0 RC
1 LJ
0.5 LW
N
172.5 120.998 M
172.5 65.813 L
S
GR
GS
1 0 0 RC
1 LJ
0.5 LW
N
264 119.792 M
264 65.097 L
S
GR
GS
1 0 0 RC
1 LJ
0.5 LW
N
355.5 119.636 M
355.5 64.773 L
S
GR
GS
1 0 0 RC
1 LJ
0.5 LW
N
447 119.465 M
447 64.869 L
S
GR
GS
[1 0 0 1 81 148.32381] CT
1 0 0 RC
N
f-891180347
f
GR
GS
[1 0 0 1 172.5 120.99823] CT
1 0 0 RC
N
f-891180347
f
GR
GS
[1 0 0 1 264 119.79233] CT
1 0 0 RC
N
f-891180347
f
GR
GS
[1 0 0 1 355.5 119.63565] CT
1 0 0 RC
N
f-891180347
f
GR
GS
[1 0 0 1 447 119.46484] CT
1 0 0 RC
N
f-891180347
f
GR
GS
[1 0 0 1 81 196.82117] CT
1 0 0 RC
N
f1394637256
f
GR
GS
[1 0 0 1 81 196.82117] CT
1 0 0 RC
10.0 ML
N
-3 0 M
3 0 L
S
GR
GS
[1 0 0 1 172.5 176.18311] CT
1 0 0 RC
N
f1394637256
f
GR
GS
[1 0 0 1 172.5 176.18311] CT
1 0 0 RC
10.0 ML
N
-3 0 M
3 0 L
S
GR
GS
[1 0 0 1 264 174.48755] CT
1 0 0 RC
N
f1394637256
f
GR
GS
[1 0 0 1 264 174.48755] CT
1 0 0 RC
10.0 ML
N
-3 0 M
3 0 L
S
GR
GS
[1 0 0 1 355.5 174.49815] CT
1 0 0 RC
N
f1394637256
f
GR
GS
[1 0 0 1 355.5 174.49815] CT
1 0 0 RC
10.0 ML
N
-3 0 M
3 0 L
S
GR
GS
[1 0 0 1 447 174.06058] CT
1 0 0 RC
N
f1394637256
f
GR
GS
[1 0 0 1 447 174.06058] CT
1 0 0 RC
10.0 ML
N
-3 0 M
3 0 L
S
GR
GS
[1 0 0 1 81 99.82646] CT
1 0 0 RC
N
f1394637256
f
GR
GS
[1 0 0 1 81 99.82646] CT
1 0 0 RC
10.0 ML
N
-3 0 M
3 0 L
S
GR
GS
[1 0 0 1 172.5 65.81334] CT
1 0 0 RC
N
f1394637256
f
GR
GS
[1 0 0 1 172.5 65.81334] CT
1 0 0 RC
10.0 ML
N
-3 0 M
3 0 L
S
GR
GS
[1 0 0 1 264 65.09711] CT
1 0 0 RC
N
f1394637256
f
GR
GS
[1 0 0 1 264 65.09711] CT
1 0 0 RC
10.0 ML
N
-3 0 M
3 0 L
S
GR
GS
[1 0 0 1 355.5 64.77312] CT
1 0 0 RC
N
f1394637256
f
GR
GS
[1 0 0 1 355.5 64.77312] CT
1 0 0 RC
10.0 ML
N
-3 0 M
3 0 L
S
GR
GS
[1 0 0 1 447 64.86914] CT
1 0 0 RC
N
f1394637256
f
GR
GS
[1 0 0 1 447 64.86914] CT
1 0 0 RC
10.0 ML
N
-3 0 M
3 0 L
S
GR
GS
1 0.843 0 RC
1 LJ
0.5 LW
N
81 199.59 M
81 232.266 L
S
GR
GS
1 0.843 0 RC
1 LJ
0.5 LW
N
172.5 179.154 M
172.5 221.403 L
S
GR
GS
1 0.843 0 RC
1 LJ
0.5 LW
N
264 174.898 M
264 217.355 L
S
GR
GS
1 0.843 0 RC
1 LJ
0.5 LW
N
355.5 174.423 M
355.5 216.96 L
S
GR
GS
1 0.843 0 RC
1 LJ
0.5 LW
N
447 172.043 M
447 214.234 L
S
GR
GS
1 0.843 0 RC
1 LJ
0.5 LW
N
81 199.59 M
81 166.914 L
S
GR
GS
1 0.843 0 RC
1 LJ
0.5 LW
N
172.5 179.154 M
172.5 136.904 L
S
GR
GS
1 0.843 0 RC
1 LJ
0.5 LW
N
264 174.898 M
264 132.441 L
S
GR
GS
1 0.843 0 RC
1 LJ
0.5 LW
N
355.5 174.423 M
355.5 131.887 L
S
GR
GS
1 0.843 0 RC
1 LJ
0.5 LW
N
447 172.043 M
447 129.852 L
S
GR
GS
[1 0 0 1 81 199.59019] CT
1 0.843 0 RC
N
f-891180347
f
GR
GS
[1 0 0 1 172.5 179.15356] CT
1 0.843 0 RC
N
f-891180347
f
GR
GS
[1 0 0 1 264 174.89767] CT
1 0.843 0 RC
N
f-891180347
f
GR
GS
[1 0 0 1 355.5 174.42345] CT
1 0.843 0 RC
N
f-891180347
f
GR
GS
[1 0 0 1 447 172.04265] CT
1 0.843 0 RC
N
f-891180347
f
GR
GS
[1 0 0 1 81 232.2663] CT
1 0.843 0 RC
N
f1394637256
f
GR
GS
[1 0 0 1 81 232.2663] CT
1 0.843 0 RC
10.0 ML
N
-3 0 M
3 0 L
S
GR
GS
[1 0 0 1 172.5 221.40286] CT
1 0.843 0 RC
N
f1394637256
f
GR
GS
[1 0 0 1 172.5 221.40286] CT
1 0.843 0 RC
10.0 ML
N
-3 0 M
3 0 L
S
GR
GS
[1 0 0 1 264 217.35463] CT
1 0.843 0 RC
N
f1394637256
f
GR
GS
[1 0 0 1 264 217.35463] CT
1 0.843 0 RC
10.0 ML
N
-3 0 M
3 0 L
S
GR
GS
[1 0 0 1 355.5 216.96014] CT
1 0.843 0 RC
N
f1394637256
f
GR
GS
[1 0 0 1 355.5 216.96014] CT
1 0.843 0 RC
10.0 ML
N
-3 0 M
3 0 L
S
GR
GS
[1 0 0 1 447 214.23381] CT
1 0.843 0 RC
N
f1394637256
f
GR
GS
[1 0 0 1 447 214.23381] CT
1 0.843 0 RC
10.0 ML
N
-3 0 M
3 0 L
S
GR
GS
[1 0 0 1 81 166.91409] CT
1 0.843 0 RC
N
f1394637256
f
GR
GS
[1 0 0 1 81 166.91409] CT
1 0.843 0 RC
10.0 ML
N
-3 0 M
3 0 L
S
GR
GS
[1 0 0 1 172.5 136.90427] CT
1 0.843 0 RC
N
f1394637256
f
GR
GS
[1 0 0 1 172.5 136.90427] CT
1 0.843 0 RC
10.0 ML
N
-3 0 M
3 0 L
S
GR
GS
[1 0 0 1 264 132.4407] CT
1 0.843 0 RC
N
f1394637256
f
GR
GS
[1 0 0 1 264 132.4407] CT
1 0.843 0 RC
10.0 ML
N
-3 0 M
3 0 L
S
GR
GS
[1 0 0 1 355.5 131.88675] CT
1 0.843 0 RC
N
f1394637256
f
GR
GS
[1 0 0 1 355.5 131.88675] CT
1 0.843 0 RC
10.0 ML
N
-3 0 M
3 0 L
S
GR
GS
[1 0 0 1 447 129.8515] CT
1 0.843 0 RC
N
f1394637256
f
GR
GS
[1 0 0 1 447 129.8515] CT
1 0.843 0 RC
10.0 ML
N
-3 0 M
3 0 L
S
GR
GS
0.494 0.184 0.557 RC
1 LJ
0.5 LW
N
81 217.81 M
81 244.948 L
S
GR
GS
0.494 0.184 0.557 RC
1 LJ
0.5 LW
N
172.5 206.981 M
172.5 241.86 L
S
GR
GS
0.494 0.184 0.557 RC
1 LJ
0.5 LW
N
264 202.805 M
264 239.381 L
S
GR
GS
0.494 0.184 0.557 RC
1 LJ
0.5 LW
N
355.5 201.724 M
355.5 238.005 L
S
GR
GS
0.494 0.184 0.557 RC
1 LJ
0.5 LW
N
447 200.611 M
447 237.673 L
S
GR
GS
0.494 0.184 0.557 RC
1 LJ
0.5 LW
N
81 217.81 M
81 190.672 L
S
GR
GS
0.494 0.184 0.557 RC
1 LJ
0.5 LW
N
172.5 206.981 M
172.5 172.101 L
S
GR
GS
0.494 0.184 0.557 RC
1 LJ
0.5 LW
N
264 202.805 M
264 166.229 L
S
GR
GS
0.494 0.184 0.557 RC
1 LJ
0.5 LW
N
355.5 201.724 M
355.5 165.444 L
S
GR
GS
0.494 0.184 0.557 RC
1 LJ
0.5 LW
N
447 200.611 M
447 163.548 L
S
GR
GS
[1 0 0 1 81 217.81032] CT
0.494 0.184 0.557 RC
N
f-891180347
f
GR
GS
[1 0 0 1 172.5 206.98067] CT
0.494 0.184 0.557 RC
N
f-891180347
f
GR
GS
[1 0 0 1 264 202.80501] CT
0.494 0.184 0.557 RC
N
f-891180347
f
GR
GS
[1 0 0 1 355.5 201.72446] CT
0.494 0.184 0.557 RC
N
f-891180347
f
GR
GS
[1 0 0 1 447 200.61095] CT
0.494 0.184 0.557 RC
N
f-891180347
f
GR
GS
[1 0 0 1 81 244.94815] CT
0.494 0.184 0.557 RC
N
f1394637256
f
GR
GS
[1 0 0 1 81 244.94815] CT
0.494 0.184 0.557 RC
10.0 ML
N
-3 0 M
3 0 L
S
GR
GS
[1 0 0 1 172.5 241.86003] CT
0.494 0.184 0.557 RC
N
f1394637256
f
GR
GS
[1 0 0 1 172.5 241.86003] CT
0.494 0.184 0.557 RC
10.0 ML
N
-3 0 M
3 0 L
S
GR
GS
[1 0 0 1 264 239.38107] CT
0.494 0.184 0.557 RC
N
f1394637256
f
GR
GS
[1 0 0 1 264 239.38107] CT
0.494 0.184 0.557 RC
10.0 ML
N
-3 0 M
3 0 L
S
GR
GS
[1 0 0 1 355.5 238.00462] CT
0.494 0.184 0.557 RC
N
f1394637256
f
GR
GS
[1 0 0 1 355.5 238.00462] CT
0.494 0.184 0.557 RC
10.0 ML
N
-3 0 M
3 0 L
S
GR
GS
[1 0 0 1 447 237.67348] CT
0.494 0.184 0.557 RC
N
f1394637256
f
GR
GS
[1 0 0 1 447 237.67348] CT
0.494 0.184 0.557 RC
10.0 ML
N
-3 0 M
3 0 L
S
GR
GS
[1 0 0 1 81 190.67247] CT
0.494 0.184 0.557 RC
N
f1394637256
f
GR
GS
[1 0 0 1 81 190.67247] CT
0.494 0.184 0.557 RC
10.0 ML
N
-3 0 M
3 0 L
S
GR
GS
[1 0 0 1 172.5 172.10132] CT
0.494 0.184 0.557 RC
N
f1394637256
f
GR
GS
[1 0 0 1 172.5 172.10132] CT
0.494 0.184 0.557 RC
10.0 ML
N
-3 0 M
3 0 L
S
GR
GS
[1 0 0 1 264 166.22894] CT
0.494 0.184 0.557 RC
N
f1394637256
f
GR
GS
[1 0 0 1 264 166.22894] CT
0.494 0.184 0.557 RC
10.0 ML
N
-3 0 M
3 0 L
S
GR
GS
[1 0 0 1 355.5 165.44429] CT
0.494 0.184 0.557 RC
N
f1394637256
f
GR
GS
[1 0 0 1 355.5 165.44429] CT
0.494 0.184 0.557 RC
10.0 ML
N
-3 0 M
3 0 L
S
GR
GS
[1 0 0 1 447 163.54842] CT
0.494 0.184 0.557 RC
N
f1394637256
f
GR
GS
[1 0 0 1 447 163.54842] CT
0.494 0.184 0.557 RC
10.0 ML
N
-3 0 M
3 0 L
S
GR
GS
1 GC
N
/f1303998692{597 203 M
597 106 L
474 106 L
474 203 L
cp}def
f1303998692
f
GR
GS
[1 0 0 1 511 119.43077] CT
/Times-Roman 19.8 F
GS
[1 0 0 1 0 0] CT
0 6.5 moveto 
1 -1 scale
(2 WLANs) t 
GR
GR
GS
0 0 1 RC
[10 6] 0 setdash
2 LJ
N
478 119.431 M
508 119.431 L
S
GR
GS
[1 0 0 1 493 119.43077] CT
0 0 1 RC
10.0 ML
N
-5 0 M
0 6.65 L
5 0 L
0 -6.65 L
cp
S
GR
GS
[1 0 0 1 511 142.81026] CT
/Times-Roman 19.8 F
GS
[1 0 0 1 0 0] CT
0 6.5 moveto 
1 -1 scale
(4 WLANs) t 
GR
GR
GS
1 0 0 RC
[10 6] 0 setdash
2 LJ
N
478 142.81 M
508 142.81 L
S
GR
GS
[1 0 0 1 493 142.81026] CT
1 0 0 RC
10.0 ML
N
-4.755 -1.545 M
-1.176 -1.545 L
0 -5 L
1.176 -1.545 L
4.755 -1.545 L
1.902 0.618 L
2.939 4.045 L
0 2 L
-2.939 4.045 L
-1.902 0.618 L
cp
S
GR
GS
[1 0 0 1 511 166.18974] CT
/Times-Roman 19.8 F
GS
[1 0 0 1 0 0] CT
0 6.5 moveto 
1 -1 scale
(6 WLANs) t 
GR
GR
GS
1 0.843 0 RC
[10 6] 0 setdash
2 LJ
N
478 166.19 M
508 166.19 L
S
GR
GS
[1 0 0 1 493 166.18974] CT
1 0.843 0 RC
10.0 ML
N
-4 -4 M
-4 4 L
4 4 L
4 -4 L
cp
S
GR
GS
[1 0 0 1 511 189.56923] CT
/Times-Roman 19.8 F
GS
[1 0 0 1 0 0] CT
0 6.5 moveto 
1 -1 scale
(8 WLANs) t 
GR
GR
GS
0.494 0.184 0.557 RC
[10 6] 0 setdash
2 LJ
N
478 189.569 M
508 189.569 L
S
GR
GS
[1 0 0 1 493 189.56923] CT
0.494 0.184 0.557 RC
10.0 ML
N
-3.536 -3.536 M
3.536 3.536 L
-3.536 3.536 M
3.536 -3.536 L
S
GR
GS
0.149 GC
10.0 ML
0.5 LW
N
474 203 M
474 106 L
597 106 L
597 203 L
cp
S
GR
%%Trailer
%%Pages: 1
%%EOF
