%!PS-Adobe-3.0 EPSF-3.0
%%Creator: (MATLAB, The Mathworks, Inc. Version 9.3.0.713579 \(R2017b\). Operating System: Mac OS X)
%%Title: (/Users/franciscowilhelmi/workspace/papers/selfish_vs_informed_spatial_reuse/Results/Part 2 - Selfish vs Informed/2.3 Adversarial issues/selfish_vs_informed_mean_tpt_sim_2_3_10000it.eps)
%%CreationDate: 2018-05-18T11:52:19
%%Pages: (atend)
%%BoundingBox: 0 0 500 350
%%LanguageLevel: 3
%%EndComments
%%BeginProlog
%%BeginResource: procset (Apache XML Graphics Std ProcSet) 1.2 0
%%Version: 1.2 0
%%Copyright: (Copyright 2001-2003,2010 The Apache Software Foundation. License terms: http://www.apache.org/licenses/LICENSE-2.0)
/bd{bind def}bind def
/ld{load def}bd
/GR/grestore ld
/GS/gsave ld
/RM/rmoveto ld
/C/curveto ld
/t/show ld
/L/lineto ld
/ML/setmiterlimit ld
/CT/concat ld
/f/fill ld
/N/newpath ld
/S/stroke ld
/CC/setcmykcolor ld
/A/ashow ld
/cp/closepath ld
/RC/setrgbcolor ld
/LJ/setlinejoin ld
/GC/setgray ld
/LW/setlinewidth ld
/M/moveto ld
/re {4 2 roll M
1 index 0 rlineto
0 exch rlineto
neg 0 rlineto
cp } bd
/_ctm matrix def
/_tm matrix def
/BT { _ctm currentmatrix pop matrix _tm copy pop 0 0 moveto } bd
/ET { _ctm setmatrix } bd
/iTm { _ctm setmatrix _tm concat } bd
/Tm { _tm astore pop iTm 0 0 moveto } bd
/ux 0.0 def
/uy 0.0 def
/F {
  /Tp exch def
  /Tf exch def
  Tf findfont Tp scalefont setfont
  /cf Tf def  /cs Tp def
} bd
/ULS {currentpoint /uy exch def /ux exch def} bd
/ULE {
  /Tcx currentpoint pop def
  gsave
  newpath
  cf findfont cs scalefont dup
  /FontMatrix get 0 get /Ts exch def /FontInfo get dup
  /UnderlinePosition get Ts mul /To exch def
  /UnderlineThickness get Ts mul /Tt exch def
  ux uy To add moveto  Tcx uy To add lineto
  Tt setlinewidth stroke
  grestore
} bd
/OLE {
  /Tcx currentpoint pop def
  gsave
  newpath
  cf findfont cs scalefont dup
  /FontMatrix get 0 get /Ts exch def /FontInfo get dup
  /UnderlinePosition get Ts mul /To exch def
  /UnderlineThickness get Ts mul /Tt exch def
  ux uy To add cs add moveto Tcx uy To add cs add lineto
  Tt setlinewidth stroke
  grestore
} bd
/SOE {
  /Tcx currentpoint pop def
  gsave
  newpath
  cf findfont cs scalefont dup
  /FontMatrix get 0 get /Ts exch def /FontInfo get dup
  /UnderlinePosition get Ts mul /To exch def
  /UnderlineThickness get Ts mul /Tt exch def
  ux uy To add cs 10 mul 26 idiv add moveto Tcx uy To add cs 10 mul 26 idiv add lineto
  Tt setlinewidth stroke
  grestore
} bd
/QT {
/Y22 exch store
/X22 exch store
/Y21 exch store
/X21 exch store
currentpoint
/Y21 load 2 mul add 3 div exch
/X21 load 2 mul add 3 div exch
/X21 load 2 mul /X22 load add 3 div
/Y21 load 2 mul /Y22 load add 3 div
/X22 load /Y22 load curveto
} bd
/SSPD {
dup length /d exch dict def
{
/v exch def
/k exch def
currentpagedevice k known {
/cpdv currentpagedevice k get def
v cpdv ne {
/upd false def
/nullv v type /nulltype eq def
/nullcpdv cpdv type /nulltype eq def
nullv nullcpdv or
{
/upd true def
} {
/sametype v type cpdv type eq def
sametype {
v type /arraytype eq {
/vlen v length def
/cpdvlen cpdv length def
vlen cpdvlen eq {
0 1 vlen 1 sub {
/i exch def
/obj v i get def
/cpdobj cpdv i get def
obj cpdobj ne {
/upd true def
exit
} if
} for
} {
/upd true def
} ifelse
} {
v type /dicttype eq {
v {
/dv exch def
/dk exch def
/cpddv cpdv dk get def
dv cpddv ne {
/upd true def
exit
} if
} forall
} {
/upd true def
} ifelse
} ifelse
} if
} ifelse
upd true eq {
d k v put
} if
} if
} if
} forall
d length 0 gt {
d setpagedevice
} if
} bd
/RE { % /NewFontName [NewEncodingArray] /FontName RE -
  findfont dup length dict begin
  {
    1 index /FID ne
    {def} {pop pop} ifelse
  } forall
  /Encoding exch def
  /FontName 1 index def
  currentdict definefont pop
  end
} bind def
%%EndResource
%%BeginResource: procset (Apache XML Graphics EPS ProcSet) 1.0 0
%%Version: 1.0 0
%%Copyright: (Copyright 2002-2003 The Apache Software Foundation. License terms: http://www.apache.org/licenses/LICENSE-2.0)
/BeginEPSF { %def
/b4_Inc_state save def         % Save state for cleanup
/dict_count countdictstack def % Count objects on dict stack
/op_count count 1 sub def      % Count objects on operand stack
userdict begin                 % Push userdict on dict stack
/showpage { } def              % Redefine showpage, { } = null proc
0 setgray 0 setlinecap         % Prepare graphics state
1 setlinewidth 0 setlinejoin
10 setmiterlimit [ ] 0 setdash newpath
/languagelevel where           % If level not equal to 1 then
{pop languagelevel             % set strokeadjust and
1 ne                           % overprint to their defaults.
{false setstrokeadjust false setoverprint
} if
} if
} bd
/EndEPSF { %def
count op_count sub {pop} repeat            % Clean up stacks
countdictstack dict_count sub {end} repeat
b4_Inc_state restore
} bd
%%EndResource
%FOPBeginFontDict
%%IncludeResource: font Courier-Oblique
%%IncludeResource: font Courier-BoldOblique
%%IncludeResource: font Courier-Bold
%%IncludeResource: font ZapfDingbats
%%IncludeResource: font Symbol
%%IncludeResource: font Helvetica
%%IncludeResource: font Helvetica-Oblique
%%IncludeResource: font Helvetica-Bold
%%IncludeResource: font Helvetica-BoldOblique
%%IncludeResource: font Times-Roman
%%IncludeResource: font Times-Italic
%%IncludeResource: font Times-Bold
%%IncludeResource: font Times-BoldItalic
%%IncludeResource: font Courier
%FOPEndFontDict
%%BeginResource: encoding WinAnsiEncoding
/WinAnsiEncoding [
/.notdef /.notdef /.notdef /.notdef /.notdef
/.notdef /.notdef /.notdef /.notdef /.notdef
/.notdef /.notdef /.notdef /.notdef /.notdef
/.notdef /.notdef /.notdef /.notdef /.notdef
/.notdef /.notdef /.notdef /.notdef /.notdef
/.notdef /.notdef /.notdef /.notdef /.notdef
/.notdef /.notdef /space /exclam /quotedbl
/numbersign /dollar /percent /ampersand /quotesingle
/parenleft /parenright /asterisk /plus /comma
/hyphen /period /slash /zero /one
/two /three /four /five /six
/seven /eight /nine /colon /semicolon
/less /equal /greater /question /at
/A /B /C /D /E
/F /G /H /I /J
/K /L /M /N /O
/P /Q /R /S /T
/U /V /W /X /Y
/Z /bracketleft /backslash /bracketright /asciicircum
/underscore /quoteleft /a /b /c
/d /e /f /g /h
/i /j /k /l /m
/n /o /p /q /r
/s /t /u /v /w
/x /y /z /braceleft /bar
/braceright /asciitilde /bullet /Euro /bullet
/quotesinglbase /florin /quotedblbase /ellipsis /dagger
/daggerdbl /circumflex /perthousand /Scaron /guilsinglleft
/OE /bullet /Zcaron /bullet /bullet
/quoteleft /quoteright /quotedblleft /quotedblright /bullet
/endash /emdash /asciitilde /trademark /scaron
/guilsinglright /oe /bullet /zcaron /Ydieresis
/space /exclamdown /cent /sterling /currency
/yen /brokenbar /section /dieresis /copyright
/ordfeminine /guillemotleft /logicalnot /sfthyphen /registered
/macron /degree /plusminus /twosuperior /threesuperior
/acute /mu /paragraph /middot /cedilla
/onesuperior /ordmasculine /guillemotright /onequarter /onehalf
/threequarters /questiondown /Agrave /Aacute /Acircumflex
/Atilde /Adieresis /Aring /AE /Ccedilla
/Egrave /Eacute /Ecircumflex /Edieresis /Igrave
/Iacute /Icircumflex /Idieresis /Eth /Ntilde
/Ograve /Oacute /Ocircumflex /Otilde /Odieresis
/multiply /Oslash /Ugrave /Uacute /Ucircumflex
/Udieresis /Yacute /Thorn /germandbls /agrave
/aacute /acircumflex /atilde /adieresis /aring
/ae /ccedilla /egrave /eacute /ecircumflex
/edieresis /igrave /iacute /icircumflex /idieresis
/eth /ntilde /ograve /oacute /ocircumflex
/otilde /odieresis /divide /oslash /ugrave
/uacute /ucircumflex /udieresis /yacute /thorn
/ydieresis
] def
%%EndResource
%FOPBeginFontReencode
/Courier-Oblique findfont
dup length dict begin
  {1 index /FID ne {def} {pop pop} ifelse} forall
  /Encoding WinAnsiEncoding def
  currentdict
end
/Courier-Oblique exch definefont pop
/Courier-BoldOblique findfont
dup length dict begin
  {1 index /FID ne {def} {pop pop} ifelse} forall
  /Encoding WinAnsiEncoding def
  currentdict
end
/Courier-BoldOblique exch definefont pop
/Courier-Bold findfont
dup length dict begin
  {1 index /FID ne {def} {pop pop} ifelse} forall
  /Encoding WinAnsiEncoding def
  currentdict
end
/Courier-Bold exch definefont pop
/Helvetica findfont
dup length dict begin
  {1 index /FID ne {def} {pop pop} ifelse} forall
  /Encoding WinAnsiEncoding def
  currentdict
end
/Helvetica exch definefont pop
/Helvetica-Oblique findfont
dup length dict begin
  {1 index /FID ne {def} {pop pop} ifelse} forall
  /Encoding WinAnsiEncoding def
  currentdict
end
/Helvetica-Oblique exch definefont pop
/Helvetica-Bold findfont
dup length dict begin
  {1 index /FID ne {def} {pop pop} ifelse} forall
  /Encoding WinAnsiEncoding def
  currentdict
end
/Helvetica-Bold exch definefont pop
/Helvetica-BoldOblique findfont
dup length dict begin
  {1 index /FID ne {def} {pop pop} ifelse} forall
  /Encoding WinAnsiEncoding def
  currentdict
end
/Helvetica-BoldOblique exch definefont pop
/Times-Roman findfont
dup length dict begin
  {1 index /FID ne {def} {pop pop} ifelse} forall
  /Encoding WinAnsiEncoding def
  currentdict
end
/Times-Roman exch definefont pop
/Times-Italic findfont
dup length dict begin
  {1 index /FID ne {def} {pop pop} ifelse} forall
  /Encoding WinAnsiEncoding def
  currentdict
end
/Times-Italic exch definefont pop
/Times-Bold findfont
dup length dict begin
  {1 index /FID ne {def} {pop pop} ifelse} forall
  /Encoding WinAnsiEncoding def
  currentdict
end
/Times-Bold exch definefont pop
/Times-BoldItalic findfont
dup length dict begin
  {1 index /FID ne {def} {pop pop} ifelse} forall
  /Encoding WinAnsiEncoding def
  currentdict
end
/Times-BoldItalic exch definefont pop
/Courier findfont
dup length dict begin
  {1 index /FID ne {def} {pop pop} ifelse} forall
  /Encoding WinAnsiEncoding def
  currentdict
end
/Courier exch definefont pop
%FOPEndFontReencode
%%EndProlog
%%Page: 1 1
%%PageBoundingBox: 0 0 500 350
%%BeginPageSetup
[1 0 0 -1 0 350] CT
%%EndPageSetup
GS
1 GC
N
0 0 500 350 re
f
GR
GS
1 GC
N
0 0 500 350 re
f
GR
GS
1 GC
N
70 290 M
453 290 L
453 26 L
70 26 L
cp
f
GR
GS
0.873 GC
1 LJ
0.5 LW
N
146.6 290 M
146.6 26 L
S
GR
GS
0.873 GC
1 LJ
0.5 LW
N
223.2 290 M
223.2 26 L
S
GR
GS
0.873 GC
1 LJ
0.5 LW
N
299.8 290 M
299.8 26 L
S
GR
GS
0.873 GC
1 LJ
0.5 LW
N
376.4 290 M
376.4 26 L
S
GR
GS
0.873 GC
1 LJ
0.5 LW
N
453 290 M
70 290 L
S
GR
GS
0.873 GC
1 LJ
0.5 LW
N
453 192.855 M
70 192.855 L
S
GR
GS
0.873 GC
1 LJ
0.5 LW
N
453 95.71 M
70 95.71 L
S
GR
GS
0.149 GC
1 LJ
0.5 LW
N
70 290 M
453 290 L
S
GR
GS
0.749 0 0.749 RC
N
142.223 290 M
142.223 179.545 L
129.091 179.545 L
129.091 290 L
cp
218.823 290 M
218.823 179.616 L
205.691 179.616 L
205.691 290 L
cp
295.423 290 M
295.423 179.386 L
282.291 179.386 L
282.291 290 L
cp
372.023 290 M
372.023 179.597 L
358.891 179.597 L
358.891 290 L
cp
f
GR
GS
10.0 ML
0.5 LW
N
129.091 290 M
129.091 179.545 L
142.223 179.545 L
142.223 290 L
cp
S
GR
GS
10.0 ML
0.5 LW
N
205.691 290 M
205.691 179.616 L
218.823 179.616 L
218.823 290 L
cp
S
GR
GS
10.0 ML
0.5 LW
N
282.291 290 M
282.291 179.386 L
295.423 179.386 L
295.423 290 L
cp
S
GR
GS
10.0 ML
0.5 LW
N
358.891 290 M
358.891 179.597 L
372.023 179.597 L
372.023 290 L
cp
S
GR
GS
1 1 0 RC
N
164.109 290 M
164.109 179.265 L
150.977 179.265 L
150.977 290 L
cp
240.709 290 M
240.709 179.158 L
227.577 179.158 L
227.577 290 L
cp
317.309 290 M
317.309 179.1 L
304.177 179.1 L
304.177 290 L
cp
393.909 290 M
393.909 179.494 L
380.777 179.494 L
380.777 290 L
cp
f
GR
GS
10.0 ML
0.5 LW
N
150.977 290 M
150.977 179.265 L
164.109 179.265 L
164.109 290 L
cp
S
GR
GS
10.0 ML
0.5 LW
N
227.577 290 M
227.577 179.158 L
240.709 179.158 L
240.709 290 L
cp
S
GR
GS
10.0 ML
0.5 LW
N
304.177 290 M
304.177 179.1 L
317.309 179.1 L
317.309 290 L
cp
S
GR
GS
10.0 ML
0.5 LW
N
380.777 290 M
380.777 179.494 L
393.909 179.494 L
393.909 290 L
cp
S
GR
GS
1 0 0 RC
1 LJ
0.5 LW
N
135.657 179.545 M
135.657 195.232 L
S
GR
GS
1 0 0 RC
1 LJ
0.5 LW
N
212.257 179.616 M
212.257 194.729 L
S
GR
GS
1 0 0 RC
1 LJ
0.5 LW
N
288.857 179.386 M
288.857 195.372 L
S
GR
GS
1 0 0 RC
1 LJ
0.5 LW
N
365.457 179.597 M
365.457 194.892 L
S
GR
GS
1 0 0 RC
1 LJ
0.5 LW
N
135.657 179.545 M
135.657 163.859 L
S
GR
GS
1 0 0 RC
1 LJ
0.5 LW
N
212.257 179.616 M
212.257 164.503 L
S
GR
GS
1 0 0 RC
1 LJ
0.5 LW
N
288.857 179.386 M
288.857 163.4 L
S
GR
GS
1 0 0 RC
1 LJ
0.5 LW
N
365.457 179.597 M
365.457 164.302 L
S
GR
GS
[1 0 0 1 135.65715 179.54539] CT
1 0 0 RC
N
1 0 M
1 0.552 0.552 1 0 1 C
-0.552 1 -1 0.552 -1 0 C
-1 -0.552 -0.552 -1 0 -1 C
0.552 -1 1 -0.552 1 0 C
cp
f
GR
GS
[1 0 0 1 212.25714 179.61574] CT
1 0 0 RC
N
/f-891180347{1 0 M
1 0.552 0.552 1 0 1 C
-0.552 1 -1 0.552 -1 0 C
-1 -0.552 -0.552 -1 0 -1 C
0.552 -1 1 -0.552 1 0 C
cp}def
f-891180347
f
GR
GS
[1 0 0 1 288.85715 179.38583] CT
1 0 0 RC
N
f-891180347
f
GR
GS
[1 0 0 1 365.45715 179.59695] CT
1 0 0 RC
N
f-891180347
f
GR
GS
[1 0 0 1 135.65715 195.23177] CT
1 0 0 RC
N
-3 0 M
3 0 L
f
GR
GS
[1 0 0 1 135.65715 195.23177] CT
1 0 0 RC
10.0 ML
N
-3 0 M
3 0 L
S
GR
GS
[1 0 0 1 212.25714 194.72867] CT
1 0 0 RC
N
/f1394637256{-3 0 M
3 0 L}def
f1394637256
f
GR
GS
[1 0 0 1 212.25714 194.72867] CT
1 0 0 RC
10.0 ML
N
-3 0 M
3 0 L
S
GR
GS
[1 0 0 1 288.85715 195.37198] CT
1 0 0 RC
N
f1394637256
f
GR
GS
[1 0 0 1 288.85715 195.37198] CT
1 0 0 RC
10.0 ML
N
-3 0 M
3 0 L
S
GR
GS
[1 0 0 1 365.45715 194.89154] CT
1 0 0 RC
N
f1394637256
f
GR
GS
[1 0 0 1 365.45715 194.89154] CT
1 0 0 RC
10.0 ML
N
-3 0 M
3 0 L
S
GR
GS
[1 0 0 1 135.65715 163.85901] CT
1 0 0 RC
N
f1394637256
f
GR
GS
[1 0 0 1 135.65715 163.85901] CT
1 0 0 RC
10.0 ML
N
-3 0 M
3 0 L
S
GR
GS
[1 0 0 1 212.25714 164.50281] CT
1 0 0 RC
N
f1394637256
f
GR
GS
[1 0 0 1 212.25714 164.50281] CT
1 0 0 RC
10.0 ML
N
-3 0 M
3 0 L
S
GR
GS
[1 0 0 1 288.85715 163.39967] CT
1 0 0 RC
N
f1394637256
f
GR
GS
[1 0 0 1 288.85715 163.39967] CT
1 0 0 RC
10.0 ML
N
-3 0 M
3 0 L
S
GR
GS
[1 0 0 1 365.45715 164.30238] CT
1 0 0 RC
N
f1394637256
f
GR
GS
[1 0 0 1 365.45715 164.30238] CT
1 0 0 RC
10.0 ML
N
-3 0 M
3 0 L
S
GR
GS
1 0 0 RC
1 LJ
0.5 LW
N
157.543 179.265 M
157.543 192.055 L
S
GR
GS
1 0 0 RC
1 LJ
0.5 LW
N
234.143 179.158 M
234.143 192.391 L
S
GR
GS
1 0 0 RC
1 LJ
0.5 LW
N
310.743 179.1 M
310.743 192.575 L
S
GR
GS
1 0 0 RC
1 LJ
0.5 LW
N
387.343 179.494 M
387.343 192.214 L
S
GR
GS
1 0 0 RC
1 LJ
0.5 LW
N
157.543 179.265 M
157.543 166.476 L
S
GR
GS
1 0 0 RC
1 LJ
0.5 LW
N
234.143 179.158 M
234.143 165.925 L
S
GR
GS
1 0 0 RC
1 LJ
0.5 LW
N
310.743 179.1 M
310.743 165.625 L
S
GR
GS
1 0 0 RC
1 LJ
0.5 LW
N
387.343 179.494 M
387.343 166.773 L
S
GR
GS
[1 0 0 1 157.54286 179.26535] CT
1 0 0 RC
N
f-891180347
f
GR
GS
[1 0 0 1 234.14285 179.15797] CT
1 0 0 RC
N
f-891180347
f
GR
GS
[1 0 0 1 310.74286 179.09985] CT
1 0 0 RC
N
f-891180347
f
GR
GS
[1 0 0 1 387.34286 179.4937] CT
1 0 0 RC
N
f-891180347
f
GR
GS
[1 0 0 1 157.54286 192.05515] CT
1 0 0 RC
N
f1394637256
f
GR
GS
[1 0 0 1 157.54286 192.05515] CT
1 0 0 RC
10.0 ML
N
-3 0 M
3 0 L
S
GR
GS
[1 0 0 1 234.14285 192.39128] CT
1 0 0 RC
N
f1394637256
f
GR
GS
[1 0 0 1 234.14285 192.39128] CT
1 0 0 RC
10.0 ML
N
-3 0 M
3 0 L
S
GR
GS
[1 0 0 1 310.74286 192.575] CT
1 0 0 RC
N
f1394637256
f
GR
GS
[1 0 0 1 310.74286 192.575] CT
1 0 0 RC
10.0 ML
N
-3 0 M
3 0 L
S
GR
GS
[1 0 0 1 387.34286 192.2141] CT
1 0 0 RC
N
f1394637256
f
GR
GS
[1 0 0 1 387.34286 192.2141] CT
1 0 0 RC
10.0 ML
N
-3 0 M
3 0 L
S
GR
GS
[1 0 0 1 157.54286 166.47556] CT
1 0 0 RC
N
f1394637256
f
GR
GS
[1 0 0 1 157.54286 166.47556] CT
1 0 0 RC
10.0 ML
N
-3 0 M
3 0 L
S
GR
GS
[1 0 0 1 234.14285 165.92467] CT
1 0 0 RC
N
f1394637256
f
GR
GS
[1 0 0 1 234.14285 165.92467] CT
1 0 0 RC
10.0 ML
N
-3 0 M
3 0 L
S
GR
GS
[1 0 0 1 310.74286 165.62471] CT
1 0 0 RC
N
f1394637256
f
GR
GS
[1 0 0 1 310.74286 165.62471] CT
1 0 0 RC
10.0 ML
N
-3 0 M
3 0 L
S
GR
GS
[1 0 0 1 387.34286 166.77328] CT
1 0 0 RC
N
f1394637256
f
GR
GS
[1 0 0 1 387.34286 166.77328] CT
1 0 0 RC
10.0 ML
N
-3 0 M
3 0 L
S
GR
GS
1 0 1 RC
[10 6] 0 setdash
2 LJ
1.5 LW
N
126.903 290 M
126.903 70 L
144.411 70 L
144.411 290 L
cp
S
GR
GS
1 0 1 RC
[10 6] 0 setdash
2 LJ
1.5 LW
N
203.503 290 M
203.503 70 L
221.011 70 L
221.011 290 L
cp
S
GR
GS
1 0 1 RC
[10 6] 0 setdash
2 LJ
1.5 LW
N
280.103 290 M
280.103 70 L
297.611 70 L
297.611 290 L
cp
S
GR
GS
1 0 1 RC
[10 6] 0 setdash
2 LJ
1.5 LW
N
356.703 290 M
356.703 70 L
374.211 70 L
374.211 290 L
cp
S
GR
GS
0 0.498 0 RC
[10 6] 0 setdash
2 LJ
1.5 LW
N
148.789 290 M
148.789 70 L
166.297 70 L
166.297 290 L
cp
S
GR
GS
0 0.498 0 RC
[10 6] 0 setdash
2 LJ
1.5 LW
N
225.389 290 M
225.389 70 L
242.897 70 L
242.897 290 L
cp
S
GR
GS
0 0.498 0 RC
[10 6] 0 setdash
2 LJ
1.5 LW
N
301.989 290 M
301.989 70 L
319.497 70 L
319.497 290 L
cp
S
GR
GS
0 0.498 0 RC
[10 6] 0 setdash
2 LJ
1.5 LW
N
378.589 290 M
378.589 70 L
396.097 70 L
396.097 290 L
cp
S
GR
GS
0.149 GC
2 setlinecap
1 LJ
0.5 LW
N
70 290 M
453 290 L
S
GR
GS
0.149 GC
2 setlinecap
1 LJ
0.5 LW
N
70 26 M
453 26 L
S
GR
GS
0.149 GC
2 setlinecap
1 LJ
0.5 LW
N
146.6 290 M
146.6 286.17 L
S
GR
GS
0.149 GC
2 setlinecap
1 LJ
0.5 LW
N
223.2 290 M
223.2 286.17 L
S
GR
GS
0.149 GC
2 setlinecap
1 LJ
0.5 LW
N
299.8 290 M
299.8 286.17 L
S
GR
GS
0.149 GC
2 setlinecap
1 LJ
0.5 LW
N
376.4 290 M
376.4 286.17 L
S
GR
GS
0.149 GC
2 setlinecap
1 LJ
0.5 LW
N
146.6 26 M
146.6 29.83 L
S
GR
GS
0.149 GC
2 setlinecap
1 LJ
0.5 LW
N
223.2 26 M
223.2 29.83 L
S
GR
GS
0.149 GC
2 setlinecap
1 LJ
0.5 LW
N
299.8 26 M
299.8 29.83 L
S
GR
GS
0.149 GC
2 setlinecap
1 LJ
0.5 LW
N
376.4 26 M
376.4 29.83 L
S
GR
GS
[1 0 0 1 146.60001 296.39999] CT
0.149 GC
/Times-Roman 22 F
GS
[1 0 0 1 0 0] CT
-8 20 moveto 
1 -1 scale
(A) t 
GR
GR
GS
[1 0 0 1 223.2 296.39999] CT
0.149 GC
/Times-Roman 22 F
GS
[1 0 0 1 0 0] CT
-7.5 20 moveto 
1 -1 scale
(B) t 
GR
GR
GS
[1 0 0 1 299.79999 296.39999] CT
0.149 GC
/Times-Roman 22 F
GS
[1 0 0 1 0 0] CT
-7.5 20 moveto 
1 -1 scale
(C) t 
GR
GR
GS
[1 0 0 1 376.39999 296.39999] CT
0.149 GC
/Times-Roman 22 F
GS
[1 0 0 1 0 0] CT
-8 20 moveto 
1 -1 scale
(D) t 
GR
GR
GS
[1 0 0 1 261.50018 322.39999] CT
0.149 GC
/Times-Roman 24.2 F
GS
[1 0 0 1 0 0] CT
-49 22 moveto 
1 -1 scale
(WLAN id) t 
GR
GR
GS
0.149 GC
2 setlinecap
1 LJ
0.5 LW
N
70 290 M
70 26 L
S
GR
GS
0.149 GC
2 setlinecap
1 LJ
0.5 LW
N
453 290 M
453 26 L
S
GR
GS
0.149 GC
2 setlinecap
1 LJ
0.5 LW
N
70 290 M
73.83 290 L
S
GR
GS
0.149 GC
2 setlinecap
1 LJ
0.5 LW
N
70 192.855 M
73.83 192.855 L
S
GR
GS
0.149 GC
2 setlinecap
1 LJ
0.5 LW
N
70 95.71 M
73.83 95.71 L
S
GR
GS
0.149 GC
2 setlinecap
1 LJ
0.5 LW
N
453 290 M
449.17 290 L
S
GR
GS
0.149 GC
2 setlinecap
1 LJ
0.5 LW
N
453 192.855 M
449.17 192.855 L
S
GR
GS
0.149 GC
2 setlinecap
1 LJ
0.5 LW
N
453 95.71 M
449.17 95.71 L
S
GR
GS
[1 0 0 1 63.6 290] CT
0.149 GC
/Times-Roman 22 F
GS
[1 0 0 1 0 0] CT
-11 7.5 moveto 
1 -1 scale
(0) t 
GR
GR
GS
[1 0 0 1 63.6 192.85483] CT
0.149 GC
/Times-Roman 22 F
GS
[1 0 0 1 0 0] CT
-22 7.5 moveto 
1 -1 scale
(50) t 
GR
GR
GS
[1 0 0 1 63.6 95.70966] CT
0.149 GC
/Times-Roman 22 F
GS
[1 0 0 1 0 0] CT
-33 7.5 moveto 
1 -1 scale
(100) t 
GR
GR
GS
[0 -1 1 0 27.6 157.99988] CT
0.149 GC
/Times-Roman 24.2 F
GS
[1 0 0 1 0 0] CT
-122.5 -6 moveto 
1 -1 scale
(Mean throughput \(Mbps\)) t 
GR
GR
GS
1 GC
N
/f-461675356{497 118 M
497 5 L
298 5 L
298 118 L
cp}def
f-461675356
f
GR
GS
[1 0 0 1 335 20.64615] CT
/Times-Roman 19.8 F
GS
[1 0 0 1 0 0] CT
0 6.5 moveto 
1 -1 scale
(Selfish) t 
GR
GR
GS
0.749 0 0.749 RC
N
/f1753200494{332 31.019 M
332 10.273 L
302 10.273 L
302 31.019 L
cp}def
f1753200494
f
GR
GS
10.0 ML
0.5 LW
N
302 31.019 M
302 10.273 L
332 10.273 L
332 31.019 L
cp
S
GR
GS
[1 0 0 1 335 47.88205] CT
/Times-Roman 19.8 F
GS
[1 0 0 1 0 0] CT
0 6.5 moveto 
1 -1 scale
(Environment-aware) t 
GR
GR
GS
1 1 0 RC
N
/f-1852274066{332 58.255 M
332 37.509 L
302 37.509 L
302 58.255 L
cp}def
f-1852274066
f
GR
GS
10.0 ML
0.5 LW
N
302 58.255 M
302 37.509 L
332 37.509 L
332 58.255 L
cp
S
GR
GS
[1 0 0 1 335 75.11795] CT
/Times-Roman 19.8 F
GS
[1 0 0 1 0 0] CT
0 6.5 moveto 
1 -1 scale
(Optimal \(selfish\)) t 
GR
GR
GS
1 0 1 RC
[10 6] 0 setdash
2 LJ
1.5 LW
N
302 85.491 M
302 64.745 L
332 64.745 L
332 85.491 L
cp
S
GR
GS
[1 0 0 1 335 102.35384] CT
/Times-Roman 19.8 F
GS
[1 0 0 1 0 0] CT
0 6.5 moveto 
1 -1 scale
(Optimal \(max-min\)) t 
GR
GR
GS
0 0.498 0 RC
[10 6] 0 setdash
2 LJ
1.5 LW
N
302 112.727 M
302 91.981 L
332 91.981 L
332 112.727 L
cp
S
GR
GS
0.149 GC
10.0 ML
0.5 LW
N
298 118 M
298 5 L
497 5 L
497 118 L
cp
S
GR
%%Trailer
%%Pages: 1
%%EOF
